…
`.groups` argument.
`summarise()` has grouped output by 'theta'. You can override using the
`.groups` argument.
`summarise()` has grouped output by 'theta', 'tau'. You can override using the
`.groups` argument.
`summarise()` has grouped output by 'theta'. You can override using the
`.groups` argument.
`summarise()` has grouped output by 'theta', 'tau'. You can override using the
`.groups` argument.
`summarise()` has grouped output by 'theta'. You can override using the
`.groups` argument.
[1] ""
[1] "Total run time was 376.451 seconds"
[1] "Estimation result: "
# A tibble: 360 × 5
   estimand theta   tau   est     se
   <chr>    <dbl> <dbl> <dbl>  <dbl>
 1 mu         0.1   0.1 0.465 0.0842
 2 mu         0.1   0.2 0.499 0.0685
 3 mu         0.1   0.3 0.626 0.112 
 4 mu         0.1   0.4 0.686 0.0951
 5 mu         0.1   0.5 0.685 0.0901
 6 mu         0.2   0.1 0.348 0.0398
 7 mu         0.2   0.2 0.404 0.0375
 8 mu         0.2   0.3 0.479 0.0547
 9 mu         0.2   0.4 0.534 0.0477
10 mu         0.2   0.5 0.546 0.0454
# ℹ 350 more rows
…
