…
`summarise()` has grouped output by 'theta'. You can override using the
`.groups` argument.
`summarise()` has grouped output by 'theta', 'tau'. You can override using the
`.groups` argument.
`summarise()` has grouped output by 'theta'. You can override using the
`.groups` argument.
[1] ""
[1] "Total run time was 363.376 seconds"
Warning messages:
1: In checkConv(attr(opt, "derivs"), opt$par, ctrl = control$checkConv,  :
  Model failed to converge with max|grad| = 0.00536836 (tol = 0.002, component 1)
2: In checkConv(attr(opt, "derivs"), opt$par, ctrl = control$checkConv,  :
  Model failed to converge with max|grad| = 0.0338227 (tol = 0.002, component 1)
[1] "Estimation result: "
# A tibble: 360 × 5
   estimand theta   tau   est     se
   <chr>    <dbl> <dbl> <dbl>  <dbl>
 1 mu         0.1   0.1 0.139 0.163 
 2 mu         0.1   0.2 0.377 0.0824
 3 mu         0.1   0.3 0.419 0.0927
 4 mu         0.1   0.4 0.470 0.108 
 5 mu         0.1   0.5 0.486 0.109 
 6 mu         0.2   0.1 0.206 0.0822
 7 mu         0.2   0.2 0.346 0.0467
 8 mu         0.2   0.3 0.387 0.0529
 9 mu         0.2   0.4 0.436 0.0586
10 mu         0.2   0.5 0.449 0.0599
# ℹ 350 more rows
…
