…
`.groups` argument.
`summarise()` has grouped output by 'theta'. You can override using the
`.groups` argument.
`summarise()` has grouped output by 'theta', 'tau'. You can override using the
`.groups` argument.
`summarise()` has grouped output by 'theta'. You can override using the
`.groups` argument.
`summarise()` has grouped output by 'theta', 'tau'. You can override using the
`.groups` argument.
`summarise()` has grouped output by 'theta'. You can override using the
`.groups` argument.
[1] ""
[1] "Total run time was 391.752 seconds"
[1] "Estimation result: "
# A tibble: 360 × 5
   estimand theta   tau   est     se
   <chr>    <dbl> <dbl> <dbl>  <dbl>
 1 mu         0.1   0.1 0.312 0.0645
 2 mu         0.1   0.2 0.357 0.0567
 3 mu         0.1   0.3 0.393 0.0552
 4 mu         0.1   0.4 0.444 0.0605
 5 mu         0.1   0.5 0.456 0.0687
 6 mu         0.2   0.1 0.272 0.0559
 7 mu         0.2   0.2 0.315 0.0419
 8 mu         0.2   0.3 0.340 0.0418
 9 mu         0.2   0.4 0.397 0.0442
10 mu         0.2   0.5 0.413 0.0474
# ℹ 350 more rows
…
