…
`.groups` argument.
`summarise()` has grouped output by 'theta'. You can override using the
`.groups` argument.
`summarise()` has grouped output by 'theta', 'tau'. You can override using the
`.groups` argument.
`summarise()` has grouped output by 'theta'. You can override using the
`.groups` argument.
`summarise()` has grouped output by 'theta', 'tau'. You can override using the
`.groups` argument.
`summarise()` has grouped output by 'theta'. You can override using the
`.groups` argument.
[1] ""
[1] "Total run time was 344.692 seconds"
[1] "Estimation result: "
# A tibble: 360 × 5
   estimand theta   tau   est     se
   <chr>    <dbl> <dbl> <dbl>  <dbl>
 1 mu         0.1   0.1 0.445 0.0721
 2 mu         0.1   0.2 0.428 0.0749
 3 mu         0.1   0.3 0.467 0.0955
 4 mu         0.1   0.4 0.512 0.106 
 5 mu         0.1   0.5 0.553 0.0893
 6 mu         0.2   0.1 0.357 0.0575
 7 mu         0.2   0.2 0.387 0.0505
 8 mu         0.2   0.3 0.443 0.0524
 9 mu         0.2   0.4 0.482 0.0502
10 mu         0.2   0.5 0.513 0.0502
# ℹ 350 more rows
…
