…
`.groups` argument.
`summarise()` has grouped output by 'theta'. You can override using the
`.groups` argument.
`summarise()` has grouped output by 'theta', 'tau'. You can override using the
`.groups` argument.
`summarise()` has grouped output by 'theta'. You can override using the
`.groups` argument.
`summarise()` has grouped output by 'theta', 'tau'. You can override using the
`.groups` argument.
`summarise()` has grouped output by 'theta'. You can override using the
`.groups` argument.
[1] ""
[1] "Total run time was 295.59 seconds"
[1] "Estimation result: "
# A tibble: 360 × 5
   estimand theta   tau   est     se
   <chr>    <dbl> <dbl> <dbl>  <dbl>
 1 mu         0.1   0.1 0.360 0.0547
 2 mu         0.1   0.2 0.349 0.0811
 3 mu         0.1   0.3 0.440 0.0673
 4 mu         0.1   0.4 0.509 0.0783
 5 mu         0.1   0.5 0.554 0.0924
 6 mu         0.2   0.1 0.310 0.0398
 7 mu         0.2   0.2 0.325 0.0583
 8 mu         0.2   0.3 0.404 0.0469
 9 mu         0.2   0.4 0.464 0.0510
10 mu         0.2   0.5 0.502 0.0613
# ℹ 350 more rows
…
