…
`summarise()` has grouped output by 'theta', 'tau'. You can override using the
`.groups` argument.
`summarise()` has grouped output by 'theta'. You can override using the
`.groups` argument.
`summarise()` has grouped output by 'theta', 'tau'. You can override using the
`.groups` argument.
`summarise()` has grouped output by 'theta'. You can override using the
`.groups` argument.
[1] ""
[1] "Total run time was 361.35 seconds"
Warning message:
In checkConv(attr(opt, "derivs"), opt$par, ctrl = control$checkConv,  :
  Model failed to converge with max|grad| = 0.00397121 (tol = 0.002, component 1)
[1] "Estimation result: "
# A tibble: 360 × 5
   estimand theta   tau   est     se
   <chr>    <dbl> <dbl> <dbl>  <dbl>
 1 mu         0.1   0.1 0.342 0.0710
 2 mu         0.1   0.2 0.441 0.0629
 3 mu         0.1   0.3 0.479 0.0764
 4 mu         0.1   0.4 0.569 0.0792
 5 mu         0.1   0.5 0.650 0.0946
 6 mu         0.2   0.1 0.314 0.0411
 7 mu         0.2   0.2 0.396 0.0358
 8 mu         0.2   0.3 0.421 0.0430
 9 mu         0.2   0.4 0.482 0.0452
10 mu         0.2   0.5 0.555 0.0532
# ℹ 350 more rows
…
