…
`summarise()` has grouped output by 'theta', 'tau'. You can override using the
`.groups` argument.
`summarise()` has grouped output by 'theta'. You can override using the
`.groups` argument.
`summarise()` has grouped output by 'theta', 'tau'. You can override using the
`.groups` argument.
`summarise()` has grouped output by 'theta'. You can override using the
`.groups` argument.
[1] ""
[1] "Total run time was 373.326 seconds"
Warning message:
In checkConv(attr(opt, "derivs"), opt$par, ctrl = control$checkConv,  :
  Model failed to converge with max|grad| = 0.00214469 (tol = 0.002, component 1)
[1] "Estimation result: "
# A tibble: 360 × 5
   estimand theta   tau   est     se
   <chr>    <dbl> <dbl> <dbl>  <dbl>
 1 mu         0.1   0.1 0.292 0.0812
 2 mu         0.1   0.2 0.404 0.140 
 3 mu         0.1   0.3 0.626 0.0902
 4 mu         0.1   0.4 0.741 0.124 
 5 mu         0.1   0.5 0.752 0.101 
 6 mu         0.2   0.1 0.277 0.0538
 7 mu         0.2   0.2 0.385 0.0967
 8 mu         0.2   0.3 0.524 0.0661
 9 mu         0.2   0.4 0.605 0.0773
10 mu         0.2   0.5 0.621 0.0628
# ℹ 350 more rows
…
