…
`summarise()` has grouped output by 'theta', 'tau'. You can override using the
`.groups` argument.
`summarise()` has grouped output by 'theta'. You can override using the
`.groups` argument.
`summarise()` has grouped output by 'theta', 'tau'. You can override using the
`.groups` argument.
`summarise()` has grouped output by 'theta'. You can override using the
`.groups` argument.
[1] ""
[1] "Total run time was 349.261 seconds"
Warning message:
In checkConv(attr(opt, "derivs"), opt$par, ctrl = control$checkConv,  :
  Model failed to converge with max|grad| = 0.0464471 (tol = 0.002, component 1)
[1] "Estimation result: "
# A tibble: 360 × 5
   estimand theta   tau   est     se
   <chr>    <dbl> <dbl> <dbl>  <dbl>
 1 mu         0.1   0.1 0.246 0.0632
 2 mu         0.1   0.2 0.383 0.0531
 3 mu         0.1   0.3 0.393 0.0652
 4 mu         0.1   0.4 0.518 0.0625
 5 mu         0.1   0.5 0.530 0.0631
 6 mu         0.2   0.1 0.214 0.0403
 7 mu         0.2   0.2 0.331 0.0338
 8 mu         0.2   0.3 0.356 0.0405
 9 mu         0.2   0.4 0.465 0.0339
10 mu         0.2   0.5 0.481 0.0309
# ℹ 350 more rows
…
