…
`summarise()` has grouped output by 'theta', 'tau'. You can override using the
`.groups` argument.
`summarise()` has grouped output by 'theta'. You can override using the
`.groups` argument.
`summarise()` has grouped output by 'theta', 'tau'. You can override using the
`.groups` argument.
`summarise()` has grouped output by 'theta'. You can override using the
`.groups` argument.
[1] ""
[1] "Total run time was 407.388 seconds"
Warning message:
In checkConv(attr(opt, "derivs"), opt$par, ctrl = control$checkConv,  :
  Model failed to converge with max|grad| = 0.00734267 (tol = 0.002, component 1)
[1] "Estimation result: "
# A tibble: 360 × 5
   estimand theta   tau   est     se
   <chr>    <dbl> <dbl> <dbl>  <dbl>
 1 mu         0.1   0.1 0.368 0.0657
 2 mu         0.1   0.2 0.533 0.104 
 3 mu         0.1   0.3 0.556 0.0908
 4 mu         0.1   0.4 0.593 0.0740
 5 mu         0.1   0.5 0.611 0.0793
 6 mu         0.2   0.1 0.293 0.0376
 7 mu         0.2   0.2 0.423 0.0565
 8 mu         0.2   0.3 0.466 0.0529
 9 mu         0.2   0.4 0.513 0.0451
10 mu         0.2   0.5 0.560 0.0482
# ℹ 350 more rows
…
