…
`summarise()` has grouped output by 'theta'. You can override using the
`.groups` argument.
`summarise()` has grouped output by 'theta', 'tau'. You can override using the
`.groups` argument.
`summarise()` has grouped output by 'theta'. You can override using the
`.groups` argument.
[1] ""
[1] "Total run time was 386.739 seconds"
Warning messages:
1: In checkConv(attr(opt, "derivs"), opt$par, ctrl = control$checkConv,  :
  Model failed to converge with max|grad| = 0.00635616 (tol = 0.002, component 1)
2: In checkConv(attr(opt, "derivs"), opt$par, ctrl = control$checkConv,  :
  Model failed to converge with max|grad| = 0.00330573 (tol = 0.002, component 1)
[1] "Estimation result: "
# A tibble: 360 × 5
   estimand theta   tau   est     se
   <chr>    <dbl> <dbl> <dbl>  <dbl>
 1 mu         0.1   0.1 0.349 0.0469
 2 mu         0.1   0.2 0.360 0.0770
 3 mu         0.1   0.3 0.436 0.0917
 4 mu         0.1   0.4 0.520 0.116 
 5 mu         0.1   0.5 0.597 0.0872
 6 mu         0.2   0.1 0.361 0.0424
 7 mu         0.2   0.2 0.388 0.0472
 8 mu         0.2   0.3 0.467 0.0506
 9 mu         0.2   0.4 0.540 0.0601
10 mu         0.2   0.5 0.600 0.0501
# ℹ 350 more rows
…
