…
`summarise()` has grouped output by 'theta', 'tau'. You can override using the
`.groups` argument.
`summarise()` has grouped output by 'theta'. You can override using the
`.groups` argument.
`summarise()` has grouped output by 'theta', 'tau'. You can override using the
`.groups` argument.
`summarise()` has grouped output by 'theta'. You can override using the
`.groups` argument.
[1] ""
[1] "Total run time was 363.134 seconds"
Warning message:
In checkConv(attr(opt, "derivs"), opt$par, ctrl = control$checkConv,  :
  Model failed to converge with max|grad| = 0.00571491 (tol = 0.002, component 1)
[1] "Estimation result: "
# A tibble: 360 × 5
   estimand theta   tau   est     se
   <chr>    <dbl> <dbl> <dbl>  <dbl>
 1 mu         0.1   0.1 0.312 0.0568
 2 mu         0.1   0.2 0.374 0.0379
 3 mu         0.1   0.3 0.532 0.0555
 4 mu         0.1   0.4 0.549 0.0509
 5 mu         0.1   0.5 0.540 0.0663
 6 mu         0.2   0.1 0.268 0.0363
 7 mu         0.2   0.2 0.351 0.0321
 8 mu         0.2   0.3 0.467 0.0365
 9 mu         0.2   0.4 0.498 0.0332
10 mu         0.2   0.5 0.500 0.0402
# ℹ 350 more rows
…
