…
`.groups` argument.
`summarise()` has grouped output by 'theta'. You can override using the
`.groups` argument.
`summarise()` has grouped output by 'theta', 'tau'. You can override using the
`.groups` argument.
`summarise()` has grouped output by 'theta'. You can override using the
`.groups` argument.
`summarise()` has grouped output by 'theta', 'tau'. You can override using the
`.groups` argument.
`summarise()` has grouped output by 'theta'. You can override using the
`.groups` argument.
[1] ""
[1] "Total run time was 422.552 seconds"
[1] "Estimation result: "
# A tibble: 360 × 5
   estimand theta   tau   est     se
   <chr>    <dbl> <dbl> <dbl>  <dbl>
 1 mu         0.1   0.1 0.360 0.101 
 2 mu         0.1   0.2 0.391 0.106 
 3 mu         0.1   0.3 0.483 0.0891
 4 mu         0.1   0.4 0.510 0.0876
 5 mu         0.1   0.5 0.518 0.0971
 6 mu         0.2   0.1 0.272 0.0586
 7 mu         0.2   0.2 0.339 0.0813
 8 mu         0.2   0.3 0.466 0.0908
 9 mu         0.2   0.4 0.496 0.0819
10 mu         0.2   0.5 0.505 0.0839
# ℹ 350 more rows
…
