…
`summarise()` has grouped output by 'theta', 'tau'. You can override using the
`.groups` argument.
`summarise()` has grouped output by 'theta'. You can override using the
`.groups` argument.
`summarise()` has grouped output by 'theta', 'tau'. You can override using the
`.groups` argument.
`summarise()` has grouped output by 'theta'. You can override using the
`.groups` argument.
[1] ""
[1] "Total run time was 354.55 seconds"
Warning message:
In checkConv(attr(opt, "derivs"), opt$par, ctrl = control$checkConv,  :
  Model failed to converge with max|grad| = 0.00810597 (tol = 0.002, component 1)
[1] "Estimation result: "
# A tibble: 360 × 5
   estimand theta   tau   est     se
   <chr>    <dbl> <dbl> <dbl>  <dbl>
 1 mu         0.1   0.1 0.421 0.0434
 2 mu         0.1   0.2 0.493 0.0467
 3 mu         0.1   0.3 0.548 0.0543
 4 mu         0.1   0.4 0.624 0.0560
 5 mu         0.1   0.5 0.660 0.0595
 6 mu         0.2   0.1 0.351 0.0301
 7 mu         0.2   0.2 0.420 0.0307
 8 mu         0.2   0.3 0.482 0.0343
 9 mu         0.2   0.4 0.543 0.0358
10 mu         0.2   0.5 0.581 0.0373
# ℹ 350 more rows
…
