…
`.groups` argument.
`summarise()` has grouped output by 'theta'. You can override using the
`.groups` argument.
`summarise()` has grouped output by 'theta', 'tau'. You can override using the
`.groups` argument.
`summarise()` has grouped output by 'theta'. You can override using the
`.groups` argument.
`summarise()` has grouped output by 'theta', 'tau'. You can override using the
`.groups` argument.
`summarise()` has grouped output by 'theta'. You can override using the
`.groups` argument.
[1] ""
[1] "Total run time was 357.348 seconds"
[1] "Estimation result: "
# A tibble: 360 × 5
   estimand theta   tau   est     se
   <chr>    <dbl> <dbl> <dbl>  <dbl>
 1 mu         0.1   0.1 0.363 0.0942
 2 mu         0.1   0.2 0.469 0.0970
 3 mu         0.1   0.3 0.550 0.0870
 4 mu         0.1   0.4 0.574 0.0936
 5 mu         0.1   0.5 0.585 0.102 
 6 mu         0.2   0.1 0.311 0.0620
 7 mu         0.2   0.2 0.402 0.0631
 8 mu         0.2   0.3 0.477 0.0504
 9 mu         0.2   0.4 0.517 0.0583
10 mu         0.2   0.5 0.534 0.0668
# ℹ 350 more rows
…
