…
`summarise()` has grouped output by 'theta', 'tau'. You can override using the
`.groups` argument.
`summarise()` has grouped output by 'theta'. You can override using the
`.groups` argument.
`summarise()` has grouped output by 'theta', 'tau'. You can override using the
`.groups` argument.
`summarise()` has grouped output by 'theta'. You can override using the
`.groups` argument.
[1] ""
[1] "Total run time was 428.94 seconds"
Warning message:
In checkConv(attr(opt, "derivs"), opt$par, ctrl = control$checkConv,  :
  Model failed to converge with max|grad| = 0.0026452 (tol = 0.002, component 1)
[1] "Estimation result: "
# A tibble: 360 × 5
   estimand theta   tau   est     se
   <chr>    <dbl> <dbl> <dbl>  <dbl>
 1 mu         0.1   0.1 0.363 0.0379
 2 mu         0.1   0.2 0.390 0.0414
 3 mu         0.1   0.3 0.446 0.0534
 4 mu         0.1   0.4 0.493 0.0573
 5 mu         0.1   0.5 0.642 0.0525
 6 mu         0.2   0.1 0.297 0.0282
 7 mu         0.2   0.2 0.343 0.0302
 8 mu         0.2   0.3 0.396 0.0357
 9 mu         0.2   0.4 0.445 0.0374
10 mu         0.2   0.5 0.559 0.0327
# ℹ 350 more rows
…
