…
`summarise()` has grouped output by 'theta'. You can override using the
`.groups` argument.
`summarise()` has grouped output by 'theta', 'tau'. You can override using the
`.groups` argument.
`summarise()` has grouped output by 'theta'. You can override using the
`.groups` argument.
[1] ""
[1] "Total run time was 383.067 seconds"
Warning messages:
1: In checkConv(attr(opt, "derivs"), opt$par, ctrl = control$checkConv,  :
  Model failed to converge with max|grad| = 0.0170018 (tol = 0.002, component 1)
2: In checkConv(attr(opt, "derivs"), opt$par, ctrl = control$checkConv,  :
  Model failed to converge with max|grad| = 0.00471646 (tol = 0.002, component 1)
[1] "Estimation result: "
# A tibble: 360 × 5
   estimand theta   tau   est     se
   <chr>    <dbl> <dbl> <dbl>  <dbl>
 1 mu         0.1   0.1 0.410 0.0435
 2 mu         0.1   0.2 0.432 0.0512
 3 mu         0.1   0.3 0.456 0.0827
 4 mu         0.1   0.4 0.544 0.0787
 5 mu         0.1   0.5 0.564 0.0889
 6 mu         0.2   0.1 0.329 0.0273
 7 mu         0.2   0.2 0.395 0.0228
 8 mu         0.2   0.3 0.471 0.0387
 9 mu         0.2   0.4 0.524 0.0326
10 mu         0.2   0.5 0.554 0.0369
# ℹ 350 more rows
…
