…
`summarise()` has grouped output by 'theta'. You can override using the
`.groups` argument.
`summarise()` has grouped output by 'theta', 'tau'. You can override using the
`.groups` argument.
`summarise()` has grouped output by 'theta'. You can override using the
`.groups` argument.
[1] ""
[1] "Total run time was 408.675 seconds"
Warning messages:
1: In checkConv(attr(opt, "derivs"), opt$par, ctrl = control$checkConv,  :
  Model failed to converge with max|grad| = 0.00887939 (tol = 0.002, component 1)
2: In checkConv(attr(opt, "derivs"), opt$par, ctrl = control$checkConv,  :
  Model failed to converge with max|grad| = 0.0215199 (tol = 0.002, component 1)
[1] "Estimation result: "
# A tibble: 360 × 5
   estimand theta   tau   est     se
   <chr>    <dbl> <dbl> <dbl>  <dbl>
 1 mu         0.1   0.1 0.447 0.0663
 2 mu         0.1   0.2 0.549 0.0893
 3 mu         0.1   0.3 0.566 0.0675
 4 mu         0.1   0.4 0.646 0.0935
 5 mu         0.1   0.5 0.699 0.0861
 6 mu         0.2   0.1 0.349 0.0361
 7 mu         0.2   0.2 0.431 0.0476
 8 mu         0.2   0.3 0.468 0.0372
 9 mu         0.2   0.4 0.532 0.0501
10 mu         0.2   0.5 0.576 0.0451
# ℹ 350 more rows
…
