…
`summarise()` has grouped output by 'theta', 'tau'. You can override using the
`.groups` argument.
`summarise()` has grouped output by 'theta'. You can override using the
`.groups` argument.
`summarise()` has grouped output by 'theta', 'tau'. You can override using the
`.groups` argument.
`summarise()` has grouped output by 'theta'. You can override using the
`.groups` argument.
[1] ""
[1] "Total run time was 405.543 seconds"
Warning message:
In checkConv(attr(opt, "derivs"), opt$par, ctrl = control$checkConv,  :
  Model failed to converge with max|grad| = 0.00363359 (tol = 0.002, component 1)
[1] "Estimation result: "
# A tibble: 360 × 5
   estimand theta   tau   est     se
   <chr>    <dbl> <dbl> <dbl>  <dbl>
 1 mu         0.1   0.1 0.371 0.0718
 2 mu         0.1   0.2 0.483 0.0501
 3 mu         0.1   0.3 0.499 0.0884
 4 mu         0.1   0.4 0.501 0.114 
 5 mu         0.1   0.5 0.516 0.140 
 6 mu         0.2   0.1 0.311 0.0514
 7 mu         0.2   0.2 0.419 0.0377
 8 mu         0.2   0.3 0.473 0.0374
 9 mu         0.2   0.4 0.485 0.0498
10 mu         0.2   0.5 0.519 0.0571
# ℹ 350 more rows
…
