…
`summarise()` has grouped output by 'theta'. You can override using the
`.groups` argument.
`summarise()` has grouped output by 'theta', 'tau'. You can override using the
`.groups` argument.
`summarise()` has grouped output by 'theta'. You can override using the
`.groups` argument.
[1] ""
[1] "Total run time was 252.773 seconds"
Warning messages:
1: In checkConv(attr(opt, "derivs"), opt$par, ctrl = control$checkConv,  :
  Model failed to converge with max|grad| = 0.00962532 (tol = 0.002, component 1)
2: In checkConv(attr(opt, "derivs"), opt$par, ctrl = control$checkConv,  :
  Model failed to converge with max|grad| = 0.00974876 (tol = 0.002, component 1)
[1] "Estimation result: "
# A tibble: 360 × 5
   estimand theta   tau   est     se
   <chr>    <dbl> <dbl> <dbl>  <dbl>
 1 mu         0.1   0.1 0.512 0.139 
 2 mu         0.1   0.2 0.525 0.0914
 3 mu         0.1   0.3 0.570 0.0786
 4 mu         0.1   0.4 0.593 0.0821
 5 mu         0.1   0.5 0.654 0.0910
 6 mu         0.2   0.1 0.359 0.0562
 7 mu         0.2   0.2 0.398 0.0411
 8 mu         0.2   0.3 0.463 0.0408
 9 mu         0.2   0.4 0.497 0.0459
10 mu         0.2   0.5 0.557 0.0489
# ℹ 350 more rows
…
