…
`summarise()` has grouped output by 'theta', 'tau'. You can override using the
`.groups` argument.
`summarise()` has grouped output by 'theta'. You can override using the
`.groups` argument.
`summarise()` has grouped output by 'theta', 'tau'. You can override using the
`.groups` argument.
`summarise()` has grouped output by 'theta'. You can override using the
`.groups` argument.
[1] ""
[1] "Total run time was 388.118 seconds"
Warning message:
In checkConv(attr(opt, "derivs"), opt$par, ctrl = control$checkConv,  :
  Model failed to converge with max|grad| = 0.00753084 (tol = 0.002, component 1)
[1] "Estimation result: "
# A tibble: 360 × 5
   estimand theta   tau   est     se
   <chr>    <dbl> <dbl> <dbl>  <dbl>
 1 mu         0.1   0.1 0.453 0.0717
 2 mu         0.1   0.2 0.520 0.0650
 3 mu         0.1   0.3 0.555 0.0459
 4 mu         0.1   0.4 0.593 0.0482
 5 mu         0.1   0.5 0.611 0.0627
 6 mu         0.2   0.1 0.367 0.0327
 7 mu         0.2   0.2 0.441 0.0426
 8 mu         0.2   0.3 0.486 0.0384
 9 mu         0.2   0.4 0.541 0.0304
10 mu         0.2   0.5 0.570 0.0314
# ℹ 350 more rows
…
