…
`summarise()` has grouped output by 'theta'. You can override using the
`.groups` argument.
`summarise()` has grouped output by 'theta', 'tau'. You can override using the
`.groups` argument.
`summarise()` has grouped output by 'theta'. You can override using the
`.groups` argument.
[1] ""
[1] "Total run time was 361.336 seconds"
Warning messages:
1: In checkConv(attr(opt, "derivs"), opt$par, ctrl = control$checkConv,  :
  Model failed to converge with max|grad| = 0.00705268 (tol = 0.002, component 1)
2: In checkConv(attr(opt, "derivs"), opt$par, ctrl = control$checkConv,  :
  Model failed to converge with max|grad| = 0.00663567 (tol = 0.002, component 1)
[1] "Estimation result: "
# A tibble: 360 × 5
   estimand theta   tau   est     se
   <chr>    <dbl> <dbl> <dbl>  <dbl>
 1 mu         0.1   0.1 0.445 0.0937
 2 mu         0.1   0.2 0.444 0.0712
 3 mu         0.1   0.3 0.447 0.0656
 4 mu         0.1   0.4 0.452 0.0729
 5 mu         0.1   0.5 0.544 0.0749
 6 mu         0.2   0.1 0.383 0.0497
 7 mu         0.2   0.2 0.412 0.0388
 8 mu         0.2   0.3 0.428 0.0391
 9 mu         0.2   0.4 0.456 0.0436
10 mu         0.2   0.5 0.513 0.0454
# ℹ 350 more rows
…
