…
`summarise()` has grouped output by 'theta', 'tau'. You can override using the
`.groups` argument.
`summarise()` has grouped output by 'theta'. You can override using the
`.groups` argument.
`summarise()` has grouped output by 'theta', 'tau'. You can override using the
`.groups` argument.
`summarise()` has grouped output by 'theta'. You can override using the
`.groups` argument.
[1] ""
[1] "Total run time was 397.579 seconds"
Warning message:
In checkConv(attr(opt, "derivs"), opt$par, ctrl = control$checkConv,  :
  Model failed to converge with max|grad| = 0.00341312 (tol = 0.002, component 1)
[1] "Estimation result: "
# A tibble: 360 × 5
   estimand theta   tau   est     se
   <chr>    <dbl> <dbl> <dbl>  <dbl>
 1 mu         0.1   0.1 0.261 0.0792
 2 mu         0.1   0.2 0.309 0.0982
 3 mu         0.1   0.3 0.364 0.123 
 4 mu         0.1   0.4 0.429 0.137 
 5 mu         0.1   0.5 0.452 0.156 
 6 mu         0.2   0.1 0.286 0.0404
 7 mu         0.2   0.2 0.347 0.0477
 8 mu         0.2   0.3 0.427 0.0569
 9 mu         0.2   0.4 0.463 0.0590
10 mu         0.2   0.5 0.502 0.0650
# ℹ 350 more rows
…
