…
`.groups` argument.
`summarise()` has grouped output by 'theta'. You can override using the
`.groups` argument.
`summarise()` has grouped output by 'theta', 'tau'. You can override using the
`.groups` argument.
`summarise()` has grouped output by 'theta'. You can override using the
`.groups` argument.
`summarise()` has grouped output by 'theta', 'tau'. You can override using the
`.groups` argument.
`summarise()` has grouped output by 'theta'. You can override using the
`.groups` argument.
[1] ""
[1] "Total run time was 394.723 seconds"
[1] "Estimation result: "
# A tibble: 360 × 5
   estimand theta   tau   est     se
   <chr>    <dbl> <dbl> <dbl>  <dbl>
 1 mu         0.1   0.1 0.355 0.0751
 2 mu         0.1   0.2 0.470 0.102 
 3 mu         0.1   0.3 0.535 0.0859
 4 mu         0.1   0.4 0.550 0.0877
 5 mu         0.1   0.5 0.636 0.125 
 6 mu         0.2   0.1 0.306 0.0533
 7 mu         0.2   0.2 0.399 0.0681
 8 mu         0.2   0.3 0.471 0.0550
 9 mu         0.2   0.4 0.500 0.0554
10 mu         0.2   0.5 0.560 0.0758
# ℹ 350 more rows
…
