…
`.groups` argument.
`summarise()` has grouped output by 'theta'. You can override using the
`.groups` argument.
`summarise()` has grouped output by 'theta', 'tau'. You can override using the
`.groups` argument.
`summarise()` has grouped output by 'theta'. You can override using the
`.groups` argument.
`summarise()` has grouped output by 'theta', 'tau'. You can override using the
`.groups` argument.
`summarise()` has grouped output by 'theta'. You can override using the
`.groups` argument.
[1] ""
[1] "Total run time was 371.985 seconds"
[1] "Estimation result: "
# A tibble: 360 × 5
   estimand theta   tau   est     se
   <chr>    <dbl> <dbl> <dbl>  <dbl>
 1 mu         0.1   0.1 0.407 0.0719
 2 mu         0.1   0.2 0.490 0.0515
 3 mu         0.1   0.3 0.521 0.0409
 4 mu         0.1   0.4 0.589 0.0483
 5 mu         0.1   0.5 0.668 0.0582
 6 mu         0.2   0.1 0.366 0.0547
 7 mu         0.2   0.2 0.423 0.0348
 8 mu         0.2   0.3 0.460 0.0248
 9 mu         0.2   0.4 0.524 0.0325
10 mu         0.2   0.5 0.593 0.0357
# ℹ 350 more rows
…
