…
`.groups` argument.
`summarise()` has grouped output by 'theta'. You can override using the
`.groups` argument.
`summarise()` has grouped output by 'theta', 'tau'. You can override using the
`.groups` argument.
`summarise()` has grouped output by 'theta'. You can override using the
`.groups` argument.
`summarise()` has grouped output by 'theta', 'tau'. You can override using the
`.groups` argument.
`summarise()` has grouped output by 'theta'. You can override using the
`.groups` argument.
[1] ""
[1] "Total run time was 384.344 seconds"
[1] "Estimation result: "
# A tibble: 360 × 5
   estimand theta   tau   est     se
   <chr>    <dbl> <dbl> <dbl>  <dbl>
 1 mu         0.1   0.1 0.385 0.0474
 2 mu         0.1   0.2 0.422 0.0718
 3 mu         0.1   0.3 0.436 0.0995
 4 mu         0.1   0.4 0.427 0.128 
 5 mu         0.1   0.5 0.450 0.153 
 6 mu         0.2   0.1 0.331 0.0294
 7 mu         0.2   0.2 0.370 0.0434
 8 mu         0.2   0.3 0.414 0.0726
 9 mu         0.2   0.4 0.422 0.0962
10 mu         0.2   0.5 0.467 0.114 
# ℹ 350 more rows
…
