…
`summarise()` has grouped output by 'theta', 'tau'. You can override using the
`.groups` argument.
`summarise()` has grouped output by 'theta'. You can override using the
`.groups` argument.
`summarise()` has grouped output by 'theta', 'tau'. You can override using the
`.groups` argument.
`summarise()` has grouped output by 'theta'. You can override using the
`.groups` argument.
[1] ""
[1] "Total run time was 375.027 seconds"
Warning message:
In checkConv(attr(opt, "derivs"), opt$par, ctrl = control$checkConv,  :
  Model failed to converge with max|grad| = 0.0341957 (tol = 0.002, component 1)
[1] "Estimation result: "
# A tibble: 360 × 5
   estimand theta   tau   est     se
   <chr>    <dbl> <dbl> <dbl>  <dbl>
 1 mu         0.1   0.1 0.267 0.194 
 2 mu         0.1   0.2 0.343 0.210 
 3 mu         0.1   0.3 0.497 0.110 
 4 mu         0.1   0.4 0.591 0.0764
 5 mu         0.1   0.5 0.612 0.0858
 6 mu         0.2   0.1 0.255 0.101 
 7 mu         0.2   0.2 0.312 0.107 
 8 mu         0.2   0.3 0.425 0.0538
 9 mu         0.2   0.4 0.497 0.0382
10 mu         0.2   0.5 0.531 0.0430
# ℹ 350 more rows
…
