…
`summarise()` has grouped output by 'theta', 'tau'. You can override using the
`.groups` argument.
`summarise()` has grouped output by 'theta'. You can override using the
`.groups` argument.
`summarise()` has grouped output by 'theta', 'tau'. You can override using the
`.groups` argument.
`summarise()` has grouped output by 'theta'. You can override using the
`.groups` argument.
[1] ""
[1] "Total run time was 245.55 seconds"
Warning message:
In checkConv(attr(opt, "derivs"), opt$par, ctrl = control$checkConv,  :
  Model failed to converge with max|grad| = 0.0156451 (tol = 0.002, component 1)
[1] "Estimation result: "
# A tibble: 360 × 5
   estimand theta   tau   est     se
   <chr>    <dbl> <dbl> <dbl>  <dbl>
 1 mu         0.1   0.1 0.381 0.0772
 2 mu         0.1   0.2 0.476 0.0606
 3 mu         0.1   0.3 0.527 0.0714
 4 mu         0.1   0.4 0.567 0.0821
 5 mu         0.1   0.5 0.614 0.0853
 6 mu         0.2   0.1 0.298 0.0486
 7 mu         0.2   0.2 0.404 0.0334
 8 mu         0.2   0.3 0.456 0.0446
 9 mu         0.2   0.4 0.489 0.0539
10 mu         0.2   0.5 0.530 0.0503
# ℹ 350 more rows
…
