…
`.groups` argument.
`summarise()` has grouped output by 'theta'. You can override using the
`.groups` argument.
`summarise()` has grouped output by 'theta', 'tau'. You can override using the
`.groups` argument.
`summarise()` has grouped output by 'theta'. You can override using the
`.groups` argument.
`summarise()` has grouped output by 'theta', 'tau'. You can override using the
`.groups` argument.
`summarise()` has grouped output by 'theta'. You can override using the
`.groups` argument.
[1] ""
[1] "Total run time was 347.86 seconds"
[1] "Estimation result: "
# A tibble: 360 × 5
   estimand theta   tau   est     se
   <chr>    <dbl> <dbl> <dbl>  <dbl>
 1 mu         0.1   0.1 0.402 0.0492
 2 mu         0.1   0.2 0.457 0.0653
 3 mu         0.1   0.3 0.548 0.0886
 4 mu         0.1   0.4 0.575 0.0693
 5 mu         0.1   0.5 0.716 0.0860
 6 mu         0.2   0.1 0.317 0.0349
 7 mu         0.2   0.2 0.363 0.0540
 8 mu         0.2   0.3 0.430 0.0758
 9 mu         0.2   0.4 0.469 0.0608
10 mu         0.2   0.5 0.640 0.0921
# ℹ 350 more rows
…
