…
`.groups` argument.
`summarise()` has grouped output by 'theta'. You can override using the
`.groups` argument.
`summarise()` has grouped output by 'theta', 'tau'. You can override using the
`.groups` argument.
`summarise()` has grouped output by 'theta'. You can override using the
`.groups` argument.
`summarise()` has grouped output by 'theta', 'tau'. You can override using the
`.groups` argument.
`summarise()` has grouped output by 'theta'. You can override using the
`.groups` argument.
[1] ""
[1] "Total run time was 367.715 seconds"
[1] "Estimation result: "
# A tibble: 360 × 5
   estimand theta   tau   est     se
   <chr>    <dbl> <dbl> <dbl>  <dbl>
 1 mu         0.1   0.1 0.450 0.100 
 2 mu         0.1   0.2 0.549 0.108 
 3 mu         0.1   0.3 0.566 0.0776
 4 mu         0.1   0.4 0.568 0.0584
 5 mu         0.1   0.5 0.594 0.0598
 6 mu         0.2   0.1 0.338 0.0464
 7 mu         0.2   0.2 0.418 0.0490
 8 mu         0.2   0.3 0.443 0.0392
 9 mu         0.2   0.4 0.459 0.0367
10 mu         0.2   0.5 0.479 0.0441
# ℹ 350 more rows
…
