…
`summarise()` has grouped output by 'theta'. You can override using the
`.groups` argument.
`summarise()` has grouped output by 'theta', 'tau'. You can override using the
`.groups` argument.
`summarise()` has grouped output by 'theta'. You can override using the
`.groups` argument.
[1] ""
[1] "Total run time was 401.655 seconds"
Warning messages:
1: In checkConv(attr(opt, "derivs"), opt$par, ctrl = control$checkConv,  :
  Model failed to converge with max|grad| = 0.0126393 (tol = 0.002, component 1)
2: In checkConv(attr(opt, "derivs"), opt$par, ctrl = control$checkConv,  :
  Model failed to converge with max|grad| = 0.00597423 (tol = 0.002, component 1)
[1] "Estimation result: "
# A tibble: 360 × 5
   estimand theta   tau   est     se
   <chr>    <dbl> <dbl> <dbl>  <dbl>
 1 mu         0.1   0.1 0.349 0.100 
 2 mu         0.1   0.2 0.420 0.0819
 3 mu         0.1   0.3 0.512 0.0432
 4 mu         0.1   0.4 0.536 0.0479
 5 mu         0.1   0.5 0.601 0.0466
 6 mu         0.2   0.1 0.312 0.0470
 7 mu         0.2   0.2 0.373 0.0457
 8 mu         0.2   0.3 0.451 0.0283
 9 mu         0.2   0.4 0.492 0.0298
10 mu         0.2   0.5 0.552 0.0306
# ℹ 350 more rows
…
