…
`.groups` argument.
`summarise()` has grouped output by 'theta'. You can override using the
`.groups` argument.
`summarise()` has grouped output by 'theta', 'tau'. You can override using the
`.groups` argument.
`summarise()` has grouped output by 'theta'. You can override using the
`.groups` argument.
`summarise()` has grouped output by 'theta', 'tau'. You can override using the
`.groups` argument.
`summarise()` has grouped output by 'theta'. You can override using the
`.groups` argument.
[1] ""
[1] "Total run time was 405.404 seconds"
[1] "Estimation result: "
# A tibble: 360 × 5
   estimand theta   tau   est     se
   <chr>    <dbl> <dbl> <dbl>  <dbl>
 1 mu         0.1   0.1 0.346 0.0632
 2 mu         0.1   0.2 0.467 0.0877
 3 mu         0.1   0.3 0.466 0.104 
 4 mu         0.1   0.4 0.485 0.122 
 5 mu         0.1   0.5 0.527 0.113 
 6 mu         0.2   0.1 0.264 0.0520
 7 mu         0.2   0.2 0.372 0.0709
 8 mu         0.2   0.3 0.382 0.0972
 9 mu         0.2   0.4 0.401 0.115 
10 mu         0.2   0.5 0.443 0.104 
# ℹ 350 more rows
…
