…
`.groups` argument.
`summarise()` has grouped output by 'theta'. You can override using the
`.groups` argument.
`summarise()` has grouped output by 'theta', 'tau'. You can override using the
`.groups` argument.
`summarise()` has grouped output by 'theta'. You can override using the
`.groups` argument.
`summarise()` has grouped output by 'theta', 'tau'. You can override using the
`.groups` argument.
`summarise()` has grouped output by 'theta'. You can override using the
`.groups` argument.
[1] ""
[1] "Total run time was 358.524 seconds"
[1] "Estimation result: "
# A tibble: 360 × 5
   estimand theta   tau   est     se
   <chr>    <dbl> <dbl> <dbl>  <dbl>
 1 mu         0.1   0.1 0.430 0.102 
 2 mu         0.1   0.2 0.429 0.0915
 3 mu         0.1   0.3 0.481 0.0768
 4 mu         0.1   0.4 0.494 0.0937
 5 mu         0.1   0.5 0.590 0.0741
 6 mu         0.2   0.1 0.350 0.0383
 7 mu         0.2   0.2 0.397 0.0384
 8 mu         0.2   0.3 0.445 0.0350
 9 mu         0.2   0.4 0.476 0.0417
10 mu         0.2   0.5 0.546 0.0357
# ℹ 350 more rows
…
