…
`.groups` argument.
`summarise()` has grouped output by 'theta'. You can override using the
`.groups` argument.
`summarise()` has grouped output by 'theta', 'tau'. You can override using the
`.groups` argument.
`summarise()` has grouped output by 'theta'. You can override using the
`.groups` argument.
`summarise()` has grouped output by 'theta', 'tau'. You can override using the
`.groups` argument.
`summarise()` has grouped output by 'theta'. You can override using the
`.groups` argument.
[1] ""
[1] "Total run time was 279.375 seconds"
[1] "Estimation result: "
# A tibble: 360 × 5
   estimand theta   tau   est     se
   <chr>    <dbl> <dbl> <dbl>  <dbl>
 1 mu         0.1   0.1 0.414 0.0568
 2 mu         0.1   0.2 0.443 0.0671
 3 mu         0.1   0.3 0.478 0.0728
 4 mu         0.1   0.4 0.509 0.0849
 5 mu         0.1   0.5 0.512 0.0981
 6 mu         0.2   0.1 0.366 0.0423
 7 mu         0.2   0.2 0.443 0.0440
 8 mu         0.2   0.3 0.484 0.0469
 9 mu         0.2   0.4 0.536 0.0391
10 mu         0.2   0.5 0.554 0.0407
# ℹ 350 more rows
…
