…
`summarise()` has grouped output by 'theta', 'tau'. You can override using the
`.groups` argument.
`summarise()` has grouped output by 'theta'. You can override using the
`.groups` argument.
`summarise()` has grouped output by 'theta', 'tau'. You can override using the
`.groups` argument.
`summarise()` has grouped output by 'theta'. You can override using the
`.groups` argument.
[1] ""
[1] "Total run time was 401.079 seconds"
Warning message:
In checkConv(attr(opt, "derivs"), opt$par, ctrl = control$checkConv,  :
  Model failed to converge with max|grad| = 0.00433192 (tol = 0.002, component 1)
[1] "Estimation result: "
# A tibble: 360 × 5
   estimand theta   tau   est     se
   <chr>    <dbl> <dbl> <dbl>  <dbl>
 1 mu         0.1   0.1 0.417 0.0464
 2 mu         0.1   0.2 0.485 0.0496
 3 mu         0.1   0.3 0.544 0.0405
 4 mu         0.1   0.4 0.559 0.0590
 5 mu         0.1   0.5 0.573 0.0743
 6 mu         0.2   0.1 0.393 0.0412
 7 mu         0.2   0.2 0.466 0.0386
 8 mu         0.2   0.3 0.517 0.0346
 9 mu         0.2   0.4 0.541 0.0306
10 mu         0.2   0.5 0.572 0.0364
# ℹ 350 more rows
…
