…
`summarise()` has grouped output by 'theta'. You can override using the
`.groups` argument.
`summarise()` has grouped output by 'theta', 'tau'. You can override using the
`.groups` argument.
`summarise()` has grouped output by 'theta'. You can override using the
`.groups` argument.
[1] ""
[1] "Total run time was 349.101 seconds"
Warning messages:
1: In checkConv(attr(opt, "derivs"), opt$par, ctrl = control$checkConv,  :
  Model failed to converge with max|grad| = 0.012445 (tol = 0.002, component 1)
2: In checkConv(attr(opt, "derivs"), opt$par, ctrl = control$checkConv,  :
  Model failed to converge with max|grad| = 0.00866352 (tol = 0.002, component 1)
[1] "Estimation result: "
# A tibble: 360 × 5
   estimand theta   tau   est     se
   <chr>    <dbl> <dbl> <dbl>  <dbl>
 1 mu         0.1   0.1 0.401 0.0874
 2 mu         0.1   0.2 0.418 0.0866
 3 mu         0.1   0.3 0.525 0.0585
 4 mu         0.1   0.4 0.552 0.0599
 5 mu         0.1   0.5 0.580 0.0642
 6 mu         0.2   0.1 0.349 0.0490
 7 mu         0.2   0.2 0.387 0.0419
 8 mu         0.2   0.3 0.464 0.0348
 9 mu         0.2   0.4 0.493 0.0349
10 mu         0.2   0.5 0.523 0.0375
# ℹ 350 more rows
…
