…
`.groups` argument.
`summarise()` has grouped output by 'theta'. You can override using the
`.groups` argument.
`summarise()` has grouped output by 'theta', 'tau'. You can override using the
`.groups` argument.
`summarise()` has grouped output by 'theta'. You can override using the
`.groups` argument.
`summarise()` has grouped output by 'theta', 'tau'. You can override using the
`.groups` argument.
`summarise()` has grouped output by 'theta'. You can override using the
`.groups` argument.
[1] ""
[1] "Total run time was 365.774 seconds"
[1] "Estimation result: "
# A tibble: 360 × 5
   estimand theta   tau   est     se
   <chr>    <dbl> <dbl> <dbl>  <dbl>
 1 mu         0.1   0.1 0.324 0.0370
 2 mu         0.1   0.2 0.383 0.0614
 3 mu         0.1   0.3 0.498 0.0585
 4 mu         0.1   0.4 0.602 0.0892
 5 mu         0.1   0.5 0.608 0.0882
 6 mu         0.2   0.1 0.313 0.0318
 7 mu         0.2   0.2 0.372 0.0385
 8 mu         0.2   0.3 0.461 0.0418
 9 mu         0.2   0.4 0.534 0.0506
10 mu         0.2   0.5 0.552 0.0460
# ℹ 350 more rows
…
