…
`summarise()` has grouped output by 'theta'. You can override using the
`.groups` argument.
`summarise()` has grouped output by 'theta', 'tau'. You can override using the
`.groups` argument.
`summarise()` has grouped output by 'theta'. You can override using the
`.groups` argument.
[1] ""
[1] "Total run time was 211.609 seconds"
Warning messages:
1: In checkConv(attr(opt, "derivs"), opt$par, ctrl = control$checkConv,  :
  Model failed to converge with max|grad| = 0.00620699 (tol = 0.002, component 1)
2: In checkConv(attr(opt, "derivs"), opt$par, ctrl = control$checkConv,  :
  Model failed to converge with max|grad| = 0.00398892 (tol = 0.002, component 1)
[1] "Estimation result: "
# A tibble: 360 × 5
   estimand theta   tau   est     se
   <chr>    <dbl> <dbl> <dbl>  <dbl>
 1 mu         0.1   0.1 0.277 0.0662
 2 mu         0.1   0.2 0.334 0.0562
 3 mu         0.1   0.3 0.407 0.0402
 4 mu         0.1   0.4 0.476 0.0451
 5 mu         0.1   0.5 0.506 0.0554
 6 mu         0.2   0.1 0.242 0.0303
 7 mu         0.2   0.2 0.339 0.0280
 8 mu         0.2   0.3 0.392 0.0258
 9 mu         0.2   0.4 0.457 0.0252
10 mu         0.2   0.5 0.484 0.0288
# ℹ 350 more rows
…
