…
`summarise()` has grouped output by 'theta', 'tau'. You can override using the
`.groups` argument.
`summarise()` has grouped output by 'theta'. You can override using the
`.groups` argument.
`summarise()` has grouped output by 'theta', 'tau'. You can override using the
`.groups` argument.
`summarise()` has grouped output by 'theta'. You can override using the
`.groups` argument.
[1] ""
[1] "Total run time was 350.374 seconds"
Warning message:
In checkConv(attr(opt, "derivs"), opt$par, ctrl = control$checkConv,  :
  Model failed to converge with max|grad| = 0.00220228 (tol = 0.002, component 1)
[1] "Estimation result: "
# A tibble: 360 × 5
   estimand theta   tau   est     se
   <chr>    <dbl> <dbl> <dbl>  <dbl>
 1 mu         0.1   0.1 0.422 0.0625
 2 mu         0.1   0.2 0.471 0.0664
 3 mu         0.1   0.3 0.492 0.0727
 4 mu         0.1   0.4 0.499 0.0866
 5 mu         0.1   0.5 0.556 0.0964
 6 mu         0.2   0.1 0.331 0.0533
 7 mu         0.2   0.2 0.393 0.0602
 8 mu         0.2   0.3 0.443 0.0554
 9 mu         0.2   0.4 0.468 0.0561
10 mu         0.2   0.5 0.526 0.0562
# ℹ 350 more rows
…
