…
`summarise()` has grouped output by 'theta'. You can override using the
`.groups` argument.
`summarise()` has grouped output by 'theta', 'tau'. You can override using the
`.groups` argument.
`summarise()` has grouped output by 'theta'. You can override using the
`.groups` argument.
[1] ""
[1] "Total run time was 398.782 seconds"
Warning messages:
1: In checkConv(attr(opt, "derivs"), opt$par, ctrl = control$checkConv,  :
  Model failed to converge with max|grad| = 0.00265345 (tol = 0.002, component 1)
2: In checkConv(attr(opt, "derivs"), opt$par, ctrl = control$checkConv,  :
  Model failed to converge with max|grad| = 0.00250995 (tol = 0.002, component 1)
[1] "Estimation result: "
# A tibble: 360 × 5
   estimand theta   tau   est     se
   <chr>    <dbl> <dbl> <dbl>  <dbl>
 1 mu         0.1   0.1 0.291 0.0546
 2 mu         0.1   0.2 0.312 0.0809
 3 mu         0.1   0.3 0.451 0.0610
 4 mu         0.1   0.4 0.521 0.0807
 5 mu         0.1   0.5 0.591 0.0910
 6 mu         0.2   0.1 0.292 0.0385
 7 mu         0.2   0.2 0.333 0.0523
 8 mu         0.2   0.3 0.424 0.0362
 9 mu         0.2   0.4 0.491 0.0489
10 mu         0.2   0.5 0.538 0.0522
# ℹ 350 more rows
…
