…
`summarise()` has grouped output by 'theta', 'tau'. You can override using the
`.groups` argument.
`summarise()` has grouped output by 'theta'. You can override using the
`.groups` argument.
`summarise()` has grouped output by 'theta', 'tau'. You can override using the
`.groups` argument.
`summarise()` has grouped output by 'theta'. You can override using the
`.groups` argument.
[1] ""
[1] "Total run time was 383.291 seconds"
Warning message:
In checkConv(attr(opt, "derivs"), opt$par, ctrl = control$checkConv,  :
  Model failed to converge with max|grad| = 0.00614024 (tol = 0.002, component 1)
[1] "Estimation result: "
# A tibble: 360 × 5
   estimand theta   tau   est     se
   <chr>    <dbl> <dbl> <dbl>  <dbl>
 1 mu         0.1   0.1 0.436 0.0782
 2 mu         0.1   0.2 0.465 0.0797
 3 mu         0.1   0.3 0.503 0.0766
 4 mu         0.1   0.4 0.496 0.0840
 5 mu         0.1   0.5 0.513 0.0932
 6 mu         0.2   0.1 0.381 0.0542
 7 mu         0.2   0.2 0.410 0.0481
 8 mu         0.2   0.3 0.440 0.0516
 9 mu         0.2   0.4 0.442 0.0588
10 mu         0.2   0.5 0.476 0.0646
# ℹ 350 more rows
…
