…
`summarise()` has grouped output by 'theta', 'tau'. You can override using the
`.groups` argument.
`summarise()` has grouped output by 'theta'. You can override using the
`.groups` argument.
`summarise()` has grouped output by 'theta', 'tau'. You can override using the
`.groups` argument.
`summarise()` has grouped output by 'theta'. You can override using the
`.groups` argument.
[1] ""
[1] "Total run time was 401.526 seconds"
Warning message:
In checkConv(attr(opt, "derivs"), opt$par, ctrl = control$checkConv,  :
  Model failed to converge with max|grad| = 0.0118609 (tol = 0.002, component 1)
[1] "Estimation result: "
# A tibble: 360 × 5
   estimand theta   tau   est     se
   <chr>    <dbl> <dbl> <dbl>  <dbl>
 1 mu         0.1   0.1 0.573 0.151 
 2 mu         0.1   0.2 0.582 0.0957
 3 mu         0.1   0.3 0.623 0.0758
 4 mu         0.1   0.4 0.628 0.0560
 5 mu         0.1   0.5 0.637 0.0456
 6 mu         0.2   0.1 0.388 0.0653
 7 mu         0.2   0.2 0.445 0.0464
 8 mu         0.2   0.3 0.499 0.0410
 9 mu         0.2   0.4 0.534 0.0365
10 mu         0.2   0.5 0.561 0.0295
# ℹ 350 more rows
…
