…
`summarise()` has grouped output by 'theta', 'tau'. You can override using the
`.groups` argument.
`summarise()` has grouped output by 'theta'. You can override using the
`.groups` argument.
`summarise()` has grouped output by 'theta', 'tau'. You can override using the
`.groups` argument.
`summarise()` has grouped output by 'theta'. You can override using the
`.groups` argument.
[1] ""
[1] "Total run time was 358.656 seconds"
Warning message:
In checkConv(attr(opt, "derivs"), opt$par, ctrl = control$checkConv,  :
  Model failed to converge with max|grad| = 0.00481137 (tol = 0.002, component 1)
[1] "Estimation result: "
# A tibble: 360 × 5
   estimand theta   tau   est     se
   <chr>    <dbl> <dbl> <dbl>  <dbl>
 1 mu         0.1   0.1 0.397 0.0736
 2 mu         0.1   0.2 0.456 0.0642
 3 mu         0.1   0.3 0.453 0.0600
 4 mu         0.1   0.4 0.465 0.0775
 5 mu         0.1   0.5 0.636 0.0846
 6 mu         0.2   0.1 0.342 0.0456
 7 mu         0.2   0.2 0.424 0.0420
 8 mu         0.2   0.3 0.438 0.0349
 9 mu         0.2   0.4 0.458 0.0435
10 mu         0.2   0.5 0.566 0.0532
# ℹ 350 more rows
…
