…
`summarise()` has grouped output by 'theta', 'tau'. You can override using the
`.groups` argument.
`summarise()` has grouped output by 'theta'. You can override using the
`.groups` argument.
`summarise()` has grouped output by 'theta', 'tau'. You can override using the
`.groups` argument.
`summarise()` has grouped output by 'theta'. You can override using the
`.groups` argument.
[1] ""
[1] "Total run time was 357.307 seconds"
Warning message:
In checkConv(attr(opt, "derivs"), opt$par, ctrl = control$checkConv,  :
  Model failed to converge with max|grad| = 0.00987547 (tol = 0.002, component 1)
[1] "Estimation result: "
# A tibble: 360 × 5
   estimand theta   tau   est     se
   <chr>    <dbl> <dbl> <dbl>  <dbl>
 1 mu         0.1   0.1 0.296 0.0560
 2 mu         0.1   0.2 0.352 0.0781
 3 mu         0.1   0.3 0.419 0.0776
 4 mu         0.1   0.4 0.505 0.0848
 5 mu         0.1   0.5 0.505 0.101 
 6 mu         0.2   0.1 0.275 0.0302
 7 mu         0.2   0.2 0.339 0.0376
 8 mu         0.2   0.3 0.380 0.0484
 9 mu         0.2   0.4 0.459 0.0499
10 mu         0.2   0.5 0.469 0.0582
# ℹ 350 more rows
…
