…
`.groups` argument.
`summarise()` has grouped output by 'theta'. You can override using the
`.groups` argument.
`summarise()` has grouped output by 'theta', 'tau'. You can override using the
`.groups` argument.
`summarise()` has grouped output by 'theta'. You can override using the
`.groups` argument.
`summarise()` has grouped output by 'theta', 'tau'. You can override using the
`.groups` argument.
`summarise()` has grouped output by 'theta'. You can override using the
`.groups` argument.
[1] ""
[1] "Total run time was 52.183 seconds"
[1] "Estimation result: "
# A tibble: 360 × 5
   estimand theta   tau   est    se
   <chr>    <dbl> <dbl> <dbl> <dbl>
 1 mu         0.1   0.1 0.467 0.163
 2 mu         0.1   0.2 0.473 0.167
 3 mu         0.1   0.3 0.526 0.192
 4 mu         0.1   0.4 0.533 0.201
 5 mu         0.1   0.5 0.610 0.217
 6 mu         0.2   0.1 0.413 0.105
 7 mu         0.2   0.2 0.435 0.103
 8 mu         0.2   0.3 0.484 0.117
 9 mu         0.2   0.4 0.498 0.124
10 mu         0.2   0.5 0.571 0.137
# ℹ 350 more rows
…
