…
`.groups` argument.
`summarise()` has grouped output by 'theta'. You can override using the
`.groups` argument.
`summarise()` has grouped output by 'theta', 'tau'. You can override using the
`.groups` argument.
`summarise()` has grouped output by 'theta'. You can override using the
`.groups` argument.
`summarise()` has grouped output by 'theta', 'tau'. You can override using the
`.groups` argument.
`summarise()` has grouped output by 'theta'. You can override using the
`.groups` argument.
[1] ""
[1] "Total run time was 40.18 seconds"
[1] "Estimation result: "
# A tibble: 360 × 5
   estimand theta   tau   est     se
   <chr>    <dbl> <dbl> <dbl>  <dbl>
 1 mu         0.1   0.1 0.478 0.160 
 2 mu         0.1   0.2 0.569 0.167 
 3 mu         0.1   0.3 0.563 0.159 
 4 mu         0.1   0.4 0.577 0.164 
 5 mu         0.1   0.5 0.582 0.171 
 6 mu         0.2   0.1 0.369 0.0907
 7 mu         0.2   0.2 0.466 0.0905
 8 mu         0.2   0.3 0.487 0.0811
 9 mu         0.2   0.4 0.510 0.0798
10 mu         0.2   0.5 0.526 0.0786
# ℹ 350 more rows
…
