…
`.groups` argument.
`summarise()` has grouped output by 'theta'. You can override using the
`.groups` argument.
`summarise()` has grouped output by 'theta', 'tau'. You can override using the
`.groups` argument.
`summarise()` has grouped output by 'theta'. You can override using the
`.groups` argument.
`summarise()` has grouped output by 'theta', 'tau'. You can override using the
`.groups` argument.
`summarise()` has grouped output by 'theta'. You can override using the
`.groups` argument.
[1] ""
[1] "Total run time was 45.837 seconds"
[1] "Estimation result: "
# A tibble: 360 × 5
   estimand theta   tau   est     se
   <chr>    <dbl> <dbl> <dbl>  <dbl>
 1 mu         0.1   0.1 0.434 0.130 
 2 mu         0.1   0.2 0.472 0.150 
 3 mu         0.1   0.3 0.552 0.180 
 4 mu         0.1   0.4 0.630 0.189 
 5 mu         0.1   0.5 0.657 0.197 
 6 mu         0.2   0.1 0.384 0.0704
 7 mu         0.2   0.2 0.439 0.0788
 8 mu         0.2   0.3 0.500 0.0955
 9 mu         0.2   0.4 0.536 0.0982
10 mu         0.2   0.5 0.573 0.0974
# ℹ 350 more rows
…
