…
`.groups` argument.
`summarise()` has grouped output by 'theta'. You can override using the
`.groups` argument.
`summarise()` has grouped output by 'theta', 'tau'. You can override using the
`.groups` argument.
`summarise()` has grouped output by 'theta'. You can override using the
`.groups` argument.
`summarise()` has grouped output by 'theta', 'tau'. You can override using the
`.groups` argument.
`summarise()` has grouped output by 'theta'. You can override using the
`.groups` argument.
[1] ""
[1] "Total run time was 64.868 seconds"
[1] "Estimation result: "
# A tibble: 360 × 5
   estimand theta   tau   est    se
   <chr>    <dbl> <dbl> <dbl> <dbl>
 1 mu         0.1   0.1 0.219 0.135
 2 mu         0.1   0.2 0.275 0.140
 3 mu         0.1   0.3 0.269 0.153
 4 mu         0.1   0.4 0.268 0.159
 5 mu         0.1   0.5 0.318 0.181
 6 mu         0.2   0.1 0.265 0.113
 7 mu         0.2   0.2 0.373 0.123
 8 mu         0.2   0.3 0.379 0.133
 9 mu         0.2   0.4 0.401 0.139
10 mu         0.2   0.5 0.490 0.162
# ℹ 350 more rows
…
