…
`.groups` argument.
`summarise()` has grouped output by 'theta'. You can override using the
`.groups` argument.
`summarise()` has grouped output by 'theta', 'tau'. You can override using the
`.groups` argument.
`summarise()` has grouped output by 'theta'. You can override using the
`.groups` argument.
`summarise()` has grouped output by 'theta', 'tau'. You can override using the
`.groups` argument.
`summarise()` has grouped output by 'theta'. You can override using the
`.groups` argument.
[1] ""
[1] "Total run time was 88.097 seconds"
[1] "Estimation result: "
# A tibble: 360 × 5
   estimand theta   tau   est     se
   <chr>    <dbl> <dbl> <dbl>  <dbl>
 1 mu         0.1   0.1 0.421 0.132 
 2 mu         0.1   0.2 0.462 0.132 
 3 mu         0.1   0.3 0.518 0.154 
 4 mu         0.1   0.4 0.577 0.161 
 5 mu         0.1   0.5 0.636 0.156 
 6 mu         0.2   0.1 0.327 0.0963
 7 mu         0.2   0.2 0.371 0.0989
 8 mu         0.2   0.3 0.410 0.114 
 9 mu         0.2   0.4 0.459 0.119 
10 mu         0.2   0.5 0.520 0.107 
# ℹ 350 more rows
…
