…
`.groups` argument.
`summarise()` has grouped output by 'theta'. You can override using the
`.groups` argument.
`summarise()` has grouped output by 'theta', 'tau'. You can override using the
`.groups` argument.
`summarise()` has grouped output by 'theta'. You can override using the
`.groups` argument.
`summarise()` has grouped output by 'theta', 'tau'. You can override using the
`.groups` argument.
`summarise()` has grouped output by 'theta'. You can override using the
`.groups` argument.
[1] ""
[1] "Total run time was 79.831 seconds"
[1] "Estimation result: "
# A tibble: 360 × 5
   estimand theta   tau   est     se
   <chr>    <dbl> <dbl> <dbl>  <dbl>
 1 mu         0.1   0.1 0.512 0.115 
 2 mu         0.1   0.2 0.530 0.111 
 3 mu         0.1   0.3 0.585 0.124 
 4 mu         0.1   0.4 0.653 0.131 
 5 mu         0.1   0.5 0.697 0.135 
 6 mu         0.2   0.1 0.422 0.0718
 7 mu         0.2   0.2 0.460 0.0777
 8 mu         0.2   0.3 0.540 0.0829
 9 mu         0.2   0.4 0.596 0.0856
10 mu         0.2   0.5 0.642 0.0881
# ℹ 350 more rows
…
