…
`.groups` argument.
`summarise()` has grouped output by 'theta'. You can override using the
`.groups` argument.
`summarise()` has grouped output by 'theta', 'tau'. You can override using the
`.groups` argument.
`summarise()` has grouped output by 'theta'. You can override using the
`.groups` argument.
`summarise()` has grouped output by 'theta', 'tau'. You can override using the
`.groups` argument.
`summarise()` has grouped output by 'theta'. You can override using the
`.groups` argument.
[1] ""
[1] "Total run time was 85.956 seconds"
[1] "Estimation result: "
# A tibble: 360 × 5
   estimand theta   tau   est     se
   <chr>    <dbl> <dbl> <dbl>  <dbl>
 1 mu         0.1   0.1 0.314 0.109 
 2 mu         0.1   0.2 0.409 0.139 
 3 mu         0.1   0.3 0.383 0.130 
 4 mu         0.1   0.4 0.362 0.128 
 5 mu         0.1   0.5 0.365 0.129 
 6 mu         0.2   0.1 0.246 0.0566
 7 mu         0.2   0.2 0.317 0.0720
 8 mu         0.2   0.3 0.310 0.0712
 9 mu         0.2   0.4 0.300 0.0735
10 mu         0.2   0.5 0.319 0.0736
# ℹ 350 more rows
…
