…
`.groups` argument.
`summarise()` has grouped output by 'theta'. You can override using the
`.groups` argument.
`summarise()` has grouped output by 'theta', 'tau'. You can override using the
`.groups` argument.
`summarise()` has grouped output by 'theta'. You can override using the
`.groups` argument.
`summarise()` has grouped output by 'theta', 'tau'. You can override using the
`.groups` argument.
`summarise()` has grouped output by 'theta'. You can override using the
`.groups` argument.
[1] ""
[1] "Total run time was 47.911 seconds"
[1] "Estimation result: "
# A tibble: 360 × 5
   estimand theta   tau   est     se
   <chr>    <dbl> <dbl> <dbl>  <dbl>
 1 mu         0.1   0.1 0.596 0.183 
 2 mu         0.1   0.2 0.796 0.229 
 3 mu         0.1   0.3 0.964 0.275 
 4 mu         0.1   0.4 1.03  0.297 
 5 mu         0.1   0.5 1.03  0.313 
 6 mu         0.2   0.1 0.480 0.0656
 7 mu         0.2   0.2 0.610 0.0879
 8 mu         0.2   0.3 0.741 0.112 
 9 mu         0.2   0.4 0.832 0.112 
10 mu         0.2   0.5 0.837 0.118 
# ℹ 350 more rows
…
