…
`.groups` argument.
`summarise()` has grouped output by 'theta'. You can override using the
`.groups` argument.
`summarise()` has grouped output by 'theta', 'tau'. You can override using the
`.groups` argument.
`summarise()` has grouped output by 'theta'. You can override using the
`.groups` argument.
`summarise()` has grouped output by 'theta', 'tau'. You can override using the
`.groups` argument.
`summarise()` has grouped output by 'theta'. You can override using the
`.groups` argument.
[1] ""
[1] "Total run time was 71.146 seconds"
[1] "Estimation result: "
# A tibble: 360 × 5
   estimand theta   tau   est    se
   <chr>    <dbl> <dbl> <dbl> <dbl>
 1 mu         0.1   0.1 1.24  0.941
 2 mu         0.1   0.2 1.42  1.06 
 3 mu         0.1   0.3 1.54  1.16 
 4 mu         0.1   0.4 1.63  1.24 
 5 mu         0.1   0.5 1.68  1.29 
 6 mu         0.2   0.1 0.614 0.296
 7 mu         0.2   0.2 0.727 0.335
 8 mu         0.2   0.3 0.795 0.369
 9 mu         0.2   0.4 0.844 0.394
10 mu         0.2   0.5 0.888 0.412
# ℹ 350 more rows
…
