…
`.groups` argument.
`summarise()` has grouped output by 'theta'. You can override using the
`.groups` argument.
`summarise()` has grouped output by 'theta', 'tau'. You can override using the
`.groups` argument.
`summarise()` has grouped output by 'theta'. You can override using the
`.groups` argument.
`summarise()` has grouped output by 'theta', 'tau'. You can override using the
`.groups` argument.
`summarise()` has grouped output by 'theta'. You can override using the
`.groups` argument.
[1] ""
[1] "Total run time was 42.056 seconds"
[1] "Estimation result: "
# A tibble: 360 × 5
   estimand theta   tau   est     se
   <chr>    <dbl> <dbl> <dbl>  <dbl>
 1 mu         0.1   0.1 0.299 0.271 
 2 mu         0.1   0.2 0.496 0.391 
 3 mu         0.1   0.3 0.600 0.521 
 4 mu         0.1   0.4 0.698 0.608 
 5 mu         0.1   0.5 0.798 0.729 
 6 mu         0.2   0.1 0.153 0.0619
 7 mu         0.2   0.2 0.258 0.0852
 8 mu         0.2   0.3 0.281 0.108 
 9 mu         0.2   0.4 0.327 0.123 
10 mu         0.2   0.5 0.353 0.146 
# ℹ 350 more rows
…
