…
`.groups` argument.
`summarise()` has grouped output by 'theta'. You can override using the
`.groups` argument.
`summarise()` has grouped output by 'theta', 'tau'. You can override using the
`.groups` argument.
`summarise()` has grouped output by 'theta'. You can override using the
`.groups` argument.
`summarise()` has grouped output by 'theta', 'tau'. You can override using the
`.groups` argument.
`summarise()` has grouped output by 'theta'. You can override using the
`.groups` argument.
[1] ""
[1] "Total run time was 39.995 seconds"
[1] "Estimation result: "
# A tibble: 360 × 5
   estimand theta   tau   est     se
   <chr>    <dbl> <dbl> <dbl>  <dbl>
 1 mu         0.1   0.1 0.207 0.122 
 2 mu         0.1   0.2 0.180 0.105 
 3 mu         0.1   0.3 0.152 0.114 
 4 mu         0.1   0.4 0.225 0.0972
 5 mu         0.1   0.5 0.251 0.107 
 6 mu         0.2   0.1 0.277 0.104 
 7 mu         0.2   0.2 0.277 0.0893
 8 mu         0.2   0.3 0.285 0.0960
 9 mu         0.2   0.4 0.354 0.0860
10 mu         0.2   0.5 0.383 0.0921
# ℹ 350 more rows
…
