…
`.groups` argument.
`summarise()` has grouped output by 'theta'. You can override using the
`.groups` argument.
`summarise()` has grouped output by 'theta', 'tau'. You can override using the
`.groups` argument.
`summarise()` has grouped output by 'theta'. You can override using the
`.groups` argument.
`summarise()` has grouped output by 'theta', 'tau'. You can override using the
`.groups` argument.
`summarise()` has grouped output by 'theta'. You can override using the
`.groups` argument.
[1] ""
[1] "Total run time was 47.755 seconds"
[1] "Estimation result: "
# A tibble: 360 × 5
   estimand theta   tau   est    se
   <chr>    <dbl> <dbl> <dbl> <dbl>
 1 mu         0.1   0.1 0.735 0.246
 2 mu         0.1   0.2 0.846 0.251
 3 mu         0.1   0.3 0.943 0.268
 4 mu         0.1   0.4 0.980 0.275
 5 mu         0.1   0.5 0.984 0.279
 6 mu         0.2   0.1 0.487 0.121
 7 mu         0.2   0.2 0.575 0.123
 8 mu         0.2   0.3 0.658 0.134
 9 mu         0.2   0.4 0.724 0.138
10 mu         0.2   0.5 0.737 0.141
# ℹ 350 more rows
…
