…
`.groups` argument.
`summarise()` has grouped output by 'theta'. You can override using the
`.groups` argument.
`summarise()` has grouped output by 'theta', 'tau'. You can override using the
`.groups` argument.
`summarise()` has grouped output by 'theta'. You can override using the
`.groups` argument.
`summarise()` has grouped output by 'theta', 'tau'. You can override using the
`.groups` argument.
`summarise()` has grouped output by 'theta'. You can override using the
`.groups` argument.
[1] ""
[1] "Total run time was 35.908 seconds"
[1] "Estimation result: "
# A tibble: 360 × 5
   estimand theta   tau   est     se
   <chr>    <dbl> <dbl> <dbl>  <dbl>
 1 mu         0.1   0.1 0.395 0.111 
 2 mu         0.1   0.2 0.460 0.143 
 3 mu         0.1   0.3 0.521 0.170 
 4 mu         0.1   0.4 0.535 0.167 
 5 mu         0.1   0.5 0.557 0.169 
 6 mu         0.2   0.1 0.382 0.0867
 7 mu         0.2   0.2 0.487 0.115 
 8 mu         0.2   0.3 0.549 0.136 
 9 mu         0.2   0.4 0.584 0.129 
10 mu         0.2   0.5 0.617 0.126 
# ℹ 350 more rows
…
