…
`.groups` argument.
`summarise()` has grouped output by 'theta'. You can override using the
`.groups` argument.
`summarise()` has grouped output by 'theta', 'tau'. You can override using the
`.groups` argument.
`summarise()` has grouped output by 'theta'. You can override using the
`.groups` argument.
`summarise()` has grouped output by 'theta', 'tau'. You can override using the
`.groups` argument.
`summarise()` has grouped output by 'theta'. You can override using the
`.groups` argument.
[1] ""
[1] "Total run time was 39.082 seconds"
[1] "Estimation result: "
# A tibble: 360 × 5
   estimand theta   tau   est     se
   <chr>    <dbl> <dbl> <dbl>  <dbl>
 1 mu         0.1   0.1 0.275 0.0855
 2 mu         0.1   0.2 0.293 0.0875
 3 mu         0.1   0.3 0.310 0.0925
 4 mu         0.1   0.4 0.320 0.0994
 5 mu         0.1   0.5 0.342 0.103 
 6 mu         0.2   0.1 0.374 0.0608
 7 mu         0.2   0.2 0.424 0.0643
 8 mu         0.2   0.3 0.465 0.0658
 9 mu         0.2   0.4 0.495 0.0682
10 mu         0.2   0.5 0.519 0.0710
# ℹ 350 more rows
…
