…
`.groups` argument.
`summarise()` has grouped output by 'theta'. You can override using the
`.groups` argument.
`summarise()` has grouped output by 'theta', 'tau'. You can override using the
`.groups` argument.
`summarise()` has grouped output by 'theta'. You can override using the
`.groups` argument.
`summarise()` has grouped output by 'theta', 'tau'. You can override using the
`.groups` argument.
`summarise()` has grouped output by 'theta'. You can override using the
`.groups` argument.
[1] ""
[1] "Total run time was 102.561 seconds"
[1] "Estimation result: "
# A tibble: 360 × 5
   estimand theta   tau   est     se
   <chr>    <dbl> <dbl> <dbl>  <dbl>
 1 mu         0.1   0.1 0.313 0.103 
 2 mu         0.1   0.2 0.369 0.0927
 3 mu         0.1   0.3 0.388 0.0951
 4 mu         0.1   0.4 0.381 0.105 
 5 mu         0.1   0.5 0.415 0.117 
 6 mu         0.2   0.1 0.327 0.0742
 7 mu         0.2   0.2 0.421 0.0767
 8 mu         0.2   0.3 0.458 0.0826
 9 mu         0.2   0.4 0.473 0.0916
10 mu         0.2   0.5 0.526 0.102 
# ℹ 350 more rows
…
