…
`.groups` argument.
`summarise()` has grouped output by 'theta'. You can override using the
`.groups` argument.
`summarise()` has grouped output by 'theta', 'tau'. You can override using the
`.groups` argument.
`summarise()` has grouped output by 'theta'. You can override using the
`.groups` argument.
`summarise()` has grouped output by 'theta', 'tau'. You can override using the
`.groups` argument.
`summarise()` has grouped output by 'theta'. You can override using the
`.groups` argument.
[1] ""
[1] "Total run time was 89.283 seconds"
[1] "Estimation result: "
# A tibble: 360 × 5
   estimand theta   tau   est     se
   <chr>    <dbl> <dbl> <dbl>  <dbl>
 1 mu         0.1   0.1 0.354 0.118 
 2 mu         0.1   0.2 0.448 0.161 
 3 mu         0.1   0.3 0.543 0.151 
 4 mu         0.1   0.4 0.587 0.170 
 5 mu         0.1   0.5 0.652 0.186 
 6 mu         0.2   0.1 0.362 0.0818
 7 mu         0.2   0.2 0.459 0.117 
 8 mu         0.2   0.3 0.543 0.119 
 9 mu         0.2   0.4 0.579 0.124 
10 mu         0.2   0.5 0.639 0.125 
# ℹ 350 more rows
…
