…
`.groups` argument.
`summarise()` has grouped output by 'theta'. You can override using the
`.groups` argument.
`summarise()` has grouped output by 'theta', 'tau'. You can override using the
`.groups` argument.
`summarise()` has grouped output by 'theta'. You can override using the
`.groups` argument.
`summarise()` has grouped output by 'theta', 'tau'. You can override using the
`.groups` argument.
`summarise()` has grouped output by 'theta'. You can override using the
`.groups` argument.
[1] ""
[1] "Total run time was 66.203 seconds"
[1] "Estimation result: "
# A tibble: 360 × 5
   estimand theta   tau   est     se
   <chr>    <dbl> <dbl> <dbl>  <dbl>
 1 mu         0.1   0.1 0.143 0.0657
 2 mu         0.1   0.2 0.206 0.0921
 3 mu         0.1   0.3 0.261 0.128 
 4 mu         0.1   0.4 0.232 0.131 
 5 mu         0.1   0.5 0.314 0.106 
 6 mu         0.2   0.1 0.183 0.0590
 7 mu         0.2   0.2 0.263 0.0716
 8 mu         0.2   0.3 0.316 0.0908
 9 mu         0.2   0.4 0.319 0.0996
10 mu         0.2   0.5 0.388 0.0826
# ℹ 350 more rows
…
