…
`.groups` argument.
`summarise()` has grouped output by 'theta'. You can override using the
`.groups` argument.
`summarise()` has grouped output by 'theta', 'tau'. You can override using the
`.groups` argument.
`summarise()` has grouped output by 'theta'. You can override using the
`.groups` argument.
`summarise()` has grouped output by 'theta', 'tau'. You can override using the
`.groups` argument.
`summarise()` has grouped output by 'theta'. You can override using the
`.groups` argument.
[1] ""
[1] "Total run time was 39.317 seconds"
[1] "Estimation result: "
# A tibble: 360 × 5
   estimand theta   tau   est     se
   <chr>    <dbl> <dbl> <dbl>  <dbl>
 1 mu         0.1   0.1 0.417 0.213 
 2 mu         0.1   0.2 0.554 0.269 
 3 mu         0.1   0.3 0.676 0.302 
 4 mu         0.1   0.4 0.743 0.334 
 5 mu         0.1   0.5 0.768 0.361 
 6 mu         0.2   0.1 0.332 0.0937
 7 mu         0.2   0.2 0.435 0.119 
 8 mu         0.2   0.3 0.546 0.140 
 9 mu         0.2   0.4 0.605 0.161 
10 mu         0.2   0.5 0.623 0.168 
# ℹ 350 more rows
…
