…
`.groups` argument.
`summarise()` has grouped output by 'theta'. You can override using the
`.groups` argument.
`summarise()` has grouped output by 'theta', 'tau'. You can override using the
`.groups` argument.
`summarise()` has grouped output by 'theta'. You can override using the
`.groups` argument.
`summarise()` has grouped output by 'theta', 'tau'. You can override using the
`.groups` argument.
`summarise()` has grouped output by 'theta'. You can override using the
`.groups` argument.
[1] ""
[1] "Total run time was 123.662 seconds"
[1] "Estimation result: "
# A tibble: 360 × 5
   estimand theta   tau   est     se
   <chr>    <dbl> <dbl> <dbl>  <dbl>
 1 mu         0.1   0.1 0.228 0.102 
 2 mu         0.1   0.2 0.236 0.119 
 3 mu         0.1   0.3 0.343 0.147 
 4 mu         0.1   0.4 0.364 0.157 
 5 mu         0.1   0.5 0.360 0.166 
 6 mu         0.2   0.1 0.289 0.0749
 7 mu         0.2   0.2 0.322 0.0908
 8 mu         0.2   0.3 0.412 0.110 
 9 mu         0.2   0.4 0.465 0.119 
10 mu         0.2   0.5 0.483 0.128 
# ℹ 350 more rows
…
