…
`.groups` argument.
`summarise()` has grouped output by 'theta'. You can override using the
`.groups` argument.
`summarise()` has grouped output by 'theta', 'tau'. You can override using the
`.groups` argument.
`summarise()` has grouped output by 'theta'. You can override using the
`.groups` argument.
`summarise()` has grouped output by 'theta', 'tau'. You can override using the
`.groups` argument.
`summarise()` has grouped output by 'theta'. You can override using the
`.groups` argument.
[1] ""
[1] "Total run time was 135.466 seconds"
[1] "Estimation result: "
# A tibble: 360 × 5
   estimand theta   tau   est     se
   <chr>    <dbl> <dbl> <dbl>  <dbl>
 1 mu         0.1   0.1 0.330 0.0903
 2 mu         0.1   0.2 0.513 0.128 
 3 mu         0.1   0.3 0.511 0.118 
 4 mu         0.1   0.4 0.519 0.122 
 5 mu         0.1   0.5 0.550 0.131 
 6 mu         0.2   0.1 0.352 0.0760
 7 mu         0.2   0.2 0.508 0.0860
 8 mu         0.2   0.3 0.558 0.0927
 9 mu         0.2   0.4 0.576 0.0958
10 mu         0.2   0.5 0.607 0.102 
# ℹ 350 more rows
…
