…
`.groups` argument.
`summarise()` has grouped output by 'theta'. You can override using the
`.groups` argument.
`summarise()` has grouped output by 'theta', 'tau'. You can override using the
`.groups` argument.
`summarise()` has grouped output by 'theta'. You can override using the
`.groups` argument.
`summarise()` has grouped output by 'theta', 'tau'. You can override using the
`.groups` argument.
`summarise()` has grouped output by 'theta'. You can override using the
`.groups` argument.
[1] ""
[1] "Total run time was 37.565 seconds"
[1] "Estimation result: "
# A tibble: 360 × 5
   estimand theta   tau   est     se
   <chr>    <dbl> <dbl> <dbl>  <dbl>
 1 mu         0.1   0.1 0.346 0.0833
 2 mu         0.1   0.2 0.412 0.0955
 3 mu         0.1   0.3 0.420 0.101 
 4 mu         0.1   0.4 0.431 0.104 
 5 mu         0.1   0.5 0.446 0.108 
 6 mu         0.2   0.1 0.350 0.0542
 7 mu         0.2   0.2 0.425 0.0566
 8 mu         0.2   0.3 0.454 0.0590
 9 mu         0.2   0.4 0.469 0.0606
10 mu         0.2   0.5 0.495 0.0630
# ℹ 350 more rows
…
