…
`.groups` argument.
`summarise()` has grouped output by 'theta'. You can override using the
`.groups` argument.
`summarise()` has grouped output by 'theta', 'tau'. You can override using the
`.groups` argument.
`summarise()` has grouped output by 'theta'. You can override using the
`.groups` argument.
`summarise()` has grouped output by 'theta', 'tau'. You can override using the
`.groups` argument.
`summarise()` has grouped output by 'theta'. You can override using the
`.groups` argument.
[1] ""
[1] "Total run time was 92.716 seconds"
[1] "Estimation result: "
# A tibble: 360 × 5
   estimand theta   tau   est     se
   <chr>    <dbl> <dbl> <dbl>  <dbl>
 1 mu         0.1   0.1 0.334 0.101 
 2 mu         0.1   0.2 0.363 0.109 
 3 mu         0.1   0.3 0.375 0.119 
 4 mu         0.1   0.4 0.404 0.121 
 5 mu         0.1   0.5 0.497 0.129 
 6 mu         0.2   0.1 0.332 0.0598
 7 mu         0.2   0.2 0.379 0.0642
 8 mu         0.2   0.3 0.400 0.0694
 9 mu         0.2   0.4 0.430 0.0691
10 mu         0.2   0.5 0.517 0.0730
# ℹ 350 more rows
…
