…
`.groups` argument.
`summarise()` has grouped output by 'theta'. You can override using the
`.groups` argument.
`summarise()` has grouped output by 'theta', 'tau'. You can override using the
`.groups` argument.
`summarise()` has grouped output by 'theta'. You can override using the
`.groups` argument.
`summarise()` has grouped output by 'theta', 'tau'. You can override using the
`.groups` argument.
`summarise()` has grouped output by 'theta'. You can override using the
`.groups` argument.
[1] ""
[1] "Total run time was 40.331 seconds"
[1] "Estimation result: "
# A tibble: 360 × 5
   estimand theta   tau   est     se
   <chr>    <dbl> <dbl> <dbl>  <dbl>
 1 mu         0.1   0.1 0.403 0.0842
 2 mu         0.1   0.2 0.433 0.100 
 3 mu         0.1   0.3 0.485 0.113 
 4 mu         0.1   0.4 0.526 0.121 
 5 mu         0.1   0.5 0.611 0.147 
 6 mu         0.2   0.1 0.405 0.0567
 7 mu         0.2   0.2 0.456 0.0664
 8 mu         0.2   0.3 0.510 0.0772
 9 mu         0.2   0.4 0.547 0.0818
10 mu         0.2   0.5 0.595 0.0924
# ℹ 350 more rows
…
