…
`.groups` argument.
`summarise()` has grouped output by 'theta'. You can override using the
`.groups` argument.
`summarise()` has grouped output by 'theta', 'tau'. You can override using the
`.groups` argument.
`summarise()` has grouped output by 'theta'. You can override using the
`.groups` argument.
`summarise()` has grouped output by 'theta', 'tau'. You can override using the
`.groups` argument.
`summarise()` has grouped output by 'theta'. You can override using the
`.groups` argument.
[1] ""
[1] "Total run time was 67.468 seconds"
[1] "Estimation result: "
# A tibble: 360 × 5
   estimand theta   tau   est     se
   <chr>    <dbl> <dbl> <dbl>  <dbl>
 1 mu         0.1   0.1 0.203 0.127 
 2 mu         0.1   0.2 0.205 0.0962
 3 mu         0.1   0.3 0.179 0.0914
 4 mu         0.1   0.4 0.158 0.0945
 5 mu         0.1   0.5 0.134 0.105 
 6 mu         0.2   0.1 0.257 0.0839
 7 mu         0.2   0.2 0.293 0.0779
 8 mu         0.2   0.3 0.307 0.0847
 9 mu         0.2   0.4 0.321 0.0927
10 mu         0.2   0.5 0.318 0.104 
# ℹ 350 more rows
…
