…
`.groups` argument.
`summarise()` has grouped output by 'theta'. You can override using the
`.groups` argument.
`summarise()` has grouped output by 'theta', 'tau'. You can override using the
`.groups` argument.
`summarise()` has grouped output by 'theta'. You can override using the
`.groups` argument.
`summarise()` has grouped output by 'theta', 'tau'. You can override using the
`.groups` argument.
`summarise()` has grouped output by 'theta'. You can override using the
`.groups` argument.
[1] ""
[1] "Total run time was 55.651 seconds"
[1] "Estimation result: "
# A tibble: 360 × 5
   estimand theta   tau   est     se
   <chr>    <dbl> <dbl> <dbl>  <dbl>
 1 mu         0.1   0.1 0.395 0.151 
 2 mu         0.1   0.2 0.541 0.209 
 3 mu         0.1   0.3 0.630 0.247 
 4 mu         0.1   0.4 0.640 0.240 
 5 mu         0.1   0.5 0.639 0.237 
 6 mu         0.2   0.1 0.354 0.0988
 7 mu         0.2   0.2 0.479 0.135 
 8 mu         0.2   0.3 0.557 0.162 
 9 mu         0.2   0.4 0.583 0.152 
10 mu         0.2   0.5 0.592 0.147 
# ℹ 350 more rows
…
