…
`.groups` argument.
`summarise()` has grouped output by 'theta'. You can override using the
`.groups` argument.
`summarise()` has grouped output by 'theta', 'tau'. You can override using the
`.groups` argument.
`summarise()` has grouped output by 'theta'. You can override using the
`.groups` argument.
`summarise()` has grouped output by 'theta', 'tau'. You can override using the
`.groups` argument.
`summarise()` has grouped output by 'theta'. You can override using the
`.groups` argument.
[1] ""
[1] "Total run time was 42.561 seconds"
[1] "Estimation result: "
# A tibble: 360 × 5
   estimand theta   tau   est     se
   <chr>    <dbl> <dbl> <dbl>  <dbl>
 1 mu         0.1   0.1 0.123 0.118 
 2 mu         0.1   0.2 0.155 0.111 
 3 mu         0.1   0.3 0.175 0.149 
 4 mu         0.1   0.4 0.293 0.163 
 5 mu         0.1   0.5 0.292 0.166 
 6 mu         0.2   0.1 0.180 0.105 
 7 mu         0.2   0.2 0.237 0.0936
 8 mu         0.2   0.3 0.290 0.0987
 9 mu         0.2   0.4 0.367 0.104 
10 mu         0.2   0.5 0.370 0.106 
# ℹ 350 more rows
…
