…
`.groups` argument.
`summarise()` has grouped output by 'theta'. You can override using the
`.groups` argument.
`summarise()` has grouped output by 'theta', 'tau'. You can override using the
`.groups` argument.
`summarise()` has grouped output by 'theta'. You can override using the
`.groups` argument.
`summarise()` has grouped output by 'theta', 'tau'. You can override using the
`.groups` argument.
`summarise()` has grouped output by 'theta'. You can override using the
`.groups` argument.
[1] ""
[1] "Total run time was 49.636 seconds"
[1] "Estimation result: "
# A tibble: 360 × 5
   estimand theta   tau   est     se
   <chr>    <dbl> <dbl> <dbl>  <dbl>
 1 mu         0.1   0.1 0.531 0.126 
 2 mu         0.1   0.2 0.623 0.155 
 3 mu         0.1   0.3 0.638 0.142 
 4 mu         0.1   0.4 0.666 0.137 
 5 mu         0.1   0.5 0.690 0.140 
 6 mu         0.2   0.1 0.417 0.0645
 7 mu         0.2   0.2 0.484 0.0747
 8 mu         0.2   0.3 0.523 0.0718
 9 mu         0.2   0.4 0.576 0.0816
10 mu         0.2   0.5 0.629 0.0828
# ℹ 350 more rows
…
