…
`.groups` argument.
`summarise()` has grouped output by 'theta'. You can override using the
`.groups` argument.
`summarise()` has grouped output by 'theta', 'tau'. You can override using the
`.groups` argument.
`summarise()` has grouped output by 'theta'. You can override using the
`.groups` argument.
`summarise()` has grouped output by 'theta', 'tau'. You can override using the
`.groups` argument.
`summarise()` has grouped output by 'theta'. You can override using the
`.groups` argument.
[1] ""
[1] "Total run time was 51.185 seconds"
[1] "Estimation result: "
# A tibble: 360 × 5
   estimand theta   tau   est    se
   <chr>    <dbl> <dbl> <dbl> <dbl>
 1 mu         0.1   0.1 0.303 0.227
 2 mu         0.1   0.2 0.258 0.200
 3 mu         0.1   0.3 0.218 0.171
 4 mu         0.1   0.4 0.213 0.159
 5 mu         0.1   0.5 0.192 0.146
 6 mu         0.2   0.1 0.364 0.199
 7 mu         0.2   0.2 0.350 0.175
 8 mu         0.2   0.3 0.346 0.151
 9 mu         0.2   0.4 0.359 0.142
10 mu         0.2   0.5 0.350 0.132
# ℹ 350 more rows
…
