…
`.groups` argument.
`summarise()` has grouped output by 'theta'. You can override using the
`.groups` argument.
`summarise()` has grouped output by 'theta', 'tau'. You can override using the
`.groups` argument.
`summarise()` has grouped output by 'theta'. You can override using the
`.groups` argument.
`summarise()` has grouped output by 'theta', 'tau'. You can override using the
`.groups` argument.
`summarise()` has grouped output by 'theta'. You can override using the
`.groups` argument.
[1] ""
[1] "Total run time was 82.004 seconds"
[1] "Estimation result: "
# A tibble: 360 × 5
   estimand theta   tau   est    se
   <chr>    <dbl> <dbl> <dbl> <dbl>
 1 mu         0.1   0.1 0.338 0.229
 2 mu         0.1   0.2 0.445 0.209
 3 mu         0.1   0.3 0.462 0.223
 4 mu         0.1   0.4 0.492 0.223
 5 mu         0.1   0.5 0.464 0.239
 6 mu         0.2   0.1 0.215 0.128
 7 mu         0.2   0.2 0.320 0.103
 8 mu         0.2   0.3 0.344 0.116
 9 mu         0.2   0.4 0.366 0.110
10 mu         0.2   0.5 0.348 0.131
# ℹ 350 more rows
…
