…
`.groups` argument.
`summarise()` has grouped output by 'theta'. You can override using the
`.groups` argument.
`summarise()` has grouped output by 'theta', 'tau'. You can override using the
`.groups` argument.
`summarise()` has grouped output by 'theta'. You can override using the
`.groups` argument.
`summarise()` has grouped output by 'theta', 'tau'. You can override using the
`.groups` argument.
`summarise()` has grouped output by 'theta'. You can override using the
`.groups` argument.
[1] ""
[1] "Total run time was 66.68 seconds"
[1] "Estimation result: "
# A tibble: 360 × 5
   estimand theta   tau   est     se
   <chr>    <dbl> <dbl> <dbl>  <dbl>
 1 mu         0.1   0.1 0.384 0.111 
 2 mu         0.1   0.2 0.392 0.105 
 3 mu         0.1   0.3 0.460 0.0943
 4 mu         0.1   0.4 0.520 0.116 
 5 mu         0.1   0.5 0.533 0.118 
 6 mu         0.2   0.1 0.351 0.0715
 7 mu         0.2   0.2 0.386 0.0747
 8 mu         0.2   0.3 0.481 0.0663
 9 mu         0.2   0.4 0.525 0.0795
10 mu         0.2   0.5 0.553 0.0811
# ℹ 350 more rows
…
