…
`.groups` argument.
`summarise()` has grouped output by 'theta'. You can override using the
`.groups` argument.
`summarise()` has grouped output by 'theta', 'tau'. You can override using the
`.groups` argument.
`summarise()` has grouped output by 'theta'. You can override using the
`.groups` argument.
`summarise()` has grouped output by 'theta', 'tau'. You can override using the
`.groups` argument.
`summarise()` has grouped output by 'theta'. You can override using the
`.groups` argument.
[1] ""
[1] "Total run time was 41.859 seconds"
[1] "Estimation result: "
# A tibble: 360 × 5
   estimand theta   tau   est    se
   <chr>    <dbl> <dbl> <dbl> <dbl>
 1 mu         0.1   0.1 0.325 0.198
 2 mu         0.1   0.2 0.284 0.153
 3 mu         0.1   0.3 0.266 0.148
 4 mu         0.1   0.4 0.254 0.152
 5 mu         0.1   0.5 0.280 0.149
 6 mu         0.2   0.1 0.320 0.118
 7 mu         0.2   0.2 0.320 0.102
 8 mu         0.2   0.3 0.333 0.100
 9 mu         0.2   0.4 0.326 0.104
10 mu         0.2   0.5 0.337 0.108
# ℹ 350 more rows
…
