…
`.groups` argument.
`summarise()` has grouped output by 'theta'. You can override using the
`.groups` argument.
`summarise()` has grouped output by 'theta', 'tau'. You can override using the
`.groups` argument.
`summarise()` has grouped output by 'theta'. You can override using the
`.groups` argument.
`summarise()` has grouped output by 'theta', 'tau'. You can override using the
`.groups` argument.
`summarise()` has grouped output by 'theta'. You can override using the
`.groups` argument.
[1] ""
[1] "Total run time was 86.323 seconds"
[1] "Estimation result: "
# A tibble: 360 × 5
   estimand theta   tau   est     se
   <chr>    <dbl> <dbl> <dbl>  <dbl>
 1 mu         0.1   0.1 0.230 0.114 
 2 mu         0.1   0.2 0.273 0.188 
 3 mu         0.1   0.3 0.512 0.223 
 4 mu         0.1   0.4 0.494 0.194 
 5 mu         0.1   0.5 0.489 0.189 
 6 mu         0.2   0.1 0.312 0.0990
 7 mu         0.2   0.2 0.374 0.163 
 8 mu         0.2   0.3 0.511 0.166 
 9 mu         0.2   0.4 0.517 0.152 
10 mu         0.2   0.5 0.522 0.151 
# ℹ 350 more rows
…
