…
`.groups` argument.
`summarise()` has grouped output by 'theta'. You can override using the
`.groups` argument.
`summarise()` has grouped output by 'theta', 'tau'. You can override using the
`.groups` argument.
`summarise()` has grouped output by 'theta'. You can override using the
`.groups` argument.
`summarise()` has grouped output by 'theta', 'tau'. You can override using the
`.groups` argument.
`summarise()` has grouped output by 'theta'. You can override using the
`.groups` argument.
[1] ""
[1] "Total run time was 78.716 seconds"
[1] "Estimation result: "
# A tibble: 360 × 5
   estimand theta   tau   est     se
   <chr>    <dbl> <dbl> <dbl>  <dbl>
 1 mu         0.1   0.1 0.418 0.225 
 2 mu         0.1   0.2 0.523 0.279 
 3 mu         0.1   0.3 0.599 0.336 
 4 mu         0.1   0.4 0.851 0.411 
 5 mu         0.1   0.5 0.900 0.429 
 6 mu         0.2   0.1 0.337 0.0737
 7 mu         0.2   0.2 0.404 0.0830
 8 mu         0.2   0.3 0.474 0.103 
 9 mu         0.2   0.4 0.621 0.122 
10 mu         0.2   0.5 0.671 0.132 
# ℹ 350 more rows
…
