…
`.groups` argument.
`summarise()` has grouped output by 'theta'. You can override using the
`.groups` argument.
`summarise()` has grouped output by 'theta', 'tau'. You can override using the
`.groups` argument.
`summarise()` has grouped output by 'theta'. You can override using the
`.groups` argument.
`summarise()` has grouped output by 'theta', 'tau'. You can override using the
`.groups` argument.
`summarise()` has grouped output by 'theta'. You can override using the
`.groups` argument.
[1] ""
[1] "Total run time was 127.66 seconds"
[1] "Estimation result: "
# A tibble: 360 × 5
   estimand theta   tau   est     se
   <chr>    <dbl> <dbl> <dbl>  <dbl>
 1 mu         0.1   0.1 0.391 0.0817
 2 mu         0.1   0.2 0.480 0.105 
 3 mu         0.1   0.3 0.591 0.121 
 4 mu         0.1   0.4 0.610 0.131 
 5 mu         0.1   0.5 0.677 0.142 
 6 mu         0.2   0.1 0.429 0.0707
 7 mu         0.2   0.2 0.525 0.0874
 8 mu         0.2   0.3 0.665 0.105 
 9 mu         0.2   0.4 0.703 0.113 
10 mu         0.2   0.5 0.772 0.123 
# ℹ 350 more rows
…
