…
`.groups` argument.
`summarise()` has grouped output by 'theta'. You can override using the
`.groups` argument.
`summarise()` has grouped output by 'theta', 'tau'. You can override using the
`.groups` argument.
`summarise()` has grouped output by 'theta'. You can override using the
`.groups` argument.
`summarise()` has grouped output by 'theta', 'tau'. You can override using the
`.groups` argument.
`summarise()` has grouped output by 'theta'. You can override using the
`.groups` argument.
[1] ""
[1] "Total run time was 58.486 seconds"
[1] "Estimation result: "
# A tibble: 360 × 5
   estimand theta   tau   est    se
   <chr>    <dbl> <dbl> <dbl> <dbl>
 1 mu         0.1   0.1 0.303 0.216
 2 mu         0.1   0.2 0.309 0.233
 3 mu         0.1   0.3 0.257 0.235
 4 mu         0.1   0.4 0.249 0.248
 5 mu         0.1   0.5 0.248 0.252
 6 mu         0.2   0.1 0.400 0.144
 7 mu         0.2   0.2 0.441 0.146
 8 mu         0.2   0.3 0.433 0.124
 9 mu         0.2   0.4 0.463 0.121
10 mu         0.2   0.5 0.472 0.121
# ℹ 350 more rows
…
