…
`.groups` argument.
`summarise()` has grouped output by 'theta'. You can override using the
`.groups` argument.
`summarise()` has grouped output by 'theta', 'tau'. You can override using the
`.groups` argument.
`summarise()` has grouped output by 'theta'. You can override using the
`.groups` argument.
`summarise()` has grouped output by 'theta', 'tau'. You can override using the
`.groups` argument.
`summarise()` has grouped output by 'theta'. You can override using the
`.groups` argument.
[1] ""
[1] "Total run time was 52.022 seconds"
[1] "Estimation result: "
# A tibble: 360 × 5
   estimand theta   tau   est     se
   <chr>    <dbl> <dbl> <dbl>  <dbl>
 1 mu         0.1   0.1 0.268 0.182 
 2 mu         0.1   0.2 0.393 0.207 
 3 mu         0.1   0.3 0.444 0.258 
 4 mu         0.1   0.4 0.501 0.303 
 5 mu         0.1   0.5 0.514 0.317 
 6 mu         0.2   0.1 0.213 0.0618
 7 mu         0.2   0.2 0.321 0.0611
 8 mu         0.2   0.3 0.373 0.0688
 9 mu         0.2   0.4 0.412 0.0945
10 mu         0.2   0.5 0.425 0.0960
# ℹ 350 more rows
…
