…
`.groups` argument.
`summarise()` has grouped output by 'theta'. You can override using the
`.groups` argument.
`summarise()` has grouped output by 'theta', 'tau'. You can override using the
`.groups` argument.
`summarise()` has grouped output by 'theta'. You can override using the
`.groups` argument.
`summarise()` has grouped output by 'theta', 'tau'. You can override using the
`.groups` argument.
`summarise()` has grouped output by 'theta'. You can override using the
`.groups` argument.
[1] ""
[1] "Total run time was 62.543 seconds"
[1] "Estimation result: "
# A tibble: 360 × 5
   estimand theta   tau   est     se
   <chr>    <dbl> <dbl> <dbl>  <dbl>
 1 mu         0.1   0.1 0.395 0.113 
 2 mu         0.1   0.2 0.431 0.0924
 3 mu         0.1   0.3 0.437 0.0910
 4 mu         0.1   0.4 0.460 0.0943
 5 mu         0.1   0.5 0.478 0.0990
 6 mu         0.2   0.1 0.429 0.0865
 7 mu         0.2   0.2 0.496 0.0869
 8 mu         0.2   0.3 0.521 0.0932
 9 mu         0.2   0.4 0.560 0.0987
10 mu         0.2   0.5 0.594 0.106 
# ℹ 350 more rows
…
