…
`.groups` argument.
`summarise()` has grouped output by 'theta'. You can override using the
`.groups` argument.
`summarise()` has grouped output by 'theta', 'tau'. You can override using the
`.groups` argument.
`summarise()` has grouped output by 'theta'. You can override using the
`.groups` argument.
`summarise()` has grouped output by 'theta', 'tau'. You can override using the
`.groups` argument.
`summarise()` has grouped output by 'theta'. You can override using the
`.groups` argument.
[1] ""
[1] "Total run time was 50.915 seconds"
[1] "Estimation result: "
# A tibble: 360 × 5
   estimand theta   tau   est     se
   <chr>    <dbl> <dbl> <dbl>  <dbl>
 1 mu         0.1   0.1 0.302 0.113 
 2 mu         0.1   0.2 0.428 0.182 
 3 mu         0.1   0.3 0.439 0.157 
 4 mu         0.1   0.4 0.502 0.135 
 5 mu         0.1   0.5 0.510 0.133 
 6 mu         0.2   0.1 0.264 0.0536
 7 mu         0.2   0.2 0.374 0.0720
 8 mu         0.2   0.3 0.409 0.0695
 9 mu         0.2   0.4 0.496 0.0778
10 mu         0.2   0.5 0.512 0.0803
# ℹ 350 more rows
…
