…
`.groups` argument.
`summarise()` has grouped output by 'theta'. You can override using the
`.groups` argument.
`summarise()` has grouped output by 'theta', 'tau'. You can override using the
`.groups` argument.
`summarise()` has grouped output by 'theta'. You can override using the
`.groups` argument.
`summarise()` has grouped output by 'theta', 'tau'. You can override using the
`.groups` argument.
`summarise()` has grouped output by 'theta'. You can override using the
`.groups` argument.
[1] ""
[1] "Total run time was 57.154 seconds"
[1] "Estimation result: "
# A tibble: 360 × 5
   estimand theta   tau   est    se
   <chr>    <dbl> <dbl> <dbl> <dbl>
 1 mu         0.1   0.1 1.70  1.39 
 2 mu         0.1   0.2 2.00  1.68 
 3 mu         0.1   0.3 2.21  1.89 
 4 mu         0.1   0.4 2.37  2.05 
 5 mu         0.1   0.5 2.42  2.10 
 6 mu         0.2   0.1 0.550 0.201
 7 mu         0.2   0.2 0.660 0.228
 8 mu         0.2   0.3 0.708 0.249
 9 mu         0.2   0.4 0.747 0.266
10 mu         0.2   0.5 0.765 0.271
# ℹ 350 more rows
…
