…
`.groups` argument.
`summarise()` has grouped output by 'theta'. You can override using the
`.groups` argument.
`summarise()` has grouped output by 'theta', 'tau'. You can override using the
`.groups` argument.
`summarise()` has grouped output by 'theta'. You can override using the
`.groups` argument.
`summarise()` has grouped output by 'theta', 'tau'. You can override using the
`.groups` argument.
`summarise()` has grouped output by 'theta'. You can override using the
`.groups` argument.
[1] ""
[1] "Total run time was 33.584 seconds"
[1] "Estimation result: "
# A tibble: 360 × 5
   estimand theta   tau   est     se
   <chr>    <dbl> <dbl> <dbl>  <dbl>
 1 mu         0.1   0.1 0.343 0.138 
 2 mu         0.1   0.2 0.357 0.175 
 3 mu         0.1   0.3 0.414 0.198 
 4 mu         0.1   0.4 0.488 0.225 
 5 mu         0.1   0.5 0.596 0.255 
 6 mu         0.2   0.1 0.334 0.0848
 7 mu         0.2   0.2 0.370 0.101 
 8 mu         0.2   0.3 0.435 0.121 
 9 mu         0.2   0.4 0.508 0.132 
10 mu         0.2   0.5 0.603 0.141 
# ℹ 350 more rows
…
