…
`.groups` argument.
`summarise()` has grouped output by 'theta'. You can override using the
`.groups` argument.
`summarise()` has grouped output by 'theta', 'tau'. You can override using the
`.groups` argument.
`summarise()` has grouped output by 'theta'. You can override using the
`.groups` argument.
`summarise()` has grouped output by 'theta', 'tau'. You can override using the
`.groups` argument.
`summarise()` has grouped output by 'theta'. You can override using the
`.groups` argument.
[1] ""
[1] "Total run time was 46.071 seconds"
[1] "Estimation result: "
# A tibble: 360 × 5
   estimand theta   tau   est     se
   <chr>    <dbl> <dbl> <dbl>  <dbl>
 1 mu         0.1   0.1 0.377 0.129 
 2 mu         0.1   0.2 0.519 0.142 
 3 mu         0.1   0.3 0.532 0.146 
 4 mu         0.1   0.4 0.545 0.154 
 5 mu         0.1   0.5 0.552 0.165 
 6 mu         0.2   0.1 0.328 0.0865
 7 mu         0.2   0.2 0.465 0.0992
 8 mu         0.2   0.3 0.474 0.0959
 9 mu         0.2   0.4 0.485 0.0972
10 mu         0.2   0.5 0.489 0.102 
# ℹ 350 more rows
…
