…
`.groups` argument.
`summarise()` has grouped output by 'theta'. You can override using the
`.groups` argument.
`summarise()` has grouped output by 'theta', 'tau'. You can override using the
`.groups` argument.
`summarise()` has grouped output by 'theta'. You can override using the
`.groups` argument.
`summarise()` has grouped output by 'theta', 'tau'. You can override using the
`.groups` argument.
`summarise()` has grouped output by 'theta'. You can override using the
`.groups` argument.
[1] ""
[1] "Total run time was 47.971 seconds"
[1] "Estimation result: "
# A tibble: 360 × 5
   estimand theta   tau   est    se
   <chr>    <dbl> <dbl> <dbl> <dbl>
 1 mu         0.1   0.1 1.05  0.553
 2 mu         0.1   0.2 1.37  0.752
 3 mu         0.1   0.3 1.44  0.824
 4 mu         0.1   0.4 1.65  0.980
 5 mu         0.1   0.5 1.86  1.09 
 6 mu         0.2   0.1 0.729 0.271
 7 mu         0.2   0.2 0.959 0.367
 8 mu         0.2   0.3 1.01  0.400
 9 mu         0.2   0.4 1.13  0.472
10 mu         0.2   0.5 1.27  0.526
# ℹ 350 more rows
…
