…
`.groups` argument.
`summarise()` has grouped output by 'theta'. You can override using the
`.groups` argument.
`summarise()` has grouped output by 'theta', 'tau'. You can override using the
`.groups` argument.
`summarise()` has grouped output by 'theta'. You can override using the
`.groups` argument.
`summarise()` has grouped output by 'theta', 'tau'. You can override using the
`.groups` argument.
`summarise()` has grouped output by 'theta'. You can override using the
`.groups` argument.
[1] ""
[1] "Total run time was 37.883 seconds"
[1] "Estimation result: "
# A tibble: 360 × 5
   estimand theta   tau    est     se
   <chr>    <dbl> <dbl>  <dbl>  <dbl>
 1 mu         0.1   0.1 0.0933 0.189 
 2 mu         0.1   0.2 0.448  0.180 
 3 mu         0.1   0.3 0.464  0.179 
 4 mu         0.1   0.4 0.446  0.173 
 5 mu         0.1   0.5 0.567  0.249 
 6 mu         0.2   0.1 0.159  0.103 
 7 mu         0.2   0.2 0.408  0.0940
 8 mu         0.2   0.3 0.450  0.0935
 9 mu         0.2   0.4 0.458  0.0912
10 mu         0.2   0.5 0.541  0.141 
# ℹ 350 more rows
…
