…
`.groups` argument.
`summarise()` has grouped output by 'theta'. You can override using the
`.groups` argument.
`summarise()` has grouped output by 'theta', 'tau'. You can override using the
`.groups` argument.
`summarise()` has grouped output by 'theta'. You can override using the
`.groups` argument.
`summarise()` has grouped output by 'theta', 'tau'. You can override using the
`.groups` argument.
`summarise()` has grouped output by 'theta'. You can override using the
`.groups` argument.
[1] ""
[1] "Total run time was 54.327 seconds"
[1] "Estimation result: "
# A tibble: 360 × 5
   estimand theta   tau   est    se
   <chr>    <dbl> <dbl> <dbl> <dbl>
 1 mu         0.1   0.1 0.575 0.212
 2 mu         0.1   0.2 0.646 0.259
 3 mu         0.1   0.3 0.751 0.289
 4 mu         0.1   0.4 0.742 0.302
 5 mu         0.1   0.5 0.753 0.314
 6 mu         0.2   0.1 0.467 0.120
 7 mu         0.2   0.2 0.548 0.139
 8 mu         0.2   0.3 0.630 0.156
 9 mu         0.2   0.4 0.645 0.158
10 mu         0.2   0.5 0.662 0.163
# ℹ 350 more rows
…
