…
`.groups` argument.
`summarise()` has grouped output by 'theta'. You can override using the
`.groups` argument.
`summarise()` has grouped output by 'theta', 'tau'. You can override using the
`.groups` argument.
`summarise()` has grouped output by 'theta'. You can override using the
`.groups` argument.
`summarise()` has grouped output by 'theta', 'tau'. You can override using the
`.groups` argument.
`summarise()` has grouped output by 'theta'. You can override using the
`.groups` argument.
[1] ""
[1] "Total run time was 52.44 seconds"
[1] "Estimation result: "
# A tibble: 360 × 5
   estimand theta   tau   est     se
   <chr>    <dbl> <dbl> <dbl>  <dbl>
 1 mu         0.1   0.1 0.403 0.113 
 2 mu         0.1   0.2 0.491 0.142 
 3 mu         0.1   0.3 0.602 0.163 
 4 mu         0.1   0.4 0.645 0.181 
 5 mu         0.1   0.5 0.655 0.194 
 6 mu         0.2   0.1 0.408 0.0586
 7 mu         0.2   0.2 0.517 0.0805
 8 mu         0.2   0.3 0.629 0.0965
 9 mu         0.2   0.4 0.685 0.102 
10 mu         0.2   0.5 0.696 0.101 
# ℹ 350 more rows
…
