…
`.groups` argument.
`summarise()` has grouped output by 'theta'. You can override using the
`.groups` argument.
`summarise()` has grouped output by 'theta', 'tau'. You can override using the
`.groups` argument.
`summarise()` has grouped output by 'theta'. You can override using the
`.groups` argument.
`summarise()` has grouped output by 'theta', 'tau'. You can override using the
`.groups` argument.
`summarise()` has grouped output by 'theta'. You can override using the
`.groups` argument.
[1] ""
[1] "Total run time was 73.037 seconds"
[1] "Estimation result: "
# A tibble: 360 × 5
   estimand theta   tau   est     se
   <chr>    <dbl> <dbl> <dbl>  <dbl>
 1 mu         0.1   0.1 0.333 0.124 
 2 mu         0.1   0.2 0.376 0.126 
 3 mu         0.1   0.3 0.489 0.191 
 4 mu         0.1   0.4 0.483 0.190 
 5 mu         0.1   0.5 0.494 0.190 
 6 mu         0.2   0.1 0.317 0.0802
 7 mu         0.2   0.2 0.382 0.0904
 8 mu         0.2   0.3 0.449 0.117 
 9 mu         0.2   0.4 0.476 0.118 
10 mu         0.2   0.5 0.500 0.121 
# ℹ 350 more rows
…
