…
`.groups` argument.
`summarise()` has grouped output by 'theta'. You can override using the
`.groups` argument.
`summarise()` has grouped output by 'theta', 'tau'. You can override using the
`.groups` argument.
`summarise()` has grouped output by 'theta'. You can override using the
`.groups` argument.
`summarise()` has grouped output by 'theta', 'tau'. You can override using the
`.groups` argument.
`summarise()` has grouped output by 'theta'. You can override using the
`.groups` argument.
[1] ""
[1] "Total run time was 38.473 seconds"
[1] "Estimation result: "
# A tibble: 360 × 5
   estimand theta   tau   est    se
   <chr>    <dbl> <dbl> <dbl> <dbl>
 1 mu         0.1   0.1 0.300 0.160
 2 mu         0.1   0.2 0.346 0.175
 3 mu         0.1   0.3 0.396 0.195
 4 mu         0.1   0.4 0.391 0.200
 5 mu         0.1   0.5 0.374 0.210
 6 mu         0.2   0.1 0.341 0.145
 7 mu         0.2   0.2 0.381 0.179
 8 mu         0.2   0.3 0.435 0.199
 9 mu         0.2   0.4 0.445 0.210
10 mu         0.2   0.5 0.455 0.228
# ℹ 350 more rows
…
