…
`.groups` argument.
`summarise()` has grouped output by 'theta'. You can override using the
`.groups` argument.
`summarise()` has grouped output by 'theta', 'tau'. You can override using the
`.groups` argument.
`summarise()` has grouped output by 'theta'. You can override using the
`.groups` argument.
`summarise()` has grouped output by 'theta', 'tau'. You can override using the
`.groups` argument.
`summarise()` has grouped output by 'theta'. You can override using the
`.groups` argument.
[1] ""
[1] "Total run time was 38.681 seconds"
[1] "Estimation result: "
# A tibble: 360 × 5
   estimand theta   tau   est    se
   <chr>    <dbl> <dbl> <dbl> <dbl>
 1 mu         0.1   0.1 0.489 0.199
 2 mu         0.1   0.2 0.569 0.274
 3 mu         0.1   0.3 0.759 0.277
 4 mu         0.1   0.4 0.746 0.309
 5 mu         0.1   0.5 0.754 0.341
 6 mu         0.2   0.1 0.488 0.167
 7 mu         0.2   0.2 0.564 0.219
 8 mu         0.2   0.3 0.734 0.230
 9 mu         0.2   0.4 0.748 0.266
10 mu         0.2   0.5 0.782 0.296
# ℹ 350 more rows
…
