…
`.groups` argument.
`summarise()` has grouped output by 'theta'. You can override using the
`.groups` argument.
`summarise()` has grouped output by 'theta', 'tau'. You can override using the
`.groups` argument.
`summarise()` has grouped output by 'theta'. You can override using the
`.groups` argument.
`summarise()` has grouped output by 'theta', 'tau'. You can override using the
`.groups` argument.
`summarise()` has grouped output by 'theta'. You can override using the
`.groups` argument.
[1] ""
[1] "Total run time was 41.081 seconds"
[1] "Estimation result: "
# A tibble: 360 × 5
   estimand theta   tau   est     se
   <chr>    <dbl> <dbl> <dbl>  <dbl>
 1 mu         0.1   0.1 0.594 0.166 
 2 mu         0.1   0.2 0.647 0.191 
 3 mu         0.1   0.3 0.759 0.201 
 4 mu         0.1   0.4 0.778 0.209 
 5 mu         0.1   0.5 0.791 0.217 
 6 mu         0.2   0.1 0.407 0.0938
 7 mu         0.2   0.2 0.447 0.113 
 8 mu         0.2   0.3 0.554 0.116 
 9 mu         0.2   0.4 0.574 0.122 
10 mu         0.2   0.5 0.597 0.127 
# ℹ 350 more rows
…
