…
`.groups` argument.
`summarise()` has grouped output by 'theta'. You can override using the
`.groups` argument.
`summarise()` has grouped output by 'theta', 'tau'. You can override using the
`.groups` argument.
`summarise()` has grouped output by 'theta'. You can override using the
`.groups` argument.
`summarise()` has grouped output by 'theta', 'tau'. You can override using the
`.groups` argument.
`summarise()` has grouped output by 'theta'. You can override using the
`.groups` argument.
[1] ""
[1] "Total run time was 53.964 seconds"
[1] "Estimation result: "
# A tibble: 360 × 5
   estimand theta   tau   est     se
   <chr>    <dbl> <dbl> <dbl>  <dbl>
 1 mu         0.1   0.1 0.320 0.0861
 2 mu         0.1   0.2 0.380 0.113 
 3 mu         0.1   0.3 0.396 0.126 
 4 mu         0.1   0.4 0.397 0.135 
 5 mu         0.1   0.5 0.474 0.143 
 6 mu         0.2   0.1 0.368 0.0683
 7 mu         0.2   0.2 0.446 0.0873
 8 mu         0.2   0.3 0.482 0.0954
 9 mu         0.2   0.4 0.502 0.105 
10 mu         0.2   0.5 0.582 0.121 
# ℹ 350 more rows
…
