…
`.groups` argument.
`summarise()` has grouped output by 'theta'. You can override using the
`.groups` argument.
`summarise()` has grouped output by 'theta', 'tau'. You can override using the
`.groups` argument.
`summarise()` has grouped output by 'theta'. You can override using the
`.groups` argument.
`summarise()` has grouped output by 'theta', 'tau'. You can override using the
`.groups` argument.
`summarise()` has grouped output by 'theta'. You can override using the
`.groups` argument.
[1] ""
[1] "Total run time was 43.614 seconds"
[1] "Estimation result: "
# A tibble: 360 × 5
   estimand theta   tau   est     se
   <chr>    <dbl> <dbl> <dbl>  <dbl>
 1 mu         0.1   0.1 0.273 0.116 
 2 mu         0.1   0.2 0.341 0.148 
 3 mu         0.1   0.3 0.417 0.178 
 4 mu         0.1   0.4 0.409 0.165 
 5 mu         0.1   0.5 0.403 0.158 
 6 mu         0.2   0.1 0.267 0.0712
 7 mu         0.2   0.2 0.342 0.101 
 8 mu         0.2   0.3 0.416 0.119 
 9 mu         0.2   0.4 0.431 0.106 
10 mu         0.2   0.5 0.444 0.0985
# ℹ 350 more rows
…
