…
`.groups` argument.
`summarise()` has grouped output by 'theta'. You can override using the
`.groups` argument.
`summarise()` has grouped output by 'theta', 'tau'. You can override using the
`.groups` argument.
`summarise()` has grouped output by 'theta'. You can override using the
`.groups` argument.
`summarise()` has grouped output by 'theta', 'tau'. You can override using the
`.groups` argument.
`summarise()` has grouped output by 'theta'. You can override using the
`.groups` argument.
[1] ""
[1] "Total run time was 59.449 seconds"
[1] "Estimation result: "
# A tibble: 360 × 5
   estimand theta   tau   est     se
   <chr>    <dbl> <dbl> <dbl>  <dbl>
 1 mu         0.1   0.1 0.194 0.0556
 2 mu         0.1   0.2 0.307 0.0802
 3 mu         0.1   0.3 0.345 0.0841
 4 mu         0.1   0.4 0.490 0.145 
 5 mu         0.1   0.5 0.473 0.133 
 6 mu         0.2   0.1 0.240 0.0482
 7 mu         0.2   0.2 0.353 0.0693
 8 mu         0.2   0.3 0.419 0.0766
 9 mu         0.2   0.4 0.591 0.141 
10 mu         0.2   0.5 0.588 0.129 
# ℹ 350 more rows
…
