…
`.groups` argument.
`summarise()` has grouped output by 'theta'. You can override using the
`.groups` argument.
`summarise()` has grouped output by 'theta', 'tau'. You can override using the
`.groups` argument.
`summarise()` has grouped output by 'theta'. You can override using the
`.groups` argument.
`summarise()` has grouped output by 'theta', 'tau'. You can override using the
`.groups` argument.
`summarise()` has grouped output by 'theta'. You can override using the
`.groups` argument.
[1] ""
[1] "Total run time was 67.16 seconds"
[1] "Estimation result: "
# A tibble: 360 × 5
   estimand theta   tau   est     se
   <chr>    <dbl> <dbl> <dbl>  <dbl>
 1 mu         0.1   0.1 0.405 0.0940
 2 mu         0.1   0.2 0.434 0.0939
 3 mu         0.1   0.3 0.475 0.113 
 4 mu         0.1   0.4 0.536 0.144 
 5 mu         0.1   0.5 0.592 0.171 
 6 mu         0.2   0.1 0.389 0.0578
 7 mu         0.2   0.2 0.432 0.0561
 8 mu         0.2   0.3 0.489 0.0662
 9 mu         0.2   0.4 0.562 0.0860
10 mu         0.2   0.5 0.641 0.106 
# ℹ 350 more rows
…
