…
`.groups` argument.
`summarise()` has grouped output by 'theta'. You can override using the
`.groups` argument.
`summarise()` has grouped output by 'theta', 'tau'. You can override using the
`.groups` argument.
`summarise()` has grouped output by 'theta'. You can override using the
`.groups` argument.
`summarise()` has grouped output by 'theta', 'tau'. You can override using the
`.groups` argument.
`summarise()` has grouped output by 'theta'. You can override using the
`.groups` argument.
[1] ""
[1] "Total run time was 57.157 seconds"
[1] "Estimation result: "
# A tibble: 360 × 5
   estimand theta   tau   est    se
   <chr>    <dbl> <dbl> <dbl> <dbl>
 1 mu         0.1   0.1 0.444 0.219
 2 mu         0.1   0.2 0.411 0.220
 3 mu         0.1   0.3 0.399 0.232
 4 mu         0.1   0.4 0.550 0.278
 5 mu         0.1   0.5 0.535 0.281
 6 mu         0.2   0.1 0.398 0.133
 7 mu         0.2   0.2 0.394 0.108
 8 mu         0.2   0.3 0.395 0.105
 9 mu         0.2   0.4 0.490 0.125
10 mu         0.2   0.5 0.492 0.122
# ℹ 350 more rows
…
