…
`.groups` argument.
`summarise()` has grouped output by 'theta'. You can override using the
`.groups` argument.
`summarise()` has grouped output by 'theta', 'tau'. You can override using the
`.groups` argument.
`summarise()` has grouped output by 'theta'. You can override using the
`.groups` argument.
`summarise()` has grouped output by 'theta', 'tau'. You can override using the
`.groups` argument.
`summarise()` has grouped output by 'theta'. You can override using the
`.groups` argument.
[1] ""
[1] "Total run time was 66.746 seconds"
[1] "Estimation result: "
# A tibble: 360 × 5
   estimand theta   tau   est     se
   <chr>    <dbl> <dbl> <dbl>  <dbl>
 1 mu         0.1   0.1 0.275 0.124 
 2 mu         0.1   0.2 0.316 0.142 
 3 mu         0.1   0.3 0.337 0.148 
 4 mu         0.1   0.4 0.386 0.158 
 5 mu         0.1   0.5 0.427 0.172 
 6 mu         0.2   0.1 0.254 0.0722
 7 mu         0.2   0.2 0.315 0.0914
 8 mu         0.2   0.3 0.342 0.0952
 9 mu         0.2   0.4 0.400 0.101 
10 mu         0.2   0.5 0.460 0.114 
# ℹ 350 more rows
…
