…
`.groups` argument.
`summarise()` has grouped output by 'theta'. You can override using the
`.groups` argument.
`summarise()` has grouped output by 'theta', 'tau'. You can override using the
`.groups` argument.
`summarise()` has grouped output by 'theta'. You can override using the
`.groups` argument.
`summarise()` has grouped output by 'theta', 'tau'. You can override using the
`.groups` argument.
`summarise()` has grouped output by 'theta'. You can override using the
`.groups` argument.
[1] ""
[1] "Total run time was 41.228 seconds"
[1] "Estimation result: "
# A tibble: 360 × 5
   estimand theta   tau   est     se
   <chr>    <dbl> <dbl> <dbl>  <dbl>
 1 mu         0.1   0.1 0.267 0.0842
 2 mu         0.1   0.2 0.252 0.0710
 3 mu         0.1   0.3 0.253 0.0847
 4 mu         0.1   0.4 0.246 0.0918
 5 mu         0.1   0.5 0.233 0.101 
 6 mu         0.2   0.1 0.247 0.0449
 7 mu         0.2   0.2 0.312 0.0699
 8 mu         0.2   0.3 0.308 0.0627
 9 mu         0.2   0.4 0.321 0.0661
10 mu         0.2   0.5 0.334 0.0746
# ℹ 350 more rows
…
