…
`.groups` argument.
`summarise()` has grouped output by 'theta'. You can override using the
`.groups` argument.
`summarise()` has grouped output by 'theta', 'tau'. You can override using the
`.groups` argument.
`summarise()` has grouped output by 'theta'. You can override using the
`.groups` argument.
`summarise()` has grouped output by 'theta', 'tau'. You can override using the
`.groups` argument.
`summarise()` has grouped output by 'theta'. You can override using the
`.groups` argument.
[1] ""
[1] "Total run time was 43.164 seconds"
[1] "Estimation result: "
# A tibble: 360 × 5
   estimand theta   tau   est     se
   <chr>    <dbl> <dbl> <dbl>  <dbl>
 1 mu         0.1   0.1 0.304 0.114 
 2 mu         0.1   0.2 0.333 0.145 
 3 mu         0.1   0.3 0.334 0.166 
 4 mu         0.1   0.4 0.346 0.182 
 5 mu         0.1   0.5 0.332 0.194 
 6 mu         0.2   0.1 0.249 0.0524
 7 mu         0.2   0.2 0.282 0.0631
 8 mu         0.2   0.3 0.281 0.0727
 9 mu         0.2   0.4 0.294 0.0851
10 mu         0.2   0.5 0.284 0.0971
# ℹ 350 more rows
…
