…
`.groups` argument.
`summarise()` has grouped output by 'theta'. You can override using the
`.groups` argument.
`summarise()` has grouped output by 'theta', 'tau'. You can override using the
`.groups` argument.
`summarise()` has grouped output by 'theta'. You can override using the
`.groups` argument.
`summarise()` has grouped output by 'theta', 'tau'. You can override using the
`.groups` argument.
`summarise()` has grouped output by 'theta'. You can override using the
`.groups` argument.
[1] ""
[1] "Total run time was 147.914 seconds"
[1] "Estimation result: "
# A tibble: 360 × 5
   estimand theta   tau   est     se
   <chr>    <dbl> <dbl> <dbl>  <dbl>
 1 mu         0.1   0.1 0.156 0.0682
 2 mu         0.1   0.2 0.294 0.0736
 3 mu         0.1   0.3 0.304 0.0754
 4 mu         0.1   0.4 0.303 0.0808
 5 mu         0.1   0.5 0.278 0.0955
 6 mu         0.2   0.1 0.208 0.0569
 7 mu         0.2   0.2 0.356 0.0589
 8 mu         0.2   0.3 0.372 0.0573
 9 mu         0.2   0.4 0.376 0.0618
10 mu         0.2   0.5 0.374 0.0786
# ℹ 350 more rows
…
