…
`.groups` argument.
`summarise()` has grouped output by 'theta'. You can override using the
`.groups` argument.
`summarise()` has grouped output by 'theta', 'tau'. You can override using the
`.groups` argument.
`summarise()` has grouped output by 'theta'. You can override using the
`.groups` argument.
`summarise()` has grouped output by 'theta', 'tau'. You can override using the
`.groups` argument.
`summarise()` has grouped output by 'theta'. You can override using the
`.groups` argument.
[1] ""
[1] "Total run time was 76.881 seconds"
[1] "Estimation result: "
# A tibble: 360 × 5
   estimand theta   tau   est     se
   <chr>    <dbl> <dbl> <dbl>  <dbl>
 1 mu         0.1   0.1 0.174 0.0800
 2 mu         0.1   0.2 0.252 0.110 
 3 mu         0.1   0.3 0.236 0.104 
 4 mu         0.1   0.4 0.209 0.0929
 5 mu         0.1   0.5 0.223 0.0894
 6 mu         0.2   0.1 0.317 0.109 
 7 mu         0.2   0.2 0.399 0.105 
 8 mu         0.2   0.3 0.398 0.108 
 9 mu         0.2   0.4 0.410 0.120 
10 mu         0.2   0.5 0.427 0.123 
# ℹ 350 more rows
…
