…
`.groups` argument.
`summarise()` has grouped output by 'theta'. You can override using the
`.groups` argument.
`summarise()` has grouped output by 'theta', 'tau'. You can override using the
`.groups` argument.
`summarise()` has grouped output by 'theta'. You can override using the
`.groups` argument.
`summarise()` has grouped output by 'theta', 'tau'. You can override using the
`.groups` argument.
`summarise()` has grouped output by 'theta'. You can override using the
`.groups` argument.
[1] ""
[1] "Total run time was 57.986 seconds"
[1] "Estimation result: "
# A tibble: 360 × 5
   estimand theta   tau   est     se
   <chr>    <dbl> <dbl> <dbl>  <dbl>
 1 mu         0.1   0.1 0.317 0.0974
 2 mu         0.1   0.2 0.369 0.116 
 3 mu         0.1   0.3 0.425 0.139 
 4 mu         0.1   0.4 0.412 0.140 
 5 mu         0.1   0.5 0.426 0.138 
 6 mu         0.2   0.1 0.350 0.0857
 7 mu         0.2   0.2 0.428 0.100 
 8 mu         0.2   0.3 0.512 0.134 
 9 mu         0.2   0.4 0.516 0.131 
10 mu         0.2   0.5 0.537 0.127 
# ℹ 350 more rows
…
