…
`.groups` argument.
`summarise()` has grouped output by 'theta'. You can override using the
`.groups` argument.
`summarise()` has grouped output by 'theta', 'tau'. You can override using the
`.groups` argument.
`summarise()` has grouped output by 'theta'. You can override using the
`.groups` argument.
`summarise()` has grouped output by 'theta', 'tau'. You can override using the
`.groups` argument.
`summarise()` has grouped output by 'theta'. You can override using the
`.groups` argument.
[1] ""
[1] "Total run time was 66.246 seconds"
[1] "Estimation result: "
# A tibble: 360 × 5
   estimand theta   tau   est     se
   <chr>    <dbl> <dbl> <dbl>  <dbl>
 1 mu         0.1   0.1 0.216 0.105 
 2 mu         0.1   0.2 0.193 0.0836
 3 mu         0.1   0.3 0.192 0.0799
 4 mu         0.1   0.4 0.258 0.118 
 5 mu         0.1   0.5 0.243 0.107 
 6 mu         0.2   0.1 0.253 0.0650
 7 mu         0.2   0.2 0.289 0.0681
 8 mu         0.2   0.3 0.315 0.0786
 9 mu         0.2   0.4 0.420 0.137 
10 mu         0.2   0.5 0.417 0.128 
# ℹ 350 more rows
…
