…
`.groups` argument.
`summarise()` has grouped output by 'theta'. You can override using the
`.groups` argument.
`summarise()` has grouped output by 'theta', 'tau'. You can override using the
`.groups` argument.
`summarise()` has grouped output by 'theta'. You can override using the
`.groups` argument.
`summarise()` has grouped output by 'theta', 'tau'. You can override using the
`.groups` argument.
`summarise()` has grouped output by 'theta'. You can override using the
`.groups` argument.
[1] ""
[1] "Total run time was 95.049 seconds"
[1] "Estimation result: "
# A tibble: 360 × 5
   estimand theta   tau   est    se
   <chr>    <dbl> <dbl> <dbl> <dbl>
 1 mu         0.1   0.1 0.782 0.592
 2 mu         0.1   0.2 0.923 0.720
 3 mu         0.1   0.3 1.10  0.903
 4 mu         0.1   0.4 1.16  0.967
 5 mu         0.1   0.5 1.25  1.05 
 6 mu         0.2   0.1 0.570 0.364
 7 mu         0.2   0.2 0.686 0.446
 8 mu         0.2   0.3 0.820 0.558
 9 mu         0.2   0.4 0.863 0.598
10 mu         0.2   0.5 0.929 0.651
# ℹ 350 more rows
…
