…
`.groups` argument.
`summarise()` has grouped output by 'theta'. You can override using the
`.groups` argument.
`summarise()` has grouped output by 'theta', 'tau'. You can override using the
`.groups` argument.
`summarise()` has grouped output by 'theta'. You can override using the
`.groups` argument.
`summarise()` has grouped output by 'theta', 'tau'. You can override using the
`.groups` argument.
`summarise()` has grouped output by 'theta'. You can override using the
`.groups` argument.
[1] ""
[1] "Total run time was 93.399 seconds"
[1] "Estimation result: "
# A tibble: 360 × 5
   estimand theta   tau   est    se
   <chr>    <dbl> <dbl> <dbl> <dbl>
 1 mu         0.1   0.1 0.191 0.141
 2 mu         0.1   0.2 0.296 0.192
 3 mu         0.1   0.3 0.320 0.232
 4 mu         0.1   0.4 0.423 0.237
 5 mu         0.1   0.5 0.502 0.235
 6 mu         0.2   0.1 0.253 0.118
 7 mu         0.2   0.2 0.375 0.156
 8 mu         0.2   0.3 0.425 0.188
 9 mu         0.2   0.4 0.528 0.200
10 mu         0.2   0.5 0.597 0.201
# ℹ 350 more rows
…
