…
`.groups` argument.
`summarise()` has grouped output by 'theta'. You can override using the
`.groups` argument.
`summarise()` has grouped output by 'theta', 'tau'. You can override using the
`.groups` argument.
`summarise()` has grouped output by 'theta'. You can override using the
`.groups` argument.
`summarise()` has grouped output by 'theta', 'tau'. You can override using the
`.groups` argument.
`summarise()` has grouped output by 'theta'. You can override using the
`.groups` argument.
[1] ""
[1] "Total run time was 60.786 seconds"
[1] "Estimation result: "
# A tibble: 360 × 5
   estimand theta   tau   est     se
   <chr>    <dbl> <dbl> <dbl>  <dbl>
 1 mu         0.1   0.1 0.348 0.100 
 2 mu         0.1   0.2 0.528 0.152 
 3 mu         0.1   0.3 0.532 0.144 
 4 mu         0.1   0.4 0.523 0.140 
 5 mu         0.1   0.5 0.559 0.146 
 6 mu         0.2   0.1 0.360 0.0757
 7 mu         0.2   0.2 0.539 0.122 
 8 mu         0.2   0.3 0.567 0.114 
 9 mu         0.2   0.4 0.568 0.111 
10 mu         0.2   0.5 0.618 0.118 
# ℹ 350 more rows
…
