…
`.groups` argument.
`summarise()` has grouped output by 'theta'. You can override using the
`.groups` argument.
`summarise()` has grouped output by 'theta', 'tau'. You can override using the
`.groups` argument.
`summarise()` has grouped output by 'theta'. You can override using the
`.groups` argument.
`summarise()` has grouped output by 'theta', 'tau'. You can override using the
`.groups` argument.
`summarise()` has grouped output by 'theta'. You can override using the
`.groups` argument.
[1] ""
[1] "Total run time was 46.135 seconds"
[1] "Estimation result: "
# A tibble: 360 × 5
   estimand theta   tau   est     se
   <chr>    <dbl> <dbl> <dbl>  <dbl>
 1 mu         0.1   0.1 0.555 0.129 
 2 mu         0.1   0.2 0.638 0.153 
 3 mu         0.1   0.3 0.693 0.176 
 4 mu         0.1   0.4 0.709 0.194 
 5 mu         0.1   0.5 0.717 0.204 
 6 mu         0.2   0.1 0.440 0.0652
 7 mu         0.2   0.2 0.513 0.0711
 8 mu         0.2   0.3 0.551 0.0814
 9 mu         0.2   0.4 0.562 0.0843
10 mu         0.2   0.5 0.572 0.0865
# ℹ 350 more rows
…
