…
`.groups` argument.
`summarise()` has grouped output by 'theta'. You can override using the
`.groups` argument.
`summarise()` has grouped output by 'theta', 'tau'. You can override using the
`.groups` argument.
`summarise()` has grouped output by 'theta'. You can override using the
`.groups` argument.
`summarise()` has grouped output by 'theta', 'tau'. You can override using the
`.groups` argument.
`summarise()` has grouped output by 'theta'. You can override using the
`.groups` argument.
[1] ""
[1] "Total run time was 61.683 seconds"
[1] "Estimation result: "
# A tibble: 360 × 5
   estimand theta   tau   est    se
   <chr>    <dbl> <dbl> <dbl> <dbl>
 1 mu         0.1   0.1 0.382 0.144
 2 mu         0.1   0.2 0.426 0.157
 3 mu         0.1   0.3 0.411 0.145
 4 mu         0.1   0.4 0.389 0.134
 5 mu         0.1   0.5 0.394 0.133
 6 mu         0.2   0.1 0.469 0.147
 7 mu         0.2   0.2 0.552 0.162
 8 mu         0.2   0.3 0.559 0.149
 9 mu         0.2   0.4 0.558 0.140
10 mu         0.2   0.5 0.580 0.138
# ℹ 350 more rows
…
