…
`.groups` argument.
`summarise()` has grouped output by 'theta'. You can override using the
`.groups` argument.
`summarise()` has grouped output by 'theta', 'tau'. You can override using the
`.groups` argument.
`summarise()` has grouped output by 'theta'. You can override using the
`.groups` argument.
`summarise()` has grouped output by 'theta', 'tau'. You can override using the
`.groups` argument.
`summarise()` has grouped output by 'theta'. You can override using the
`.groups` argument.
[1] ""
[1] "Total run time was 117.845 seconds"
[1] "Estimation result: "
# A tibble: 360 × 5
   estimand theta   tau   est    se
   <chr>    <dbl> <dbl> <dbl> <dbl>
 1 mu         0.1   0.1 0.379 0.192
 2 mu         0.1   0.2 0.484 0.207
 3 mu         0.1   0.3 0.486 0.204
 4 mu         0.1   0.4 0.487 0.201
 5 mu         0.1   0.5 0.502 0.203
 6 mu         0.2   0.1 0.312 0.106
 7 mu         0.2   0.2 0.424 0.119
 8 mu         0.2   0.3 0.440 0.118
 9 mu         0.2   0.4 0.476 0.116
10 mu         0.2   0.5 0.512 0.116
# ℹ 350 more rows
…
