…
`.groups` argument.
`summarise()` has grouped output by 'theta'. You can override using the
`.groups` argument.
`summarise()` has grouped output by 'theta', 'tau'. You can override using the
`.groups` argument.
`summarise()` has grouped output by 'theta'. You can override using the
`.groups` argument.
`summarise()` has grouped output by 'theta', 'tau'. You can override using the
`.groups` argument.
`summarise()` has grouped output by 'theta'. You can override using the
`.groups` argument.
[1] ""
[1] "Total run time was 107.854 seconds"
[1] "Estimation result: "
# A tibble: 360 × 5
   estimand theta   tau   est     se
   <chr>    <dbl> <dbl> <dbl>  <dbl>
 1 mu         0.1   0.1 0.280 0.0863
 2 mu         0.1   0.2 0.323 0.111 
 3 mu         0.1   0.3 0.360 0.119 
 4 mu         0.1   0.4 0.407 0.129 
 5 mu         0.1   0.5 0.476 0.114 
 6 mu         0.2   0.1 0.332 0.0599
 7 mu         0.2   0.2 0.384 0.0761
 8 mu         0.2   0.3 0.455 0.0812
 9 mu         0.2   0.4 0.502 0.0890
10 mu         0.2   0.5 0.569 0.0887
# ℹ 350 more rows
…
