…
`.groups` argument.
`summarise()` has grouped output by 'theta'. You can override using the
`.groups` argument.
`summarise()` has grouped output by 'theta', 'tau'. You can override using the
`.groups` argument.
`summarise()` has grouped output by 'theta'. You can override using the
`.groups` argument.
`summarise()` has grouped output by 'theta', 'tau'. You can override using the
`.groups` argument.
`summarise()` has grouped output by 'theta'. You can override using the
`.groups` argument.
[1] ""
[1] "Total run time was 89.265 seconds"
[1] "Estimation result: "
# A tibble: 360 × 5
   estimand theta   tau   est     se
   <chr>    <dbl> <dbl> <dbl>  <dbl>
 1 mu         0.1   0.1 0.296 0.0844
 2 mu         0.1   0.2 0.351 0.105 
 3 mu         0.1   0.3 0.363 0.106 
 4 mu         0.1   0.4 0.403 0.108 
 5 mu         0.1   0.5 0.400 0.114 
 6 mu         0.2   0.1 0.377 0.0919
 7 mu         0.2   0.2 0.473 0.116 
 8 mu         0.2   0.3 0.535 0.120 
 9 mu         0.2   0.4 0.578 0.125 
10 mu         0.2   0.5 0.591 0.135 
# ℹ 350 more rows
…
