…
`.groups` argument.
`summarise()` has grouped output by 'theta'. You can override using the
`.groups` argument.
`summarise()` has grouped output by 'theta', 'tau'. You can override using the
`.groups` argument.
`summarise()` has grouped output by 'theta'. You can override using the
`.groups` argument.
`summarise()` has grouped output by 'theta', 'tau'. You can override using the
`.groups` argument.
`summarise()` has grouped output by 'theta'. You can override using the
`.groups` argument.
[1] ""
[1] "Total run time was 43.401 seconds"
[1] "Estimation result: "
# A tibble: 360 × 5
   estimand theta   tau   est    se
   <chr>    <dbl> <dbl> <dbl> <dbl>
 1 mu         0.1   0.1 0.570 0.284
 2 mu         0.1   0.2 0.581 0.257
 3 mu         0.1   0.3 0.602 0.226
 4 mu         0.1   0.4 0.615 0.209
 5 mu         0.1   0.5 0.609 0.200
 6 mu         0.2   0.1 0.442 0.150
 7 mu         0.2   0.2 0.482 0.141
 8 mu         0.2   0.3 0.552 0.128
 9 mu         0.2   0.4 0.608 0.122
10 mu         0.2   0.5 0.626 0.122
# ℹ 350 more rows
…
