…
`.groups` argument.
`summarise()` has grouped output by 'theta'. You can override using the
`.groups` argument.
`summarise()` has grouped output by 'theta', 'tau'. You can override using the
`.groups` argument.
`summarise()` has grouped output by 'theta'. You can override using the
`.groups` argument.
`summarise()` has grouped output by 'theta', 'tau'. You can override using the
`.groups` argument.
`summarise()` has grouped output by 'theta'. You can override using the
`.groups` argument.
[1] ""
[1] "Total run time was 51.048 seconds"
[1] "Estimation result: "
# A tibble: 360 × 5
   estimand theta   tau   est     se
   <chr>    <dbl> <dbl> <dbl>  <dbl>
 1 mu         0.1   0.1 0.323 0.0815
 2 mu         0.1   0.2 0.364 0.0827
 3 mu         0.1   0.3 0.375 0.0782
 4 mu         0.1   0.4 0.387 0.0823
 5 mu         0.1   0.5 0.407 0.0928
 6 mu         0.2   0.1 0.367 0.0603
 7 mu         0.2   0.2 0.435 0.0646
 8 mu         0.2   0.3 0.451 0.0594
 9 mu         0.2   0.4 0.469 0.0610
10 mu         0.2   0.5 0.489 0.0697
# ℹ 350 more rows
…
