…
`.groups` argument.
`summarise()` has grouped output by 'theta'. You can override using the
`.groups` argument.
`summarise()` has grouped output by 'theta', 'tau'. You can override using the
`.groups` argument.
`summarise()` has grouped output by 'theta'. You can override using the
`.groups` argument.
`summarise()` has grouped output by 'theta', 'tau'. You can override using the
`.groups` argument.
`summarise()` has grouped output by 'theta'. You can override using the
`.groups` argument.
[1] ""
[1] "Total run time was 48.624 seconds"
[1] "Estimation result: "
# A tibble: 360 × 5
   estimand theta   tau   est     se
   <chr>    <dbl> <dbl> <dbl>  <dbl>
 1 mu         0.1   0.1 0.261 0.144 
 2 mu         0.1   0.2 0.335 0.144 
 3 mu         0.1   0.3 0.328 0.142 
 4 mu         0.1   0.4 0.325 0.134 
 5 mu         0.1   0.5 0.353 0.134 
 6 mu         0.2   0.1 0.233 0.0868
 7 mu         0.2   0.2 0.302 0.0900
 8 mu         0.2   0.3 0.305 0.0888
 9 mu         0.2   0.4 0.315 0.0889
10 mu         0.2   0.5 0.375 0.104 
# ℹ 350 more rows
…
