…
`.groups` argument.
`summarise()` has grouped output by 'theta'. You can override using the
`.groups` argument.
`summarise()` has grouped output by 'theta', 'tau'. You can override using the
`.groups` argument.
`summarise()` has grouped output by 'theta'. You can override using the
`.groups` argument.
`summarise()` has grouped output by 'theta', 'tau'. You can override using the
`.groups` argument.
`summarise()` has grouped output by 'theta'. You can override using the
`.groups` argument.
[1] ""
[1] "Total run time was 58.836 seconds"
[1] "Estimation result: "
# A tibble: 360 × 5
   estimand theta   tau   est     se
   <chr>    <dbl> <dbl> <dbl>  <dbl>
 1 mu         0.1   0.1 0.307 0.124 
 2 mu         0.1   0.2 0.597 0.187 
 3 mu         0.1   0.3 0.583 0.181 
 4 mu         0.1   0.4 0.604 0.177 
 5 mu         0.1   0.5 0.655 0.181 
 6 mu         0.2   0.1 0.365 0.0913
 7 mu         0.2   0.2 0.575 0.123 
 8 mu         0.2   0.3 0.581 0.121 
 9 mu         0.2   0.4 0.625 0.120 
10 mu         0.2   0.5 0.674 0.124 
# ℹ 350 more rows
…
