…
`.groups` argument.
`summarise()` has grouped output by 'theta'. You can override using the
`.groups` argument.
`summarise()` has grouped output by 'theta', 'tau'. You can override using the
`.groups` argument.
`summarise()` has grouped output by 'theta'. You can override using the
`.groups` argument.
`summarise()` has grouped output by 'theta', 'tau'. You can override using the
`.groups` argument.
`summarise()` has grouped output by 'theta'. You can override using the
`.groups` argument.
[1] ""
[1] "Total run time was 88.073 seconds"
[1] "Estimation result: "
# A tibble: 360 × 5
   estimand theta   tau   est     se
   <chr>    <dbl> <dbl> <dbl>  <dbl>
 1 mu         0.1   0.1 0.318 0.0804
 2 mu         0.1   0.2 0.413 0.0866
 3 mu         0.1   0.3 0.505 0.109 
 4 mu         0.1   0.4 0.569 0.105 
 5 mu         0.1   0.5 0.598 0.111 
 6 mu         0.2   0.1 0.354 0.0495
 7 mu         0.2   0.2 0.437 0.0537
 8 mu         0.2   0.3 0.501 0.0641
 9 mu         0.2   0.4 0.553 0.0631
10 mu         0.2   0.5 0.589 0.0677
# ℹ 350 more rows
…
