…
`.groups` argument.
`summarise()` has grouped output by 'theta'. You can override using the
`.groups` argument.
`summarise()` has grouped output by 'theta', 'tau'. You can override using the
`.groups` argument.
`summarise()` has grouped output by 'theta'. You can override using the
`.groups` argument.
`summarise()` has grouped output by 'theta', 'tau'. You can override using the
`.groups` argument.
`summarise()` has grouped output by 'theta'. You can override using the
`.groups` argument.
[1] ""
[1] "Total run time was 97.686 seconds"
[1] "Estimation result: "
# A tibble: 360 × 5
   estimand theta   tau   est     se
   <chr>    <dbl> <dbl> <dbl>  <dbl>
 1 mu         0.1   0.1 0.369 0.118 
 2 mu         0.1   0.2 0.418 0.134 
 3 mu         0.1   0.3 0.543 0.181 
 4 mu         0.1   0.4 0.567 0.169 
 5 mu         0.1   0.5 0.595 0.174 
 6 mu         0.2   0.1 0.270 0.0561
 7 mu         0.2   0.2 0.324 0.0620
 8 mu         0.2   0.3 0.399 0.0854
 9 mu         0.2   0.4 0.448 0.0788
10 mu         0.2   0.5 0.486 0.0824
# ℹ 350 more rows
…
