…
`.groups` argument.
`summarise()` has grouped output by 'theta'. You can override using the
`.groups` argument.
`summarise()` has grouped output by 'theta', 'tau'. You can override using the
`.groups` argument.
`summarise()` has grouped output by 'theta'. You can override using the
`.groups` argument.
`summarise()` has grouped output by 'theta', 'tau'. You can override using the
`.groups` argument.
`summarise()` has grouped output by 'theta'. You can override using the
`.groups` argument.
[1] ""
[1] "Total run time was 261.474 seconds"
[1] "Estimation result: "
# A tibble: 360 × 5
   estimand theta   tau   est     se
   <chr>    <dbl> <dbl> <dbl>  <dbl>
 1 mu         0.1   0.1 0.320 0.127 
 2 mu         0.1   0.2 0.365 0.174 
 3 mu         0.1   0.3 0.419 0.185 
 4 mu         0.1   0.4 0.484 0.148 
 5 mu         0.1   0.5 0.509 0.161 
 6 mu         0.2   0.1 0.264 0.0952
 7 mu         0.2   0.2 0.312 0.129 
 8 mu         0.2   0.3 0.372 0.138 
 9 mu         0.2   0.4 0.443 0.108 
10 mu         0.2   0.5 0.478 0.120 
# ℹ 350 more rows
…
