…
`.groups` argument.
`summarise()` has grouped output by 'theta'. You can override using the
`.groups` argument.
`summarise()` has grouped output by 'theta', 'tau'. You can override using the
`.groups` argument.
`summarise()` has grouped output by 'theta'. You can override using the
`.groups` argument.
`summarise()` has grouped output by 'theta', 'tau'. You can override using the
`.groups` argument.
`summarise()` has grouped output by 'theta'. You can override using the
`.groups` argument.
[1] ""
[1] "Total run time was 252.373 seconds"
[1] "Estimation result: "
# A tibble: 360 × 5
   estimand theta   tau   est     se
   <chr>    <dbl> <dbl> <dbl>  <dbl>
 1 mu         0.1   0.1 0.331 0.0679
 2 mu         0.1   0.2 0.470 0.0642
 3 mu         0.1   0.3 0.484 0.0662
 4 mu         0.1   0.4 0.520 0.0655
 5 mu         0.1   0.5 0.538 0.0672
 6 mu         0.2   0.1 0.308 0.0445
 7 mu         0.2   0.2 0.427 0.0444
 8 mu         0.2   0.3 0.454 0.0441
 9 mu         0.2   0.4 0.502 0.0389
10 mu         0.2   0.5 0.524 0.0395
# ℹ 350 more rows
…
