…
`.groups` argument.
`summarise()` has grouped output by 'theta'. You can override using the
`.groups` argument.
`summarise()` has grouped output by 'theta', 'tau'. You can override using the
`.groups` argument.
`summarise()` has grouped output by 'theta'. You can override using the
`.groups` argument.
`summarise()` has grouped output by 'theta', 'tau'. You can override using the
`.groups` argument.
`summarise()` has grouped output by 'theta'. You can override using the
`.groups` argument.
[1] ""
[1] "Total run time was 238.196 seconds"
[1] "Estimation result: "
# A tibble: 360 × 5
   estimand theta   tau   est     se
   <chr>    <dbl> <dbl> <dbl>  <dbl>
 1 mu         0.1   0.1 0.438 0.0941
 2 mu         0.1   0.2 0.525 0.120 
 3 mu         0.1   0.3 0.583 0.136 
 4 mu         0.1   0.4 0.592 0.119 
 5 mu         0.1   0.5 0.616 0.105 
 6 mu         0.2   0.1 0.393 0.0675
 7 mu         0.2   0.2 0.475 0.0867
 8 mu         0.2   0.3 0.526 0.0994
 9 mu         0.2   0.4 0.544 0.0819
10 mu         0.2   0.5 0.569 0.0685
# ℹ 350 more rows
…
