…
`.groups` argument.
`summarise()` has grouped output by 'theta'. You can override using the
`.groups` argument.
`summarise()` has grouped output by 'theta', 'tau'. You can override using the
`.groups` argument.
`summarise()` has grouped output by 'theta'. You can override using the
`.groups` argument.
`summarise()` has grouped output by 'theta', 'tau'. You can override using the
`.groups` argument.
`summarise()` has grouped output by 'theta'. You can override using the
`.groups` argument.
[1] ""
[1] "Total run time was 265.25 seconds"
[1] "Estimation result: "
# A tibble: 360 × 5
   estimand theta   tau   est     se
   <chr>    <dbl> <dbl> <dbl>  <dbl>
 1 mu         0.1   0.1 0.519 0.0939
 2 mu         0.1   0.2 0.612 0.0786
 3 mu         0.1   0.3 0.636 0.0791
 4 mu         0.1   0.4 0.662 0.0837
 5 mu         0.1   0.5 0.681 0.0851
 6 mu         0.2   0.1 0.409 0.0646
 7 mu         0.2   0.2 0.521 0.0438
 8 mu         0.2   0.3 0.558 0.0437
 9 mu         0.2   0.4 0.592 0.0497
10 mu         0.2   0.5 0.619 0.0470
# ℹ 350 more rows
…
