…
`summarise()` has grouped output by 'theta', 'tau'. You can override using the
`.groups` argument.
`summarise()` has grouped output by 'theta'. You can override using the
`.groups` argument.
`summarise()` has grouped output by 'theta', 'tau'. You can override using the
`.groups` argument.
`summarise()` has grouped output by 'theta'. You can override using the
`.groups` argument.
[1] ""
[1] "Total run time was 1981.634 seconds"
Warning message:
In checkConv(attr(opt, "derivs"), opt$par, ctrl = control$checkConv,  :
  Model failed to converge with max|grad| = 0.00367792 (tol = 0.002, component 1)
[1] "Estimation result: "
# A tibble: 440 × 5
   estimand theta   tau   est     se
   <chr>    <dbl> <dbl> <dbl>  <dbl>
 1 mu         0     0.1 0.160 0.0128
 2 mu         0     0.2 0.207 0.0138
 3 mu         0     0.3 0.246 0.0138
 4 mu         0     0.4 0.282 0.0141
 5 mu         0     0.5 0.317 0.0140
 6 mu         0.1   0.1 0.158 0.0127
 7 mu         0.1   0.2 0.205 0.0138
 8 mu         0.1   0.3 0.243 0.0137
 9 mu         0.1   0.4 0.279 0.0140
10 mu         0.1   0.5 0.315 0.0139
# ℹ 430 more rows
…
