…
`summarise()` has grouped output by 'theta', 'tau'. You can override using the
`.groups` argument.
`summarise()` has grouped output by 'theta'. You can override using the
`.groups` argument.
`summarise()` has grouped output by 'theta', 'tau'. You can override using the
`.groups` argument.
`summarise()` has grouped output by 'theta'. You can override using the
`.groups` argument.
[1] ""
[1] "Total run time was 1268.943 seconds"
Warning message:
In checkConv(attr(opt, "derivs"), opt$par, ctrl = control$checkConv,  :
  Model failed to converge with max|grad| = 0.00273857 (tol = 0.002, component 1)
[1] "Estimation result: "
# A tibble: 440 × 5
   estimand theta   tau   est     se
   <chr>    <dbl> <dbl> <dbl>  <dbl>
 1 mu         0     0.1 0.152 0.0113
 2 mu         0     0.2 0.200 0.0123
 3 mu         0     0.3 0.244 0.0129
 4 mu         0     0.4 0.279 0.0133
 5 mu         0     0.5 0.317 0.0140
 6 mu         0.1   0.1 0.152 0.0114
 7 mu         0.1   0.2 0.200 0.0124
 8 mu         0.1   0.3 0.244 0.0129
 9 mu         0.1   0.4 0.279 0.0134
10 mu         0.1   0.5 0.317 0.0140
# ℹ 430 more rows
…
