…
`summarise()` has grouped output by 'theta'. You can override using the
`.groups` argument.
`summarise()` has grouped output by 'theta', 'tau'. You can override using the
`.groups` argument.
`summarise()` has grouped output by 'theta'. You can override using the
`.groups` argument.
[1] ""
[1] "Total run time was 1799.7 seconds"
Warning messages:
1: In checkConv(attr(opt, "derivs"), opt$par, ctrl = control$checkConv,  :
  Model failed to converge with max|grad| = 0.00274021 (tol = 0.002, component 1)
2: In checkConv(attr(opt, "derivs"), opt$par, ctrl = control$checkConv,  :
  Model failed to converge with max|grad| = 0.00601666 (tol = 0.002, component 1)
[1] "Estimation result: "
# A tibble: 440 × 5
   estimand theta   tau   est     se
   <chr>    <dbl> <dbl> <dbl>  <dbl>
 1 mu         0     0.1 0.155 0.0115
 2 mu         0     0.2 0.205 0.0121
 3 mu         0     0.3 0.258 0.0131
 4 mu         0     0.4 0.307 0.0140
 5 mu         0     0.5 0.341 0.0145
 6 mu         0.1   0.1 0.152 0.0115
 7 mu         0.1   0.2 0.202 0.0120
 8 mu         0.1   0.3 0.254 0.0131
 9 mu         0.1   0.4 0.304 0.0139
10 mu         0.1   0.5 0.337 0.0143
# ℹ 430 more rows
…
