…
`summarise()` has grouped output by 'theta'. You can override using the
`.groups` argument.
`summarise()` has grouped output by 'theta', 'tau'. You can override using the
`.groups` argument.
`summarise()` has grouped output by 'theta'. You can override using the
`.groups` argument.
[1] ""
[1] "Total run time was 1092.186 seconds"
Warning messages:
1: In checkConv(attr(opt, "derivs"), opt$par, ctrl = control$checkConv,  :
  Model failed to converge with max|grad| = 0.00209043 (tol = 0.002, component 1)
2: In checkConv(attr(opt, "derivs"), opt$par, ctrl = control$checkConv,  :
  Model failed to converge with max|grad| = 0.0121839 (tol = 0.002, component 1)
[1] "Estimation result: "
# A tibble: 440 × 5
   estimand theta   tau   est     se
   <chr>    <dbl> <dbl> <dbl>  <dbl>
 1 mu         0     0.1 0.147 0.0111
 2 mu         0     0.2 0.201 0.0119
 3 mu         0     0.3 0.241 0.0131
 4 mu         0     0.4 0.279 0.0135
 5 mu         0     0.5 0.323 0.0140
 6 mu         0.1   0.1 0.145 0.0111
 7 mu         0.1   0.2 0.198 0.0120
 8 mu         0.1   0.3 0.238 0.0132
 9 mu         0.1   0.4 0.277 0.0136
10 mu         0.1   0.5 0.321 0.0141
# ℹ 430 more rows
…
