…
`summarise()` has grouped output by 'theta'. You can override using the
`.groups` argument.
`summarise()` has grouped output by 'theta', 'tau'. You can override using the
`.groups` argument.
`summarise()` has grouped output by 'theta'. You can override using the
`.groups` argument.
[1] ""
[1] "Total run time was 704.833 seconds"
Warning messages:
1: In checkConv(attr(opt, "derivs"), opt$par, ctrl = control$checkConv,  :
  Model failed to converge with max|grad| = 0.023765 (tol = 0.002, component 1)
2: In checkConv(attr(opt, "derivs"), opt$par, ctrl = control$checkConv,  :
  Model failed to converge with max|grad| = 0.0072343 (tol = 0.002, component 1)
[1] "Estimation result: "
# A tibble: 440 × 5
   estimand theta   tau   est      se
   <chr>    <dbl> <dbl> <dbl>   <dbl>
 1 mu         0     0.1 0.154 0.0102 
 2 mu         0     0.2 0.210 0.0112 
 3 mu         0     0.3 0.257 0.0120 
 4 mu         0     0.4 0.300 0.0129 
 5 mu         0     0.5 0.329 0.0133 
 6 mu         0.1   0.1 0.149 0.00950
 7 mu         0.1   0.2 0.203 0.0105 
 8 mu         0.1   0.3 0.251 0.0114 
 9 mu         0.1   0.4 0.294 0.0125 
10 mu         0.1   0.5 0.323 0.0130 
# ℹ 430 more rows
…
