…
`.groups` argument.
`summarise()` has grouped output by 'theta'. You can override using the
`.groups` argument.
`summarise()` has grouped output by 'theta', 'tau'. You can override using the
`.groups` argument.
`summarise()` has grouped output by 'theta'. You can override using the
`.groups` argument.
`summarise()` has grouped output by 'theta', 'tau'. You can override using the
`.groups` argument.
`summarise()` has grouped output by 'theta'. You can override using the
`.groups` argument.
[1] ""
[1] "Total run time was 61.16 seconds"
[1] "Estimation result: "
# A tibble: 360 × 5
   estimand theta   tau   est     se
   <chr>    <dbl> <dbl> <dbl>  <dbl>
 1 mu         0.1   0.1 0.482 0.118 
 2 mu         0.1   0.2 0.544 0.118 
 3 mu         0.1   0.3 0.690 0.170 
 4 mu         0.1   0.4 0.689 0.155 
 5 mu         0.1   0.5 0.767 0.189 
 6 mu         0.2   0.1 0.350 0.0602
 7 mu         0.2   0.2 0.417 0.0516
 8 mu         0.2   0.3 0.519 0.0764
 9 mu         0.2   0.4 0.535 0.0680
10 mu         0.2   0.5 0.590 0.0819
# ℹ 350 more rows
…
