…
`.groups` argument.
`summarise()` has grouped output by 'theta'. You can override using the
`.groups` argument.
`summarise()` has grouped output by 'theta', 'tau'. You can override using the
`.groups` argument.
`summarise()` has grouped output by 'theta'. You can override using the
`.groups` argument.
`summarise()` has grouped output by 'theta', 'tau'. You can override using the
`.groups` argument.
`summarise()` has grouped output by 'theta'. You can override using the
`.groups` argument.
[1] ""
[1] "Total run time was 56.881 seconds"
[1] "Estimation result: "
# A tibble: 360 × 5
   estimand theta   tau   est     se
   <chr>    <dbl> <dbl> <dbl>  <dbl>
 1 mu         0.1   0.1 0.260 0.0867
 2 mu         0.1   0.2 0.329 0.0816
 3 mu         0.1   0.3 0.395 0.107 
 4 mu         0.1   0.4 0.431 0.130 
 5 mu         0.1   0.5 0.463 0.125 
 6 mu         0.2   0.1 0.282 0.0650
 7 mu         0.2   0.2 0.363 0.0579
 8 mu         0.2   0.3 0.413 0.0786
 9 mu         0.2   0.4 0.461 0.0969
10 mu         0.2   0.5 0.506 0.0908
# ℹ 350 more rows
…
