…
`.groups` argument.
`summarise()` has grouped output by 'theta'. You can override using the
`.groups` argument.
`summarise()` has grouped output by 'theta', 'tau'. You can override using the
`.groups` argument.
`summarise()` has grouped output by 'theta'. You can override using the
`.groups` argument.
`summarise()` has grouped output by 'theta', 'tau'. You can override using the
`.groups` argument.
`summarise()` has grouped output by 'theta'. You can override using the
`.groups` argument.
[1] ""
[1] "Total run time was 100.759 seconds"
[1] "Estimation result: "
# A tibble: 360 × 5
   estimand theta   tau   est     se
   <chr>    <dbl> <dbl> <dbl>  <dbl>
 1 mu         0.1   0.1 0.348 0.0930
 2 mu         0.1   0.2 0.460 0.0905
 3 mu         0.1   0.3 0.479 0.107 
 4 mu         0.1   0.4 0.582 0.106 
 5 mu         0.1   0.5 0.583 0.112 
 6 mu         0.2   0.1 0.335 0.0494
 7 mu         0.2   0.2 0.426 0.0628
 8 mu         0.2   0.3 0.438 0.0681
 9 mu         0.2   0.4 0.501 0.0600
10 mu         0.2   0.5 0.518 0.0699
# ℹ 350 more rows
…
