…
`.groups` argument.
`summarise()` has grouped output by 'theta'. You can override using the
`.groups` argument.
`summarise()` has grouped output by 'theta', 'tau'. You can override using the
`.groups` argument.
`summarise()` has grouped output by 'theta'. You can override using the
`.groups` argument.
`summarise()` has grouped output by 'theta', 'tau'. You can override using the
`.groups` argument.
`summarise()` has grouped output by 'theta'. You can override using the
`.groups` argument.
[1] ""
[1] "Total run time was 82.211 seconds"
[1] "Estimation result: "
# A tibble: 360 × 5
   estimand theta   tau   est     se
   <chr>    <dbl> <dbl> <dbl>  <dbl>
 1 mu         0.1   0.1 0.409 0.0846
 2 mu         0.1   0.2 0.492 0.104 
 3 mu         0.1   0.3 0.650 0.120 
 4 mu         0.1   0.4 0.662 0.119 
 5 mu         0.1   0.5 0.674 0.123 
 6 mu         0.2   0.1 0.353 0.0519
 7 mu         0.2   0.2 0.435 0.0609
 8 mu         0.2   0.3 0.543 0.0734
 9 mu         0.2   0.4 0.566 0.0742
10 mu         0.2   0.5 0.595 0.0817
# ℹ 350 more rows
…
