…
`.groups` argument.
`summarise()` has grouped output by 'theta'. You can override using the
`.groups` argument.
`summarise()` has grouped output by 'theta', 'tau'. You can override using the
`.groups` argument.
`summarise()` has grouped output by 'theta'. You can override using the
`.groups` argument.
`summarise()` has grouped output by 'theta', 'tau'. You can override using the
`.groups` argument.
`summarise()` has grouped output by 'theta'. You can override using the
`.groups` argument.
[1] ""
[1] "Total run time was 68.346 seconds"
[1] "Estimation result: "
# A tibble: 360 × 5
   estimand theta   tau   est     se
   <chr>    <dbl> <dbl> <dbl>  <dbl>
 1 mu         0.1   0.1 0.172 0.182 
 2 mu         0.1   0.2 0.351 0.132 
 3 mu         0.1   0.3 0.397 0.193 
 4 mu         0.1   0.4 0.396 0.194 
 5 mu         0.1   0.5 0.436 0.220 
 6 mu         0.2   0.1 0.242 0.0969
 7 mu         0.2   0.2 0.384 0.0710
 8 mu         0.2   0.3 0.452 0.100 
 9 mu         0.2   0.4 0.476 0.103 
10 mu         0.2   0.5 0.530 0.116 
# ℹ 350 more rows
…
