…
`.groups` argument.
`summarise()` has grouped output by 'theta'. You can override using the
`.groups` argument.
`summarise()` has grouped output by 'theta', 'tau'. You can override using the
`.groups` argument.
`summarise()` has grouped output by 'theta'. You can override using the
`.groups` argument.
`summarise()` has grouped output by 'theta', 'tau'. You can override using the
`.groups` argument.
`summarise()` has grouped output by 'theta'. You can override using the
`.groups` argument.
[1] ""
[1] "Total run time was 58.657 seconds"
[1] "Estimation result: "
# A tibble: 360 × 5
   estimand theta   tau   est     se
   <chr>    <dbl> <dbl> <dbl>  <dbl>
 1 mu         0.1   0.1 0.246 0.109 
 2 mu         0.1   0.2 0.299 0.0776
 3 mu         0.1   0.3 0.450 0.134 
 4 mu         0.1   0.4 0.467 0.131 
 5 mu         0.1   0.5 0.456 0.118 
 6 mu         0.2   0.1 0.277 0.0920
 7 mu         0.2   0.2 0.347 0.0599
 8 mu         0.2   0.3 0.490 0.111 
 9 mu         0.2   0.4 0.517 0.109 
10 mu         0.2   0.5 0.510 0.0946
# ℹ 350 more rows
…
