…
`.groups` argument.
`summarise()` has grouped output by 'theta'. You can override using the
`.groups` argument.
`summarise()` has grouped output by 'theta', 'tau'. You can override using the
`.groups` argument.
`summarise()` has grouped output by 'theta'. You can override using the
`.groups` argument.
`summarise()` has grouped output by 'theta', 'tau'. You can override using the
`.groups` argument.
`summarise()` has grouped output by 'theta'. You can override using the
`.groups` argument.
[1] ""
[1] "Total run time was 57.163 seconds"
[1] "Estimation result: "
# A tibble: 360 × 5
   estimand theta   tau   est     se
   <chr>    <dbl> <dbl> <dbl>  <dbl>
 1 mu         0.1   0.1 0.674 0.128 
 2 mu         0.1   0.2 0.714 0.117 
 3 mu         0.1   0.3 0.752 0.119 
 4 mu         0.1   0.4 0.789 0.128 
 5 mu         0.1   0.5 0.792 0.133 
 6 mu         0.2   0.1 0.487 0.0625
 7 mu         0.2   0.2 0.514 0.0505
 8 mu         0.2   0.3 0.556 0.0457
 9 mu         0.2   0.4 0.597 0.0472
10 mu         0.2   0.5 0.611 0.0491
# ℹ 350 more rows
…
