…
`.groups` argument.
`summarise()` has grouped output by 'theta'. You can override using the
`.groups` argument.
`summarise()` has grouped output by 'theta', 'tau'. You can override using the
`.groups` argument.
`summarise()` has grouped output by 'theta'. You can override using the
`.groups` argument.
`summarise()` has grouped output by 'theta', 'tau'. You can override using the
`.groups` argument.
`summarise()` has grouped output by 'theta'. You can override using the
`.groups` argument.
[1] ""
[1] "Total run time was 80.797 seconds"
[1] "Estimation result: "
# A tibble: 360 × 5
   estimand theta   tau   est     se
   <chr>    <dbl> <dbl> <dbl>  <dbl>
 1 mu         0.1   0.1 0.496 0.104 
 2 mu         0.1   0.2 0.625 0.130 
 3 mu         0.1   0.3 0.685 0.137 
 4 mu         0.1   0.4 0.694 0.139 
 5 mu         0.1   0.5 0.784 0.151 
 6 mu         0.2   0.1 0.435 0.0628
 7 mu         0.2   0.2 0.538 0.0772
 8 mu         0.2   0.3 0.591 0.0771
 9 mu         0.2   0.4 0.607 0.0749
10 mu         0.2   0.5 0.689 0.0747
# ℹ 350 more rows
…
