…
`.groups` argument.
`summarise()` has grouped output by 'theta'. You can override using the
`.groups` argument.
`summarise()` has grouped output by 'theta', 'tau'. You can override using the
`.groups` argument.
`summarise()` has grouped output by 'theta'. You can override using the
`.groups` argument.
`summarise()` has grouped output by 'theta', 'tau'. You can override using the
`.groups` argument.
`summarise()` has grouped output by 'theta'. You can override using the
`.groups` argument.
[1] ""
[1] "Total run time was 84.85 seconds"
[1] "Estimation result: "
# A tibble: 360 × 5
   estimand theta   tau   est     se
   <chr>    <dbl> <dbl> <dbl>  <dbl>
 1 mu         0.1   0.1 0.279 0.0748
 2 mu         0.1   0.2 0.387 0.105 
 3 mu         0.1   0.3 0.451 0.117 
 4 mu         0.1   0.4 0.454 0.126 
 5 mu         0.1   0.5 0.450 0.132 
 6 mu         0.2   0.1 0.331 0.0640
 7 mu         0.2   0.2 0.457 0.0909
 8 mu         0.2   0.3 0.540 0.103 
 9 mu         0.2   0.4 0.561 0.109 
10 mu         0.2   0.5 0.562 0.113 
# ℹ 350 more rows
…
