…
`.groups` argument.
`summarise()` has grouped output by 'theta'. You can override using the
`.groups` argument.
`summarise()` has grouped output by 'theta', 'tau'. You can override using the
`.groups` argument.
`summarise()` has grouped output by 'theta'. You can override using the
`.groups` argument.
`summarise()` has grouped output by 'theta', 'tau'. You can override using the
`.groups` argument.
`summarise()` has grouped output by 'theta'. You can override using the
`.groups` argument.
[1] ""
[1] "Total run time was 57.266 seconds"
[1] "Estimation result: "
# A tibble: 360 × 5
   estimand theta   tau   est     se
   <chr>    <dbl> <dbl> <dbl>  <dbl>
 1 mu         0.1   0.1 0.281 0.0950
 2 mu         0.1   0.2 0.268 0.0864
 3 mu         0.1   0.3 0.262 0.113 
 4 mu         0.1   0.4 0.262 0.116 
 5 mu         0.1   0.5 0.279 0.136 
 6 mu         0.2   0.1 0.390 0.162 
 7 mu         0.2   0.2 0.394 0.140 
 8 mu         0.2   0.3 0.416 0.163 
 9 mu         0.2   0.4 0.439 0.154 
10 mu         0.2   0.5 0.469 0.172 
# ℹ 350 more rows
…
