…
`.groups` argument.
`summarise()` has grouped output by 'theta'. You can override using the
`.groups` argument.
`summarise()` has grouped output by 'theta', 'tau'. You can override using the
`.groups` argument.
`summarise()` has grouped output by 'theta'. You can override using the
`.groups` argument.
`summarise()` has grouped output by 'theta', 'tau'. You can override using the
`.groups` argument.
`summarise()` has grouped output by 'theta'. You can override using the
`.groups` argument.
[1] ""
[1] "Total run time was 65.852 seconds"
[1] "Estimation result: "
# A tibble: 360 × 5
   estimand theta   tau   est     se
   <chr>    <dbl> <dbl> <dbl>  <dbl>
 1 mu         0.1   0.1 0.255 0.0628
 2 mu         0.1   0.2 0.331 0.133 
 3 mu         0.1   0.3 0.340 0.170 
 4 mu         0.1   0.4 0.338 0.201 
 5 mu         0.1   0.5 0.421 0.190 
 6 mu         0.2   0.1 0.329 0.0574
 7 mu         0.2   0.2 0.393 0.111 
 8 mu         0.2   0.3 0.411 0.146 
 9 mu         0.2   0.4 0.417 0.174 
10 mu         0.2   0.5 0.514 0.163 
# ℹ 350 more rows
…
