…
`.groups` argument.
`summarise()` has grouped output by 'theta'. You can override using the
`.groups` argument.
`summarise()` has grouped output by 'theta', 'tau'. You can override using the
`.groups` argument.
`summarise()` has grouped output by 'theta'. You can override using the
`.groups` argument.
`summarise()` has grouped output by 'theta', 'tau'. You can override using the
`.groups` argument.
`summarise()` has grouped output by 'theta'. You can override using the
`.groups` argument.
[1] ""
[1] "Total run time was 94.231 seconds"
[1] "Estimation result: "
# A tibble: 360 × 5
   estimand theta   tau   est     se
   <chr>    <dbl> <dbl> <dbl>  <dbl>
 1 mu         0.1   0.1 0.566 0.214 
 2 mu         0.1   0.2 0.639 0.243 
 3 mu         0.1   0.3 0.751 0.283 
 4 mu         0.1   0.4 0.857 0.321 
 5 mu         0.1   0.5 0.890 0.339 
 6 mu         0.2   0.1 0.360 0.0857
 7 mu         0.2   0.2 0.425 0.0920
 8 mu         0.2   0.3 0.490 0.106 
 9 mu         0.2   0.4 0.549 0.121 
10 mu         0.2   0.5 0.575 0.128 
# ℹ 350 more rows
…
