…
`.groups` argument.
`summarise()` has grouped output by 'theta'. You can override using the
`.groups` argument.
`summarise()` has grouped output by 'theta', 'tau'. You can override using the
`.groups` argument.
`summarise()` has grouped output by 'theta'. You can override using the
`.groups` argument.
`summarise()` has grouped output by 'theta', 'tau'. You can override using the
`.groups` argument.
`summarise()` has grouped output by 'theta'. You can override using the
`.groups` argument.
[1] ""
[1] "Total run time was 58.769 seconds"
[1] "Estimation result: "
# A tibble: 360 × 5
   estimand theta   tau   est     se
   <chr>    <dbl> <dbl> <dbl>  <dbl>
 1 mu         0.1   0.1 0.115 0.126 
 2 mu         0.1   0.2 0.197 0.0896
 3 mu         0.1   0.3 0.167 0.118 
 4 mu         0.1   0.4 0.198 0.136 
 5 mu         0.1   0.5 0.212 0.160 
 6 mu         0.2   0.1 0.178 0.0966
 7 mu         0.2   0.2 0.261 0.0632
 8 mu         0.2   0.3 0.255 0.0884
 9 mu         0.2   0.4 0.289 0.100 
10 mu         0.2   0.5 0.313 0.118 
# ℹ 350 more rows
…
