…
`.groups` argument.
`summarise()` has grouped output by 'theta'. You can override using the
`.groups` argument.
`summarise()` has grouped output by 'theta', 'tau'. You can override using the
`.groups` argument.
`summarise()` has grouped output by 'theta'. You can override using the
`.groups` argument.
`summarise()` has grouped output by 'theta', 'tau'. You can override using the
`.groups` argument.
`summarise()` has grouped output by 'theta'. You can override using the
`.groups` argument.
[1] ""
[1] "Total run time was 62.363 seconds"
[1] "Estimation result: "
# A tibble: 360 × 5
   estimand theta   tau   est     se
   <chr>    <dbl> <dbl> <dbl>  <dbl>
 1 mu         0.1   0.1 0.512 0.104 
 2 mu         0.1   0.2 0.656 0.119 
 3 mu         0.1   0.3 0.715 0.122 
 4 mu         0.1   0.4 0.822 0.133 
 5 mu         0.1   0.5 0.864 0.139 
 6 mu         0.2   0.1 0.387 0.0726
 7 mu         0.2   0.2 0.502 0.0657
 8 mu         0.2   0.3 0.541 0.0650
 9 mu         0.2   0.4 0.622 0.0656
10 mu         0.2   0.5 0.672 0.0592
# ℹ 350 more rows
…
