…
`.groups` argument.
`summarise()` has grouped output by 'theta'. You can override using the
`.groups` argument.
`summarise()` has grouped output by 'theta', 'tau'. You can override using the
`.groups` argument.
`summarise()` has grouped output by 'theta'. You can override using the
`.groups` argument.
`summarise()` has grouped output by 'theta', 'tau'. You can override using the
`.groups` argument.
`summarise()` has grouped output by 'theta'. You can override using the
`.groups` argument.
[1] ""
[1] "Total run time was 99.318 seconds"
[1] "Estimation result: "
# A tibble: 360 × 5
   estimand theta   tau   est     se
   <chr>    <dbl> <dbl> <dbl>  <dbl>
 1 mu         0.1   0.1 0.608 0.127 
 2 mu         0.1   0.2 0.721 0.160 
 3 mu         0.1   0.3 0.821 0.178 
 4 mu         0.1   0.4 0.856 0.184 
 5 mu         0.1   0.5 0.869 0.184 
 6 mu         0.2   0.1 0.444 0.0516
 7 mu         0.2   0.2 0.532 0.0649
 8 mu         0.2   0.3 0.615 0.0786
 9 mu         0.2   0.4 0.645 0.0836
10 mu         0.2   0.5 0.667 0.0813
# ℹ 350 more rows
…
