…
`.groups` argument.
`summarise()` has grouped output by 'theta'. You can override using the
`.groups` argument.
`summarise()` has grouped output by 'theta', 'tau'. You can override using the
`.groups` argument.
`summarise()` has grouped output by 'theta'. You can override using the
`.groups` argument.
`summarise()` has grouped output by 'theta', 'tau'. You can override using the
`.groups` argument.
`summarise()` has grouped output by 'theta'. You can override using the
`.groups` argument.
[1] ""
[1] "Total run time was 122.234 seconds"
[1] "Estimation result: "
# A tibble: 360 × 5
   estimand theta   tau   est    se
   <chr>    <dbl> <dbl> <dbl> <dbl>
 1 mu         0.1   0.1 0.640 0.349
 2 mu         0.1   0.2 0.701 0.416
 3 mu         0.1   0.3 0.761 0.441
 4 mu         0.1   0.4 0.766 0.466
 5 mu         0.1   0.5 0.766 0.494
 6 mu         0.2   0.1 0.456 0.173
 7 mu         0.2   0.2 0.498 0.206
 8 mu         0.2   0.3 0.553 0.221
 9 mu         0.2   0.4 0.553 0.232
10 mu         0.2   0.5 0.548 0.247
# ℹ 350 more rows
…
