…
`.groups` argument.
`summarise()` has grouped output by 'theta'. You can override using the
`.groups` argument.
`summarise()` has grouped output by 'theta', 'tau'. You can override using the
`.groups` argument.
`summarise()` has grouped output by 'theta'. You can override using the
`.groups` argument.
`summarise()` has grouped output by 'theta', 'tau'. You can override using the
`.groups` argument.
`summarise()` has grouped output by 'theta'. You can override using the
`.groups` argument.
[1] ""
[1] "Total run time was 57.152 seconds"
[1] "Estimation result: "
# A tibble: 360 × 5
   estimand theta   tau   est     se
   <chr>    <dbl> <dbl> <dbl>  <dbl>
 1 mu         0.1   0.1 0.416 0.0692
 2 mu         0.1   0.2 0.466 0.0813
 3 mu         0.1   0.3 0.517 0.0771
 4 mu         0.1   0.4 0.543 0.0717
 5 mu         0.1   0.5 0.571 0.0754
 6 mu         0.2   0.1 0.401 0.0498
 7 mu         0.2   0.2 0.465 0.0563
 8 mu         0.2   0.3 0.527 0.0561
 9 mu         0.2   0.4 0.558 0.0498
10 mu         0.2   0.5 0.588 0.0517
# ℹ 350 more rows
…
