…
`.groups` argument.
`summarise()` has grouped output by 'theta'. You can override using the
`.groups` argument.
`summarise()` has grouped output by 'theta', 'tau'. You can override using the
`.groups` argument.
`summarise()` has grouped output by 'theta'. You can override using the
`.groups` argument.
`summarise()` has grouped output by 'theta', 'tau'. You can override using the
`.groups` argument.
`summarise()` has grouped output by 'theta'. You can override using the
`.groups` argument.
[1] ""
[1] "Total run time was 238.33 seconds"
[1] "Estimation result: "
# A tibble: 360 × 5
   estimand theta   tau   est     se
   <chr>    <dbl> <dbl> <dbl>  <dbl>
 1 mu         0.1   0.1 0.290 0.112 
 2 mu         0.1   0.2 0.411 0.152 
 3 mu         0.1   0.3 0.513 0.163 
 4 mu         0.1   0.4 0.564 0.170 
 5 mu         0.1   0.5 0.568 0.172 
 6 mu         0.2   0.1 0.285 0.0560
 7 mu         0.2   0.2 0.389 0.0803
 8 mu         0.2   0.3 0.489 0.0925
 9 mu         0.2   0.4 0.547 0.0920
10 mu         0.2   0.5 0.552 0.0889
# ℹ 350 more rows
…
