…
`.groups` argument.
`summarise()` has grouped output by 'theta'. You can override using the
`.groups` argument.
`summarise()` has grouped output by 'theta', 'tau'. You can override using the
`.groups` argument.
`summarise()` has grouped output by 'theta'. You can override using the
`.groups` argument.
`summarise()` has grouped output by 'theta', 'tau'. You can override using the
`.groups` argument.
`summarise()` has grouped output by 'theta'. You can override using the
`.groups` argument.
[1] ""
[1] "Total run time was 81.684 seconds"
[1] "Estimation result: "
# A tibble: 360 × 5
   estimand theta   tau   est     se
   <chr>    <dbl> <dbl> <dbl>  <dbl>
 1 mu         0.1   0.1 0.429 0.0902
 2 mu         0.1   0.2 0.502 0.0998
 3 mu         0.1   0.3 0.510 0.111 
 4 mu         0.1   0.4 0.665 0.195 
 5 mu         0.1   0.5 0.682 0.196 
 6 mu         0.2   0.1 0.346 0.0442
 7 mu         0.2   0.2 0.419 0.0510
 8 mu         0.2   0.3 0.450 0.0585
 9 mu         0.2   0.4 0.542 0.0945
10 mu         0.2   0.5 0.578 0.0949
# ℹ 350 more rows
…
