…
`.groups` argument.
`summarise()` has grouped output by 'theta'. You can override using the
`.groups` argument.
`summarise()` has grouped output by 'theta', 'tau'. You can override using the
`.groups` argument.
`summarise()` has grouped output by 'theta'. You can override using the
`.groups` argument.
`summarise()` has grouped output by 'theta', 'tau'. You can override using the
`.groups` argument.
`summarise()` has grouped output by 'theta'. You can override using the
`.groups` argument.
[1] ""
[1] "Total run time was 104.533 seconds"
[1] "Estimation result: "
# A tibble: 360 × 5
   estimand theta   tau   est     se
   <chr>    <dbl> <dbl> <dbl>  <dbl>
 1 mu         0.1   0.1 0.384 0.155 
 2 mu         0.1   0.2 0.456 0.201 
 3 mu         0.1   0.3 0.457 0.212 
 4 mu         0.1   0.4 0.519 0.238 
 5 mu         0.1   0.5 0.541 0.239 
 6 mu         0.2   0.1 0.308 0.0635
 7 mu         0.2   0.2 0.386 0.0798
 8 mu         0.2   0.3 0.408 0.0862
 9 mu         0.2   0.4 0.449 0.101 
10 mu         0.2   0.5 0.483 0.102 
# ℹ 350 more rows
…
