…
`.groups` argument.
`summarise()` has grouped output by 'theta'. You can override using the
`.groups` argument.
`summarise()` has grouped output by 'theta', 'tau'. You can override using the
`.groups` argument.
`summarise()` has grouped output by 'theta'. You can override using the
`.groups` argument.
`summarise()` has grouped output by 'theta', 'tau'. You can override using the
`.groups` argument.
`summarise()` has grouped output by 'theta'. You can override using the
`.groups` argument.
[1] ""
[1] "Total run time was 62.338 seconds"
[1] "Estimation result: "
# A tibble: 360 × 5
   estimand theta   tau   est     se
   <chr>    <dbl> <dbl> <dbl>  <dbl>
 1 mu         0.1   0.1 0.203 0.0554
 2 mu         0.1   0.2 0.321 0.0855
 3 mu         0.1   0.3 0.297 0.0788
 4 mu         0.1   0.4 0.338 0.0829
 5 mu         0.1   0.5 0.305 0.0834
 6 mu         0.2   0.1 0.277 0.0695
 7 mu         0.2   0.2 0.376 0.0669
 8 mu         0.2   0.3 0.378 0.0573
 9 mu         0.2   0.4 0.412 0.0611
10 mu         0.2   0.5 0.410 0.0528
# ℹ 350 more rows
…
