…
`.groups` argument.
`summarise()` has grouped output by 'theta'. You can override using the
`.groups` argument.
`summarise()` has grouped output by 'theta', 'tau'. You can override using the
`.groups` argument.
`summarise()` has grouped output by 'theta'. You can override using the
`.groups` argument.
`summarise()` has grouped output by 'theta', 'tau'. You can override using the
`.groups` argument.
`summarise()` has grouped output by 'theta'. You can override using the
`.groups` argument.
[1] ""
[1] "Total run time was 69.154 seconds"
[1] "Estimation result: "
# A tibble: 360 × 5
   estimand theta   tau   est     se
   <chr>    <dbl> <dbl> <dbl>  <dbl>
 1 mu         0.1   0.1 0.299 0.104 
 2 mu         0.1   0.2 0.351 0.123 
 3 mu         0.1   0.3 0.402 0.134 
 4 mu         0.1   0.4 0.483 0.166 
 5 mu         0.1   0.5 0.468 0.157 
 6 mu         0.2   0.1 0.315 0.0909
 7 mu         0.2   0.2 0.392 0.105 
 8 mu         0.2   0.3 0.451 0.116 
 9 mu         0.2   0.4 0.534 0.150 
10 mu         0.2   0.5 0.527 0.131 
# ℹ 350 more rows
…
