…
`.groups` argument.
`summarise()` has grouped output by 'theta'. You can override using the
`.groups` argument.
`summarise()` has grouped output by 'theta', 'tau'. You can override using the
`.groups` argument.
`summarise()` has grouped output by 'theta'. You can override using the
`.groups` argument.
`summarise()` has grouped output by 'theta', 'tau'. You can override using the
`.groups` argument.
`summarise()` has grouped output by 'theta'. You can override using the
`.groups` argument.
[1] ""
[1] "Total run time was 61.925 seconds"
[1] "Estimation result: "
# A tibble: 360 × 5
   estimand theta   tau   est     se
   <chr>    <dbl> <dbl> <dbl>  <dbl>
 1 mu         0.1   0.1 0.600 0.242 
 2 mu         0.1   0.2 0.769 0.297 
 3 mu         0.1   0.3 0.921 0.353 
 4 mu         0.1   0.4 0.961 0.379 
 5 mu         0.1   0.5 1.02  0.405 
 6 mu         0.2   0.1 0.458 0.0804
 7 mu         0.2   0.2 0.596 0.105 
 8 mu         0.2   0.3 0.712 0.140 
 9 mu         0.2   0.4 0.741 0.141 
10 mu         0.2   0.5 0.799 0.143 
# ℹ 350 more rows
…
