…
`.groups` argument.
`summarise()` has grouped output by 'theta'. You can override using the
`.groups` argument.
`summarise()` has grouped output by 'theta', 'tau'. You can override using the
`.groups` argument.
`summarise()` has grouped output by 'theta'. You can override using the
`.groups` argument.
`summarise()` has grouped output by 'theta', 'tau'. You can override using the
`.groups` argument.
`summarise()` has grouped output by 'theta'. You can override using the
`.groups` argument.
[1] ""
[1] "Total run time was 53.06 seconds"
[1] "Estimation result: "
# A tibble: 360 × 5
   estimand theta   tau   est    se
   <chr>    <dbl> <dbl> <dbl> <dbl>
 1 mu         0.1   0.1 0.386 0.178
 2 mu         0.1   0.2 0.471 0.209
 3 mu         0.1   0.3 0.476 0.207
 4 mu         0.1   0.4 0.524 0.215
 5 mu         0.1   0.5 0.559 0.209
 6 mu         0.2   0.1 0.404 0.123
 7 mu         0.2   0.2 0.482 0.139
 8 mu         0.2   0.3 0.509 0.136
 9 mu         0.2   0.4 0.568 0.143
10 mu         0.2   0.5 0.604 0.136
# ℹ 350 more rows
…
