…
`.groups` argument.
`summarise()` has grouped output by 'theta'. You can override using the
`.groups` argument.
`summarise()` has grouped output by 'theta', 'tau'. You can override using the
`.groups` argument.
`summarise()` has grouped output by 'theta'. You can override using the
`.groups` argument.
`summarise()` has grouped output by 'theta', 'tau'. You can override using the
`.groups` argument.
`summarise()` has grouped output by 'theta'. You can override using the
`.groups` argument.
[1] ""
[1] "Total run time was 62.131 seconds"
[1] "Estimation result: "
# A tibble: 360 × 5
   estimand theta   tau   est     se
   <chr>    <dbl> <dbl> <dbl>  <dbl>
 1 mu         0.1   0.1 0.316 0.0384
 2 mu         0.1   0.2 0.394 0.0611
 3 mu         0.1   0.3 0.440 0.0576
 4 mu         0.1   0.4 0.482 0.0591
 5 mu         0.1   0.5 0.551 0.0827
 6 mu         0.2   0.1 0.297 0.0278
 7 mu         0.2   0.2 0.372 0.0435
 8 mu         0.2   0.3 0.411 0.0440
 9 mu         0.2   0.4 0.448 0.0452
10 mu         0.2   0.5 0.497 0.0604
# ℹ 350 more rows
…
