…
`.groups` argument.
`summarise()` has grouped output by 'theta'. You can override using the
`.groups` argument.
`summarise()` has grouped output by 'theta', 'tau'. You can override using the
`.groups` argument.
`summarise()` has grouped output by 'theta'. You can override using the
`.groups` argument.
`summarise()` has grouped output by 'theta', 'tau'. You can override using the
`.groups` argument.
`summarise()` has grouped output by 'theta'. You can override using the
`.groups` argument.
[1] ""
[1] "Total run time was 95.092 seconds"
[1] "Estimation result: "
# A tibble: 360 × 5
   estimand theta   tau   est     se
   <chr>    <dbl> <dbl> <dbl>  <dbl>
 1 mu         0.1   0.1 0.370 0.0905
 2 mu         0.1   0.2 0.501 0.120 
 3 mu         0.1   0.3 0.611 0.146 
 4 mu         0.1   0.4 0.676 0.172 
 5 mu         0.1   0.5 0.748 0.172 
 6 mu         0.2   0.1 0.364 0.0405
 7 mu         0.2   0.2 0.475 0.0568
 8 mu         0.2   0.3 0.574 0.0772
 9 mu         0.2   0.4 0.636 0.0938
10 mu         0.2   0.5 0.725 0.0880
# ℹ 350 more rows
…
