…
`.groups` argument.
`summarise()` has grouped output by 'theta'. You can override using the
`.groups` argument.
`summarise()` has grouped output by 'theta', 'tau'. You can override using the
`.groups` argument.
`summarise()` has grouped output by 'theta'. You can override using the
`.groups` argument.
`summarise()` has grouped output by 'theta', 'tau'. You can override using the
`.groups` argument.
`summarise()` has grouped output by 'theta'. You can override using the
`.groups` argument.
[1] ""
[1] "Total run time was 56.377 seconds"
[1] "Estimation result: "
# A tibble: 360 × 5
   estimand theta   tau   est     se
   <chr>    <dbl> <dbl> <dbl>  <dbl>
 1 mu         0.1   0.1 0.441 0.0743
 2 mu         0.1   0.2 0.488 0.0725
 3 mu         0.1   0.3 0.517 0.0718
 4 mu         0.1   0.4 0.539 0.0681
 5 mu         0.1   0.5 0.574 0.0694
 6 mu         0.2   0.1 0.392 0.0491
 7 mu         0.2   0.2 0.458 0.0508
 8 mu         0.2   0.3 0.500 0.0518
 9 mu         0.2   0.4 0.530 0.0498
10 mu         0.2   0.5 0.569 0.0478
# ℹ 350 more rows
…
