…
`.groups` argument.
`summarise()` has grouped output by 'theta'. You can override using the
`.groups` argument.
`summarise()` has grouped output by 'theta', 'tau'. You can override using the
`.groups` argument.
`summarise()` has grouped output by 'theta'. You can override using the
`.groups` argument.
`summarise()` has grouped output by 'theta', 'tau'. You can override using the
`.groups` argument.
`summarise()` has grouped output by 'theta'. You can override using the
`.groups` argument.
[1] ""
[1] "Total run time was 54.997 seconds"
[1] "Estimation result: "
# A tibble: 360 × 5
   estimand theta   tau   est     se
   <chr>    <dbl> <dbl> <dbl>  <dbl>
 1 mu         0.1   0.1 0.327 0.0911
 2 mu         0.1   0.2 0.428 0.106 
 3 mu         0.1   0.3 0.607 0.142 
 4 mu         0.1   0.4 0.631 0.135 
 5 mu         0.1   0.5 0.632 0.125 
 6 mu         0.2   0.1 0.301 0.0444
 7 mu         0.2   0.2 0.408 0.0711
 8 mu         0.2   0.3 0.586 0.102 
 9 mu         0.2   0.4 0.631 0.0997
10 mu         0.2   0.5 0.644 0.0907
# ℹ 350 more rows
…
