…
`.groups` argument.
`summarise()` has grouped output by 'theta'. You can override using the
`.groups` argument.
`summarise()` has grouped output by 'theta', 'tau'. You can override using the
`.groups` argument.
`summarise()` has grouped output by 'theta'. You can override using the
`.groups` argument.
`summarise()` has grouped output by 'theta', 'tau'. You can override using the
`.groups` argument.
`summarise()` has grouped output by 'theta'. You can override using the
`.groups` argument.
[1] ""
[1] "Total run time was 75.961 seconds"
[1] "Estimation result: "
# A tibble: 360 × 5
   estimand theta   tau   est     se
   <chr>    <dbl> <dbl> <dbl>  <dbl>
 1 mu         0.1   0.1 0.319 0.0475
 2 mu         0.1   0.2 0.414 0.0622
 3 mu         0.1   0.3 0.424 0.0654
 4 mu         0.1   0.4 0.512 0.0869
 5 mu         0.1   0.5 0.517 0.0885
 6 mu         0.2   0.1 0.297 0.0356
 7 mu         0.2   0.2 0.371 0.0452
 8 mu         0.2   0.3 0.408 0.0460
 9 mu         0.2   0.4 0.471 0.0523
10 mu         0.2   0.5 0.482 0.0530
# ℹ 350 more rows
…
