…
`.groups` argument.
`summarise()` has grouped output by 'theta'. You can override using the
`.groups` argument.
`summarise()` has grouped output by 'theta', 'tau'. You can override using the
`.groups` argument.
`summarise()` has grouped output by 'theta'. You can override using the
`.groups` argument.
`summarise()` has grouped output by 'theta', 'tau'. You can override using the
`.groups` argument.
`summarise()` has grouped output by 'theta'. You can override using the
`.groups` argument.
[1] ""
[1] "Total run time was 99.896 seconds"
[1] "Estimation result: "
# A tibble: 360 × 5
   estimand theta   tau   est     se
   <chr>    <dbl> <dbl> <dbl>  <dbl>
 1 mu         0.1   0.1 0.350 0.0692
 2 mu         0.1   0.2 0.421 0.102 
 3 mu         0.1   0.3 0.417 0.0988
 4 mu         0.1   0.4 0.422 0.106 
 5 mu         0.1   0.5 0.483 0.136 
 6 mu         0.2   0.1 0.353 0.0457
 7 mu         0.2   0.2 0.427 0.0652
 8 mu         0.2   0.3 0.434 0.0664
 9 mu         0.2   0.4 0.455 0.0740
10 mu         0.2   0.5 0.527 0.0944
# ℹ 350 more rows
…
