…
`.groups` argument.
`summarise()` has grouped output by 'theta'. You can override using the
`.groups` argument.
`summarise()` has grouped output by 'theta', 'tau'. You can override using the
`.groups` argument.
`summarise()` has grouped output by 'theta'. You can override using the
`.groups` argument.
`summarise()` has grouped output by 'theta', 'tau'. You can override using the
`.groups` argument.
`summarise()` has grouped output by 'theta'. You can override using the
`.groups` argument.
[1] ""
[1] "Total run time was 91.886 seconds"
[1] "Estimation result: "
# A tibble: 360 × 5
   estimand theta   tau   est     se
   <chr>    <dbl> <dbl> <dbl>  <dbl>
 1 mu         0.1   0.1 0.351 0.127 
 2 mu         0.1   0.2 0.410 0.116 
 3 mu         0.1   0.3 0.417 0.122 
 4 mu         0.1   0.4 0.432 0.127 
 5 mu         0.1   0.5 0.432 0.129 
 6 mu         0.2   0.1 0.288 0.0567
 7 mu         0.2   0.2 0.367 0.0489
 8 mu         0.2   0.3 0.388 0.0575
 9 mu         0.2   0.4 0.420 0.0686
10 mu         0.2   0.5 0.428 0.0678
# ℹ 350 more rows
…
