…
`.groups` argument.
`summarise()` has grouped output by 'theta'. You can override using the
`.groups` argument.
`summarise()` has grouped output by 'theta', 'tau'. You can override using the
`.groups` argument.
`summarise()` has grouped output by 'theta'. You can override using the
`.groups` argument.
`summarise()` has grouped output by 'theta', 'tau'. You can override using the
`.groups` argument.
`summarise()` has grouped output by 'theta'. You can override using the
`.groups` argument.
[1] ""
[1] "Total run time was 56.112 seconds"
[1] "Estimation result: "
# A tibble: 360 × 5
   estimand theta   tau   est    se
   <chr>    <dbl> <dbl> <dbl> <dbl>
 1 mu         0.1   0.1 0.168 0.104
 2 mu         0.1   0.2 0.231 0.125
 3 mu         0.1   0.3 0.356 0.171
 4 mu         0.1   0.4 0.485 0.192
 5 mu         0.1   0.5 0.468 0.193
 6 mu         0.2   0.1 0.246 0.107
 7 mu         0.2   0.2 0.330 0.129
 8 mu         0.2   0.3 0.468 0.173
 9 mu         0.2   0.4 0.607 0.195
10 mu         0.2   0.5 0.603 0.197
# ℹ 350 more rows
…
