…
`.groups` argument.
`summarise()` has grouped output by 'theta'. You can override using the
`.groups` argument.
`summarise()` has grouped output by 'theta', 'tau'. You can override using the
`.groups` argument.
`summarise()` has grouped output by 'theta'. You can override using the
`.groups` argument.
`summarise()` has grouped output by 'theta', 'tau'. You can override using the
`.groups` argument.
`summarise()` has grouped output by 'theta'. You can override using the
`.groups` argument.
[1] ""
[1] "Total run time was 151.867 seconds"
[1] "Estimation result: "
# A tibble: 360 × 5
   estimand theta   tau   est     se
   <chr>    <dbl> <dbl> <dbl>  <dbl>
 1 mu         0.1   0.1 0.231 0.0711
 2 mu         0.1   0.2 0.298 0.0906
 3 mu         0.1   0.3 0.339 0.0905
 4 mu         0.1   0.4 0.488 0.0901
 5 mu         0.1   0.5 0.495 0.0985
 6 mu         0.2   0.1 0.282 0.0510
 7 mu         0.2   0.2 0.351 0.0630
 8 mu         0.2   0.3 0.383 0.0640
 9 mu         0.2   0.4 0.515 0.0592
10 mu         0.2   0.5 0.534 0.0660
# ℹ 350 more rows
…
