…
`.groups` argument.
`summarise()` has grouped output by 'theta'. You can override using the
`.groups` argument.
`summarise()` has grouped output by 'theta', 'tau'. You can override using the
`.groups` argument.
`summarise()` has grouped output by 'theta'. You can override using the
`.groups` argument.
`summarise()` has grouped output by 'theta', 'tau'. You can override using the
`.groups` argument.
`summarise()` has grouped output by 'theta'. You can override using the
`.groups` argument.
[1] ""
[1] "Total run time was 226.637 seconds"
[1] "Estimation result: "
# A tibble: 360 × 5
   estimand theta   tau   est     se
   <chr>    <dbl> <dbl> <dbl>  <dbl>
 1 mu         0.1   0.1 0.299 0.0677
 2 mu         0.1   0.2 0.344 0.0681
 3 mu         0.1   0.3 0.349 0.0653
 4 mu         0.1   0.4 0.349 0.0681
 5 mu         0.1   0.5 0.386 0.0704
 6 mu         0.2   0.1 0.325 0.0519
 7 mu         0.2   0.2 0.414 0.0629
 8 mu         0.2   0.3 0.429 0.0592
 9 mu         0.2   0.4 0.439 0.0579
10 mu         0.2   0.5 0.484 0.0620
# ℹ 350 more rows
…
