…
`.groups` argument.
`summarise()` has grouped output by 'theta'. You can override using the
`.groups` argument.
`summarise()` has grouped output by 'theta', 'tau'. You can override using the
`.groups` argument.
`summarise()` has grouped output by 'theta'. You can override using the
`.groups` argument.
`summarise()` has grouped output by 'theta', 'tau'. You can override using the
`.groups` argument.
`summarise()` has grouped output by 'theta'. You can override using the
`.groups` argument.
[1] ""
[1] "Total run time was 117.082 seconds"
[1] "Estimation result: "
# A tibble: 360 × 5
   estimand theta   tau   est     se
   <chr>    <dbl> <dbl> <dbl>  <dbl>
 1 mu         0.1   0.1 0.571 0.105 
 2 mu         0.1   0.2 0.670 0.129 
 3 mu         0.1   0.3 0.759 0.150 
 4 mu         0.1   0.4 0.899 0.171 
 5 mu         0.1   0.5 0.996 0.192 
 6 mu         0.2   0.1 0.430 0.0507
 7 mu         0.2   0.2 0.509 0.0624
 8 mu         0.2   0.3 0.593 0.0710
 9 mu         0.2   0.4 0.696 0.0846
10 mu         0.2   0.5 0.767 0.0922
# ℹ 350 more rows
…
