…
`.groups` argument.
`summarise()` has grouped output by 'theta'. You can override using the
`.groups` argument.
`summarise()` has grouped output by 'theta', 'tau'. You can override using the
`.groups` argument.
`summarise()` has grouped output by 'theta'. You can override using the
`.groups` argument.
`summarise()` has grouped output by 'theta', 'tau'. You can override using the
`.groups` argument.
`summarise()` has grouped output by 'theta'. You can override using the
`.groups` argument.
[1] ""
[1] "Total run time was 87.55 seconds"
[1] "Estimation result: "
# A tibble: 360 × 5
   estimand theta   tau   est     se
   <chr>    <dbl> <dbl> <dbl>  <dbl>
 1 mu         0.1   0.1 0.473 0.164 
 2 mu         0.1   0.2 0.629 0.228 
 3 mu         0.1   0.3 0.707 0.250 
 4 mu         0.1   0.4 0.754 0.261 
 5 mu         0.1   0.5 0.771 0.269 
 6 mu         0.2   0.1 0.345 0.0696
 7 mu         0.2   0.2 0.452 0.103 
 8 mu         0.2   0.3 0.537 0.107 
 9 mu         0.2   0.4 0.580 0.107 
10 mu         0.2   0.5 0.592 0.106 
# ℹ 350 more rows
…
