…
`.groups` argument.
`summarise()` has grouped output by 'theta'. You can override using the
`.groups` argument.
`summarise()` has grouped output by 'theta', 'tau'. You can override using the
`.groups` argument.
`summarise()` has grouped output by 'theta'. You can override using the
`.groups` argument.
`summarise()` has grouped output by 'theta', 'tau'. You can override using the
`.groups` argument.
`summarise()` has grouped output by 'theta'. You can override using the
`.groups` argument.
[1] ""
[1] "Total run time was 56.846 seconds"
[1] "Estimation result: "
# A tibble: 360 × 5
   estimand theta   tau   est     se
   <chr>    <dbl> <dbl> <dbl>  <dbl>
 1 mu         0.1   0.1 0.414 0.0957
 2 mu         0.1   0.2 0.513 0.0953
 3 mu         0.1   0.3 0.524 0.0918
 4 mu         0.1   0.4 0.544 0.0939
 5 mu         0.1   0.5 0.586 0.104 
 6 mu         0.2   0.1 0.369 0.0470
 7 mu         0.2   0.2 0.475 0.0498
 8 mu         0.2   0.3 0.511 0.0485
 9 mu         0.2   0.4 0.550 0.0486
10 mu         0.2   0.5 0.595 0.0645
# ℹ 350 more rows
…
