…
`.groups` argument.
`summarise()` has grouped output by 'theta'. You can override using the
`.groups` argument.
`summarise()` has grouped output by 'theta', 'tau'. You can override using the
`.groups` argument.
`summarise()` has grouped output by 'theta'. You can override using the
`.groups` argument.
`summarise()` has grouped output by 'theta', 'tau'. You can override using the
`.groups` argument.
`summarise()` has grouped output by 'theta'. You can override using the
`.groups` argument.
[1] ""
[1] "Total run time was 78.371 seconds"
[1] "Estimation result: "
# A tibble: 360 × 5
   estimand theta   tau   est     se
   <chr>    <dbl> <dbl> <dbl>  <dbl>
 1 mu         0.1   0.1 0.333 0.0659
 2 mu         0.1   0.2 0.361 0.0837
 3 mu         0.1   0.3 0.442 0.0926
 4 mu         0.1   0.4 0.597 0.121 
 5 mu         0.1   0.5 0.604 0.122 
 6 mu         0.2   0.1 0.295 0.0402
 7 mu         0.2   0.2 0.349 0.0530
 8 mu         0.2   0.3 0.424 0.0596
 9 mu         0.2   0.4 0.520 0.0770
10 mu         0.2   0.5 0.530 0.0775
# ℹ 350 more rows
…
