…
`.groups` argument.
`summarise()` has grouped output by 'theta'. You can override using the
`.groups` argument.
`summarise()` has grouped output by 'theta', 'tau'. You can override using the
`.groups` argument.
`summarise()` has grouped output by 'theta'. You can override using the
`.groups` argument.
`summarise()` has grouped output by 'theta', 'tau'. You can override using the
`.groups` argument.
`summarise()` has grouped output by 'theta'. You can override using the
`.groups` argument.
[1] ""
[1] "Total run time was 71.894 seconds"
[1] "Estimation result: "
# A tibble: 360 × 5
   estimand theta   tau   est     se
   <chr>    <dbl> <dbl> <dbl>  <dbl>
 1 mu         0.1   0.1 0.371 0.0698
 2 mu         0.1   0.2 0.398 0.0585
 3 mu         0.1   0.3 0.425 0.0586
 4 mu         0.1   0.4 0.502 0.0758
 5 mu         0.1   0.5 0.525 0.0826
 6 mu         0.2   0.1 0.352 0.0548
 7 mu         0.2   0.2 0.391 0.0505
 8 mu         0.2   0.3 0.446 0.0574
 9 mu         0.2   0.4 0.536 0.0613
10 mu         0.2   0.5 0.579 0.0667
# ℹ 350 more rows
…
