…
`.groups` argument.
`summarise()` has grouped output by 'theta'. You can override using the
`.groups` argument.
`summarise()` has grouped output by 'theta', 'tau'. You can override using the
`.groups` argument.
`summarise()` has grouped output by 'theta'. You can override using the
`.groups` argument.
`summarise()` has grouped output by 'theta', 'tau'. You can override using the
`.groups` argument.
`summarise()` has grouped output by 'theta'. You can override using the
`.groups` argument.
[1] ""
[1] "Total run time was 97.437 seconds"
[1] "Estimation result: "
# A tibble: 360 × 5
   estimand theta   tau   est     se
   <chr>    <dbl> <dbl> <dbl>  <dbl>
 1 mu         0.1   0.1 0.234 0.0869
 2 mu         0.1   0.2 0.215 0.0786
 3 mu         0.1   0.3 0.181 0.0870
 4 mu         0.1   0.4 0.168 0.0925
 5 mu         0.1   0.5 0.191 0.0942
 6 mu         0.2   0.1 0.269 0.0706
 7 mu         0.2   0.2 0.281 0.0680
 8 mu         0.2   0.3 0.272 0.0784
 9 mu         0.2   0.4 0.269 0.0844
10 mu         0.2   0.5 0.320 0.0837
# ℹ 350 more rows
…
