…
`.groups` argument.
`summarise()` has grouped output by 'theta'. You can override using the
`.groups` argument.
`summarise()` has grouped output by 'theta', 'tau'. You can override using the
`.groups` argument.
`summarise()` has grouped output by 'theta'. You can override using the
`.groups` argument.
`summarise()` has grouped output by 'theta', 'tau'. You can override using the
`.groups` argument.
`summarise()` has grouped output by 'theta'. You can override using the
`.groups` argument.
[1] ""
[1] "Total run time was 86.199 seconds"
[1] "Estimation result: "
# A tibble: 360 × 5
   estimand theta   tau   est     se
   <chr>    <dbl> <dbl> <dbl>  <dbl>
 1 mu         0.1   0.1 0.254 0.0915
 2 mu         0.1   0.2 0.249 0.111 
 3 mu         0.1   0.3 0.347 0.0664
 4 mu         0.1   0.4 0.335 0.0816
 5 mu         0.1   0.5 0.333 0.116 
 6 mu         0.2   0.1 0.339 0.0631
 7 mu         0.2   0.2 0.390 0.0782
 8 mu         0.2   0.3 0.487 0.0627
 9 mu         0.2   0.4 0.498 0.0681
10 mu         0.2   0.5 0.540 0.0857
# ℹ 350 more rows
…
