…
`.groups` argument.
`summarise()` has grouped output by 'theta'. You can override using the
`.groups` argument.
`summarise()` has grouped output by 'theta', 'tau'. You can override using the
`.groups` argument.
`summarise()` has grouped output by 'theta'. You can override using the
`.groups` argument.
`summarise()` has grouped output by 'theta', 'tau'. You can override using the
`.groups` argument.
`summarise()` has grouped output by 'theta'. You can override using the
`.groups` argument.
[1] ""
[1] "Total run time was 51.998 seconds"
[1] "Estimation result: "
# A tibble: 360 × 5
   estimand theta   tau   est     se
   <chr>    <dbl> <dbl> <dbl>  <dbl>
 1 mu         0.1   0.1 0.232 0.145 
 2 mu         0.1   0.2 0.232 0.166 
 3 mu         0.1   0.3 0.234 0.177 
 4 mu         0.1   0.4 0.254 0.199 
 5 mu         0.1   0.5 0.260 0.222 
 6 mu         0.2   0.1 0.268 0.0867
 7 mu         0.2   0.2 0.301 0.104 
 8 mu         0.2   0.3 0.336 0.0996
 9 mu         0.2   0.4 0.383 0.109 
10 mu         0.2   0.5 0.414 0.116 
# ℹ 350 more rows
…
