…
`.groups` argument.
`summarise()` has grouped output by 'theta'. You can override using the
`.groups` argument.
`summarise()` has grouped output by 'theta', 'tau'. You can override using the
`.groups` argument.
`summarise()` has grouped output by 'theta'. You can override using the
`.groups` argument.
`summarise()` has grouped output by 'theta', 'tau'. You can override using the
`.groups` argument.
`summarise()` has grouped output by 'theta'. You can override using the
`.groups` argument.
[1] ""
[1] "Total run time was 55.219 seconds"
[1] "Estimation result: "
# A tibble: 360 × 5
   estimand theta   tau   est     se
   <chr>    <dbl> <dbl> <dbl>  <dbl>
 1 mu         0.1   0.1 0.392 0.0815
 2 mu         0.1   0.2 0.451 0.128 
 3 mu         0.1   0.3 0.483 0.149 
 4 mu         0.1   0.4 0.495 0.150 
 5 mu         0.1   0.5 0.697 0.142 
 6 mu         0.2   0.1 0.399 0.0648
 7 mu         0.2   0.2 0.473 0.104 
 8 mu         0.2   0.3 0.516 0.126 
 9 mu         0.2   0.4 0.538 0.128 
10 mu         0.2   0.5 0.736 0.125 
# ℹ 350 more rows
…
