…
`.groups` argument.
`summarise()` has grouped output by 'theta'. You can override using the
`.groups` argument.
`summarise()` has grouped output by 'theta', 'tau'. You can override using the
`.groups` argument.
`summarise()` has grouped output by 'theta'. You can override using the
`.groups` argument.
`summarise()` has grouped output by 'theta', 'tau'. You can override using the
`.groups` argument.
`summarise()` has grouped output by 'theta'. You can override using the
`.groups` argument.
[1] ""
[1] "Total run time was 74.456 seconds"
[1] "Estimation result: "
# A tibble: 360 × 5
   estimand theta   tau   est     se
   <chr>    <dbl> <dbl> <dbl>  <dbl>
 1 mu         0.1   0.1 0.330 0.100 
 2 mu         0.1   0.2 0.358 0.117 
 3 mu         0.1   0.3 0.486 0.0637
 4 mu         0.1   0.4 0.517 0.0753
 5 mu         0.1   0.5 0.639 0.0867
 6 mu         0.2   0.1 0.355 0.0513
 7 mu         0.2   0.2 0.396 0.0559
 8 mu         0.2   0.3 0.485 0.0373
 9 mu         0.2   0.4 0.532 0.0424
10 mu         0.2   0.5 0.648 0.0477
# ℹ 350 more rows
…
