…
`.groups` argument.
`summarise()` has grouped output by 'theta'. You can override using the
`.groups` argument.
`summarise()` has grouped output by 'theta', 'tau'. You can override using the
`.groups` argument.
`summarise()` has grouped output by 'theta'. You can override using the
`.groups` argument.
`summarise()` has grouped output by 'theta', 'tau'. You can override using the
`.groups` argument.
`summarise()` has grouped output by 'theta'. You can override using the
`.groups` argument.
[1] ""
[1] "Total run time was 64.375 seconds"
[1] "Estimation result: "
# A tibble: 360 × 5
   estimand theta   tau   est     se
   <chr>    <dbl> <dbl> <dbl>  <dbl>
 1 mu         0.1   0.1 0.330 0.0604
 2 mu         0.1   0.2 0.349 0.0779
 3 mu         0.1   0.3 0.333 0.105 
 4 mu         0.1   0.4 0.393 0.0760
 5 mu         0.1   0.5 0.369 0.113 
 6 mu         0.2   0.1 0.343 0.0591
 7 mu         0.2   0.2 0.390 0.0767
 8 mu         0.2   0.3 0.394 0.0997
 9 mu         0.2   0.4 0.448 0.0762
10 mu         0.2   0.5 0.445 0.105 
# ℹ 350 more rows
…
