…
`.groups` argument.
`summarise()` has grouped output by 'theta'. You can override using the
`.groups` argument.
`summarise()` has grouped output by 'theta', 'tau'. You can override using the
`.groups` argument.
`summarise()` has grouped output by 'theta'. You can override using the
`.groups` argument.
`summarise()` has grouped output by 'theta', 'tau'. You can override using the
`.groups` argument.
`summarise()` has grouped output by 'theta'. You can override using the
`.groups` argument.
[1] ""
[1] "Total run time was 52.438 seconds"
[1] "Estimation result: "
# A tibble: 360 × 5
   estimand theta   tau   est     se
   <chr>    <dbl> <dbl> <dbl>  <dbl>
 1 mu         0.1   0.1 0.344 0.101 
 2 mu         0.1   0.2 0.415 0.137 
 3 mu         0.1   0.3 0.420 0.160 
 4 mu         0.1   0.4 0.573 0.115 
 5 mu         0.1   0.5 0.625 0.133 
 6 mu         0.2   0.1 0.336 0.0628
 7 mu         0.2   0.2 0.416 0.0883
 8 mu         0.2   0.3 0.430 0.101 
 9 mu         0.2   0.4 0.550 0.0563
10 mu         0.2   0.5 0.590 0.0712
# ℹ 350 more rows
…
