…
`.groups` argument.
`summarise()` has grouped output by 'theta'. You can override using the
`.groups` argument.
`summarise()` has grouped output by 'theta', 'tau'. You can override using the
`.groups` argument.
`summarise()` has grouped output by 'theta'. You can override using the
`.groups` argument.
`summarise()` has grouped output by 'theta', 'tau'. You can override using the
`.groups` argument.
`summarise()` has grouped output by 'theta'. You can override using the
`.groups` argument.
[1] ""
[1] "Total run time was 197.754 seconds"
[1] "Estimation result: "
# A tibble: 360 × 5
   estimand theta   tau   est     se
   <chr>    <dbl> <dbl> <dbl>  <dbl>
 1 mu         0.1   0.1 0.553 0.0875
 2 mu         0.1   0.2 0.596 0.0741
 3 mu         0.1   0.3 0.653 0.0683
 4 mu         0.1   0.4 0.669 0.0642
 5 mu         0.1   0.5 0.683 0.0661
 6 mu         0.2   0.1 0.450 0.0457
 7 mu         0.2   0.2 0.506 0.0442
 8 mu         0.2   0.3 0.589 0.0510
 9 mu         0.2   0.4 0.621 0.0456
10 mu         0.2   0.5 0.643 0.0490
# ℹ 350 more rows
…
