…
`.groups` argument.
`summarise()` has grouped output by 'theta'. You can override using the
`.groups` argument.
`summarise()` has grouped output by 'theta', 'tau'. You can override using the
`.groups` argument.
`summarise()` has grouped output by 'theta'. You can override using the
`.groups` argument.
`summarise()` has grouped output by 'theta', 'tau'. You can override using the
`.groups` argument.
`summarise()` has grouped output by 'theta'. You can override using the
`.groups` argument.
[1] ""
[1] "Total run time was 242.232 seconds"
[1] "Estimation result: "
# A tibble: 360 × 5
   estimand theta   tau   est    se
   <chr>    <dbl> <dbl> <dbl> <dbl>
 1 mu         0.1   0.1 0.326 0.196
 2 mu         0.1   0.2 0.405 0.246
 3 mu         0.1   0.3 0.445 0.306
 4 mu         0.1   0.4 0.505 0.266
 5 mu         0.1   0.5 0.556 0.243
 6 mu         0.2   0.1 0.280 0.137
 7 mu         0.2   0.2 0.342 0.168
 8 mu         0.2   0.3 0.375 0.216
 9 mu         0.2   0.4 0.431 0.172
10 mu         0.2   0.5 0.480 0.141
# ℹ 350 more rows
…
