…
`.groups` argument.
`summarise()` has grouped output by 'theta'. You can override using the
`.groups` argument.
`summarise()` has grouped output by 'theta', 'tau'. You can override using the
`.groups` argument.
`summarise()` has grouped output by 'theta'. You can override using the
`.groups` argument.
`summarise()` has grouped output by 'theta', 'tau'. You can override using the
`.groups` argument.
`summarise()` has grouped output by 'theta'. You can override using the
`.groups` argument.
[1] ""
[1] "Total run time was 95.416 seconds"
[1] "Estimation result: "
# A tibble: 360 × 5
   estimand theta   tau   est     se
   <chr>    <dbl> <dbl> <dbl>  <dbl>
 1 mu         0.1   0.1 0.538 0.146 
 2 mu         0.1   0.2 0.576 0.140 
 3 mu         0.1   0.3 0.589 0.136 
 4 mu         0.1   0.4 0.598 0.133 
 5 mu         0.1   0.5 0.602 0.129 
 6 mu         0.2   0.1 0.481 0.0944
 7 mu         0.2   0.2 0.537 0.0898
 8 mu         0.2   0.3 0.555 0.0852
 9 mu         0.2   0.4 0.576 0.0826
10 mu         0.2   0.5 0.585 0.0769
# ℹ 350 more rows
…
