…
`.groups` argument.
`summarise()` has grouped output by 'theta'. You can override using the
`.groups` argument.
`summarise()` has grouped output by 'theta', 'tau'. You can override using the
`.groups` argument.
`summarise()` has grouped output by 'theta'. You can override using the
`.groups` argument.
`summarise()` has grouped output by 'theta', 'tau'. You can override using the
`.groups` argument.
`summarise()` has grouped output by 'theta'. You can override using the
`.groups` argument.
[1] ""
[1] "Total run time was 63.515 seconds"
[1] "Estimation result: "
# A tibble: 360 × 5
   estimand theta   tau   est     se
   <chr>    <dbl> <dbl> <dbl>  <dbl>
 1 mu         0.1   0.1 0.512 0.162 
 2 mu         0.1   0.2 0.614 0.204 
 3 mu         0.1   0.3 0.688 0.229 
 4 mu         0.1   0.4 0.692 0.231 
 5 mu         0.1   0.5 0.702 0.232 
 6 mu         0.2   0.1 0.457 0.0889
 7 mu         0.2   0.2 0.545 0.111 
 8 mu         0.2   0.3 0.635 0.131 
 9 mu         0.2   0.4 0.644 0.131 
10 mu         0.2   0.5 0.668 0.131 
# ℹ 350 more rows
…
