…
`.groups` argument.
`summarise()` has grouped output by 'theta'. You can override using the
`.groups` argument.
`summarise()` has grouped output by 'theta', 'tau'. You can override using the
`.groups` argument.
`summarise()` has grouped output by 'theta'. You can override using the
`.groups` argument.
`summarise()` has grouped output by 'theta', 'tau'. You can override using the
`.groups` argument.
`summarise()` has grouped output by 'theta'. You can override using the
`.groups` argument.
[1] ""
[1] "Total run time was 50.695 seconds"
[1] "Estimation result: "
# A tibble: 360 × 5
   estimand theta   tau   est     se
   <chr>    <dbl> <dbl> <dbl>  <dbl>
 1 mu         0.1   0.1 0.228 0.0768
 2 mu         0.1   0.2 0.333 0.124 
 3 mu         0.1   0.3 0.305 0.125 
 4 mu         0.1   0.4 0.302 0.124 
 5 mu         0.1   0.5 0.305 0.120 
 6 mu         0.2   0.1 0.268 0.0538
 7 mu         0.2   0.2 0.425 0.0860
 8 mu         0.2   0.3 0.420 0.0773
 9 mu         0.2   0.4 0.417 0.0747
10 mu         0.2   0.5 0.446 0.0690
# ℹ 350 more rows
…
