…
`.groups` argument.
`summarise()` has grouped output by 'theta'. You can override using the
`.groups` argument.
`summarise()` has grouped output by 'theta', 'tau'. You can override using the
`.groups` argument.
`summarise()` has grouped output by 'theta'. You can override using the
`.groups` argument.
`summarise()` has grouped output by 'theta', 'tau'. You can override using the
`.groups` argument.
`summarise()` has grouped output by 'theta'. You can override using the
`.groups` argument.
[1] ""
[1] "Total run time was 123.421 seconds"
[1] "Estimation result: "
# A tibble: 360 × 5
   estimand theta   tau     est     se
   <chr>    <dbl> <dbl>   <dbl>  <dbl>
 1 mu         0.1   0.1  0.0423 0.0894
 2 mu         0.1   0.2 -0.0118 0.144 
 3 mu         0.1   0.3  0.109  0.101 
 4 mu         0.1   0.4  0.242  0.0734
 5 mu         0.1   0.5  0.213  0.0741
 6 mu         0.2   0.1  0.200  0.102 
 7 mu         0.2   0.2  0.181  0.162 
 8 mu         0.2   0.3  0.298  0.121 
 9 mu         0.2   0.4  0.456  0.0975
10 mu         0.2   0.5  0.450  0.104 
# ℹ 350 more rows
…
