…
`.groups` argument.
`summarise()` has grouped output by 'theta'. You can override using the
`.groups` argument.
`summarise()` has grouped output by 'theta', 'tau'. You can override using the
`.groups` argument.
`summarise()` has grouped output by 'theta'. You can override using the
`.groups` argument.
`summarise()` has grouped output by 'theta', 'tau'. You can override using the
`.groups` argument.
`summarise()` has grouped output by 'theta'. You can override using the
`.groups` argument.
[1] ""
[1] "Total run time was 120.457 seconds"
[1] "Estimation result: "
# A tibble: 360 × 5
   estimand theta   tau   est     se
   <chr>    <dbl> <dbl> <dbl>  <dbl>
 1 mu         0.1   0.1 0.347 0.0920
 2 mu         0.1   0.2 0.463 0.0970
 3 mu         0.1   0.3 0.499 0.106 
 4 mu         0.1   0.4 0.515 0.111 
 5 mu         0.1   0.5 0.547 0.118 
 6 mu         0.2   0.1 0.331 0.0594
 7 mu         0.2   0.2 0.412 0.0631
 8 mu         0.2   0.3 0.451 0.0646
 9 mu         0.2   0.4 0.481 0.0674
10 mu         0.2   0.5 0.514 0.0688
# ℹ 350 more rows
…
