…
`.groups` argument.
`summarise()` has grouped output by 'theta'. You can override using the
`.groups` argument.
`summarise()` has grouped output by 'theta', 'tau'. You can override using the
`.groups` argument.
`summarise()` has grouped output by 'theta'. You can override using the
`.groups` argument.
`summarise()` has grouped output by 'theta', 'tau'. You can override using the
`.groups` argument.
`summarise()` has grouped output by 'theta'. You can override using the
`.groups` argument.
[1] ""
[1] "Total run time was 52.651 seconds"
[1] "Estimation result: "
# A tibble: 360 × 5
   estimand theta   tau   est    se
   <chr>    <dbl> <dbl> <dbl> <dbl>
 1 mu         0.1   0.1 0.397 0.169
 2 mu         0.1   0.2 0.410 0.203
 3 mu         0.1   0.3 0.478 0.196
 4 mu         0.1   0.4 0.492 0.228
 5 mu         0.1   0.5 0.579 0.221
 6 mu         0.2   0.1 0.300 0.115
 7 mu         0.2   0.2 0.312 0.139
 8 mu         0.2   0.3 0.369 0.123
 9 mu         0.2   0.4 0.382 0.148
10 mu         0.2   0.5 0.459 0.128
# ℹ 350 more rows
…
