…
`.groups` argument.
`summarise()` has grouped output by 'theta'. You can override using the
`.groups` argument.
`summarise()` has grouped output by 'theta', 'tau'. You can override using the
`.groups` argument.
`summarise()` has grouped output by 'theta'. You can override using the
`.groups` argument.
`summarise()` has grouped output by 'theta', 'tau'. You can override using the
`.groups` argument.
`summarise()` has grouped output by 'theta'. You can override using the
`.groups` argument.
[1] ""
[1] "Total run time was 107.269 seconds"
[1] "Estimation result: "
# A tibble: 360 × 5
   estimand theta   tau   est     se
   <chr>    <dbl> <dbl> <dbl>  <dbl>
 1 mu         0.1   0.1 0.262 0.0593
 2 mu         0.1   0.2 0.458 0.106 
 3 mu         0.1   0.3 0.474 0.0936
 4 mu         0.1   0.4 0.481 0.0870
 5 mu         0.1   0.5 0.488 0.0878
 6 mu         0.2   0.1 0.330 0.0604
 7 mu         0.2   0.2 0.482 0.0776
 8 mu         0.2   0.3 0.520 0.0743
 9 mu         0.2   0.4 0.543 0.0732
10 mu         0.2   0.5 0.572 0.0817
# ℹ 350 more rows
…
