…
`.groups` argument.
`summarise()` has grouped output by 'theta'. You can override using the
`.groups` argument.
`summarise()` has grouped output by 'theta', 'tau'. You can override using the
`.groups` argument.
`summarise()` has grouped output by 'theta'. You can override using the
`.groups` argument.
`summarise()` has grouped output by 'theta', 'tau'. You can override using the
`.groups` argument.
`summarise()` has grouped output by 'theta'. You can override using the
`.groups` argument.
[1] ""
[1] "Total run time was 111.971 seconds"
[1] "Estimation result: "
# A tibble: 360 × 5
   estimand theta   tau   est     se
   <chr>    <dbl> <dbl> <dbl>  <dbl>
 1 mu         0.1   0.1 0.726 0.293 
 2 mu         0.1   0.2 0.791 0.345 
 3 mu         0.1   0.3 0.850 0.384 
 4 mu         0.1   0.4 0.858 0.397 
 5 mu         0.1   0.5 0.870 0.410 
 6 mu         0.2   0.1 0.453 0.0776
 7 mu         0.2   0.2 0.490 0.0792
 8 mu         0.2   0.3 0.529 0.0865
 9 mu         0.2   0.4 0.546 0.0894
10 mu         0.2   0.5 0.566 0.0918
# ℹ 350 more rows
…
