…
`.groups` argument.
`summarise()` has grouped output by 'theta'. You can override using the
`.groups` argument.
`summarise()` has grouped output by 'theta', 'tau'. You can override using the
`.groups` argument.
`summarise()` has grouped output by 'theta'. You can override using the
`.groups` argument.
`summarise()` has grouped output by 'theta', 'tau'. You can override using the
`.groups` argument.
`summarise()` has grouped output by 'theta'. You can override using the
`.groups` argument.
[1] ""
[1] "Total run time was 94.994 seconds"
[1] "Estimation result: "
# A tibble: 360 × 5
   estimand theta   tau   est    se
   <chr>    <dbl> <dbl> <dbl> <dbl>
 1 mu         0.1   0.1 0.513 0.163
 2 mu         0.1   0.2 0.520 0.143
 3 mu         0.1   0.3 0.558 0.134
 4 mu         0.1   0.4 0.635 0.158
 5 mu         0.1   0.5 0.649 0.150
 6 mu         0.2   0.1 0.496 0.145
 7 mu         0.2   0.2 0.528 0.129
 8 mu         0.2   0.3 0.585 0.118
 9 mu         0.2   0.4 0.664 0.141
10 mu         0.2   0.5 0.693 0.133
# ℹ 350 more rows
…
