…
`.groups` argument.
`summarise()` has grouped output by 'theta'. You can override using the
`.groups` argument.
`summarise()` has grouped output by 'theta', 'tau'. You can override using the
`.groups` argument.
`summarise()` has grouped output by 'theta'. You can override using the
`.groups` argument.
`summarise()` has grouped output by 'theta', 'tau'. You can override using the
`.groups` argument.
`summarise()` has grouped output by 'theta'. You can override using the
`.groups` argument.
[1] ""
[1] "Total run time was 85.991 seconds"
[1] "Estimation result: "
# A tibble: 360 × 5
   estimand theta   tau   est     se
   <chr>    <dbl> <dbl> <dbl>  <dbl>
 1 mu         0.1   0.1 0.202 0.0623
 2 mu         0.1   0.2 0.296 0.0787
 3 mu         0.1   0.3 0.334 0.0994
 4 mu         0.1   0.4 0.424 0.0889
 5 mu         0.1   0.5 0.501 0.0965
 6 mu         0.2   0.1 0.233 0.0374
 7 mu         0.2   0.2 0.332 0.0452
 8 mu         0.2   0.3 0.375 0.0528
 9 mu         0.2   0.4 0.431 0.0554
10 mu         0.2   0.5 0.483 0.0584
# ℹ 350 more rows
…
