…
`.groups` argument.
`summarise()` has grouped output by 'theta'. You can override using the
`.groups` argument.
`summarise()` has grouped output by 'theta', 'tau'. You can override using the
`.groups` argument.
`summarise()` has grouped output by 'theta'. You can override using the
`.groups` argument.
`summarise()` has grouped output by 'theta', 'tau'. You can override using the
`.groups` argument.
`summarise()` has grouped output by 'theta'. You can override using the
`.groups` argument.
[1] ""
[1] "Total run time was 84.907 seconds"
[1] "Estimation result: "
# A tibble: 360 × 5
   estimand theta   tau   est     se
   <chr>    <dbl> <dbl> <dbl>  <dbl>
 1 mu         0.1   0.1 0.348 0.0595
 2 mu         0.1   0.2 0.423 0.0843
 3 mu         0.1   0.3 0.524 0.0981
 4 mu         0.1   0.4 0.583 0.0991
 5 mu         0.1   0.5 0.640 0.104 
 6 mu         0.2   0.1 0.333 0.0424
 7 mu         0.2   0.2 0.400 0.0559
 8 mu         0.2   0.3 0.485 0.0652
 9 mu         0.2   0.4 0.538 0.0659
10 mu         0.2   0.5 0.600 0.0655
# ℹ 350 more rows
…
