…
`.groups` argument.
`summarise()` has grouped output by 'theta'. You can override using the
`.groups` argument.
`summarise()` has grouped output by 'theta', 'tau'. You can override using the
`.groups` argument.
`summarise()` has grouped output by 'theta'. You can override using the
`.groups` argument.
`summarise()` has grouped output by 'theta', 'tau'. You can override using the
`.groups` argument.
`summarise()` has grouped output by 'theta'. You can override using the
`.groups` argument.
[1] ""
[1] "Total run time was 69.458 seconds"
[1] "Estimation result: "
# A tibble: 360 × 5
   estimand theta   tau   est    se
   <chr>    <dbl> <dbl> <dbl> <dbl>
 1 mu         0.1   0.1 0.697 0.264
 2 mu         0.1   0.2 0.801 0.307
 3 mu         0.1   0.3 0.856 0.331
 4 mu         0.1   0.4 1.05  0.388
 5 mu         0.1   0.5 1.06  0.399
 6 mu         0.2   0.1 0.435 0.108
 7 mu         0.2   0.2 0.526 0.127
 8 mu         0.2   0.3 0.573 0.132
 9 mu         0.2   0.4 0.713 0.152
10 mu         0.2   0.5 0.717 0.157
# ℹ 350 more rows
…
