…
`.groups` argument.
`summarise()` has grouped output by 'theta'. You can override using the
`.groups` argument.
`summarise()` has grouped output by 'theta', 'tau'. You can override using the
`.groups` argument.
`summarise()` has grouped output by 'theta'. You can override using the
`.groups` argument.
`summarise()` has grouped output by 'theta', 'tau'. You can override using the
`.groups` argument.
`summarise()` has grouped output by 'theta'. You can override using the
`.groups` argument.
[1] ""
[1] "Total run time was 91.281 seconds"
[1] "Estimation result: "
# A tibble: 360 × 5
   estimand theta   tau   est     se
   <chr>    <dbl> <dbl> <dbl>  <dbl>
 1 mu         0.1   0.1 0.200 0.0758
 2 mu         0.1   0.2 0.219 0.109 
 3 mu         0.1   0.3 0.245 0.138 
 4 mu         0.1   0.4 0.229 0.162 
 5 mu         0.1   0.5 0.356 0.127 
 6 mu         0.2   0.1 0.249 0.0489
 7 mu         0.2   0.2 0.315 0.0681
 8 mu         0.2   0.3 0.354 0.0765
 9 mu         0.2   0.4 0.360 0.0886
10 mu         0.2   0.5 0.440 0.0740
# ℹ 350 more rows
…
