…
`.groups` argument.
`summarise()` has grouped output by 'theta'. You can override using the
`.groups` argument.
`summarise()` has grouped output by 'theta', 'tau'. You can override using the
`.groups` argument.
`summarise()` has grouped output by 'theta'. You can override using the
`.groups` argument.
`summarise()` has grouped output by 'theta', 'tau'. You can override using the
`.groups` argument.
`summarise()` has grouped output by 'theta'. You can override using the
`.groups` argument.
[1] ""
[1] "Total run time was 57.155 seconds"
[1] "Estimation result: "
# A tibble: 360 × 5
   estimand theta   tau   est     se
   <chr>    <dbl> <dbl> <dbl>  <dbl>
 1 mu         0.1   0.1 0.389 0.126 
 2 mu         0.1   0.2 0.403 0.107 
 3 mu         0.1   0.3 0.535 0.122 
 4 mu         0.1   0.4 0.559 0.113 
 5 mu         0.1   0.5 0.569 0.105 
 6 mu         0.2   0.1 0.283 0.0599
 7 mu         0.2   0.2 0.325 0.0521
 8 mu         0.2   0.3 0.429 0.0645
 9 mu         0.2   0.4 0.465 0.0652
10 mu         0.2   0.5 0.486 0.0673
# ℹ 350 more rows
…
