…
`.groups` argument.
`summarise()` has grouped output by 'theta'. You can override using the
`.groups` argument.
`summarise()` has grouped output by 'theta', 'tau'. You can override using the
`.groups` argument.
`summarise()` has grouped output by 'theta'. You can override using the
`.groups` argument.
`summarise()` has grouped output by 'theta', 'tau'. You can override using the
`.groups` argument.
`summarise()` has grouped output by 'theta'. You can override using the
`.groups` argument.
[1] ""
[1] "Total run time was 77.823 seconds"
[1] "Estimation result: "
# A tibble: 360 × 5
   estimand theta   tau   est     se
   <chr>    <dbl> <dbl> <dbl>  <dbl>
 1 mu         0.1   0.1 0.530 0.175 
 2 mu         0.1   0.2 0.719 0.177 
 3 mu         0.1   0.3 0.778 0.189 
 4 mu         0.1   0.4 0.902 0.229 
 5 mu         0.1   0.5 0.944 0.227 
 6 mu         0.2   0.1 0.380 0.101 
 7 mu         0.2   0.2 0.530 0.0909
 8 mu         0.2   0.3 0.589 0.0924
 9 mu         0.2   0.4 0.670 0.115 
10 mu         0.2   0.5 0.713 0.112 
# ℹ 350 more rows
…
