…
`.groups` argument.
`summarise()` has grouped output by 'theta'. You can override using the
`.groups` argument.
`summarise()` has grouped output by 'theta', 'tau'. You can override using the
`.groups` argument.
`summarise()` has grouped output by 'theta'. You can override using the
`.groups` argument.
`summarise()` has grouped output by 'theta', 'tau'. You can override using the
`.groups` argument.
`summarise()` has grouped output by 'theta'. You can override using the
`.groups` argument.
[1] ""
[1] "Total run time was 78.098 seconds"
[1] "Estimation result: "
# A tibble: 360 × 5
   estimand theta   tau   est     se
   <chr>    <dbl> <dbl> <dbl>  <dbl>
 1 mu         0.1   0.1 0.541 0.102 
 2 mu         0.1   0.2 0.631 0.102 
 3 mu         0.1   0.3 0.651 0.0966
 4 mu         0.1   0.4 0.663 0.0957
 5 mu         0.1   0.5 0.678 0.0947
 6 mu         0.2   0.1 0.431 0.0607
 7 mu         0.2   0.2 0.510 0.0635
 8 mu         0.2   0.3 0.547 0.0591
 9 mu         0.2   0.4 0.566 0.0589
10 mu         0.2   0.5 0.584 0.0571
# ℹ 350 more rows
…
