…
`.groups` argument.
`summarise()` has grouped output by 'theta'. You can override using the
`.groups` argument.
`summarise()` has grouped output by 'theta', 'tau'. You can override using the
`.groups` argument.
`summarise()` has grouped output by 'theta'. You can override using the
`.groups` argument.
`summarise()` has grouped output by 'theta', 'tau'. You can override using the
`.groups` argument.
`summarise()` has grouped output by 'theta'. You can override using the
`.groups` argument.
[1] ""
[1] "Total run time was 147.726 seconds"
[1] "Estimation result: "
# A tibble: 360 × 5
   estimand theta   tau   est     se
   <chr>    <dbl> <dbl> <dbl>  <dbl>
 1 mu         0.1   0.1 0.346 0.0329
 2 mu         0.1   0.2 0.441 0.0391
 3 mu         0.1   0.3 0.498 0.0409
 4 mu         0.1   0.4 0.590 0.0413
 5 mu         0.1   0.5 0.643 0.0394
 6 mu         0.2   0.1 0.317 0.0320
 7 mu         0.2   0.2 0.405 0.0350
 8 mu         0.2   0.3 0.475 0.0461
 9 mu         0.2   0.4 0.580 0.0443
10 mu         0.2   0.5 0.633 0.0385
# ℹ 350 more rows
…
