…
`.groups` argument.
`summarise()` has grouped output by 'theta'. You can override using the
`.groups` argument.
`summarise()` has grouped output by 'theta', 'tau'. You can override using the
`.groups` argument.
`summarise()` has grouped output by 'theta'. You can override using the
`.groups` argument.
`summarise()` has grouped output by 'theta', 'tau'. You can override using the
`.groups` argument.
`summarise()` has grouped output by 'theta'. You can override using the
`.groups` argument.
[1] ""
[1] "Total run time was 170.853 seconds"
[1] "Estimation result: "
# A tibble: 360 × 5
   estimand theta   tau   est     se
   <chr>    <dbl> <dbl> <dbl>  <dbl>
 1 mu         0.1   0.1 0.413 0.0369
 2 mu         0.1   0.2 0.520 0.0360
 3 mu         0.1   0.3 0.593 0.0478
 4 mu         0.1   0.4 0.619 0.0480
 5 mu         0.1   0.5 0.677 0.0458
 6 mu         0.2   0.1 0.334 0.0306
 7 mu         0.2   0.2 0.448 0.0295
 8 mu         0.2   0.3 0.514 0.0309
 9 mu         0.2   0.4 0.546 0.0309
10 mu         0.2   0.5 0.586 0.0324
# ℹ 350 more rows
…
