…
`.groups` argument.
`summarise()` has grouped output by 'theta'. You can override using the
`.groups` argument.
`summarise()` has grouped output by 'theta', 'tau'. You can override using the
`.groups` argument.
`summarise()` has grouped output by 'theta'. You can override using the
`.groups` argument.
`summarise()` has grouped output by 'theta', 'tau'. You can override using the
`.groups` argument.
`summarise()` has grouped output by 'theta'. You can override using the
`.groups` argument.
[1] ""
[1] "Total run time was 140.568 seconds"
[1] "Estimation result: "
# A tibble: 360 × 5
   estimand theta   tau   est     se
   <chr>    <dbl> <dbl> <dbl>  <dbl>
 1 mu         0.1   0.1 0.430 0.0401
 2 mu         0.1   0.2 0.535 0.0451
 3 mu         0.1   0.3 0.590 0.0526
 4 mu         0.1   0.4 0.625 0.0498
 5 mu         0.1   0.5 0.641 0.0463
 6 mu         0.2   0.1 0.391 0.0418
 7 mu         0.2   0.2 0.497 0.0473
 8 mu         0.2   0.3 0.548 0.0508
 9 mu         0.2   0.4 0.570 0.0493
10 mu         0.2   0.5 0.601 0.0468
# ℹ 350 more rows
…
