…
`.groups` argument.
`summarise()` has grouped output by 'theta'. You can override using the
`.groups` argument.
`summarise()` has grouped output by 'theta', 'tau'. You can override using the
`.groups` argument.
`summarise()` has grouped output by 'theta'. You can override using the
`.groups` argument.
`summarise()` has grouped output by 'theta', 'tau'. You can override using the
`.groups` argument.
`summarise()` has grouped output by 'theta'. You can override using the
`.groups` argument.
[1] ""
[1] "Total run time was 145.128 seconds"
[1] "Estimation result: "
# A tibble: 360 × 5
   estimand theta   tau   est     se
   <chr>    <dbl> <dbl> <dbl>  <dbl>
 1 mu         0.1   0.1 0.352 0.0281
 2 mu         0.1   0.2 0.412 0.0353
 3 mu         0.1   0.3 0.491 0.0374
 4 mu         0.1   0.4 0.568 0.0355
 5 mu         0.1   0.5 0.611 0.0342
 6 mu         0.2   0.1 0.292 0.0308
 7 mu         0.2   0.2 0.335 0.0383
 8 mu         0.2   0.3 0.435 0.0477
 9 mu         0.2   0.4 0.493 0.0465
10 mu         0.2   0.5 0.540 0.0480
# ℹ 350 more rows
…
