…
`.groups` argument.
`summarise()` has grouped output by 'theta'. You can override using the
`.groups` argument.
`summarise()` has grouped output by 'theta', 'tau'. You can override using the
`.groups` argument.
`summarise()` has grouped output by 'theta'. You can override using the
`.groups` argument.
`summarise()` has grouped output by 'theta', 'tau'. You can override using the
`.groups` argument.
`summarise()` has grouped output by 'theta'. You can override using the
`.groups` argument.
[1] ""
[1] "Total run time was 146.569 seconds"
[1] "Estimation result: "
# A tibble: 360 × 5
   estimand theta   tau   est     se
   <chr>    <dbl> <dbl> <dbl>  <dbl>
 1 mu         0.1   0.1 0.431 0.0292
 2 mu         0.1   0.2 0.526 0.0318
 3 mu         0.1   0.3 0.606 0.0267
 4 mu         0.1   0.4 0.633 0.0275
 5 mu         0.1   0.5 0.688 0.0328
 6 mu         0.2   0.1 0.398 0.0265
 7 mu         0.2   0.2 0.474 0.0277
 8 mu         0.2   0.3 0.550 0.0250
 9 mu         0.2   0.4 0.589 0.0274
10 mu         0.2   0.5 0.655 0.0328
# ℹ 350 more rows
…
