…
`.groups` argument.
`summarise()` has grouped output by 'theta'. You can override using the
`.groups` argument.
`summarise()` has grouped output by 'theta', 'tau'. You can override using the
`.groups` argument.
`summarise()` has grouped output by 'theta'. You can override using the
`.groups` argument.
`summarise()` has grouped output by 'theta', 'tau'. You can override using the
`.groups` argument.
`summarise()` has grouped output by 'theta'. You can override using the
`.groups` argument.
[1] ""
[1] "Total run time was 139.314 seconds"
[1] "Estimation result: "
# A tibble: 360 × 5
   estimand theta   tau   est     se
   <chr>    <dbl> <dbl> <dbl>  <dbl>
 1 mu         0.1   0.1 0.444 0.0331
 2 mu         0.1   0.2 0.551 0.0377
 3 mu         0.1   0.3 0.631 0.0428
 4 mu         0.1   0.4 0.672 0.0426
 5 mu         0.1   0.5 0.689 0.0371
 6 mu         0.2   0.1 0.379 0.0244
 7 mu         0.2   0.2 0.471 0.0322
 8 mu         0.2   0.3 0.541 0.0386
 9 mu         0.2   0.4 0.588 0.0390
10 mu         0.2   0.5 0.614 0.0339
# ℹ 350 more rows
…
