…
`.groups` argument.
`summarise()` has grouped output by 'theta'. You can override using the
`.groups` argument.
`summarise()` has grouped output by 'theta', 'tau'. You can override using the
`.groups` argument.
`summarise()` has grouped output by 'theta'. You can override using the
`.groups` argument.
`summarise()` has grouped output by 'theta', 'tau'. You can override using the
`.groups` argument.
`summarise()` has grouped output by 'theta'. You can override using the
`.groups` argument.
[1] ""
[1] "Total run time was 137.253 seconds"
[1] "Estimation result: "
# A tibble: 360 × 5
   estimand theta   tau   est     se
   <chr>    <dbl> <dbl> <dbl>  <dbl>
 1 mu         0.1   0.1 0.442 0.0354
 2 mu         0.1   0.2 0.529 0.0347
 3 mu         0.1   0.3 0.596 0.0391
 4 mu         0.1   0.4 0.637 0.0372
 5 mu         0.1   0.5 0.664 0.0412
 6 mu         0.2   0.1 0.404 0.0349
 7 mu         0.2   0.2 0.486 0.0347
 8 mu         0.2   0.3 0.552 0.0435
 9 mu         0.2   0.4 0.574 0.0424
10 mu         0.2   0.5 0.612 0.0462
# ℹ 350 more rows
…
