…
`.groups` argument.
`summarise()` has grouped output by 'theta'. You can override using the
`.groups` argument.
`summarise()` has grouped output by 'theta', 'tau'. You can override using the
`.groups` argument.
`summarise()` has grouped output by 'theta'. You can override using the
`.groups` argument.
`summarise()` has grouped output by 'theta', 'tau'. You can override using the
`.groups` argument.
`summarise()` has grouped output by 'theta'. You can override using the
`.groups` argument.
[1] ""
[1] "Total run time was 144.738 seconds"
[1] "Estimation result: "
# A tibble: 360 × 5
   estimand theta   tau   est     se
   <chr>    <dbl> <dbl> <dbl>  <dbl>
 1 mu         0.1   0.1 0.445 0.0306
 2 mu         0.1   0.2 0.527 0.0389
 3 mu         0.1   0.3 0.620 0.0409
 4 mu         0.1   0.4 0.672 0.0411
 5 mu         0.1   0.5 0.730 0.0402
 6 mu         0.2   0.1 0.342 0.0295
 7 mu         0.2   0.2 0.431 0.0367
 8 mu         0.2   0.3 0.505 0.0380
 9 mu         0.2   0.4 0.551 0.0442
10 mu         0.2   0.5 0.589 0.0454
# ℹ 350 more rows
…
