…
`.groups` argument.
`summarise()` has grouped output by 'theta'. You can override using the
`.groups` argument.
`summarise()` has grouped output by 'theta', 'tau'. You can override using the
`.groups` argument.
`summarise()` has grouped output by 'theta'. You can override using the
`.groups` argument.
`summarise()` has grouped output by 'theta', 'tau'. You can override using the
`.groups` argument.
`summarise()` has grouped output by 'theta'. You can override using the
`.groups` argument.
[1] ""
[1] "Total run time was 145.849 seconds"
[1] "Estimation result: "
# A tibble: 360 × 5
   estimand theta   tau   est     se
   <chr>    <dbl> <dbl> <dbl>  <dbl>
 1 mu         0.1   0.1 0.418 0.0355
 2 mu         0.1   0.2 0.507 0.0370
 3 mu         0.1   0.3 0.583 0.0321
 4 mu         0.1   0.4 0.647 0.0328
 5 mu         0.1   0.5 0.673 0.0337
 6 mu         0.2   0.1 0.398 0.0423
 7 mu         0.2   0.2 0.485 0.0420
 8 mu         0.2   0.3 0.543 0.0371
 9 mu         0.2   0.4 0.577 0.0386
10 mu         0.2   0.5 0.599 0.0374
# ℹ 350 more rows
…
