…
`.groups` argument.
`summarise()` has grouped output by 'theta'. You can override using the
`.groups` argument.
`summarise()` has grouped output by 'theta', 'tau'. You can override using the
`.groups` argument.
`summarise()` has grouped output by 'theta'. You can override using the
`.groups` argument.
`summarise()` has grouped output by 'theta', 'tau'. You can override using the
`.groups` argument.
`summarise()` has grouped output by 'theta'. You can override using the
`.groups` argument.
[1] ""
[1] "Total run time was 146.352 seconds"
[1] "Estimation result: "
# A tibble: 360 × 5
   estimand theta   tau   est     se
   <chr>    <dbl> <dbl> <dbl>  <dbl>
 1 mu         0.1   0.1 0.380 0.0412
 2 mu         0.1   0.2 0.480 0.0476
 3 mu         0.1   0.3 0.520 0.0433
 4 mu         0.1   0.4 0.570 0.0451
 5 mu         0.1   0.5 0.589 0.0467
 6 mu         0.2   0.1 0.318 0.0367
 7 mu         0.2   0.2 0.420 0.0421
 8 mu         0.2   0.3 0.445 0.0416
 9 mu         0.2   0.4 0.479 0.0442
10 mu         0.2   0.5 0.524 0.0445
# ℹ 350 more rows
…
