…
`.groups` argument.
`summarise()` has grouped output by 'theta'. You can override using the
`.groups` argument.
`summarise()` has grouped output by 'theta', 'tau'. You can override using the
`.groups` argument.
`summarise()` has grouped output by 'theta'. You can override using the
`.groups` argument.
`summarise()` has grouped output by 'theta', 'tau'. You can override using the
`.groups` argument.
`summarise()` has grouped output by 'theta'. You can override using the
`.groups` argument.
[1] ""
[1] "Total run time was 161.3 seconds"
[1] "Estimation result: "
# A tibble: 360 × 5
   estimand theta   tau   est     se
   <chr>    <dbl> <dbl> <dbl>  <dbl>
 1 mu         0.1   0.1 0.348 0.0445
 2 mu         0.1   0.2 0.416 0.0436
 3 mu         0.1   0.3 0.497 0.0451
 4 mu         0.1   0.4 0.533 0.0498
 5 mu         0.1   0.5 0.587 0.0360
 6 mu         0.2   0.1 0.292 0.0300
 7 mu         0.2   0.2 0.350 0.0319
 8 mu         0.2   0.3 0.426 0.0346
 9 mu         0.2   0.4 0.469 0.0419
10 mu         0.2   0.5 0.516 0.0382
# ℹ 350 more rows
…
