…
`.groups` argument.
`summarise()` has grouped output by 'theta'. You can override using the
`.groups` argument.
`summarise()` has grouped output by 'theta', 'tau'. You can override using the
`.groups` argument.
`summarise()` has grouped output by 'theta'. You can override using the
`.groups` argument.
`summarise()` has grouped output by 'theta', 'tau'. You can override using the
`.groups` argument.
`summarise()` has grouped output by 'theta'. You can override using the
`.groups` argument.
[1] ""
[1] "Total run time was 175.398 seconds"
[1] "Estimation result: "
# A tibble: 360 × 5
   estimand theta   tau   est     se
   <chr>    <dbl> <dbl> <dbl>  <dbl>
 1 mu         0.1   0.1 0.394 0.0521
 2 mu         0.1   0.2 0.484 0.0440
 3 mu         0.1   0.3 0.542 0.0432
 4 mu         0.1   0.4 0.583 0.0383
 5 mu         0.1   0.5 0.659 0.0428
 6 mu         0.2   0.1 0.294 0.0368
 7 mu         0.2   0.2 0.394 0.0298
 8 mu         0.2   0.3 0.454 0.0309
 9 mu         0.2   0.4 0.492 0.0277
10 mu         0.2   0.5 0.561 0.0335
# ℹ 350 more rows
…
