…
`.groups` argument.
`summarise()` has grouped output by 'theta'. You can override using the
`.groups` argument.
`summarise()` has grouped output by 'theta', 'tau'. You can override using the
`.groups` argument.
`summarise()` has grouped output by 'theta'. You can override using the
`.groups` argument.
`summarise()` has grouped output by 'theta', 'tau'. You can override using the
`.groups` argument.
`summarise()` has grouped output by 'theta'. You can override using the
`.groups` argument.
[1] ""
[1] "Total run time was 141.995 seconds"
[1] "Estimation result: "
# A tibble: 360 × 5
   estimand theta   tau   est     se
   <chr>    <dbl> <dbl> <dbl>  <dbl>
 1 mu         0.1   0.1 0.429 0.0393
 2 mu         0.1   0.2 0.465 0.0418
 3 mu         0.1   0.3 0.576 0.0384
 4 mu         0.1   0.4 0.590 0.0400
 5 mu         0.1   0.5 0.621 0.0405
 6 mu         0.2   0.1 0.362 0.0313
 7 mu         0.2   0.2 0.413 0.0328
 8 mu         0.2   0.3 0.488 0.0315
 9 mu         0.2   0.4 0.514 0.0357
10 mu         0.2   0.5 0.540 0.0373
# ℹ 350 more rows
…
