…
`.groups` argument.
`summarise()` has grouped output by 'theta'. You can override using the
`.groups` argument.
`summarise()` has grouped output by 'theta', 'tau'. You can override using the
`.groups` argument.
`summarise()` has grouped output by 'theta'. You can override using the
`.groups` argument.
`summarise()` has grouped output by 'theta', 'tau'. You can override using the
`.groups` argument.
`summarise()` has grouped output by 'theta'. You can override using the
`.groups` argument.
[1] ""
[1] "Total run time was 149.611 seconds"
[1] "Estimation result: "
# A tibble: 360 × 5
   estimand theta   tau   est     se
   <chr>    <dbl> <dbl> <dbl>  <dbl>
 1 mu         0.1   0.1 0.394 0.0377
 2 mu         0.1   0.2 0.505 0.0403
 3 mu         0.1   0.3 0.574 0.0391
 4 mu         0.1   0.4 0.603 0.0379
 5 mu         0.1   0.5 0.641 0.0443
 6 mu         0.2   0.1 0.331 0.0329
 7 mu         0.2   0.2 0.457 0.0457
 8 mu         0.2   0.3 0.533 0.0386
 9 mu         0.2   0.4 0.570 0.0400
10 mu         0.2   0.5 0.591 0.0421
# ℹ 350 more rows
…
