…
`.groups` argument.
`summarise()` has grouped output by 'theta'. You can override using the
`.groups` argument.
`summarise()` has grouped output by 'theta', 'tau'. You can override using the
`.groups` argument.
`summarise()` has grouped output by 'theta'. You can override using the
`.groups` argument.
`summarise()` has grouped output by 'theta', 'tau'. You can override using the
`.groups` argument.
`summarise()` has grouped output by 'theta'. You can override using the
`.groups` argument.
[1] ""
[1] "Total run time was 139.031 seconds"
[1] "Estimation result: "
# A tibble: 360 × 5
   estimand theta   tau   est     se
   <chr>    <dbl> <dbl> <dbl>  <dbl>
 1 mu         0.1   0.1 0.460 0.0340
 2 mu         0.1   0.2 0.556 0.0374
 3 mu         0.1   0.3 0.626 0.0412
 4 mu         0.1   0.4 0.646 0.0374
 5 mu         0.1   0.5 0.667 0.0373
 6 mu         0.2   0.1 0.405 0.0340
 7 mu         0.2   0.2 0.520 0.0332
 8 mu         0.2   0.3 0.593 0.0390
 9 mu         0.2   0.4 0.627 0.0361
10 mu         0.2   0.5 0.640 0.0343
# ℹ 350 more rows
…
