…
`.groups` argument.
`summarise()` has grouped output by 'theta'. You can override using the
`.groups` argument.
`summarise()` has grouped output by 'theta', 'tau'. You can override using the
`.groups` argument.
`summarise()` has grouped output by 'theta'. You can override using the
`.groups` argument.
`summarise()` has grouped output by 'theta', 'tau'. You can override using the
`.groups` argument.
`summarise()` has grouped output by 'theta'. You can override using the
`.groups` argument.
[1] ""
[1] "Total run time was 139.609 seconds"
[1] "Estimation result: "
# A tibble: 360 × 5
   estimand theta   tau   est     se
   <chr>    <dbl> <dbl> <dbl>  <dbl>
 1 mu         0.1   0.1 0.427 0.0394
 2 mu         0.1   0.2 0.523 0.0469
 3 mu         0.1   0.3 0.576 0.0541
 4 mu         0.1   0.4 0.593 0.0538
 5 mu         0.1   0.5 0.638 0.0558
 6 mu         0.2   0.1 0.358 0.0431
 7 mu         0.2   0.2 0.411 0.0491
 8 mu         0.2   0.3 0.484 0.0500
 9 mu         0.2   0.4 0.519 0.0530
10 mu         0.2   0.5 0.532 0.0581
# ℹ 350 more rows
…
