…
`.groups` argument.
`summarise()` has grouped output by 'theta'. You can override using the
`.groups` argument.
`summarise()` has grouped output by 'theta', 'tau'. You can override using the
`.groups` argument.
`summarise()` has grouped output by 'theta'. You can override using the
`.groups` argument.
`summarise()` has grouped output by 'theta', 'tau'. You can override using the
`.groups` argument.
`summarise()` has grouped output by 'theta'. You can override using the
`.groups` argument.
[1] ""
[1] "Total run time was 133.663 seconds"
[1] "Estimation result: "
# A tibble: 360 × 5
   estimand theta   tau   est     se
   <chr>    <dbl> <dbl> <dbl>  <dbl>
 1 mu         0.1   0.1 0.412 0.0430
 2 mu         0.1   0.2 0.501 0.0419
 3 mu         0.1   0.3 0.552 0.0367
 4 mu         0.1   0.4 0.620 0.0395
 5 mu         0.1   0.5 0.660 0.0387
 6 mu         0.2   0.1 0.349 0.0391
 7 mu         0.2   0.2 0.443 0.0435
 8 mu         0.2   0.3 0.475 0.0366
 9 mu         0.2   0.4 0.545 0.0378
10 mu         0.2   0.5 0.602 0.0391
# ℹ 350 more rows
…
