…
`.groups` argument.
`summarise()` has grouped output by 'theta'. You can override using the
`.groups` argument.
`summarise()` has grouped output by 'theta', 'tau'. You can override using the
`.groups` argument.
`summarise()` has grouped output by 'theta'. You can override using the
`.groups` argument.
`summarise()` has grouped output by 'theta', 'tau'. You can override using the
`.groups` argument.
`summarise()` has grouped output by 'theta'. You can override using the
`.groups` argument.
[1] ""
[1] "Total run time was 174.655 seconds"
[1] "Estimation result: "
# A tibble: 360 × 5
   estimand theta   tau   est     se
   <chr>    <dbl> <dbl> <dbl>  <dbl>
 1 mu         0.1   0.1 0.395 0.0292
 2 mu         0.1   0.2 0.500 0.0363
 3 mu         0.1   0.3 0.580 0.0401
 4 mu         0.1   0.4 0.614 0.0380
 5 mu         0.1   0.5 0.641 0.0376
 6 mu         0.2   0.1 0.310 0.0240
 7 mu         0.2   0.2 0.410 0.0388
 8 mu         0.2   0.3 0.466 0.0458
 9 mu         0.2   0.4 0.530 0.0390
10 mu         0.2   0.5 0.574 0.0423
# ℹ 350 more rows
…
