…
`.groups` argument.
`summarise()` has grouped output by 'theta'. You can override using the
`.groups` argument.
`summarise()` has grouped output by 'theta', 'tau'. You can override using the
`.groups` argument.
`summarise()` has grouped output by 'theta'. You can override using the
`.groups` argument.
`summarise()` has grouped output by 'theta', 'tau'. You can override using the
`.groups` argument.
`summarise()` has grouped output by 'theta'. You can override using the
`.groups` argument.
[1] ""
[1] "Total run time was 180.477 seconds"
[1] "Estimation result: "
# A tibble: 360 × 5
   estimand theta   tau   est     se
   <chr>    <dbl> <dbl> <dbl>  <dbl>
 1 mu         0.1   0.1 0.326 0.0453
 2 mu         0.1   0.2 0.412 0.0476
 3 mu         0.1   0.3 0.434 0.0520
 4 mu         0.1   0.4 0.539 0.0399
 5 mu         0.1   0.5 0.585 0.0452
 6 mu         0.2   0.1 0.278 0.0510
 7 mu         0.2   0.2 0.370 0.0522
 8 mu         0.2   0.3 0.413 0.0460
 9 mu         0.2   0.4 0.495 0.0360
10 mu         0.2   0.5 0.535 0.0435
# ℹ 350 more rows
…
