…
`.groups` argument.
`summarise()` has grouped output by 'theta'. You can override using the
`.groups` argument.
`summarise()` has grouped output by 'theta', 'tau'. You can override using the
`.groups` argument.
`summarise()` has grouped output by 'theta'. You can override using the
`.groups` argument.
`summarise()` has grouped output by 'theta', 'tau'. You can override using the
`.groups` argument.
`summarise()` has grouped output by 'theta'. You can override using the
`.groups` argument.
[1] ""
[1] "Total run time was 125.221 seconds"
[1] "Estimation result: "
# A tibble: 360 × 5
   estimand theta   tau   est     se
   <chr>    <dbl> <dbl> <dbl>  <dbl>
 1 mu         0.1   0.1 0.407 0.0403
 2 mu         0.1   0.2 0.460 0.0417
 3 mu         0.1   0.3 0.578 0.0417
 4 mu         0.1   0.4 0.598 0.0444
 5 mu         0.1   0.5 0.646 0.0412
 6 mu         0.2   0.1 0.353 0.0493
 7 mu         0.2   0.2 0.393 0.0521
 8 mu         0.2   0.3 0.501 0.0308
 9 mu         0.2   0.4 0.520 0.0315
10 mu         0.2   0.5 0.560 0.0318
# ℹ 350 more rows
…
