…
`.groups` argument.
`summarise()` has grouped output by 'theta'. You can override using the
`.groups` argument.
`summarise()` has grouped output by 'theta', 'tau'. You can override using the
`.groups` argument.
`summarise()` has grouped output by 'theta'. You can override using the
`.groups` argument.
`summarise()` has grouped output by 'theta', 'tau'. You can override using the
`.groups` argument.
`summarise()` has grouped output by 'theta'. You can override using the
`.groups` argument.
[1] ""
[1] "Total run time was 152.586 seconds"
[1] "Estimation result: "
# A tibble: 360 × 5
   estimand theta   tau   est     se
   <chr>    <dbl> <dbl> <dbl>  <dbl>
 1 mu         0.1   0.1 0.441 0.0350
 2 mu         0.1   0.2 0.517 0.0445
 3 mu         0.1   0.3 0.541 0.0420
 4 mu         0.1   0.4 0.589 0.0453
 5 mu         0.1   0.5 0.635 0.0461
 6 mu         0.2   0.1 0.383 0.0310
 7 mu         0.2   0.2 0.456 0.0435
 8 mu         0.2   0.3 0.477 0.0406
 9 mu         0.2   0.4 0.528 0.0435
10 mu         0.2   0.5 0.575 0.0437
# ℹ 350 more rows
…
