…
`.groups` argument.
`summarise()` has grouped output by 'theta'. You can override using the
`.groups` argument.
`summarise()` has grouped output by 'theta', 'tau'. You can override using the
`.groups` argument.
`summarise()` has grouped output by 'theta'. You can override using the
`.groups` argument.
`summarise()` has grouped output by 'theta', 'tau'. You can override using the
`.groups` argument.
`summarise()` has grouped output by 'theta'. You can override using the
`.groups` argument.
[1] ""
[1] "Total run time was 172.935 seconds"
[1] "Estimation result: "
# A tibble: 360 × 5
   estimand theta   tau   est     se
   <chr>    <dbl> <dbl> <dbl>  <dbl>
 1 mu         0.1   0.1 0.395 0.0383
 2 mu         0.1   0.2 0.476 0.0427
 3 mu         0.1   0.3 0.507 0.0490
 4 mu         0.1   0.4 0.563 0.0472
 5 mu         0.1   0.5 0.620 0.0384
 6 mu         0.2   0.1 0.342 0.0338
 7 mu         0.2   0.2 0.423 0.0385
 8 mu         0.2   0.3 0.462 0.0446
 9 mu         0.2   0.4 0.512 0.0473
10 mu         0.2   0.5 0.571 0.0383
# ℹ 350 more rows
…
