…
`.groups` argument.
`summarise()` has grouped output by 'theta'. You can override using the
`.groups` argument.
`summarise()` has grouped output by 'theta', 'tau'. You can override using the
`.groups` argument.
`summarise()` has grouped output by 'theta'. You can override using the
`.groups` argument.
`summarise()` has grouped output by 'theta', 'tau'. You can override using the
`.groups` argument.
`summarise()` has grouped output by 'theta'. You can override using the
`.groups` argument.
[1] ""
[1] "Total run time was 200.061 seconds"
[1] "Estimation result: "
# A tibble: 360 × 5
   estimand theta   tau   est     se
   <chr>    <dbl> <dbl> <dbl>  <dbl>
 1 mu         0.1   0.1 0.402 0.0310
 2 mu         0.1   0.2 0.496 0.0374
 3 mu         0.1   0.3 0.541 0.0420
 4 mu         0.1   0.4 0.602 0.0417
 5 mu         0.1   0.5 0.620 0.0435
 6 mu         0.2   0.1 0.338 0.0296
 7 mu         0.2   0.2 0.426 0.0355
 8 mu         0.2   0.3 0.462 0.0399
 9 mu         0.2   0.4 0.519 0.0415
10 mu         0.2   0.5 0.540 0.0411
# ℹ 350 more rows
…
