…
`.groups` argument.
`summarise()` has grouped output by 'theta'. You can override using the
`.groups` argument.
`summarise()` has grouped output by 'theta', 'tau'. You can override using the
`.groups` argument.
`summarise()` has grouped output by 'theta'. You can override using the
`.groups` argument.
`summarise()` has grouped output by 'theta', 'tau'. You can override using the
`.groups` argument.
`summarise()` has grouped output by 'theta'. You can override using the
`.groups` argument.
[1] ""
[1] "Total run time was 196.263 seconds"
[1] "Estimation result: "
# A tibble: 360 × 5
   estimand theta   tau   est     se
   <chr>    <dbl> <dbl> <dbl>  <dbl>
 1 mu         0.1   0.1 0.480 0.0557
 2 mu         0.1   0.2 0.550 0.0526
 3 mu         0.1   0.3 0.623 0.0548
 4 mu         0.1   0.4 0.640 0.0633
 5 mu         0.1   0.5 0.680 0.0671
 6 mu         0.2   0.1 0.421 0.0526
 7 mu         0.2   0.2 0.504 0.0458
 8 mu         0.2   0.3 0.589 0.0530
 9 mu         0.2   0.4 0.601 0.0553
10 mu         0.2   0.5 0.612 0.0549
# ℹ 350 more rows
…
