…
`.groups` argument.
`summarise()` has grouped output by 'theta'. You can override using the
`.groups` argument.
`summarise()` has grouped output by 'theta', 'tau'. You can override using the
`.groups` argument.
`summarise()` has grouped output by 'theta'. You can override using the
`.groups` argument.
`summarise()` has grouped output by 'theta', 'tau'. You can override using the
`.groups` argument.
`summarise()` has grouped output by 'theta'. You can override using the
`.groups` argument.
[1] ""
[1] "Total run time was 153.806 seconds"
[1] "Estimation result: "
# A tibble: 360 × 5
   estimand theta   tau   est     se
   <chr>    <dbl> <dbl> <dbl>  <dbl>
 1 mu         0.1   0.1 0.451 0.0370
 2 mu         0.1   0.2 0.567 0.0381
 3 mu         0.1   0.3 0.646 0.0360
 4 mu         0.1   0.4 0.665 0.0369
 5 mu         0.1   0.5 0.687 0.0352
 6 mu         0.2   0.1 0.392 0.0413
 7 mu         0.2   0.2 0.504 0.0507
 8 mu         0.2   0.3 0.572 0.0482
 9 mu         0.2   0.4 0.601 0.0476
10 mu         0.2   0.5 0.625 0.0500
# ℹ 350 more rows
…
