…
`.groups` argument.
`summarise()` has grouped output by 'theta'. You can override using the
`.groups` argument.
`summarise()` has grouped output by 'theta', 'tau'. You can override using the
`.groups` argument.
`summarise()` has grouped output by 'theta'. You can override using the
`.groups` argument.
`summarise()` has grouped output by 'theta', 'tau'. You can override using the
`.groups` argument.
`summarise()` has grouped output by 'theta'. You can override using the
`.groups` argument.
[1] ""
[1] "Total run time was 149.639 seconds"
[1] "Estimation result: "
# A tibble: 360 × 5
   estimand theta   tau   est     se
   <chr>    <dbl> <dbl> <dbl>  <dbl>
 1 mu         0.1   0.1 0.373 0.0291
 2 mu         0.1   0.2 0.448 0.0353
 3 mu         0.1   0.3 0.525 0.0371
 4 mu         0.1   0.4 0.575 0.0336
 5 mu         0.1   0.5 0.595 0.0345
 6 mu         0.2   0.1 0.280 0.0310
 7 mu         0.2   0.2 0.372 0.0331
 8 mu         0.2   0.3 0.437 0.0290
 9 mu         0.2   0.4 0.495 0.0278
10 mu         0.2   0.5 0.530 0.0289
# ℹ 350 more rows
…
