…
`.groups` argument.
`summarise()` has grouped output by 'theta'. You can override using the
`.groups` argument.
`summarise()` has grouped output by 'theta', 'tau'. You can override using the
`.groups` argument.
`summarise()` has grouped output by 'theta'. You can override using the
`.groups` argument.
`summarise()` has grouped output by 'theta', 'tau'. You can override using the
`.groups` argument.
`summarise()` has grouped output by 'theta'. You can override using the
`.groups` argument.
[1] ""
[1] "Total run time was 142.358 seconds"
[1] "Estimation result: "
# A tibble: 360 × 5
   estimand theta   tau   est     se
   <chr>    <dbl> <dbl> <dbl>  <dbl>
 1 mu         0.1   0.1 0.366 0.0300
 2 mu         0.1   0.2 0.441 0.0452
 3 mu         0.1   0.3 0.542 0.0464
 4 mu         0.1   0.4 0.583 0.0459
 5 mu         0.1   0.5 0.620 0.0455
 6 mu         0.2   0.1 0.299 0.0303
 7 mu         0.2   0.2 0.369 0.0401
 8 mu         0.2   0.3 0.465 0.0376
 9 mu         0.2   0.4 0.525 0.0400
10 mu         0.2   0.5 0.552 0.0471
# ℹ 350 more rows
…
