…
`.groups` argument.
`summarise()` has grouped output by 'theta'. You can override using the
`.groups` argument.
`summarise()` has grouped output by 'theta', 'tau'. You can override using the
`.groups` argument.
`summarise()` has grouped output by 'theta'. You can override using the
`.groups` argument.
`summarise()` has grouped output by 'theta', 'tau'. You can override using the
`.groups` argument.
`summarise()` has grouped output by 'theta'. You can override using the
`.groups` argument.
[1] ""
[1] "Total run time was 152.008 seconds"
[1] "Estimation result: "
# A tibble: 360 × 5
   estimand theta   tau   est     se
   <chr>    <dbl> <dbl> <dbl>  <dbl>
 1 mu         0.1   0.1 0.334 0.0366
 2 mu         0.1   0.2 0.420 0.0400
 3 mu         0.1   0.3 0.466 0.0441
 4 mu         0.1   0.4 0.533 0.0486
 5 mu         0.1   0.5 0.569 0.0507
 6 mu         0.2   0.1 0.327 0.0398
 7 mu         0.2   0.2 0.416 0.0353
 8 mu         0.2   0.3 0.461 0.0383
 9 mu         0.2   0.4 0.510 0.0460
10 mu         0.2   0.5 0.557 0.0406
# ℹ 350 more rows
…
