…
`.groups` argument.
`summarise()` has grouped output by 'theta'. You can override using the
`.groups` argument.
`summarise()` has grouped output by 'theta', 'tau'. You can override using the
`.groups` argument.
`summarise()` has grouped output by 'theta'. You can override using the
`.groups` argument.
`summarise()` has grouped output by 'theta', 'tau'. You can override using the
`.groups` argument.
`summarise()` has grouped output by 'theta'. You can override using the
`.groups` argument.
[1] ""
[1] "Total run time was 142.605 seconds"
[1] "Estimation result: "
# A tibble: 360 × 5
   estimand theta   tau   est     se
   <chr>    <dbl> <dbl> <dbl>  <dbl>
 1 mu         0.1   0.1 0.421 0.0351
 2 mu         0.1   0.2 0.540 0.0341
 3 mu         0.1   0.3 0.586 0.0343
 4 mu         0.1   0.4 0.607 0.0377
 5 mu         0.1   0.5 0.671 0.0605
 6 mu         0.2   0.1 0.371 0.0420
 7 mu         0.2   0.2 0.489 0.0466
 8 mu         0.2   0.3 0.529 0.0456
 9 mu         0.2   0.4 0.551 0.0468
10 mu         0.2   0.5 0.588 0.0616
# ℹ 350 more rows
…
