…
`.groups` argument.
`summarise()` has grouped output by 'theta'. You can override using the
`.groups` argument.
`summarise()` has grouped output by 'theta', 'tau'. You can override using the
`.groups` argument.
`summarise()` has grouped output by 'theta'. You can override using the
`.groups` argument.
`summarise()` has grouped output by 'theta', 'tau'. You can override using the
`.groups` argument.
`summarise()` has grouped output by 'theta'. You can override using the
`.groups` argument.
[1] ""
[1] "Total run time was 142.471 seconds"
[1] "Estimation result: "
# A tibble: 360 × 5
   estimand theta   tau   est     se
   <chr>    <dbl> <dbl> <dbl>  <dbl>
 1 mu         0.1   0.1 0.406 0.0351
 2 mu         0.1   0.2 0.500 0.0440
 3 mu         0.1   0.3 0.527 0.0408
 4 mu         0.1   0.4 0.571 0.0411
 5 mu         0.1   0.5 0.631 0.0387
 6 mu         0.2   0.1 0.339 0.0384
 7 mu         0.2   0.2 0.444 0.0418
 8 mu         0.2   0.3 0.464 0.0412
 9 mu         0.2   0.4 0.503 0.0443
10 mu         0.2   0.5 0.570 0.0442
# ℹ 350 more rows
…
