…
`.groups` argument.
`summarise()` has grouped output by 'theta'. You can override using the
`.groups` argument.
`summarise()` has grouped output by 'theta', 'tau'. You can override using the
`.groups` argument.
`summarise()` has grouped output by 'theta'. You can override using the
`.groups` argument.
`summarise()` has grouped output by 'theta', 'tau'. You can override using the
`.groups` argument.
`summarise()` has grouped output by 'theta'. You can override using the
`.groups` argument.
[1] ""
[1] "Total run time was 150.747 seconds"
[1] "Estimation result: "
# A tibble: 360 × 5
   estimand theta   tau   est     se
   <chr>    <dbl> <dbl> <dbl>  <dbl>
 1 mu         0.1   0.1 0.368 0.0443
 2 mu         0.1   0.2 0.461 0.0475
 3 mu         0.1   0.3 0.521 0.0497
 4 mu         0.1   0.4 0.579 0.0513
 5 mu         0.1   0.5 0.642 0.0607
 6 mu         0.2   0.1 0.354 0.0473
 7 mu         0.2   0.2 0.445 0.0469
 8 mu         0.2   0.3 0.501 0.0437
 9 mu         0.2   0.4 0.548 0.0455
10 mu         0.2   0.5 0.598 0.0509
# ℹ 350 more rows
…
