…
`.groups` argument.
`summarise()` has grouped output by 'theta'. You can override using the
`.groups` argument.
`summarise()` has grouped output by 'theta', 'tau'. You can override using the
`.groups` argument.
`summarise()` has grouped output by 'theta'. You can override using the
`.groups` argument.
`summarise()` has grouped output by 'theta', 'tau'. You can override using the
`.groups` argument.
`summarise()` has grouped output by 'theta'. You can override using the
`.groups` argument.
[1] ""
[1] "Total run time was 147.407 seconds"
[1] "Estimation result: "
# A tibble: 360 × 5
   estimand theta   tau   est     se
   <chr>    <dbl> <dbl> <dbl>  <dbl>
 1 mu         0.1   0.1 0.412 0.0399
 2 mu         0.1   0.2 0.502 0.0397
 3 mu         0.1   0.3 0.556 0.0357
 4 mu         0.1   0.4 0.616 0.0423
 5 mu         0.1   0.5 0.675 0.0443
 6 mu         0.2   0.1 0.362 0.0310
 7 mu         0.2   0.2 0.480 0.0364
 8 mu         0.2   0.3 0.532 0.0370
 9 mu         0.2   0.4 0.591 0.0415
10 mu         0.2   0.5 0.634 0.0408
# ℹ 350 more rows
…
