…
`.groups` argument.
`summarise()` has grouped output by 'theta'. You can override using the
`.groups` argument.
`summarise()` has grouped output by 'theta', 'tau'. You can override using the
`.groups` argument.
`summarise()` has grouped output by 'theta'. You can override using the
`.groups` argument.
`summarise()` has grouped output by 'theta', 'tau'. You can override using the
`.groups` argument.
`summarise()` has grouped output by 'theta'. You can override using the
`.groups` argument.
[1] ""
[1] "Total run time was 141.857 seconds"
[1] "Estimation result: "
# A tibble: 360 × 5
   estimand theta   tau   est     se
   <chr>    <dbl> <dbl> <dbl>  <dbl>
 1 mu         0.1   0.1 0.487 0.0383
 2 mu         0.1   0.2 0.578 0.0438
 3 mu         0.1   0.3 0.655 0.0426
 4 mu         0.1   0.4 0.684 0.0405
 5 mu         0.1   0.5 0.722 0.0415
 6 mu         0.2   0.1 0.384 0.0408
 7 mu         0.2   0.2 0.479 0.0415
 8 mu         0.2   0.3 0.555 0.0438
 9 mu         0.2   0.4 0.596 0.0373
10 mu         0.2   0.5 0.647 0.0443
# ℹ 350 more rows
…
