…
`.groups` argument.
`summarise()` has grouped output by 'theta'. You can override using the
`.groups` argument.
`summarise()` has grouped output by 'theta', 'tau'. You can override using the
`.groups` argument.
`summarise()` has grouped output by 'theta'. You can override using the
`.groups` argument.
`summarise()` has grouped output by 'theta', 'tau'. You can override using the
`.groups` argument.
`summarise()` has grouped output by 'theta'. You can override using the
`.groups` argument.
[1] ""
[1] "Total run time was 152.873 seconds"
[1] "Estimation result: "
# A tibble: 360 × 5
   estimand theta   tau   est     se
   <chr>    <dbl> <dbl> <dbl>  <dbl>
 1 mu         0.1   0.1 0.382 0.0425
 2 mu         0.1   0.2 0.426 0.0452
 3 mu         0.1   0.3 0.491 0.0482
 4 mu         0.1   0.4 0.575 0.0391
 5 mu         0.1   0.5 0.601 0.0394
 6 mu         0.2   0.1 0.352 0.0359
 7 mu         0.2   0.2 0.398 0.0327
 8 mu         0.2   0.3 0.483 0.0382
 9 mu         0.2   0.4 0.531 0.0333
10 mu         0.2   0.5 0.565 0.0334
# ℹ 350 more rows
…
