…
`.groups` argument.
`summarise()` has grouped output by 'theta'. You can override using the
`.groups` argument.
`summarise()` has grouped output by 'theta', 'tau'. You can override using the
`.groups` argument.
`summarise()` has grouped output by 'theta'. You can override using the
`.groups` argument.
`summarise()` has grouped output by 'theta', 'tau'. You can override using the
`.groups` argument.
`summarise()` has grouped output by 'theta'. You can override using the
`.groups` argument.
[1] ""
[1] "Total run time was 170.295 seconds"
[1] "Estimation result: "
# A tibble: 360 × 5
   estimand theta   tau   est     se
   <chr>    <dbl> <dbl> <dbl>  <dbl>
 1 mu         0.1   0.1 0.421 0.0394
 2 mu         0.1   0.2 0.516 0.0399
 3 mu         0.1   0.3 0.599 0.0358
 4 mu         0.1   0.4 0.648 0.0360
 5 mu         0.1   0.5 0.663 0.0369
 6 mu         0.2   0.1 0.361 0.0359
 7 mu         0.2   0.2 0.425 0.0376
 8 mu         0.2   0.3 0.500 0.0313
 9 mu         0.2   0.4 0.586 0.0355
10 mu         0.2   0.5 0.597 0.0347
# ℹ 350 more rows
…
