…
`.groups` argument.
`summarise()` has grouped output by 'theta'. You can override using the
`.groups` argument.
`summarise()` has grouped output by 'theta', 'tau'. You can override using the
`.groups` argument.
`summarise()` has grouped output by 'theta'. You can override using the
`.groups` argument.
`summarise()` has grouped output by 'theta', 'tau'. You can override using the
`.groups` argument.
`summarise()` has grouped output by 'theta'. You can override using the
`.groups` argument.
[1] ""
[1] "Total run time was 148.14 seconds"
[1] "Estimation result: "
# A tibble: 360 × 5
   estimand theta   tau   est     se
   <chr>    <dbl> <dbl> <dbl>  <dbl>
 1 mu         0.1   0.1 0.367 0.0408
 2 mu         0.1   0.2 0.479 0.0324
 3 mu         0.1   0.3 0.519 0.0346
 4 mu         0.1   0.4 0.590 0.0287
 5 mu         0.1   0.5 0.597 0.0272
 6 mu         0.2   0.1 0.323 0.0424
 7 mu         0.2   0.2 0.417 0.0330
 8 mu         0.2   0.3 0.479 0.0381
 9 mu         0.2   0.4 0.521 0.0318
10 mu         0.2   0.5 0.531 0.0322
# ℹ 350 more rows
…
