…
`.groups` argument.
`summarise()` has grouped output by 'theta'. You can override using the
`.groups` argument.
`summarise()` has grouped output by 'theta', 'tau'. You can override using the
`.groups` argument.
`summarise()` has grouped output by 'theta'. You can override using the
`.groups` argument.
`summarise()` has grouped output by 'theta', 'tau'. You can override using the
`.groups` argument.
`summarise()` has grouped output by 'theta'. You can override using the
`.groups` argument.
[1] ""
[1] "Total run time was 159.83 seconds"
[1] "Estimation result: "
# A tibble: 360 × 5
   estimand theta   tau   est     se
   <chr>    <dbl> <dbl> <dbl>  <dbl>
 1 mu         0.1   0.1 0.379 0.0430
 2 mu         0.1   0.2 0.463 0.0502
 3 mu         0.1   0.3 0.541 0.0499
 4 mu         0.1   0.4 0.578 0.0469
 5 mu         0.1   0.5 0.615 0.0391
 6 mu         0.2   0.1 0.339 0.0435
 7 mu         0.2   0.2 0.432 0.0503
 8 mu         0.2   0.3 0.485 0.0490
 9 mu         0.2   0.4 0.524 0.0456
10 mu         0.2   0.5 0.572 0.0452
# ℹ 350 more rows
…
