…
`.groups` argument.
`summarise()` has grouped output by 'theta'. You can override using the
`.groups` argument.
`summarise()` has grouped output by 'theta', 'tau'. You can override using the
`.groups` argument.
`summarise()` has grouped output by 'theta'. You can override using the
`.groups` argument.
`summarise()` has grouped output by 'theta', 'tau'. You can override using the
`.groups` argument.
`summarise()` has grouped output by 'theta'. You can override using the
`.groups` argument.
[1] ""
[1] "Total run time was 160.911 seconds"
[1] "Estimation result: "
# A tibble: 360 × 5
   estimand theta   tau   est     se
   <chr>    <dbl> <dbl> <dbl>  <dbl>
 1 mu         0.1   0.1 0.461 0.0317
 2 mu         0.1   0.2 0.562 0.0326
 3 mu         0.1   0.3 0.605 0.0403
 4 mu         0.1   0.4 0.649 0.0437
 5 mu         0.1   0.5 0.667 0.0454
 6 mu         0.2   0.1 0.394 0.0232
 7 mu         0.2   0.2 0.504 0.0308
 8 mu         0.2   0.3 0.570 0.0383
 9 mu         0.2   0.4 0.598 0.0378
10 mu         0.2   0.5 0.612 0.0387
# ℹ 350 more rows
…
