…
`.groups` argument.
`summarise()` has grouped output by 'theta'. You can override using the
`.groups` argument.
`summarise()` has grouped output by 'theta', 'tau'. You can override using the
`.groups` argument.
`summarise()` has grouped output by 'theta'. You can override using the
`.groups` argument.
`summarise()` has grouped output by 'theta', 'tau'. You can override using the
`.groups` argument.
`summarise()` has grouped output by 'theta'. You can override using the
`.groups` argument.
[1] ""
[1] "Total run time was 135.55 seconds"
[1] "Estimation result: "
# A tibble: 360 × 5
   estimand theta   tau   est     se
   <chr>    <dbl> <dbl> <dbl>  <dbl>
 1 mu         0.1   0.1 0.425 0.0508
 2 mu         0.1   0.2 0.516 0.0541
 3 mu         0.1   0.3 0.586 0.0472
 4 mu         0.1   0.4 0.605 0.0494
 5 mu         0.1   0.5 0.627 0.0474
 6 mu         0.2   0.1 0.358 0.0520
 7 mu         0.2   0.2 0.460 0.0487
 8 mu         0.2   0.3 0.516 0.0479
 9 mu         0.2   0.4 0.549 0.0463
10 mu         0.2   0.5 0.555 0.0458
# ℹ 350 more rows
…
