…
`.groups` argument.
`summarise()` has grouped output by 'theta'. You can override using the
`.groups` argument.
`summarise()` has grouped output by 'theta', 'tau'. You can override using the
`.groups` argument.
`summarise()` has grouped output by 'theta'. You can override using the
`.groups` argument.
`summarise()` has grouped output by 'theta', 'tau'. You can override using the
`.groups` argument.
`summarise()` has grouped output by 'theta'. You can override using the
`.groups` argument.
[1] ""
[1] "Total run time was 145.635 seconds"
[1] "Estimation result: "
# A tibble: 360 × 5
   estimand theta   tau   est     se
   <chr>    <dbl> <dbl> <dbl>  <dbl>
 1 mu         0.1   0.1 0.457 0.0430
 2 mu         0.1   0.2 0.516 0.0379
 3 mu         0.1   0.3 0.569 0.0354
 4 mu         0.1   0.4 0.611 0.0375
 5 mu         0.1   0.5 0.646 0.0490
 6 mu         0.2   0.1 0.356 0.0441
 7 mu         0.2   0.2 0.408 0.0379
 8 mu         0.2   0.3 0.461 0.0379
 9 mu         0.2   0.4 0.516 0.0370
10 mu         0.2   0.5 0.550 0.0502
# ℹ 350 more rows
…
