…
`.groups` argument.
`summarise()` has grouped output by 'theta'. You can override using the
`.groups` argument.
`summarise()` has grouped output by 'theta', 'tau'. You can override using the
`.groups` argument.
`summarise()` has grouped output by 'theta'. You can override using the
`.groups` argument.
`summarise()` has grouped output by 'theta', 'tau'. You can override using the
`.groups` argument.
`summarise()` has grouped output by 'theta'. You can override using the
`.groups` argument.
[1] ""
[1] "Total run time was 163.958 seconds"
[1] "Estimation result: "
# A tibble: 360 × 5
   estimand theta   tau   est     se
   <chr>    <dbl> <dbl> <dbl>  <dbl>
 1 mu         0.1   0.1 0.357 0.0447
 2 mu         0.1   0.2 0.458 0.0477
 3 mu         0.1   0.3 0.526 0.0547
 4 mu         0.1   0.4 0.583 0.0536
 5 mu         0.1   0.5 0.653 0.0420
 6 mu         0.2   0.1 0.341 0.0379
 7 mu         0.2   0.2 0.453 0.0374
 8 mu         0.2   0.3 0.518 0.0395
 9 mu         0.2   0.4 0.588 0.0472
10 mu         0.2   0.5 0.643 0.0393
# ℹ 350 more rows
…
