…
`.groups` argument.
`summarise()` has grouped output by 'theta'. You can override using the
`.groups` argument.
`summarise()` has grouped output by 'theta', 'tau'. You can override using the
`.groups` argument.
`summarise()` has grouped output by 'theta'. You can override using the
`.groups` argument.
`summarise()` has grouped output by 'theta', 'tau'. You can override using the
`.groups` argument.
`summarise()` has grouped output by 'theta'. You can override using the
`.groups` argument.
[1] ""
[1] "Total run time was 147.704 seconds"
[1] "Estimation result: "
# A tibble: 360 × 5
   estimand theta   tau   est     se
   <chr>    <dbl> <dbl> <dbl>  <dbl>
 1 mu         0.1   0.1 0.483 0.0734
 2 mu         0.1   0.2 0.560 0.0806
 3 mu         0.1   0.3 0.601 0.0729
 4 mu         0.1   0.4 0.617 0.0696
 5 mu         0.1   0.5 0.619 0.0710
 6 mu         0.2   0.1 0.405 0.0591
 7 mu         0.2   0.2 0.487 0.0618
 8 mu         0.2   0.3 0.551 0.0589
 9 mu         0.2   0.4 0.601 0.0597
10 mu         0.2   0.5 0.603 0.0605
# ℹ 350 more rows
…
