…
`.groups` argument.
`summarise()` has grouped output by 'theta'. You can override using the
`.groups` argument.
`summarise()` has grouped output by 'theta', 'tau'. You can override using the
`.groups` argument.
`summarise()` has grouped output by 'theta'. You can override using the
`.groups` argument.
`summarise()` has grouped output by 'theta', 'tau'. You can override using the
`.groups` argument.
`summarise()` has grouped output by 'theta'. You can override using the
`.groups` argument.
[1] ""
[1] "Total run time was 134.432 seconds"
[1] "Estimation result: "
# A tibble: 360 × 5
   estimand theta   tau   est     se
   <chr>    <dbl> <dbl> <dbl>  <dbl>
 1 mu         0.1   0.1 0.447 0.0310
 2 mu         0.1   0.2 0.503 0.0307
 3 mu         0.1   0.3 0.561 0.0316
 4 mu         0.1   0.4 0.588 0.0304
 5 mu         0.1   0.5 0.630 0.0291
 6 mu         0.2   0.1 0.386 0.0311
 7 mu         0.2   0.2 0.473 0.0315
 8 mu         0.2   0.3 0.525 0.0319
 9 mu         0.2   0.4 0.572 0.0327
10 mu         0.2   0.5 0.611 0.0314
# ℹ 350 more rows
…
