…
`.groups` argument.
`summarise()` has grouped output by 'theta'. You can override using the
`.groups` argument.
`summarise()` has grouped output by 'theta', 'tau'. You can override using the
`.groups` argument.
`summarise()` has grouped output by 'theta'. You can override using the
`.groups` argument.
`summarise()` has grouped output by 'theta', 'tau'. You can override using the
`.groups` argument.
`summarise()` has grouped output by 'theta'. You can override using the
`.groups` argument.
[1] ""
[1] "Total run time was 141.217 seconds"
[1] "Estimation result: "
# A tibble: 360 × 5
   estimand theta   tau   est     se
   <chr>    <dbl> <dbl> <dbl>  <dbl>
 1 mu         0.1   0.1 0.457 0.0341
 2 mu         0.1   0.2 0.568 0.0484
 3 mu         0.1   0.3 0.630 0.0516
 4 mu         0.1   0.4 0.662 0.0470
 5 mu         0.1   0.5 0.681 0.0415
 6 mu         0.2   0.1 0.379 0.0267
 7 mu         0.2   0.2 0.505 0.0439
 8 mu         0.2   0.3 0.562 0.0447
 9 mu         0.2   0.4 0.602 0.0419
10 mu         0.2   0.5 0.620 0.0399
# ℹ 350 more rows
…
