…
`.groups` argument.
`summarise()` has grouped output by 'theta'. You can override using the
`.groups` argument.
`summarise()` has grouped output by 'theta', 'tau'. You can override using the
`.groups` argument.
`summarise()` has grouped output by 'theta'. You can override using the
`.groups` argument.
`summarise()` has grouped output by 'theta', 'tau'. You can override using the
`.groups` argument.
`summarise()` has grouped output by 'theta'. You can override using the
`.groups` argument.
[1] ""
[1] "Total run time was 139.68 seconds"
[1] "Estimation result: "
# A tibble: 360 × 5
   estimand theta   tau   est     se
   <chr>    <dbl> <dbl> <dbl>  <dbl>
 1 mu         0.1   0.1 0.406 0.0382
 2 mu         0.1   0.2 0.504 0.0388
 3 mu         0.1   0.3 0.537 0.0364
 4 mu         0.1   0.4 0.598 0.0459
 5 mu         0.1   0.5 0.655 0.0420
 6 mu         0.2   0.1 0.375 0.0320
 7 mu         0.2   0.2 0.466 0.0344
 8 mu         0.2   0.3 0.493 0.0308
 9 mu         0.2   0.4 0.551 0.0368
10 mu         0.2   0.5 0.609 0.0345
# ℹ 350 more rows
…
