…
`.groups` argument.
`summarise()` has grouped output by 'theta'. You can override using the
`.groups` argument.
`summarise()` has grouped output by 'theta', 'tau'. You can override using the
`.groups` argument.
`summarise()` has grouped output by 'theta'. You can override using the
`.groups` argument.
`summarise()` has grouped output by 'theta', 'tau'. You can override using the
`.groups` argument.
`summarise()` has grouped output by 'theta'. You can override using the
`.groups` argument.
[1] ""
[1] "Total run time was 142.495 seconds"
[1] "Estimation result: "
# A tibble: 360 × 5
   estimand theta   tau   est     se
   <chr>    <dbl> <dbl> <dbl>  <dbl>
 1 mu         0.1   0.1 0.479 0.0403
 2 mu         0.1   0.2 0.525 0.0442
 3 mu         0.1   0.3 0.585 0.0645
 4 mu         0.1   0.4 0.652 0.0593
 5 mu         0.1   0.5 0.673 0.0512
 6 mu         0.2   0.1 0.412 0.0392
 7 mu         0.2   0.2 0.482 0.0412
 8 mu         0.2   0.3 0.560 0.0655
 9 mu         0.2   0.4 0.608 0.0571
10 mu         0.2   0.5 0.650 0.0496
# ℹ 350 more rows
…
