…
`.groups` argument.
`summarise()` has grouped output by 'theta'. You can override using the
`.groups` argument.
`summarise()` has grouped output by 'theta', 'tau'. You can override using the
`.groups` argument.
`summarise()` has grouped output by 'theta'. You can override using the
`.groups` argument.
`summarise()` has grouped output by 'theta', 'tau'. You can override using the
`.groups` argument.
`summarise()` has grouped output by 'theta'. You can override using the
`.groups` argument.
[1] ""
[1] "Total run time was 132.476 seconds"
[1] "Estimation result: "
# A tibble: 360 × 5
   estimand theta   tau   est     se
   <chr>    <dbl> <dbl> <dbl>  <dbl>
 1 mu         0.1   0.1 0.403 0.0274
 2 mu         0.1   0.2 0.490 0.0326
 3 mu         0.1   0.3 0.522 0.0322
 4 mu         0.1   0.4 0.564 0.0335
 5 mu         0.1   0.5 0.584 0.0345
 6 mu         0.2   0.1 0.359 0.0271
 7 mu         0.2   0.2 0.423 0.0291
 8 mu         0.2   0.3 0.468 0.0358
 9 mu         0.2   0.4 0.520 0.0339
10 mu         0.2   0.5 0.538 0.0371
# ℹ 350 more rows
…
