…
`.groups` argument.
`summarise()` has grouped output by 'theta'. You can override using the
`.groups` argument.
`summarise()` has grouped output by 'theta', 'tau'. You can override using the
`.groups` argument.
`summarise()` has grouped output by 'theta'. You can override using the
`.groups` argument.
`summarise()` has grouped output by 'theta', 'tau'. You can override using the
`.groups` argument.
`summarise()` has grouped output by 'theta'. You can override using the
`.groups` argument.
[1] ""
[1] "Total run time was 150.462 seconds"
[1] "Estimation result: "
# A tibble: 360 × 5
   estimand theta   tau   est     se
   <chr>    <dbl> <dbl> <dbl>  <dbl>
 1 mu         0.1   0.1 0.406 0.0501
 2 mu         0.1   0.2 0.515 0.0534
 3 mu         0.1   0.3 0.576 0.0508
 4 mu         0.1   0.4 0.648 0.0604
 5 mu         0.1   0.5 0.717 0.0714
 6 mu         0.2   0.1 0.395 0.0675
 7 mu         0.2   0.2 0.495 0.0637
 8 mu         0.2   0.3 0.552 0.0694
 9 mu         0.2   0.4 0.635 0.103 
10 mu         0.2   0.5 0.707 0.129 
# ℹ 350 more rows
…
