…
`.groups` argument.
`summarise()` has grouped output by 'theta'. You can override using the
`.groups` argument.
`summarise()` has grouped output by 'theta', 'tau'. You can override using the
`.groups` argument.
`summarise()` has grouped output by 'theta'. You can override using the
`.groups` argument.
`summarise()` has grouped output by 'theta', 'tau'. You can override using the
`.groups` argument.
`summarise()` has grouped output by 'theta'. You can override using the
`.groups` argument.
[1] ""
[1] "Total run time was 141.012 seconds"
[1] "Estimation result: "
# A tibble: 360 × 5
   estimand theta   tau   est     se
   <chr>    <dbl> <dbl> <dbl>  <dbl>
 1 mu         0.1   0.1 0.427 0.0331
 2 mu         0.1   0.2 0.478 0.0317
 3 mu         0.1   0.3 0.555 0.0376
 4 mu         0.1   0.4 0.566 0.0393
 5 mu         0.1   0.5 0.615 0.0422
 6 mu         0.2   0.1 0.361 0.0321
 7 mu         0.2   0.2 0.416 0.0304
 8 mu         0.2   0.3 0.478 0.0366
 9 mu         0.2   0.4 0.495 0.0352
10 mu         0.2   0.5 0.549 0.0360
# ℹ 350 more rows
…
