…
`.groups` argument.
`summarise()` has grouped output by 'theta'. You can override using the
`.groups` argument.
`summarise()` has grouped output by 'theta', 'tau'. You can override using the
`.groups` argument.
`summarise()` has grouped output by 'theta'. You can override using the
`.groups` argument.
`summarise()` has grouped output by 'theta', 'tau'. You can override using the
`.groups` argument.
`summarise()` has grouped output by 'theta'. You can override using the
`.groups` argument.
[1] ""
[1] "Total run time was 172.516 seconds"
[1] "Estimation result: "
# A tibble: 360 × 5
   estimand theta   tau   est     se
   <chr>    <dbl> <dbl> <dbl>  <dbl>
 1 mu         0.1   0.1 0.445 0.0366
 2 mu         0.1   0.2 0.521 0.0392
 3 mu         0.1   0.3 0.595 0.0541
 4 mu         0.1   0.4 0.626 0.0489
 5 mu         0.1   0.5 0.671 0.0434
 6 mu         0.2   0.1 0.393 0.0323
 7 mu         0.2   0.2 0.472 0.0385
 8 mu         0.2   0.3 0.532 0.0409
 9 mu         0.2   0.4 0.555 0.0384
10 mu         0.2   0.5 0.588 0.0384
# ℹ 350 more rows
…
