…
`.groups` argument.
`summarise()` has grouped output by 'theta'. You can override using the
`.groups` argument.
`summarise()` has grouped output by 'theta', 'tau'. You can override using the
`.groups` argument.
`summarise()` has grouped output by 'theta'. You can override using the
`.groups` argument.
`summarise()` has grouped output by 'theta', 'tau'. You can override using the
`.groups` argument.
`summarise()` has grouped output by 'theta'. You can override using the
`.groups` argument.
[1] ""
[1] "Total run time was 144.366 seconds"
[1] "Estimation result: "
# A tibble: 360 × 5
   estimand theta   tau   est     se
   <chr>    <dbl> <dbl> <dbl>  <dbl>
 1 mu         0.1   0.1 0.391 0.0372
 2 mu         0.1   0.2 0.461 0.0405
 3 mu         0.1   0.3 0.535 0.0507
 4 mu         0.1   0.4 0.569 0.0481
 5 mu         0.1   0.5 0.598 0.0496
 6 mu         0.2   0.1 0.342 0.0362
 7 mu         0.2   0.2 0.392 0.0377
 8 mu         0.2   0.3 0.439 0.0460
 9 mu         0.2   0.4 0.470 0.0444
10 mu         0.2   0.5 0.490 0.0474
# ℹ 350 more rows
…
