…
`.groups` argument.
`summarise()` has grouped output by 'theta'. You can override using the
`.groups` argument.
`summarise()` has grouped output by 'theta', 'tau'. You can override using the
`.groups` argument.
`summarise()` has grouped output by 'theta'. You can override using the
`.groups` argument.
`summarise()` has grouped output by 'theta', 'tau'. You can override using the
`.groups` argument.
`summarise()` has grouped output by 'theta'. You can override using the
`.groups` argument.
[1] ""
[1] "Total run time was 43.736 seconds"
[1] "Estimation result: "
# A tibble: 360 × 5
   estimand theta   tau   est     se
   <chr>    <dbl> <dbl> <dbl>  <dbl>
 1 mu         0.1   0.1 0.410 0.157 
 2 mu         0.1   0.2 0.422 0.157 
 3 mu         0.1   0.3 0.471 0.171 
 4 mu         0.1   0.4 0.635 0.0856
 5 mu         0.1   0.5 0.744 0.0770
 6 mu         0.2   0.1 0.375 0.124 
 7 mu         0.2   0.2 0.396 0.125 
 8 mu         0.2   0.3 0.437 0.135 
 9 mu         0.2   0.4 0.581 0.0670
10 mu         0.2   0.5 0.688 0.0623
# ℹ 350 more rows
…
