…
`.groups` argument.
`summarise()` has grouped output by 'theta'. You can override using the
`.groups` argument.
`summarise()` has grouped output by 'theta', 'tau'. You can override using the
`.groups` argument.
`summarise()` has grouped output by 'theta'. You can override using the
`.groups` argument.
`summarise()` has grouped output by 'theta', 'tau'. You can override using the
`.groups` argument.
`summarise()` has grouped output by 'theta'. You can override using the
`.groups` argument.
[1] ""
[1] "Total run time was 38.349 seconds"
[1] "Estimation result: "
# A tibble: 360 × 5
   estimand theta   tau   est     se
   <chr>    <dbl> <dbl> <dbl>  <dbl>
 1 mu         0.1   0.1 0.437 0.103 
 2 mu         0.1   0.2 0.575 0.0980
 3 mu         0.1   0.3 0.585 0.0975
 4 mu         0.1   0.4 0.681 0.0950
 5 mu         0.1   0.5 0.685 0.0889
 6 mu         0.2   0.1 0.388 0.0741
 7 mu         0.2   0.2 0.510 0.0693
 8 mu         0.2   0.3 0.526 0.0692
 9 mu         0.2   0.4 0.596 0.0679
10 mu         0.2   0.5 0.606 0.0644
# ℹ 350 more rows
…
