…
`.groups` argument.
`summarise()` has grouped output by 'theta'. You can override using the
`.groups` argument.
`summarise()` has grouped output by 'theta', 'tau'. You can override using the
`.groups` argument.
`summarise()` has grouped output by 'theta'. You can override using the
`.groups` argument.
`summarise()` has grouped output by 'theta', 'tau'. You can override using the
`.groups` argument.
`summarise()` has grouped output by 'theta'. You can override using the
`.groups` argument.
[1] ""
[1] "Total run time was 59.841 seconds"
[1] "Estimation result: "
# A tibble: 360 × 5
   estimand theta   tau   est     se
   <chr>    <dbl> <dbl> <dbl>  <dbl>
 1 mu         0.1   0.1 0.239 0.115 
 2 mu         0.1   0.2 0.326 0.0997
 3 mu         0.1   0.3 0.320 0.102 
 4 mu         0.1   0.4 0.306 0.0900
 5 mu         0.1   0.5 0.306 0.0883
 6 mu         0.2   0.1 0.226 0.0724
 7 mu         0.2   0.2 0.337 0.0683
 8 mu         0.2   0.3 0.343 0.0626
 9 mu         0.2   0.4 0.352 0.0604
10 mu         0.2   0.5 0.367 0.0634
# ℹ 350 more rows
…
