…
`.groups` argument.
`summarise()` has grouped output by 'theta'. You can override using the
`.groups` argument.
`summarise()` has grouped output by 'theta', 'tau'. You can override using the
`.groups` argument.
`summarise()` has grouped output by 'theta'. You can override using the
`.groups` argument.
`summarise()` has grouped output by 'theta', 'tau'. You can override using the
`.groups` argument.
`summarise()` has grouped output by 'theta'. You can override using the
`.groups` argument.
[1] ""
[1] "Total run time was 43.298 seconds"
[1] "Estimation result: "
# A tibble: 360 × 5
   estimand theta   tau   est     se
   <chr>    <dbl> <dbl> <dbl>  <dbl>
 1 mu         0.1   0.1 0.428 0.175 
 2 mu         0.1   0.2 0.573 0.171 
 3 mu         0.1   0.3 0.626 0.185 
 4 mu         0.1   0.4 0.654 0.194 
 5 mu         0.1   0.5 0.668 0.200 
 6 mu         0.2   0.1 0.379 0.0720
 7 mu         0.2   0.2 0.470 0.0753
 8 mu         0.2   0.3 0.525 0.0781
 9 mu         0.2   0.4 0.548 0.0750
10 mu         0.2   0.5 0.564 0.0730
# ℹ 350 more rows
…
