…
`.groups` argument.
`summarise()` has grouped output by 'theta'. You can override using the
`.groups` argument.
`summarise()` has grouped output by 'theta', 'tau'. You can override using the
`.groups` argument.
`summarise()` has grouped output by 'theta'. You can override using the
`.groups` argument.
`summarise()` has grouped output by 'theta', 'tau'. You can override using the
`.groups` argument.
`summarise()` has grouped output by 'theta'. You can override using the
`.groups` argument.
[1] ""
[1] "Total run time was 49.807 seconds"
[1] "Estimation result: "
# A tibble: 360 × 5
   estimand theta   tau   est     se
   <chr>    <dbl> <dbl> <dbl>  <dbl>
 1 mu         0.1   0.1 0.359 0.0953
 2 mu         0.1   0.2 0.393 0.114 
 3 mu         0.1   0.3 0.404 0.127 
 4 mu         0.1   0.4 0.401 0.142 
 5 mu         0.1   0.5 0.476 0.140 
 6 mu         0.2   0.1 0.314 0.0506
 7 mu         0.2   0.2 0.373 0.0545
 8 mu         0.2   0.3 0.397 0.0589
 9 mu         0.2   0.4 0.427 0.0701
10 mu         0.2   0.5 0.478 0.0660
# ℹ 350 more rows
…
