…
`.groups` argument.
`summarise()` has grouped output by 'theta'. You can override using the
`.groups` argument.
`summarise()` has grouped output by 'theta', 'tau'. You can override using the
`.groups` argument.
`summarise()` has grouped output by 'theta'. You can override using the
`.groups` argument.
`summarise()` has grouped output by 'theta', 'tau'. You can override using the
`.groups` argument.
`summarise()` has grouped output by 'theta'. You can override using the
`.groups` argument.
[1] ""
[1] "Total run time was 48.598 seconds"
[1] "Estimation result: "
# A tibble: 360 × 5
   estimand theta   tau   est     se
   <chr>    <dbl> <dbl> <dbl>  <dbl>
 1 mu         0.1   0.1 0.345 0.0750
 2 mu         0.1   0.2 0.434 0.0984
 3 mu         0.1   0.3 0.421 0.0939
 4 mu         0.1   0.4 0.411 0.0950
 5 mu         0.1   0.5 0.431 0.0947
 6 mu         0.2   0.1 0.346 0.0542
 7 mu         0.2   0.2 0.417 0.0632
 8 mu         0.2   0.3 0.425 0.0628
 9 mu         0.2   0.4 0.422 0.0624
10 mu         0.2   0.5 0.445 0.0632
# ℹ 350 more rows
…
