…
`.groups` argument.
`summarise()` has grouped output by 'theta'. You can override using the
`.groups` argument.
`summarise()` has grouped output by 'theta', 'tau'. You can override using the
`.groups` argument.
`summarise()` has grouped output by 'theta'. You can override using the
`.groups` argument.
`summarise()` has grouped output by 'theta', 'tau'. You can override using the
`.groups` argument.
`summarise()` has grouped output by 'theta'. You can override using the
`.groups` argument.
[1] ""
[1] "Total run time was 46.037 seconds"
[1] "Estimation result: "
# A tibble: 360 × 5
   estimand theta   tau   est     se
   <chr>    <dbl> <dbl> <dbl>  <dbl>
 1 mu         0.1   0.1 0.275 0.0814
 2 mu         0.1   0.2 0.345 0.0883
 3 mu         0.1   0.3 0.370 0.0965
 4 mu         0.1   0.4 0.360 0.0977
 5 mu         0.1   0.5 0.386 0.117 
 6 mu         0.2   0.1 0.242 0.0501
 7 mu         0.2   0.2 0.340 0.0672
 8 mu         0.2   0.3 0.378 0.0727
 9 mu         0.2   0.4 0.380 0.0693
10 mu         0.2   0.5 0.417 0.0795
# ℹ 350 more rows
…
