…
`.groups` argument.
`summarise()` has grouped output by 'theta'. You can override using the
`.groups` argument.
`summarise()` has grouped output by 'theta', 'tau'. You can override using the
`.groups` argument.
`summarise()` has grouped output by 'theta'. You can override using the
`.groups` argument.
`summarise()` has grouped output by 'theta', 'tau'. You can override using the
`.groups` argument.
`summarise()` has grouped output by 'theta'. You can override using the
`.groups` argument.
[1] ""
[1] "Total run time was 59.272 seconds"
[1] "Estimation result: "
# A tibble: 360 × 5
   estimand theta   tau   est     se
   <chr>    <dbl> <dbl> <dbl>  <dbl>
 1 mu         0.1   0.1 0.602 0.165 
 2 mu         0.1   0.2 0.728 0.167 
 3 mu         0.1   0.3 0.853 0.208 
 4 mu         0.1   0.4 0.867 0.213 
 5 mu         0.1   0.5 0.910 0.228 
 6 mu         0.2   0.1 0.494 0.0849
 7 mu         0.2   0.2 0.604 0.0831
 8 mu         0.2   0.3 0.723 0.107 
 9 mu         0.2   0.4 0.745 0.110 
10 mu         0.2   0.5 0.799 0.118 
# ℹ 350 more rows
…
