…
`.groups` argument.
`summarise()` has grouped output by 'theta'. You can override using the
`.groups` argument.
`summarise()` has grouped output by 'theta', 'tau'. You can override using the
`.groups` argument.
`summarise()` has grouped output by 'theta'. You can override using the
`.groups` argument.
`summarise()` has grouped output by 'theta', 'tau'. You can override using the
`.groups` argument.
`summarise()` has grouped output by 'theta'. You can override using the
`.groups` argument.
[1] ""
[1] "Total run time was 71.387 seconds"
[1] "Estimation result: "
# A tibble: 360 × 5
   estimand theta   tau   est     se
   <chr>    <dbl> <dbl> <dbl>  <dbl>
 1 mu         0.1   0.1 0.266 0.0995
 2 mu         0.1   0.2 0.362 0.117 
 3 mu         0.1   0.3 0.390 0.123 
 4 mu         0.1   0.4 0.440 0.137 
 5 mu         0.1   0.5 0.481 0.142 
 6 mu         0.2   0.1 0.285 0.0584
 7 mu         0.2   0.2 0.386 0.0686
 8 mu         0.2   0.3 0.434 0.0727
 9 mu         0.2   0.4 0.490 0.0796
10 mu         0.2   0.5 0.530 0.0843
# ℹ 350 more rows
…
