…
`.groups` argument.
`summarise()` has grouped output by 'theta'. You can override using the
`.groups` argument.
`summarise()` has grouped output by 'theta', 'tau'. You can override using the
`.groups` argument.
`summarise()` has grouped output by 'theta'. You can override using the
`.groups` argument.
`summarise()` has grouped output by 'theta', 'tau'. You can override using the
`.groups` argument.
`summarise()` has grouped output by 'theta'. You can override using the
`.groups` argument.
[1] ""
[1] "Total run time was 90.854 seconds"
[1] "Estimation result: "
# A tibble: 360 × 5
   estimand theta   tau   est     se
   <chr>    <dbl> <dbl> <dbl>  <dbl>
 1 mu         0.1   0.1 0.455 0.140 
 2 mu         0.1   0.2 0.485 0.150 
 3 mu         0.1   0.3 0.538 0.171 
 4 mu         0.1   0.4 0.617 0.199 
 5 mu         0.1   0.5 0.612 0.201 
 6 mu         0.2   0.1 0.433 0.0814
 7 mu         0.2   0.2 0.497 0.0930
 8 mu         0.2   0.3 0.556 0.104 
 9 mu         0.2   0.4 0.619 0.105 
10 mu         0.2   0.5 0.654 0.117 
# ℹ 350 more rows
…
