…
`.groups` argument.
`summarise()` has grouped output by 'theta'. You can override using the
`.groups` argument.
`summarise()` has grouped output by 'theta', 'tau'. You can override using the
`.groups` argument.
`summarise()` has grouped output by 'theta'. You can override using the
`.groups` argument.
`summarise()` has grouped output by 'theta', 'tau'. You can override using the
`.groups` argument.
`summarise()` has grouped output by 'theta'. You can override using the
`.groups` argument.
[1] ""
[1] "Total run time was 46.801 seconds"
[1] "Estimation result: "
# A tibble: 360 × 5
   estimand theta   tau   est     se
   <chr>    <dbl> <dbl> <dbl>  <dbl>
 1 mu         0.1   0.1 0.386 0.0898
 2 mu         0.1   0.2 0.437 0.109 
 3 mu         0.1   0.3 0.499 0.111 
 4 mu         0.1   0.4 0.516 0.112 
 5 mu         0.1   0.5 0.559 0.125 
 6 mu         0.2   0.1 0.437 0.0759
 7 mu         0.2   0.2 0.513 0.101 
 8 mu         0.2   0.3 0.609 0.101 
 9 mu         0.2   0.4 0.650 0.105 
10 mu         0.2   0.5 0.687 0.106 
# ℹ 350 more rows
…
