…
`.groups` argument.
`summarise()` has grouped output by 'theta'. You can override using the
`.groups` argument.
`summarise()` has grouped output by 'theta', 'tau'. You can override using the
`.groups` argument.
`summarise()` has grouped output by 'theta'. You can override using the
`.groups` argument.
`summarise()` has grouped output by 'theta', 'tau'. You can override using the
`.groups` argument.
`summarise()` has grouped output by 'theta'. You can override using the
`.groups` argument.
[1] ""
[1] "Total run time was 60.795 seconds"
[1] "Estimation result: "
# A tibble: 360 × 5
   estimand theta   tau   est     se
   <chr>    <dbl> <dbl> <dbl>  <dbl>
 1 mu         0.1   0.1 0.477 0.115 
 2 mu         0.1   0.2 0.562 0.140 
 3 mu         0.1   0.3 0.604 0.157 
 4 mu         0.1   0.4 0.613 0.161 
 5 mu         0.1   0.5 0.700 0.161 
 6 mu         0.2   0.1 0.373 0.0586
 7 mu         0.2   0.2 0.456 0.0679
 8 mu         0.2   0.3 0.498 0.0791
 9 mu         0.2   0.4 0.518 0.0780
10 mu         0.2   0.5 0.605 0.0715
# ℹ 350 more rows
…
