…
`.groups` argument.
`summarise()` has grouped output by 'theta'. You can override using the
`.groups` argument.
`summarise()` has grouped output by 'theta', 'tau'. You can override using the
`.groups` argument.
`summarise()` has grouped output by 'theta'. You can override using the
`.groups` argument.
`summarise()` has grouped output by 'theta', 'tau'. You can override using the
`.groups` argument.
`summarise()` has grouped output by 'theta'. You can override using the
`.groups` argument.
[1] ""
[1] "Total run time was 45.913 seconds"
[1] "Estimation result: "
# A tibble: 360 × 5
   estimand theta   tau   est     se
   <chr>    <dbl> <dbl> <dbl>  <dbl>
 1 mu         0.1   0.1 0.307 0.0896
 2 mu         0.1   0.2 0.273 0.0829
 3 mu         0.1   0.3 0.282 0.0936
 4 mu         0.1   0.4 0.321 0.107 
 5 mu         0.1   0.5 0.423 0.131 
 6 mu         0.2   0.1 0.326 0.0795
 7 mu         0.2   0.2 0.313 0.0671
 8 mu         0.2   0.3 0.334 0.0778
 9 mu         0.2   0.4 0.384 0.0891
10 mu         0.2   0.5 0.487 0.112 
# ℹ 350 more rows
…
