…
`.groups` argument.
`summarise()` has grouped output by 'theta'. You can override using the
`.groups` argument.
`summarise()` has grouped output by 'theta', 'tau'. You can override using the
`.groups` argument.
`summarise()` has grouped output by 'theta'. You can override using the
`.groups` argument.
`summarise()` has grouped output by 'theta', 'tau'. You can override using the
`.groups` argument.
`summarise()` has grouped output by 'theta'. You can override using the
`.groups` argument.
[1] ""
[1] "Total run time was 72.477 seconds"
[1] "Estimation result: "
# A tibble: 360 × 5
   estimand theta   tau   est     se
   <chr>    <dbl> <dbl> <dbl>  <dbl>
 1 mu         0.1   0.1 0.335 0.0799
 2 mu         0.1   0.2 0.434 0.106 
 3 mu         0.1   0.3 0.466 0.103 
 4 mu         0.1   0.4 0.500 0.107 
 5 mu         0.1   0.5 0.560 0.115 
 6 mu         0.2   0.1 0.331 0.0508
 7 mu         0.2   0.2 0.426 0.0664
 8 mu         0.2   0.3 0.465 0.0624
 9 mu         0.2   0.4 0.513 0.0618
10 mu         0.2   0.5 0.573 0.0662
# ℹ 350 more rows
…
