…
`.groups` argument.
`summarise()` has grouped output by 'theta'. You can override using the
`.groups` argument.
`summarise()` has grouped output by 'theta', 'tau'. You can override using the
`.groups` argument.
`summarise()` has grouped output by 'theta'. You can override using the
`.groups` argument.
`summarise()` has grouped output by 'theta', 'tau'. You can override using the
`.groups` argument.
`summarise()` has grouped output by 'theta'. You can override using the
`.groups` argument.
[1] ""
[1] "Total run time was 75.777 seconds"
[1] "Estimation result: "
# A tibble: 360 × 5
   estimand theta   tau   est     se
   <chr>    <dbl> <dbl> <dbl>  <dbl>
 1 mu         0.1   0.1 0.255 0.0536
 2 mu         0.1   0.2 0.407 0.0920
 3 mu         0.1   0.3 0.486 0.109 
 4 mu         0.1   0.4 0.565 0.105 
 5 mu         0.1   0.5 0.562 0.102 
 6 mu         0.2   0.1 0.255 0.0346
 7 mu         0.2   0.2 0.385 0.0551
 8 mu         0.2   0.3 0.454 0.0660
 9 mu         0.2   0.4 0.555 0.0653
10 mu         0.2   0.5 0.589 0.0619
# ℹ 350 more rows
…
