…
`.groups` argument.
`summarise()` has grouped output by 'theta'. You can override using the
`.groups` argument.
`summarise()` has grouped output by 'theta', 'tau'. You can override using the
`.groups` argument.
`summarise()` has grouped output by 'theta'. You can override using the
`.groups` argument.
`summarise()` has grouped output by 'theta', 'tau'. You can override using the
`.groups` argument.
`summarise()` has grouped output by 'theta'. You can override using the
`.groups` argument.
[1] ""
[1] "Total run time was 107.828 seconds"
[1] "Estimation result: "
# A tibble: 360 × 5
   estimand theta   tau   est    se
   <chr>    <dbl> <dbl> <dbl> <dbl>
 1 mu         0.1   0.1 0.279 0.135
 2 mu         0.1   0.2 0.326 0.125
 3 mu         0.1   0.3 0.386 0.133
 4 mu         0.1   0.4 0.375 0.126
 5 mu         0.1   0.5 0.398 0.143
 6 mu         0.2   0.1 0.330 0.127
 7 mu         0.2   0.2 0.401 0.107
 8 mu         0.2   0.3 0.469 0.119
 9 mu         0.2   0.4 0.471 0.111
10 mu         0.2   0.5 0.502 0.129
# ℹ 350 more rows
…
