…
`.groups` argument.
`summarise()` has grouped output by 'theta'. You can override using the
`.groups` argument.
`summarise()` has grouped output by 'theta', 'tau'. You can override using the
`.groups` argument.
`summarise()` has grouped output by 'theta'. You can override using the
`.groups` argument.
`summarise()` has grouped output by 'theta', 'tau'. You can override using the
`.groups` argument.
`summarise()` has grouped output by 'theta'. You can override using the
`.groups` argument.
[1] ""
[1] "Total run time was 90.766 seconds"
[1] "Estimation result: "
# A tibble: 360 × 5
   estimand theta   tau   est    se
   <chr>    <dbl> <dbl> <dbl> <dbl>
 1 mu         0.1   0.1 1.30  0.877
 2 mu         0.1   0.2 1.66  1.17 
 3 mu         0.1   0.3 1.96  1.36 
 4 mu         0.1   0.4 2.22  1.53 
 5 mu         0.1   0.5 2.45  1.66 
 6 mu         0.2   0.1 0.914 0.443
 7 mu         0.2   0.2 1.15  0.584
 8 mu         0.2   0.3 1.32  0.669
 9 mu         0.2   0.4 1.50  0.759
10 mu         0.2   0.5 1.69  0.836
# ℹ 350 more rows
…
