…
`.groups` argument.
`summarise()` has grouped output by 'theta'. You can override using the
`.groups` argument.
`summarise()` has grouped output by 'theta', 'tau'. You can override using the
`.groups` argument.
`summarise()` has grouped output by 'theta'. You can override using the
`.groups` argument.
`summarise()` has grouped output by 'theta', 'tau'. You can override using the
`.groups` argument.
`summarise()` has grouped output by 'theta'. You can override using the
`.groups` argument.
[1] ""
[1] "Total run time was 50.71 seconds"
[1] "Estimation result: "
# A tibble: 360 × 5
   estimand theta   tau   est     se
   <chr>    <dbl> <dbl> <dbl>  <dbl>
 1 mu         0.1   0.1 0.277 0.0722
 2 mu         0.1   0.2 0.404 0.122 
 3 mu         0.1   0.3 0.571 0.210 
 4 mu         0.1   0.4 0.597 0.197 
 5 mu         0.1   0.5 0.591 0.189 
 6 mu         0.2   0.1 0.352 0.0564
 7 mu         0.2   0.2 0.474 0.0788
 8 mu         0.2   0.3 0.569 0.101 
 9 mu         0.2   0.4 0.611 0.101 
10 mu         0.2   0.5 0.634 0.110 
# ℹ 350 more rows
…
