…
`.groups` argument.
`summarise()` has grouped output by 'theta'. You can override using the
`.groups` argument.
`summarise()` has grouped output by 'theta', 'tau'. You can override using the
`.groups` argument.
`summarise()` has grouped output by 'theta'. You can override using the
`.groups` argument.
`summarise()` has grouped output by 'theta', 'tau'. You can override using the
`.groups` argument.
`summarise()` has grouped output by 'theta'. You can override using the
`.groups` argument.
[1] ""
[1] "Total run time was 48.876 seconds"
[1] "Estimation result: "
# A tibble: 360 × 5
   estimand theta   tau   est    se
   <chr>    <dbl> <dbl> <dbl> <dbl>
 1 mu         0.1   0.1 1.37  0.840
 2 mu         0.1   0.2 1.81  1.14 
 3 mu         0.1   0.3 1.91  1.23 
 4 mu         0.1   0.4 2.13  1.34 
 5 mu         0.1   0.5 2.27  1.47 
 6 mu         0.2   0.1 0.737 0.317
 7 mu         0.2   0.2 0.971 0.418
 8 mu         0.2   0.3 1.02  0.455
 9 mu         0.2   0.4 1.17  0.497
10 mu         0.2   0.5 1.21  0.525
# ℹ 350 more rows
…
