…
`.groups` argument.
`summarise()` has grouped output by 'theta'. You can override using the
`.groups` argument.
`summarise()` has grouped output by 'theta', 'tau'. You can override using the
`.groups` argument.
`summarise()` has grouped output by 'theta'. You can override using the
`.groups` argument.
`summarise()` has grouped output by 'theta', 'tau'. You can override using the
`.groups` argument.
`summarise()` has grouped output by 'theta'. You can override using the
`.groups` argument.
[1] ""
[1] "Total run time was 44.726 seconds"
[1] "Estimation result: "
# A tibble: 360 × 5
   estimand theta   tau   est     se
   <chr>    <dbl> <dbl> <dbl>  <dbl>
 1 mu         0.1   0.1 0.419 0.0957
 2 mu         0.1   0.2 0.583 0.145 
 3 mu         0.1   0.3 0.630 0.149 
 4 mu         0.1   0.4 0.632 0.148 
 5 mu         0.1   0.5 0.652 0.149 
 6 mu         0.2   0.1 0.350 0.0475
 7 mu         0.2   0.2 0.490 0.0596
 8 mu         0.2   0.3 0.538 0.0646
 9 mu         0.2   0.4 0.549 0.0638
10 mu         0.2   0.5 0.587 0.0669
# ℹ 350 more rows
…
