…
`.groups` argument.
`summarise()` has grouped output by 'theta'. You can override using the
`.groups` argument.
`summarise()` has grouped output by 'theta', 'tau'. You can override using the
`.groups` argument.
`summarise()` has grouped output by 'theta'. You can override using the
`.groups` argument.
`summarise()` has grouped output by 'theta', 'tau'. You can override using the
`.groups` argument.
`summarise()` has grouped output by 'theta'. You can override using the
`.groups` argument.
[1] ""
[1] "Total run time was 59.147 seconds"
[1] "Estimation result: "
# A tibble: 360 × 5
   estimand theta   tau   est     se
   <chr>    <dbl> <dbl> <dbl>  <dbl>
 1 mu         0.1   0.1 0.199 0.0811
 2 mu         0.1   0.2 0.265 0.0798
 3 mu         0.1   0.3 0.299 0.0935
 4 mu         0.1   0.4 0.284 0.108 
 5 mu         0.1   0.5 0.276 0.115 
 6 mu         0.2   0.1 0.270 0.0641
 7 mu         0.2   0.2 0.336 0.0658
 8 mu         0.2   0.3 0.372 0.0764
 9 mu         0.2   0.4 0.370 0.0859
10 mu         0.2   0.5 0.380 0.0925
# ℹ 350 more rows
…
