…
`.groups` argument.
`summarise()` has grouped output by 'theta'. You can override using the
`.groups` argument.
`summarise()` has grouped output by 'theta', 'tau'. You can override using the
`.groups` argument.
`summarise()` has grouped output by 'theta'. You can override using the
`.groups` argument.
`summarise()` has grouped output by 'theta', 'tau'. You can override using the
`.groups` argument.
`summarise()` has grouped output by 'theta'. You can override using the
`.groups` argument.
[1] ""
[1] "Total run time was 52.055 seconds"
[1] "Estimation result: "
# A tibble: 360 × 5
   estimand theta   tau   est    se
   <chr>    <dbl> <dbl> <dbl> <dbl>
 1 mu         0.1   0.1 0.175 0.189
 2 mu         0.1   0.2 0.239 0.244
 3 mu         0.1   0.3 0.367 0.178
 4 mu         0.1   0.4 0.364 0.202
 5 mu         0.1   0.5 0.360 0.211
 6 mu         0.2   0.1 0.316 0.137
 7 mu         0.2   0.2 0.413 0.178
 8 mu         0.2   0.3 0.528 0.147
 9 mu         0.2   0.4 0.562 0.163
10 mu         0.2   0.5 0.574 0.169
# ℹ 350 more rows
…
