…
`.groups` argument.
`summarise()` has grouped output by 'theta'. You can override using the
`.groups` argument.
`summarise()` has grouped output by 'theta', 'tau'. You can override using the
`.groups` argument.
`summarise()` has grouped output by 'theta'. You can override using the
`.groups` argument.
`summarise()` has grouped output by 'theta', 'tau'. You can override using the
`.groups` argument.
`summarise()` has grouped output by 'theta'. You can override using the
`.groups` argument.
[1] ""
[1] "Total run time was 68.767 seconds"
[1] "Estimation result: "
# A tibble: 360 × 5
   estimand theta   tau   est     se
   <chr>    <dbl> <dbl> <dbl>  <dbl>
 1 mu         0.1   0.1 0.526 0.205 
 2 mu         0.1   0.2 0.527 0.155 
 3 mu         0.1   0.3 0.612 0.143 
 4 mu         0.1   0.4 0.727 0.192 
 5 mu         0.1   0.5 0.824 0.277 
 6 mu         0.2   0.1 0.520 0.111 
 7 mu         0.2   0.2 0.603 0.105 
 8 mu         0.2   0.3 0.684 0.0998
 9 mu         0.2   0.4 0.749 0.116 
10 mu         0.2   0.5 0.794 0.148 
# ℹ 350 more rows
…
