…
`.groups` argument.
`summarise()` has grouped output by 'theta'. You can override using the
`.groups` argument.
`summarise()` has grouped output by 'theta', 'tau'. You can override using the
`.groups` argument.
`summarise()` has grouped output by 'theta'. You can override using the
`.groups` argument.
`summarise()` has grouped output by 'theta', 'tau'. You can override using the
`.groups` argument.
`summarise()` has grouped output by 'theta'. You can override using the
`.groups` argument.
[1] ""
[1] "Total run time was 69.104 seconds"
[1] "Estimation result: "
# A tibble: 360 × 5
   estimand theta   tau   est     se
   <chr>    <dbl> <dbl> <dbl>  <dbl>
 1 mu         0.1   0.1 0.390 0.146 
 2 mu         0.1   0.2 0.621 0.198 
 3 mu         0.1   0.3 0.645 0.202 
 4 mu         0.1   0.4 0.651 0.202 
 5 mu         0.1   0.5 0.675 0.198 
 6 mu         0.2   0.1 0.355 0.0752
 7 mu         0.2   0.2 0.519 0.0936
 8 mu         0.2   0.3 0.570 0.0957
 9 mu         0.2   0.4 0.597 0.0992
10 mu         0.2   0.5 0.653 0.101 
# ℹ 350 more rows
…
