…
`.groups` argument.
`summarise()` has grouped output by 'theta'. You can override using the
`.groups` argument.
`summarise()` has grouped output by 'theta', 'tau'. You can override using the
`.groups` argument.
`summarise()` has grouped output by 'theta'. You can override using the
`.groups` argument.
`summarise()` has grouped output by 'theta', 'tau'. You can override using the
`.groups` argument.
`summarise()` has grouped output by 'theta'. You can override using the
`.groups` argument.
[1] ""
[1] "Total run time was 64.012 seconds"
[1] "Estimation result: "
# A tibble: 360 × 5
   estimand theta   tau   est     se
   <chr>    <dbl> <dbl> <dbl>  <dbl>
 1 mu         0.1   0.1 0.438 0.110 
 2 mu         0.1   0.2 0.482 0.104 
 3 mu         0.1   0.3 0.561 0.122 
 4 mu         0.1   0.4 0.551 0.107 
 5 mu         0.1   0.5 0.537 0.0983
 6 mu         0.2   0.1 0.400 0.105 
 7 mu         0.2   0.2 0.466 0.111 
 8 mu         0.2   0.3 0.522 0.110 
 9 mu         0.2   0.4 0.519 0.100 
10 mu         0.2   0.5 0.519 0.0918
# ℹ 350 more rows
…
