…
`.groups` argument.
`summarise()` has grouped output by 'theta'. You can override using the
`.groups` argument.
`summarise()` has grouped output by 'theta', 'tau'. You can override using the
`.groups` argument.
`summarise()` has grouped output by 'theta'. You can override using the
`.groups` argument.
`summarise()` has grouped output by 'theta', 'tau'. You can override using the
`.groups` argument.
`summarise()` has grouped output by 'theta'. You can override using the
`.groups` argument.
[1] ""
[1] "Total run time was 68.158 seconds"
[1] "Estimation result: "
# A tibble: 360 × 5
   estimand theta   tau   est    se
   <chr>    <dbl> <dbl> <dbl> <dbl>
 1 mu         0.1   0.1 0.248 0.276
 2 mu         0.1   0.2 0.302 0.369
 3 mu         0.1   0.3 0.296 0.387
 4 mu         0.1   0.4 0.378 0.331
 5 mu         0.1   0.5 0.363 0.347
 6 mu         0.2   0.1 0.203 0.223
 7 mu         0.2   0.2 0.250 0.305
 8 mu         0.2   0.3 0.255 0.322
 9 mu         0.2   0.4 0.347 0.256
10 mu         0.2   0.5 0.344 0.273
# ℹ 350 more rows
…
