…
`.groups` argument.
`summarise()` has grouped output by 'theta'. You can override using the
`.groups` argument.
`summarise()` has grouped output by 'theta', 'tau'. You can override using the
`.groups` argument.
`summarise()` has grouped output by 'theta'. You can override using the
`.groups` argument.
`summarise()` has grouped output by 'theta', 'tau'. You can override using the
`.groups` argument.
`summarise()` has grouped output by 'theta'. You can override using the
`.groups` argument.
[1] ""
[1] "Total run time was 42.858 seconds"
[1] "Estimation result: "
# A tibble: 360 × 5
   estimand theta   tau   est     se
   <chr>    <dbl> <dbl> <dbl>  <dbl>
 1 mu         0.1   0.1 0.595 0.188 
 2 mu         0.1   0.2 0.649 0.212 
 3 mu         0.1   0.3 0.720 0.229 
 4 mu         0.1   0.4 0.794 0.265 
 5 mu         0.1   0.5 0.815 0.284 
 6 mu         0.2   0.1 0.395 0.0787
 7 mu         0.2   0.2 0.447 0.0924
 8 mu         0.2   0.3 0.528 0.106 
 9 mu         0.2   0.4 0.605 0.118 
10 mu         0.2   0.5 0.619 0.126 
# ℹ 350 more rows
…
