…
`.groups` argument.
`summarise()` has grouped output by 'theta'. You can override using the
`.groups` argument.
`summarise()` has grouped output by 'theta', 'tau'. You can override using the
`.groups` argument.
`summarise()` has grouped output by 'theta'. You can override using the
`.groups` argument.
`summarise()` has grouped output by 'theta', 'tau'. You can override using the
`.groups` argument.
`summarise()` has grouped output by 'theta'. You can override using the
`.groups` argument.
[1] ""
[1] "Total run time was 61.052 seconds"
[1] "Estimation result: "
# A tibble: 360 × 5
   estimand theta   tau   est     se
   <chr>    <dbl> <dbl> <dbl>  <dbl>
 1 mu         0.1   0.1 0.316 0.0849
 2 mu         0.1   0.2 0.473 0.0913
 3 mu         0.1   0.3 0.536 0.103 
 4 mu         0.1   0.4 0.558 0.116 
 5 mu         0.1   0.5 0.545 0.137 
 6 mu         0.2   0.1 0.330 0.0461
 7 mu         0.2   0.2 0.465 0.0518
 8 mu         0.2   0.3 0.514 0.0605
 9 mu         0.2   0.4 0.555 0.0692
10 mu         0.2   0.5 0.559 0.0807
# ℹ 350 more rows
…
