…
`.groups` argument.
`summarise()` has grouped output by 'theta'. You can override using the
`.groups` argument.
`summarise()` has grouped output by 'theta', 'tau'. You can override using the
`.groups` argument.
`summarise()` has grouped output by 'theta'. You can override using the
`.groups` argument.
`summarise()` has grouped output by 'theta', 'tau'. You can override using the
`.groups` argument.
`summarise()` has grouped output by 'theta'. You can override using the
`.groups` argument.
[1] ""
[1] "Total run time was 55.035 seconds"
[1] "Estimation result: "
# A tibble: 360 × 5
   estimand theta   tau   est     se
   <chr>    <dbl> <dbl> <dbl>  <dbl>
 1 mu         0.1   0.1 0.490 0.156 
 2 mu         0.1   0.2 0.564 0.169 
 3 mu         0.1   0.3 0.664 0.173 
 4 mu         0.1   0.4 0.725 0.192 
 5 mu         0.1   0.5 0.732 0.201 
 6 mu         0.2   0.1 0.310 0.0728
 7 mu         0.2   0.2 0.377 0.0754
 8 mu         0.2   0.3 0.455 0.0692
 9 mu         0.2   0.4 0.533 0.0703
10 mu         0.2   0.5 0.540 0.0745
# ℹ 350 more rows
…
