…
`.groups` argument.
`summarise()` has grouped output by 'theta'. You can override using the
`.groups` argument.
`summarise()` has grouped output by 'theta', 'tau'. You can override using the
`.groups` argument.
`summarise()` has grouped output by 'theta'. You can override using the
`.groups` argument.
`summarise()` has grouped output by 'theta', 'tau'. You can override using the
`.groups` argument.
`summarise()` has grouped output by 'theta'. You can override using the
`.groups` argument.
[1] ""
[1] "Total run time was 81.388 seconds"
[1] "Estimation result: "
# A tibble: 360 × 5
   estimand theta   tau   est     se
   <chr>    <dbl> <dbl> <dbl>  <dbl>
 1 mu         0.1   0.1 0.271 0.0889
 2 mu         0.1   0.2 0.318 0.115 
 3 mu         0.1   0.3 0.409 0.139 
 4 mu         0.1   0.4 0.444 0.153 
 5 mu         0.1   0.5 0.448 0.159 
 6 mu         0.2   0.1 0.291 0.0638
 7 mu         0.2   0.2 0.355 0.0828
 8 mu         0.2   0.3 0.437 0.0994
 9 mu         0.2   0.4 0.490 0.110 
10 mu         0.2   0.5 0.499 0.113 
# ℹ 350 more rows
…
