…
`.groups` argument.
`summarise()` has grouped output by 'theta'. You can override using the
`.groups` argument.
`summarise()` has grouped output by 'theta', 'tau'. You can override using the
`.groups` argument.
`summarise()` has grouped output by 'theta'. You can override using the
`.groups` argument.
`summarise()` has grouped output by 'theta', 'tau'. You can override using the
`.groups` argument.
`summarise()` has grouped output by 'theta'. You can override using the
`.groups` argument.
[1] ""
[1] "Total run time was 64.371 seconds"
[1] "Estimation result: "
# A tibble: 360 × 5
   estimand theta   tau   est    se
   <chr>    <dbl> <dbl> <dbl> <dbl>
 1 mu         0.1   0.1 0.543 0.177
 2 mu         0.1   0.2 0.521 0.154
 3 mu         0.1   0.3 0.624 0.183
 4 mu         0.1   0.4 0.668 0.199
 5 mu         0.1   0.5 0.683 0.197
 6 mu         0.2   0.1 0.528 0.152
 7 mu         0.2   0.2 0.507 0.126
 8 mu         0.2   0.3 0.593 0.141
 9 mu         0.2   0.4 0.633 0.151
10 mu         0.2   0.5 0.648 0.147
# ℹ 350 more rows
…
