…
`.groups` argument.
`summarise()` has grouped output by 'theta'. You can override using the
`.groups` argument.
`summarise()` has grouped output by 'theta', 'tau'. You can override using the
`.groups` argument.
`summarise()` has grouped output by 'theta'. You can override using the
`.groups` argument.
`summarise()` has grouped output by 'theta', 'tau'. You can override using the
`.groups` argument.
`summarise()` has grouped output by 'theta'. You can override using the
`.groups` argument.
[1] ""
[1] "Total run time was 50.029 seconds"
[1] "Estimation result: "
# A tibble: 360 × 5
   estimand theta   tau   est    se
   <chr>    <dbl> <dbl> <dbl> <dbl>
 1 mu         0.1   0.1 1.29  1.03 
 2 mu         0.1   0.2 1.62  1.36 
 3 mu         0.1   0.3 1.75  1.47 
 4 mu         0.1   0.4 1.85  1.51 
 5 mu         0.1   0.5 2.04  1.64 
 6 mu         0.2   0.1 0.590 0.296
 7 mu         0.2   0.2 0.702 0.376
 8 mu         0.2   0.3 0.775 0.410
 9 mu         0.2   0.4 0.847 0.428
10 mu         0.2   0.5 0.945 0.466
# ℹ 350 more rows
…
