…
`.groups` argument.
`summarise()` has grouped output by 'theta'. You can override using the
`.groups` argument.
`summarise()` has grouped output by 'theta', 'tau'. You can override using the
`.groups` argument.
`summarise()` has grouped output by 'theta'. You can override using the
`.groups` argument.
`summarise()` has grouped output by 'theta', 'tau'. You can override using the
`.groups` argument.
`summarise()` has grouped output by 'theta'. You can override using the
`.groups` argument.
[1] ""
[1] "Total run time was 49.344 seconds"
[1] "Estimation result: "
# A tibble: 360 × 5
   estimand theta   tau   est     se
   <chr>    <dbl> <dbl> <dbl>  <dbl>
 1 mu         0.1   0.1 0.304 0.0821
 2 mu         0.1   0.2 0.372 0.0846
 3 mu         0.1   0.3 0.367 0.0793
 4 mu         0.1   0.4 0.412 0.0896
 5 mu         0.1   0.5 0.432 0.0874
 6 mu         0.2   0.1 0.407 0.0659
 7 mu         0.2   0.2 0.471 0.0691
 8 mu         0.2   0.3 0.500 0.0711
 9 mu         0.2   0.4 0.549 0.0791
10 mu         0.2   0.5 0.582 0.0807
# ℹ 350 more rows
…
