…
`.groups` argument.
`summarise()` has grouped output by 'theta'. You can override using the
`.groups` argument.
`summarise()` has grouped output by 'theta', 'tau'. You can override using the
`.groups` argument.
`summarise()` has grouped output by 'theta'. You can override using the
`.groups` argument.
`summarise()` has grouped output by 'theta', 'tau'. You can override using the
`.groups` argument.
`summarise()` has grouped output by 'theta'. You can override using the
`.groups` argument.
[1] ""
[1] "Total run time was 95.561 seconds"
[1] "Estimation result: "
# A tibble: 360 × 5
   estimand theta   tau   est     se
   <chr>    <dbl> <dbl> <dbl>  <dbl>
 1 mu         0.1   0.1 0.295 0.117 
 2 mu         0.1   0.2 0.395 0.0949
 3 mu         0.1   0.3 0.407 0.115 
 4 mu         0.1   0.4 0.501 0.124 
 5 mu         0.1   0.5 0.496 0.127 
 6 mu         0.2   0.1 0.380 0.0983
 7 mu         0.2   0.2 0.471 0.0882
 8 mu         0.2   0.3 0.511 0.104 
 9 mu         0.2   0.4 0.618 0.119 
10 mu         0.2   0.5 0.619 0.119 
# ℹ 350 more rows
…
