…
`.groups` argument.
`summarise()` has grouped output by 'theta'. You can override using the
`.groups` argument.
`summarise()` has grouped output by 'theta', 'tau'. You can override using the
`.groups` argument.
`summarise()` has grouped output by 'theta'. You can override using the
`.groups` argument.
`summarise()` has grouped output by 'theta', 'tau'. You can override using the
`.groups` argument.
`summarise()` has grouped output by 'theta'. You can override using the
`.groups` argument.
[1] ""
[1] "Total run time was 92.535 seconds"
[1] "Estimation result: "
# A tibble: 360 × 5
   estimand theta   tau   est    se
   <chr>    <dbl> <dbl> <dbl> <dbl>
 1 mu         0.1   0.1 0.508 0.329
 2 mu         0.1   0.2 0.643 0.366
 3 mu         0.1   0.3 0.664 0.391
 4 mu         0.1   0.4 0.717 0.399
 5 mu         0.1   0.5 0.726 0.409
 6 mu         0.2   0.1 0.444 0.173
 7 mu         0.2   0.2 0.557 0.190
 8 mu         0.2   0.3 0.602 0.204
 9 mu         0.2   0.4 0.649 0.207
10 mu         0.2   0.5 0.672 0.212
# ℹ 350 more rows
…
