…
`.groups` argument.
`summarise()` has grouped output by 'theta'. You can override using the
`.groups` argument.
`summarise()` has grouped output by 'theta', 'tau'. You can override using the
`.groups` argument.
`summarise()` has grouped output by 'theta'. You can override using the
`.groups` argument.
`summarise()` has grouped output by 'theta', 'tau'. You can override using the
`.groups` argument.
`summarise()` has grouped output by 'theta'. You can override using the
`.groups` argument.
[1] ""
[1] "Total run time was 78.343 seconds"
[1] "Estimation result: "
# A tibble: 360 × 5
   estimand theta   tau   est     se
   <chr>    <dbl> <dbl> <dbl>  <dbl>
 1 mu         0.1   0.1 0.133 0.0599
 2 mu         0.1   0.2 0.305 0.0677
 3 mu         0.1   0.3 0.269 0.0635
 4 mu         0.1   0.4 0.347 0.0783
 5 mu         0.1   0.5 0.420 0.105 
 6 mu         0.2   0.1 0.241 0.0619
 7 mu         0.2   0.2 0.414 0.0729
 8 mu         0.2   0.3 0.411 0.0728
 9 mu         0.2   0.4 0.480 0.0839
10 mu         0.2   0.5 0.558 0.104 
# ℹ 350 more rows
…
