…
`.groups` argument.
`summarise()` has grouped output by 'theta'. You can override using the
`.groups` argument.
`summarise()` has grouped output by 'theta', 'tau'. You can override using the
`.groups` argument.
`summarise()` has grouped output by 'theta'. You can override using the
`.groups` argument.
`summarise()` has grouped output by 'theta', 'tau'. You can override using the
`.groups` argument.
`summarise()` has grouped output by 'theta'. You can override using the
`.groups` argument.
[1] ""
[1] "Total run time was 50.56 seconds"
[1] "Estimation result: "
# A tibble: 360 × 5
   estimand theta   tau   est    se
   <chr>    <dbl> <dbl> <dbl> <dbl>
 1 mu         0.1   0.1 0.363 0.219
 2 mu         0.1   0.2 0.397 0.220
 3 mu         0.1   0.3 0.394 0.246
 4 mu         0.1   0.4 0.444 0.255
 5 mu         0.1   0.5 0.427 0.263
 6 mu         0.2   0.1 0.356 0.140
 7 mu         0.2   0.2 0.390 0.122
 8 mu         0.2   0.3 0.401 0.129
 9 mu         0.2   0.4 0.442 0.127
10 mu         0.2   0.5 0.434 0.131
# ℹ 350 more rows
…
