…
`.groups` argument.
`summarise()` has grouped output by 'theta'. You can override using the
`.groups` argument.
`summarise()` has grouped output by 'theta', 'tau'. You can override using the
`.groups` argument.
`summarise()` has grouped output by 'theta'. You can override using the
`.groups` argument.
`summarise()` has grouped output by 'theta', 'tau'. You can override using the
`.groups` argument.
`summarise()` has grouped output by 'theta'. You can override using the
`.groups` argument.
[1] ""
[1] "Total run time was 65.001 seconds"
[1] "Estimation result: "
# A tibble: 360 × 5
   estimand theta   tau   est    se
   <chr>    <dbl> <dbl> <dbl> <dbl>
 1 mu         0.1   0.1 0.805 0.384
 2 mu         0.1   0.2 0.951 0.455
 3 mu         0.1   0.3 1.16  0.555
 4 mu         0.1   0.4 1.55  0.652
 5 mu         0.1   0.5 1.66  0.678
 6 mu         0.2   0.1 0.427 0.131
 7 mu         0.2   0.2 0.507 0.142
 8 mu         0.2   0.3 0.619 0.167
 9 mu         0.2   0.4 0.839 0.210
10 mu         0.2   0.5 0.941 0.216
# ℹ 350 more rows
…
