…
`.groups` argument.
`summarise()` has grouped output by 'theta'. You can override using the
`.groups` argument.
`summarise()` has grouped output by 'theta', 'tau'. You can override using the
`.groups` argument.
`summarise()` has grouped output by 'theta'. You can override using the
`.groups` argument.
`summarise()` has grouped output by 'theta', 'tau'. You can override using the
`.groups` argument.
`summarise()` has grouped output by 'theta'. You can override using the
`.groups` argument.
[1] ""
[1] "Total run time was 161.188 seconds"
[1] "Estimation result: "
# A tibble: 360 × 5
   estimand theta   tau   est    se
   <chr>    <dbl> <dbl> <dbl> <dbl>
 1 mu         0.1   0.1 0.686 0.558
 2 mu         0.1   0.2 0.795 0.643
 3 mu         0.1   0.3 0.856 0.694
 4 mu         0.1   0.4 0.954 0.718
 5 mu         0.1   0.5 1.11  0.786
 6 mu         0.2   0.1 0.664 0.393
 7 mu         0.2   0.2 0.770 0.455
 8 mu         0.2   0.3 0.853 0.493
 9 mu         0.2   0.4 0.941 0.514
10 mu         0.2   0.5 1.08  0.563
# ℹ 350 more rows
…
