…
`.groups` argument.
`summarise()` has grouped output by 'theta'. You can override using the
`.groups` argument.
`summarise()` has grouped output by 'theta', 'tau'. You can override using the
`.groups` argument.
`summarise()` has grouped output by 'theta'. You can override using the
`.groups` argument.
`summarise()` has grouped output by 'theta', 'tau'. You can override using the
`.groups` argument.
`summarise()` has grouped output by 'theta'. You can override using the
`.groups` argument.
[1] ""
[1] "Total run time was 96.193 seconds"
[1] "Estimation result: "
# A tibble: 360 × 5
   estimand theta   tau   est     se
   <chr>    <dbl> <dbl> <dbl>  <dbl>
 1 mu         0.1   0.1 0.570 0.230 
 2 mu         0.1   0.2 0.762 0.301 
 3 mu         0.1   0.3 0.848 0.338 
 4 mu         0.1   0.4 0.866 0.357 
 5 mu         0.1   0.5 0.896 0.388 
 6 mu         0.2   0.1 0.404 0.0766
 7 mu         0.2   0.2 0.517 0.102 
 8 mu         0.2   0.3 0.581 0.112 
 9 mu         0.2   0.4 0.591 0.118 
10 mu         0.2   0.5 0.617 0.127 
# ℹ 350 more rows
…
