…
`.groups` argument.
`summarise()` has grouped output by 'theta'. You can override using the
`.groups` argument.
`summarise()` has grouped output by 'theta', 'tau'. You can override using the
`.groups` argument.
`summarise()` has grouped output by 'theta'. You can override using the
`.groups` argument.
`summarise()` has grouped output by 'theta', 'tau'. You can override using the
`.groups` argument.
`summarise()` has grouped output by 'theta'. You can override using the
`.groups` argument.
[1] ""
[1] "Total run time was 46.547 seconds"
[1] "Estimation result: "
# A tibble: 360 × 5
   estimand theta   tau   est     se
   <chr>    <dbl> <dbl> <dbl>  <dbl>
 1 mu         0.1   0.1 0.389 0.109 
 2 mu         0.1   0.2 0.492 0.131 
 3 mu         0.1   0.3 0.488 0.122 
 4 mu         0.1   0.4 0.497 0.123 
 5 mu         0.1   0.5 0.568 0.143 
 6 mu         0.2   0.1 0.318 0.0738
 7 mu         0.2   0.2 0.440 0.0888
 8 mu         0.2   0.3 0.460 0.0816
 9 mu         0.2   0.4 0.477 0.0816
10 mu         0.2   0.5 0.540 0.0926
# ℹ 350 more rows
…
