…
`.groups` argument.
`summarise()` has grouped output by 'theta'. You can override using the
`.groups` argument.
`summarise()` has grouped output by 'theta', 'tau'. You can override using the
`.groups` argument.
`summarise()` has grouped output by 'theta'. You can override using the
`.groups` argument.
`summarise()` has grouped output by 'theta', 'tau'. You can override using the
`.groups` argument.
`summarise()` has grouped output by 'theta'. You can override using the
`.groups` argument.
[1] ""
[1] "Total run time was 46.998 seconds"
[1] "Estimation result: "
# A tibble: 360 × 5
   estimand theta   tau   est     se
   <chr>    <dbl> <dbl> <dbl>  <dbl>
 1 mu         0.1   0.1 0.412 0.130 
 2 mu         0.1   0.2 0.541 0.155 
 3 mu         0.1   0.3 0.596 0.171 
 4 mu         0.1   0.4 0.692 0.157 
 5 mu         0.1   0.5 0.729 0.163 
 6 mu         0.2   0.1 0.321 0.0808
 7 mu         0.2   0.2 0.428 0.0981
 8 mu         0.2   0.3 0.476 0.109 
 9 mu         0.2   0.4 0.552 0.0996
10 mu         0.2   0.5 0.603 0.0916
# ℹ 350 more rows
…
