…
`.groups` argument.
`summarise()` has grouped output by 'theta'. You can override using the
`.groups` argument.
`summarise()` has grouped output by 'theta', 'tau'. You can override using the
`.groups` argument.
`summarise()` has grouped output by 'theta'. You can override using the
`.groups` argument.
`summarise()` has grouped output by 'theta', 'tau'. You can override using the
`.groups` argument.
`summarise()` has grouped output by 'theta'. You can override using the
`.groups` argument.
[1] ""
[1] "Total run time was 49.985 seconds"
[1] "Estimation result: "
# A tibble: 360 × 5
   estimand theta   tau   est    se
   <chr>    <dbl> <dbl> <dbl> <dbl>
 1 mu         0.1   0.1 0.651 0.274
 2 mu         0.1   0.2 0.702 0.320
 3 mu         0.1   0.3 0.805 0.368
 4 mu         0.1   0.4 0.831 0.395
 5 mu         0.1   0.5 0.847 0.409
 6 mu         0.2   0.1 0.514 0.145
 7 mu         0.2   0.2 0.561 0.159
 8 mu         0.2   0.3 0.658 0.188
 9 mu         0.2   0.4 0.678 0.197
10 mu         0.2   0.5 0.703 0.202
# ℹ 350 more rows
…
