…
`.groups` argument.
`summarise()` has grouped output by 'theta'. You can override using the
`.groups` argument.
`summarise()` has grouped output by 'theta', 'tau'. You can override using the
`.groups` argument.
`summarise()` has grouped output by 'theta'. You can override using the
`.groups` argument.
`summarise()` has grouped output by 'theta', 'tau'. You can override using the
`.groups` argument.
`summarise()` has grouped output by 'theta'. You can override using the
`.groups` argument.
[1] ""
[1] "Total run time was 47.352 seconds"
[1] "Estimation result: "
# A tibble: 360 × 5
   estimand theta   tau   est     se
   <chr>    <dbl> <dbl> <dbl>  <dbl>
 1 mu         0.1   0.1 0.511 0.114 
 2 mu         0.1   0.2 0.541 0.105 
 3 mu         0.1   0.3 0.544 0.105 
 4 mu         0.1   0.4 0.602 0.115 
 5 mu         0.1   0.5 0.644 0.112 
 6 mu         0.2   0.1 0.431 0.0759
 7 mu         0.2   0.2 0.480 0.0688
 8 mu         0.2   0.3 0.497 0.0701
 9 mu         0.2   0.4 0.542 0.0763
10 mu         0.2   0.5 0.610 0.0698
# ℹ 350 more rows
…
