…
`.groups` argument.
`summarise()` has grouped output by 'theta'. You can override using the
`.groups` argument.
`summarise()` has grouped output by 'theta', 'tau'. You can override using the
`.groups` argument.
`summarise()` has grouped output by 'theta'. You can override using the
`.groups` argument.
`summarise()` has grouped output by 'theta', 'tau'. You can override using the
`.groups` argument.
`summarise()` has grouped output by 'theta'. You can override using the
`.groups` argument.
[1] ""
[1] "Total run time was 52.17 seconds"
[1] "Estimation result: "
# A tibble: 360 × 5
   estimand theta   tau   est     se
   <chr>    <dbl> <dbl> <dbl>  <dbl>
 1 mu         0.1   0.1 0.488 0.132 
 2 mu         0.1   0.2 0.581 0.162 
 3 mu         0.1   0.3 0.645 0.180 
 4 mu         0.1   0.4 0.673 0.185 
 5 mu         0.1   0.5 0.682 0.197 
 6 mu         0.2   0.1 0.378 0.0559
 7 mu         0.2   0.2 0.448 0.0700
 8 mu         0.2   0.3 0.509 0.0794
 9 mu         0.2   0.4 0.539 0.0761
10 mu         0.2   0.5 0.552 0.0798
# ℹ 350 more rows
…
