…
`.groups` argument.
`summarise()` has grouped output by 'theta'. You can override using the
`.groups` argument.
`summarise()` has grouped output by 'theta', 'tau'. You can override using the
`.groups` argument.
`summarise()` has grouped output by 'theta'. You can override using the
`.groups` argument.
`summarise()` has grouped output by 'theta', 'tau'. You can override using the
`.groups` argument.
`summarise()` has grouped output by 'theta'. You can override using the
`.groups` argument.
[1] ""
[1] "Total run time was 61.113 seconds"
[1] "Estimation result: "
# A tibble: 360 × 5
   estimand theta   tau   est    se
   <chr>    <dbl> <dbl> <dbl> <dbl>
 1 mu         0.1   0.1 1.04  0.466
 2 mu         0.1   0.2 1.16  0.522
 3 mu         0.1   0.3 1.18  0.533
 4 mu         0.1   0.4 1.22  0.553
 5 mu         0.1   0.5 1.29  0.587
 6 mu         0.2   0.1 0.610 0.152
 7 mu         0.2   0.2 0.695 0.158
 8 mu         0.2   0.3 0.727 0.159
 9 mu         0.2   0.4 0.776 0.162
10 mu         0.2   0.5 0.825 0.174
# ℹ 350 more rows
…
