…
`.groups` argument.
`summarise()` has grouped output by 'theta'. You can override using the
`.groups` argument.
`summarise()` has grouped output by 'theta', 'tau'. You can override using the
`.groups` argument.
`summarise()` has grouped output by 'theta'. You can override using the
`.groups` argument.
`summarise()` has grouped output by 'theta', 'tau'. You can override using the
`.groups` argument.
`summarise()` has grouped output by 'theta'. You can override using the
`.groups` argument.
[1] ""
[1] "Total run time was 65.291 seconds"
[1] "Estimation result: "
# A tibble: 360 × 5
   estimand theta   tau   est     se
   <chr>    <dbl> <dbl> <dbl>  <dbl>
 1 mu         0.1   0.1 0.420 0.176 
 2 mu         0.1   0.2 0.568 0.243 
 3 mu         0.1   0.3 0.590 0.261 
 4 mu         0.1   0.4 0.846 0.326 
 5 mu         0.1   0.5 0.867 0.325 
 6 mu         0.2   0.1 0.364 0.0692
 7 mu         0.2   0.2 0.444 0.0995
 8 mu         0.2   0.3 0.475 0.111 
 9 mu         0.2   0.4 0.633 0.139 
10 mu         0.2   0.5 0.694 0.134 
# ℹ 350 more rows
…
