…
`.groups` argument.
`summarise()` has grouped output by 'theta'. You can override using the
`.groups` argument.
`summarise()` has grouped output by 'theta', 'tau'. You can override using the
`.groups` argument.
`summarise()` has grouped output by 'theta'. You can override using the
`.groups` argument.
`summarise()` has grouped output by 'theta', 'tau'. You can override using the
`.groups` argument.
`summarise()` has grouped output by 'theta'. You can override using the
`.groups` argument.
[1] ""
[1] "Total run time was 49.88 seconds"
[1] "Estimation result: "
# A tibble: 360 × 5
   estimand theta   tau    est     se
   <chr>    <dbl> <dbl>  <dbl>  <dbl>
 1 mu         0.1   0.1 0.0795 0.0857
 2 mu         0.1   0.2 0.0395 0.139 
 3 mu         0.1   0.3 0.0132 0.170 
 4 mu         0.1   0.4 0.0693 0.137 
 5 mu         0.1   0.5 0.122  0.119 
 6 mu         0.2   0.1 0.152  0.0892
 7 mu         0.2   0.2 0.141  0.144 
 8 mu         0.2   0.3 0.133  0.176 
 9 mu         0.2   0.4 0.216  0.142 
10 mu         0.2   0.5 0.275  0.125 
# ℹ 350 more rows
…
