…
`.groups` argument.
`summarise()` has grouped output by 'theta'. You can override using the
`.groups` argument.
`summarise()` has grouped output by 'theta', 'tau'. You can override using the
`.groups` argument.
`summarise()` has grouped output by 'theta'. You can override using the
`.groups` argument.
`summarise()` has grouped output by 'theta', 'tau'. You can override using the
`.groups` argument.
`summarise()` has grouped output by 'theta'. You can override using the
`.groups` argument.
[1] ""
[1] "Total run time was 87.953 seconds"
[1] "Estimation result: "
# A tibble: 360 × 5
   estimand theta   tau   est    se
   <chr>    <dbl> <dbl> <dbl> <dbl>
 1 mu         0.1   0.1 0.608 0.250
 2 mu         0.1   0.2 0.672 0.301
 3 mu         0.1   0.3 0.731 0.337
 4 mu         0.1   0.4 0.799 0.361
 5 mu         0.1   0.5 0.822 0.373
 6 mu         0.2   0.1 0.435 0.137
 7 mu         0.2   0.2 0.478 0.164
 8 mu         0.2   0.3 0.506 0.176
 9 mu         0.2   0.4 0.580 0.194
10 mu         0.2   0.5 0.618 0.204
# ℹ 350 more rows
…
