…
`.groups` argument.
`summarise()` has grouped output by 'theta'. You can override using the
`.groups` argument.
`summarise()` has grouped output by 'theta', 'tau'. You can override using the
`.groups` argument.
`summarise()` has grouped output by 'theta'. You can override using the
`.groups` argument.
`summarise()` has grouped output by 'theta', 'tau'. You can override using the
`.groups` argument.
`summarise()` has grouped output by 'theta'. You can override using the
`.groups` argument.
[1] ""
[1] "Total run time was 71.286 seconds"
[1] "Estimation result: "
# A tibble: 360 × 5
   estimand theta   tau   est     se
   <chr>    <dbl> <dbl> <dbl>  <dbl>
 1 mu         0.1   0.1 0.395 0.0983
 2 mu         0.1   0.2 0.420 0.114 
 3 mu         0.1   0.3 0.551 0.164 
 4 mu         0.1   0.4 0.583 0.174 
 5 mu         0.1   0.5 0.662 0.162 
 6 mu         0.2   0.1 0.371 0.0664
 7 mu         0.2   0.2 0.415 0.0723
 8 mu         0.2   0.3 0.513 0.0922
 9 mu         0.2   0.4 0.555 0.0959
10 mu         0.2   0.5 0.605 0.0890
# ℹ 350 more rows
…
