…
`.groups` argument.
`summarise()` has grouped output by 'theta'. You can override using the
`.groups` argument.
`summarise()` has grouped output by 'theta', 'tau'. You can override using the
`.groups` argument.
`summarise()` has grouped output by 'theta'. You can override using the
`.groups` argument.
`summarise()` has grouped output by 'theta', 'tau'. You can override using the
`.groups` argument.
`summarise()` has grouped output by 'theta'. You can override using the
`.groups` argument.
[1] ""
[1] "Total run time was 52.383 seconds"
[1] "Estimation result: "
# A tibble: 360 × 5
   estimand theta   tau   est    se
   <chr>    <dbl> <dbl> <dbl> <dbl>
 1 mu         0.1   0.1 0.459 0.199
 2 mu         0.1   0.2 0.501 0.235
 3 mu         0.1   0.3 0.571 0.248
 4 mu         0.1   0.4 0.695 0.272
 5 mu         0.1   0.5 0.771 0.295
 6 mu         0.2   0.1 0.375 0.123
 7 mu         0.2   0.2 0.420 0.142
 8 mu         0.2   0.3 0.496 0.148
 9 mu         0.2   0.4 0.612 0.172
10 mu         0.2   0.5 0.682 0.171
# ℹ 350 more rows
…
