…
`.groups` argument.
`summarise()` has grouped output by 'theta'. You can override using the
`.groups` argument.
`summarise()` has grouped output by 'theta', 'tau'. You can override using the
`.groups` argument.
`summarise()` has grouped output by 'theta'. You can override using the
`.groups` argument.
`summarise()` has grouped output by 'theta', 'tau'. You can override using the
`.groups` argument.
`summarise()` has grouped output by 'theta'. You can override using the
`.groups` argument.
[1] ""
[1] "Total run time was 45.263 seconds"
[1] "Estimation result: "
# A tibble: 360 × 5
   estimand theta   tau   est     se
   <chr>    <dbl> <dbl> <dbl>  <dbl>
 1 mu         0.1   0.1 0.391 0.129 
 2 mu         0.1   0.2 0.433 0.0999
 3 mu         0.1   0.3 0.490 0.111 
 4 mu         0.1   0.4 0.474 0.105 
 5 mu         0.1   0.5 0.513 0.122 
 6 mu         0.2   0.1 0.426 0.0917
 7 mu         0.2   0.2 0.506 0.0853
 8 mu         0.2   0.3 0.598 0.104 
 9 mu         0.2   0.4 0.605 0.0990
10 mu         0.2   0.5 0.660 0.117 
# ℹ 350 more rows
…
