…
`.groups` argument.
`summarise()` has grouped output by 'theta'. You can override using the
`.groups` argument.
`summarise()` has grouped output by 'theta', 'tau'. You can override using the
`.groups` argument.
`summarise()` has grouped output by 'theta'. You can override using the
`.groups` argument.
`summarise()` has grouped output by 'theta', 'tau'. You can override using the
`.groups` argument.
`summarise()` has grouped output by 'theta'. You can override using the
`.groups` argument.
[1] ""
[1] "Total run time was 47.419 seconds"
[1] "Estimation result: "
# A tibble: 360 × 5
   estimand theta   tau   est     se
   <chr>    <dbl> <dbl> <dbl>  <dbl>
 1 mu         0.1   0.1 0.373 0.130 
 2 mu         0.1   0.2 0.384 0.132 
 3 mu         0.1   0.3 0.429 0.146 
 4 mu         0.1   0.4 0.442 0.149 
 5 mu         0.1   0.5 0.474 0.157 
 6 mu         0.2   0.1 0.328 0.0866
 7 mu         0.2   0.2 0.356 0.0952
 8 mu         0.2   0.3 0.466 0.0991
 9 mu         0.2   0.4 0.494 0.103 
10 mu         0.2   0.5 0.545 0.109 
# ℹ 350 more rows
…
