…
`.groups` argument.
`summarise()` has grouped output by 'theta'. You can override using the
`.groups` argument.
`summarise()` has grouped output by 'theta', 'tau'. You can override using the
`.groups` argument.
`summarise()` has grouped output by 'theta'. You can override using the
`.groups` argument.
`summarise()` has grouped output by 'theta', 'tau'. You can override using the
`.groups` argument.
`summarise()` has grouped output by 'theta'. You can override using the
`.groups` argument.
[1] ""
[1] "Total run time was 76.877 seconds"
[1] "Estimation result: "
# A tibble: 360 × 5
   estimand theta   tau   est     se
   <chr>    <dbl> <dbl> <dbl>  <dbl>
 1 mu         0.1   0.1 0.345 0.0982
 2 mu         0.1   0.2 0.521 0.151 
 3 mu         0.1   0.3 0.511 0.134 
 4 mu         0.1   0.4 0.526 0.131 
 5 mu         0.1   0.5 0.680 0.189 
 6 mu         0.2   0.1 0.350 0.0897
 7 mu         0.2   0.2 0.498 0.141 
 8 mu         0.2   0.3 0.504 0.124 
 9 mu         0.2   0.4 0.528 0.108 
10 mu         0.2   0.5 0.662 0.169 
# ℹ 350 more rows
…
