…
`.groups` argument.
`summarise()` has grouped output by 'theta'. You can override using the
`.groups` argument.
`summarise()` has grouped output by 'theta', 'tau'. You can override using the
`.groups` argument.
`summarise()` has grouped output by 'theta'. You can override using the
`.groups` argument.
`summarise()` has grouped output by 'theta', 'tau'. You can override using the
`.groups` argument.
`summarise()` has grouped output by 'theta'. You can override using the
`.groups` argument.
[1] ""
[1] "Total run time was 69.669 seconds"
[1] "Estimation result: "
# A tibble: 360 × 5
   estimand theta   tau   est     se
   <chr>    <dbl> <dbl> <dbl>  <dbl>
 1 mu         0.1   0.1 0.319 0.0788
 2 mu         0.1   0.2 0.407 0.103 
 3 mu         0.1   0.3 0.414 0.103 
 4 mu         0.1   0.4 0.400 0.0974
 5 mu         0.1   0.5 0.404 0.115 
 6 mu         0.2   0.1 0.357 0.0640
 7 mu         0.2   0.2 0.452 0.0771
 8 mu         0.2   0.3 0.462 0.0728
 9 mu         0.2   0.4 0.458 0.0697
10 mu         0.2   0.5 0.469 0.0779
# ℹ 350 more rows
…
