…
`.groups` argument.
`summarise()` has grouped output by 'theta'. You can override using the
`.groups` argument.
`summarise()` has grouped output by 'theta', 'tau'. You can override using the
`.groups` argument.
`summarise()` has grouped output by 'theta'. You can override using the
`.groups` argument.
`summarise()` has grouped output by 'theta', 'tau'. You can override using the
`.groups` argument.
`summarise()` has grouped output by 'theta'. You can override using the
`.groups` argument.
[1] ""
[1] "Total run time was 66.722 seconds"
[1] "Estimation result: "
# A tibble: 360 × 5
   estimand theta   tau   est    se
   <chr>    <dbl> <dbl> <dbl> <dbl>
 1 mu         0.1   0.1 0.837 0.532
 2 mu         0.1   0.2 1.02  0.722
 3 mu         0.1   0.3 1.11  0.748
 4 mu         0.1   0.4 1.23  0.778
 5 mu         0.1   0.5 1.28  0.828
 6 mu         0.2   0.1 0.594 0.300
 7 mu         0.2   0.2 0.734 0.408
 8 mu         0.2   0.3 0.811 0.423
 9 mu         0.2   0.4 0.926 0.444
10 mu         0.2   0.5 0.969 0.471
# ℹ 350 more rows
…
