…
`.groups` argument.
`summarise()` has grouped output by 'theta'. You can override using the
`.groups` argument.
`summarise()` has grouped output by 'theta', 'tau'. You can override using the
`.groups` argument.
`summarise()` has grouped output by 'theta'. You can override using the
`.groups` argument.
`summarise()` has grouped output by 'theta', 'tau'. You can override using the
`.groups` argument.
`summarise()` has grouped output by 'theta'. You can override using the
`.groups` argument.
[1] ""
[1] "Total run time was 60.766 seconds"
[1] "Estimation result: "
# A tibble: 360 × 5
   estimand theta   tau   est     se
   <chr>    <dbl> <dbl> <dbl>  <dbl>
 1 mu         0.1   0.1 0.320 0.108 
 2 mu         0.1   0.2 0.349 0.0964
 3 mu         0.1   0.3 0.328 0.0789
 4 mu         0.1   0.4 0.323 0.0752
 5 mu         0.1   0.5 0.315 0.0756
 6 mu         0.2   0.1 0.363 0.0873
 7 mu         0.2   0.2 0.426 0.0846
 8 mu         0.2   0.3 0.424 0.0706
 9 mu         0.2   0.4 0.443 0.0657
10 mu         0.2   0.5 0.454 0.0682
# ℹ 350 more rows
…
