…
`.groups` argument.
`summarise()` has grouped output by 'theta'. You can override using the
`.groups` argument.
`summarise()` has grouped output by 'theta', 'tau'. You can override using the
`.groups` argument.
`summarise()` has grouped output by 'theta'. You can override using the
`.groups` argument.
`summarise()` has grouped output by 'theta', 'tau'. You can override using the
`.groups` argument.
`summarise()` has grouped output by 'theta'. You can override using the
`.groups` argument.
[1] ""
[1] "Total run time was 80.418 seconds"
[1] "Estimation result: "
# A tibble: 360 × 5
   estimand theta   tau   est     se
   <chr>    <dbl> <dbl> <dbl>  <dbl>
 1 mu         0.1   0.1 0.279 0.119 
 2 mu         0.1   0.2 0.277 0.0935
 3 mu         0.1   0.3 0.287 0.0935
 4 mu         0.1   0.4 0.301 0.0962
 5 mu         0.1   0.5 0.323 0.101 
 6 mu         0.2   0.1 0.287 0.105 
 7 mu         0.2   0.2 0.289 0.0773
 8 mu         0.2   0.3 0.309 0.0739
 9 mu         0.2   0.4 0.330 0.0712
10 mu         0.2   0.5 0.352 0.0724
# ℹ 350 more rows
…
