…
`.groups` argument.
`summarise()` has grouped output by 'theta'. You can override using the
`.groups` argument.
`summarise()` has grouped output by 'theta', 'tau'. You can override using the
`.groups` argument.
`summarise()` has grouped output by 'theta'. You can override using the
`.groups` argument.
`summarise()` has grouped output by 'theta', 'tau'. You can override using the
`.groups` argument.
`summarise()` has grouped output by 'theta'. You can override using the
`.groups` argument.
[1] ""
[1] "Total run time was 43.873 seconds"
[1] "Estimation result: "
# A tibble: 360 × 5
   estimand theta   tau   est     se
   <chr>    <dbl> <dbl> <dbl>  <dbl>
 1 mu         0.1   0.1 0.311 0.0868
 2 mu         0.1   0.2 0.297 0.129 
 3 mu         0.1   0.3 0.344 0.159 
 4 mu         0.1   0.4 0.406 0.126 
 5 mu         0.1   0.5 0.403 0.144 
 6 mu         0.2   0.1 0.326 0.0525
 7 mu         0.2   0.2 0.346 0.0739
 8 mu         0.2   0.3 0.424 0.0876
 9 mu         0.2   0.4 0.488 0.0717
10 mu         0.2   0.5 0.507 0.0810
# ℹ 350 more rows
…
