…
`.groups` argument.
`summarise()` has grouped output by 'theta'. You can override using the
`.groups` argument.
`summarise()` has grouped output by 'theta', 'tau'. You can override using the
`.groups` argument.
`summarise()` has grouped output by 'theta'. You can override using the
`.groups` argument.
`summarise()` has grouped output by 'theta', 'tau'. You can override using the
`.groups` argument.
`summarise()` has grouped output by 'theta'. You can override using the
`.groups` argument.
[1] ""
[1] "Total run time was 66.801 seconds"
[1] "Estimation result: "
# A tibble: 360 × 5
   estimand theta   tau   est     se
   <chr>    <dbl> <dbl> <dbl>  <dbl>
 1 mu         0.1   0.1 0.315 0.0877
 2 mu         0.1   0.2 0.317 0.100 
 3 mu         0.1   0.3 0.374 0.0990
 4 mu         0.1   0.4 0.455 0.120 
 5 mu         0.1   0.5 0.478 0.107 
 6 mu         0.2   0.1 0.282 0.0531
 7 mu         0.2   0.2 0.300 0.0667
 8 mu         0.2   0.3 0.369 0.0575
 9 mu         0.2   0.4 0.444 0.0798
10 mu         0.2   0.5 0.461 0.0619
# ℹ 350 more rows
…
