…
`.groups` argument.
`summarise()` has grouped output by 'theta'. You can override using the
`.groups` argument.
`summarise()` has grouped output by 'theta', 'tau'. You can override using the
`.groups` argument.
`summarise()` has grouped output by 'theta'. You can override using the
`.groups` argument.
`summarise()` has grouped output by 'theta', 'tau'. You can override using the
`.groups` argument.
`summarise()` has grouped output by 'theta'. You can override using the
`.groups` argument.
[1] ""
[1] "Total run time was 121.778 seconds"
[1] "Estimation result: "
# A tibble: 360 × 5
   estimand theta   tau   est    se
   <chr>    <dbl> <dbl> <dbl> <dbl>
 1 mu         0.1   0.1 0.300 0.192
 2 mu         0.1   0.2 0.440 0.193
 3 mu         0.1   0.3 0.475 0.219
 4 mu         0.1   0.4 0.525 0.232
 5 mu         0.1   0.5 0.558 0.250
 6 mu         0.2   0.1 0.486 0.276
 7 mu         0.2   0.2 0.658 0.287
 8 mu         0.2   0.3 0.736 0.332
 9 mu         0.2   0.4 0.801 0.347
10 mu         0.2   0.5 0.850 0.368
# ℹ 350 more rows
…
