…
`.groups` argument.
`summarise()` has grouped output by 'theta'. You can override using the
`.groups` argument.
`summarise()` has grouped output by 'theta', 'tau'. You can override using the
`.groups` argument.
`summarise()` has grouped output by 'theta'. You can override using the
`.groups` argument.
`summarise()` has grouped output by 'theta', 'tau'. You can override using the
`.groups` argument.
`summarise()` has grouped output by 'theta'. You can override using the
`.groups` argument.
[1] ""
[1] "Total run time was 121.39 seconds"
[1] "Estimation result: "
# A tibble: 360 × 5
   estimand theta   tau   est    se
   <chr>    <dbl> <dbl> <dbl> <dbl>
 1 mu         0.1   0.1 3.92  3.69 
 2 mu         0.1   0.2 4.44  4.15 
 3 mu         0.1   0.3 4.70  4.39 
 4 mu         0.1   0.4 5.34  5.00 
 5 mu         0.1   0.5 5.44  5.12 
 6 mu         0.2   0.1 0.761 0.449
 7 mu         0.2   0.2 0.901 0.499
 8 mu         0.2   0.3 0.986 0.530
 9 mu         0.2   0.4 1.09  0.600
10 mu         0.2   0.5 1.10  0.613
# ℹ 350 more rows
…
