…
`.groups` argument.
`summarise()` has grouped output by 'theta'. You can override using the
`.groups` argument.
`summarise()` has grouped output by 'theta', 'tau'. You can override using the
`.groups` argument.
`summarise()` has grouped output by 'theta'. You can override using the
`.groups` argument.
`summarise()` has grouped output by 'theta', 'tau'. You can override using the
`.groups` argument.
`summarise()` has grouped output by 'theta'. You can override using the
`.groups` argument.
[1] ""
[1] "Total run time was 50.573 seconds"
[1] "Estimation result: "
# A tibble: 360 × 5
   estimand theta   tau   est     se
   <chr>    <dbl> <dbl> <dbl>  <dbl>
 1 mu         0.1   0.1 0.271 0.138 
 2 mu         0.1   0.2 0.307 0.191 
 3 mu         0.1   0.3 0.498 0.126 
 4 mu         0.1   0.4 0.502 0.154 
 5 mu         0.1   0.5 0.494 0.168 
 6 mu         0.2   0.1 0.247 0.108 
 7 mu         0.2   0.2 0.272 0.151 
 8 mu         0.2   0.3 0.458 0.0655
 9 mu         0.2   0.4 0.456 0.0972
10 mu         0.2   0.5 0.458 0.114 
# ℹ 350 more rows
…
