…
`.groups` argument.
`summarise()` has grouped output by 'theta'. You can override using the
`.groups` argument.
`summarise()` has grouped output by 'theta', 'tau'. You can override using the
`.groups` argument.
`summarise()` has grouped output by 'theta'. You can override using the
`.groups` argument.
`summarise()` has grouped output by 'theta', 'tau'. You can override using the
`.groups` argument.
`summarise()` has grouped output by 'theta'. You can override using the
`.groups` argument.
[1] ""
[1] "Total run time was 47.735 seconds"
[1] "Estimation result: "
# A tibble: 360 × 5
   estimand theta   tau   est     se
   <chr>    <dbl> <dbl> <dbl>  <dbl>
 1 mu         0.1   0.1 0.356 0.0588
 2 mu         0.1   0.2 0.441 0.0758
 3 mu         0.1   0.3 0.506 0.0843
 4 mu         0.1   0.4 0.523 0.0965
 5 mu         0.1   0.5 0.569 0.0964
 6 mu         0.2   0.1 0.338 0.0384
 7 mu         0.2   0.2 0.441 0.0441
 8 mu         0.2   0.3 0.508 0.0513
 9 mu         0.2   0.4 0.536 0.0582
10 mu         0.2   0.5 0.579 0.0579
# ℹ 350 more rows
…
