…
`.groups` argument.
`summarise()` has grouped output by 'theta'. You can override using the
`.groups` argument.
`summarise()` has grouped output by 'theta', 'tau'. You can override using the
`.groups` argument.
`summarise()` has grouped output by 'theta'. You can override using the
`.groups` argument.
`summarise()` has grouped output by 'theta', 'tau'. You can override using the
`.groups` argument.
`summarise()` has grouped output by 'theta'. You can override using the
`.groups` argument.
[1] ""
[1] "Total run time was 80.952 seconds"
[1] "Estimation result: "
# A tibble: 360 × 5
   estimand theta   tau   est     se
   <chr>    <dbl> <dbl> <dbl>  <dbl>
 1 mu         0.1   0.1 0.332 0.0913
 2 mu         0.1   0.2 0.335 0.115 
 3 mu         0.1   0.3 0.441 0.133 
 4 mu         0.1   0.4 0.547 0.149 
 5 mu         0.1   0.5 0.559 0.154 
 6 mu         0.2   0.1 0.383 0.0743
 7 mu         0.2   0.2 0.423 0.0912
 8 mu         0.2   0.3 0.542 0.113 
 9 mu         0.2   0.4 0.637 0.123 
10 mu         0.2   0.5 0.656 0.128 
# ℹ 350 more rows
…
