…
`.groups` argument.
`summarise()` has grouped output by 'theta'. You can override using the
`.groups` argument.
`summarise()` has grouped output by 'theta', 'tau'. You can override using the
`.groups` argument.
`summarise()` has grouped output by 'theta'. You can override using the
`.groups` argument.
`summarise()` has grouped output by 'theta', 'tau'. You can override using the
`.groups` argument.
`summarise()` has grouped output by 'theta'. You can override using the
`.groups` argument.
[1] ""
[1] "Total run time was 65.288 seconds"
[1] "Estimation result: "
# A tibble: 360 × 5
   estimand theta   tau   est     se
   <chr>    <dbl> <dbl> <dbl>  <dbl>
 1 mu         0.1   0.1 0.213 0.0646
 2 mu         0.1   0.2 0.214 0.0900
 3 mu         0.1   0.3 0.283 0.0715
 4 mu         0.1   0.4 0.347 0.0627
 5 mu         0.1   0.5 0.348 0.0694
 6 mu         0.2   0.1 0.317 0.0510
 7 mu         0.2   0.2 0.358 0.0676
 8 mu         0.2   0.3 0.456 0.0584
 9 mu         0.2   0.4 0.520 0.0542
10 mu         0.2   0.5 0.537 0.0579
# ℹ 350 more rows
…
