…
`.groups` argument.
`summarise()` has grouped output by 'theta'. You can override using the
`.groups` argument.
`summarise()` has grouped output by 'theta', 'tau'. You can override using the
`.groups` argument.
`summarise()` has grouped output by 'theta'. You can override using the
`.groups` argument.
`summarise()` has grouped output by 'theta', 'tau'. You can override using the
`.groups` argument.
`summarise()` has grouped output by 'theta'. You can override using the
`.groups` argument.
[1] ""
[1] "Total run time was 47.898 seconds"
[1] "Estimation result: "
# A tibble: 360 × 5
   estimand theta   tau   est     se
   <chr>    <dbl> <dbl> <dbl>  <dbl>
 1 mu         0.1   0.1 0.409 0.135 
 2 mu         0.1   0.2 0.477 0.161 
 3 mu         0.1   0.3 0.519 0.175 
 4 mu         0.1   0.4 0.555 0.178 
 5 mu         0.1   0.5 0.581 0.190 
 6 mu         0.2   0.1 0.369 0.0608
 7 mu         0.2   0.2 0.435 0.0680
 8 mu         0.2   0.3 0.495 0.0754
 9 mu         0.2   0.4 0.539 0.0755
10 mu         0.2   0.5 0.569 0.0818
# ℹ 350 more rows
…
