…
`.groups` argument.
`summarise()` has grouped output by 'theta'. You can override using the
`.groups` argument.
`summarise()` has grouped output by 'theta', 'tau'. You can override using the
`.groups` argument.
`summarise()` has grouped output by 'theta'. You can override using the
`.groups` argument.
`summarise()` has grouped output by 'theta', 'tau'. You can override using the
`.groups` argument.
`summarise()` has grouped output by 'theta'. You can override using the
`.groups` argument.
[1] ""
[1] "Total run time was 52.033 seconds"
[1] "Estimation result: "
# A tibble: 360 × 5
   estimand theta   tau   est     se
   <chr>    <dbl> <dbl> <dbl>  <dbl>
 1 mu         0.1   0.1 0.461 0.105 
 2 mu         0.1   0.2 0.507 0.106 
 3 mu         0.1   0.3 0.550 0.0995
 4 mu         0.1   0.4 0.605 0.0984
 5 mu         0.1   0.5 0.650 0.109 
 6 mu         0.2   0.1 0.380 0.0593
 7 mu         0.2   0.2 0.446 0.0616
 8 mu         0.2   0.3 0.507 0.0636
 9 mu         0.2   0.4 0.564 0.0632
10 mu         0.2   0.5 0.603 0.0700
# ℹ 350 more rows
…
