…
`.groups` argument.
`summarise()` has grouped output by 'theta'. You can override using the
`.groups` argument.
`summarise()` has grouped output by 'theta', 'tau'. You can override using the
`.groups` argument.
`summarise()` has grouped output by 'theta'. You can override using the
`.groups` argument.
`summarise()` has grouped output by 'theta', 'tau'. You can override using the
`.groups` argument.
`summarise()` has grouped output by 'theta'. You can override using the
`.groups` argument.
[1] ""
[1] "Total run time was 45.69 seconds"
[1] "Estimation result: "
# A tibble: 360 × 5
   estimand theta   tau   est     se
   <chr>    <dbl> <dbl> <dbl>  <dbl>
 1 mu         0.1   0.1 0.165 0.0817
 2 mu         0.1   0.2 0.218 0.0939
 3 mu         0.1   0.3 0.247 0.0968
 4 mu         0.1   0.4 0.273 0.121 
 5 mu         0.1   0.5 0.342 0.124 
 6 mu         0.2   0.1 0.249 0.0752
 7 mu         0.2   0.2 0.317 0.0857
 8 mu         0.2   0.3 0.347 0.0990
 9 mu         0.2   0.4 0.373 0.127 
10 mu         0.2   0.5 0.464 0.129 
# ℹ 350 more rows
…
