…
`.groups` argument.
`summarise()` has grouped output by 'theta'. You can override using the
`.groups` argument.
`summarise()` has grouped output by 'theta', 'tau'. You can override using the
`.groups` argument.
`summarise()` has grouped output by 'theta'. You can override using the
`.groups` argument.
`summarise()` has grouped output by 'theta', 'tau'. You can override using the
`.groups` argument.
`summarise()` has grouped output by 'theta'. You can override using the
`.groups` argument.
[1] ""
[1] "Total run time was 48.877 seconds"
[1] "Estimation result: "
# A tibble: 360 × 5
   estimand theta   tau   est     se
   <chr>    <dbl> <dbl> <dbl>  <dbl>
 1 mu         0.1   0.1 0.262 0.0673
 2 mu         0.1   0.2 0.450 0.109 
 3 mu         0.1   0.3 0.485 0.108 
 4 mu         0.1   0.4 0.486 0.111 
 5 mu         0.1   0.5 0.536 0.111 
 6 mu         0.2   0.1 0.206 0.0480
 7 mu         0.2   0.2 0.374 0.0763
 8 mu         0.2   0.3 0.422 0.0732
 9 mu         0.2   0.4 0.432 0.0745
10 mu         0.2   0.5 0.487 0.0731
# ℹ 350 more rows
…
