…
    extract


[Simulation setting] 

- M: 100 

- taus: 0.2 

- thetas: 0.3, 0.4, 0.5, 0.6, 0.7 

- r: 100 

# A tibble: 35 × 4
   theta   tau estimand    truth
   <dbl> <dbl> <chr>       <dbl>
 1   0.3   0.2 mu        8.81e-7
 2   0.3   0.2 mu_1      4.99e-7
 3   0.3   0.2 mu_0      1.05e-6
 4   0.3   0.2 de       -5.47e-7
 5   0.3   0.2 se_1     -4.46e-8
 6   0.3   0.2 se_0     -1.90e-7
 7   0.3   0.2 oe       -7.84e-9
 8   0.4   0.2 mu        6.12e-7
 9   0.4   0.2 mu_1      3.65e-7
10   0.4   0.2 mu_0      7.77e-7
# ℹ 25 more rows
…
