…
`.groups` argument.
`summarise()` has grouped output by 'theta'. You can override using the
`.groups` argument.
`summarise()` has grouped output by 'theta', 'tau'. You can override using the
`.groups` argument.
`summarise()` has grouped output by 'theta'. You can override using the
`.groups` argument.
`summarise()` has grouped output by 'theta', 'tau'. You can override using the
`.groups` argument.
`summarise()` has grouped output by 'theta'. You can override using the
`.groups` argument.
[1] ""
[1] "Total run time was 160.141 seconds"
[1] "Estimation result: "
# A tibble: 360 × 5
   estimand theta   tau   est     se
   <chr>    <dbl> <dbl> <dbl>  <dbl>
 1 mu         0.1   0.1 0.323 0.0637
 2 mu         0.1   0.2 0.461 0.0796
 3 mu         0.1   0.3 0.529 0.0934
 4 mu         0.1   0.4 0.629 0.134 
 5 mu         0.1   0.5 0.676 0.120 
 6 mu         0.2   0.1 0.327 0.0514
 7 mu         0.2   0.2 0.462 0.0753
 8 mu         0.2   0.3 0.520 0.0791
 9 mu         0.2   0.4 0.596 0.0953
10 mu         0.2   0.5 0.642 0.0836
# ℹ 350 more rows
…
