…
`.groups` argument.
`summarise()` has grouped output by 'theta'. You can override using the
`.groups` argument.
`summarise()` has grouped output by 'theta', 'tau'. You can override using the
`.groups` argument.
`summarise()` has grouped output by 'theta'. You can override using the
`.groups` argument.
`summarise()` has grouped output by 'theta', 'tau'. You can override using the
`.groups` argument.
`summarise()` has grouped output by 'theta'. You can override using the
`.groups` argument.
[1] ""
[1] "Total run time was 147.993 seconds"
[1] "Estimation result: "
# A tibble: 360 × 5
   estimand theta   tau   est     se
   <chr>    <dbl> <dbl> <dbl>  <dbl>
 1 mu         0.1   0.1 0.341 0.195 
 2 mu         0.1   0.2 0.350 0.199 
 3 mu         0.1   0.3 0.368 0.220 
 4 mu         0.1   0.4 0.528 0.155 
 5 mu         0.1   0.5 0.538 0.154 
 6 mu         0.2   0.1 0.337 0.108 
 7 mu         0.2   0.2 0.367 0.111 
 8 mu         0.2   0.3 0.398 0.121 
 9 mu         0.2   0.4 0.495 0.0880
10 mu         0.2   0.5 0.510 0.0875
# ℹ 350 more rows
…
