…
`.groups` argument.
`summarise()` has grouped output by 'theta'. You can override using the
`.groups` argument.
`summarise()` has grouped output by 'theta', 'tau'. You can override using the
`.groups` argument.
`summarise()` has grouped output by 'theta'. You can override using the
`.groups` argument.
`summarise()` has grouped output by 'theta', 'tau'. You can override using the
`.groups` argument.
`summarise()` has grouped output by 'theta'. You can override using the
`.groups` argument.
[1] ""
[1] "Total run time was 131.423 seconds"
[1] "Estimation result: "
# A tibble: 360 × 5
   estimand theta   tau   est     se
   <chr>    <dbl> <dbl> <dbl>  <dbl>
 1 mu         0.1   0.1 0.231 0.114 
 2 mu         0.1   0.2 0.432 0.109 
 3 mu         0.1   0.3 0.422 0.116 
 4 mu         0.1   0.4 0.467 0.0955
 5 mu         0.1   0.5 0.457 0.0970
 6 mu         0.2   0.1 0.307 0.0929
 7 mu         0.2   0.2 0.412 0.0734
 8 mu         0.2   0.3 0.434 0.0882
 9 mu         0.2   0.4 0.476 0.0709
10 mu         0.2   0.5 0.474 0.0707
# ℹ 350 more rows
…
