…
`.groups` argument.
`summarise()` has grouped output by 'theta'. You can override using the
`.groups` argument.
`summarise()` has grouped output by 'theta', 'tau'. You can override using the
`.groups` argument.
`summarise()` has grouped output by 'theta'. You can override using the
`.groups` argument.
`summarise()` has grouped output by 'theta', 'tau'. You can override using the
`.groups` argument.
`summarise()` has grouped output by 'theta'. You can override using the
`.groups` argument.
[1] ""
[1] "Total run time was 144.225 seconds"
[1] "Estimation result: "
# A tibble: 360 × 5
   estimand theta   tau   est    se
   <chr>    <dbl> <dbl> <dbl> <dbl>
 1 mu         0.1   0.1 0.450 0.178
 2 mu         0.1   0.2 0.475 0.198
 3 mu         0.1   0.3 0.569 0.248
 4 mu         0.1   0.4 0.583 0.263
 5 mu         0.1   0.5 0.693 0.284
 6 mu         0.2   0.1 0.416 0.123
 7 mu         0.2   0.2 0.456 0.130
 8 mu         0.2   0.3 0.543 0.167
 9 mu         0.2   0.4 0.572 0.177
10 mu         0.2   0.5 0.662 0.184
# ℹ 350 more rows
…
