…
`.groups` argument.
`summarise()` has grouped output by 'theta'. You can override using the
`.groups` argument.
`summarise()` has grouped output by 'theta', 'tau'. You can override using the
`.groups` argument.
`summarise()` has grouped output by 'theta'. You can override using the
`.groups` argument.
`summarise()` has grouped output by 'theta', 'tau'. You can override using the
`.groups` argument.
`summarise()` has grouped output by 'theta'. You can override using the
`.groups` argument.
[1] ""
[1] "Total run time was 162.805 seconds"
[1] "Estimation result: "
# A tibble: 360 × 5
   estimand theta   tau   est     se
   <chr>    <dbl> <dbl> <dbl>  <dbl>
 1 mu         0.1   0.1 0.620 0.184 
 2 mu         0.1   0.2 0.732 0.225 
 3 mu         0.1   0.3 0.820 0.219 
 4 mu         0.1   0.4 0.868 0.215 
 5 mu         0.1   0.5 0.890 0.214 
 6 mu         0.2   0.1 0.381 0.0788
 7 mu         0.2   0.2 0.464 0.0928
 8 mu         0.2   0.3 0.551 0.0807
 9 mu         0.2   0.4 0.598 0.0741
10 mu         0.2   0.5 0.627 0.0685
# ℹ 350 more rows
…
