…
`.groups` argument.
`summarise()` has grouped output by 'theta'. You can override using the
`.groups` argument.
`summarise()` has grouped output by 'theta', 'tau'. You can override using the
`.groups` argument.
`summarise()` has grouped output by 'theta'. You can override using the
`.groups` argument.
`summarise()` has grouped output by 'theta', 'tau'. You can override using the
`.groups` argument.
`summarise()` has grouped output by 'theta'. You can override using the
`.groups` argument.
[1] ""
[1] "Total run time was 119.926 seconds"
[1] "Estimation result: "
# A tibble: 360 × 5
   estimand theta   tau   est     se
   <chr>    <dbl> <dbl> <dbl>  <dbl>
 1 mu         0.1   0.1 0.330 0.0795
 2 mu         0.1   0.2 0.447 0.132 
 3 mu         0.1   0.3 0.541 0.174 
 4 mu         0.1   0.4 0.539 0.182 
 5 mu         0.1   0.5 0.659 0.136 
 6 mu         0.2   0.1 0.323 0.0538
 7 mu         0.2   0.2 0.406 0.0744
 8 mu         0.2   0.3 0.484 0.0946
 9 mu         0.2   0.4 0.491 0.0990
10 mu         0.2   0.5 0.572 0.0713
# ℹ 350 more rows
…
