…
`.groups` argument.
`summarise()` has grouped output by 'theta'. You can override using the
`.groups` argument.
`summarise()` has grouped output by 'theta', 'tau'. You can override using the
`.groups` argument.
`summarise()` has grouped output by 'theta'. You can override using the
`.groups` argument.
`summarise()` has grouped output by 'theta', 'tau'. You can override using the
`.groups` argument.
`summarise()` has grouped output by 'theta'. You can override using the
`.groups` argument.
[1] ""
[1] "Total run time was 841.129 seconds"
[1] "Estimation result: "
# A tibble: 360 × 5
   estimand theta   tau   est     se
   <chr>    <dbl> <dbl> <dbl>  <dbl>
 1 mu         0.1   0.1 0.322 0.0909
 2 mu         0.1   0.2 0.400 0.121 
 3 mu         0.1   0.3 0.390 0.135 
 4 mu         0.1   0.4 0.384 0.148 
 5 mu         0.1   0.5 0.380 0.163 
 6 mu         0.2   0.1 0.356 0.0864
 7 mu         0.2   0.2 0.445 0.110 
 8 mu         0.2   0.3 0.448 0.120 
 9 mu         0.2   0.4 0.456 0.131 
10 mu         0.2   0.5 0.464 0.143 
# ℹ 350 more rows
…
