…
`.groups` argument.
`summarise()` has grouped output by 'theta'. You can override using the
`.groups` argument.
`summarise()` has grouped output by 'theta', 'tau'. You can override using the
`.groups` argument.
`summarise()` has grouped output by 'theta'. You can override using the
`.groups` argument.
`summarise()` has grouped output by 'theta', 'tau'. You can override using the
`.groups` argument.
`summarise()` has grouped output by 'theta'. You can override using the
`.groups` argument.
[1] ""
[1] "Total run time was 128.146 seconds"
[1] "Estimation result: "
# A tibble: 360 × 5
   estimand theta   tau   est     se
   <chr>    <dbl> <dbl> <dbl>  <dbl>
 1 mu         0.1   0.1 0.350 0.0841
 2 mu         0.1   0.2 0.495 0.0702
 3 mu         0.1   0.3 0.492 0.0625
 4 mu         0.1   0.4 0.553 0.0616
 5 mu         0.1   0.5 0.552 0.0673
 6 mu         0.2   0.1 0.338 0.0531
 7 mu         0.2   0.2 0.448 0.0480
 8 mu         0.2   0.3 0.469 0.0420
 9 mu         0.2   0.4 0.538 0.0442
10 mu         0.2   0.5 0.548 0.0478
# ℹ 350 more rows
…
