…
`.groups` argument.
`summarise()` has grouped output by 'theta'. You can override using the
`.groups` argument.
`summarise()` has grouped output by 'theta', 'tau'. You can override using the
`.groups` argument.
`summarise()` has grouped output by 'theta'. You can override using the
`.groups` argument.
`summarise()` has grouped output by 'theta', 'tau'. You can override using the
`.groups` argument.
`summarise()` has grouped output by 'theta'. You can override using the
`.groups` argument.
[1] ""
[1] "Total run time was 255.072 seconds"
[1] "Estimation result: "
# A tibble: 360 × 5
   estimand theta   tau   est     se
   <chr>    <dbl> <dbl> <dbl>  <dbl>
 1 mu         0.1   0.1 0.316 0.0982
 2 mu         0.1   0.2 0.689 0.233 
 3 mu         0.1   0.3 0.639 0.219 
 4 mu         0.1   0.4 0.620 0.223 
 5 mu         0.1   0.5 0.650 0.243 
 6 mu         0.2   0.1 0.290 0.0664
 7 mu         0.2   0.2 0.596 0.177 
 8 mu         0.2   0.3 0.563 0.165 
 9 mu         0.2   0.4 0.556 0.169 
10 mu         0.2   0.5 0.573 0.182 
# ℹ 350 more rows
…
