…
`.groups` argument.
`summarise()` has grouped output by 'theta'. You can override using the
`.groups` argument.
`summarise()` has grouped output by 'theta', 'tau'. You can override using the
`.groups` argument.
`summarise()` has grouped output by 'theta'. You can override using the
`.groups` argument.
`summarise()` has grouped output by 'theta', 'tau'. You can override using the
`.groups` argument.
`summarise()` has grouped output by 'theta'. You can override using the
`.groups` argument.
[1] ""
[1] "Total run time was 180.876 seconds"
[1] "Estimation result: "
# A tibble: 360 × 5
   estimand theta   tau   est     se
   <chr>    <dbl> <dbl> <dbl>  <dbl>
 1 mu         0.1   0.1 0.260 0.0609
 2 mu         0.1   0.2 0.364 0.0554
 3 mu         0.1   0.3 0.416 0.0474
 4 mu         0.1   0.4 0.459 0.0498
 5 mu         0.1   0.5 0.506 0.0536
 6 mu         0.2   0.1 0.251 0.0489
 7 mu         0.2   0.2 0.313 0.0547
 8 mu         0.2   0.3 0.366 0.0433
 9 mu         0.2   0.4 0.421 0.0388
10 mu         0.2   0.5 0.463 0.0356
# ℹ 350 more rows
…
