…
`.groups` argument.
`summarise()` has grouped output by 'theta'. You can override using the
`.groups` argument.
`summarise()` has grouped output by 'theta', 'tau'. You can override using the
`.groups` argument.
`summarise()` has grouped output by 'theta'. You can override using the
`.groups` argument.
`summarise()` has grouped output by 'theta', 'tau'. You can override using the
`.groups` argument.
`summarise()` has grouped output by 'theta'. You can override using the
`.groups` argument.
[1] ""
[1] "Total run time was 146.684 seconds"
[1] "Estimation result: "
# A tibble: 360 × 5
   estimand theta   tau   est     se
   <chr>    <dbl> <dbl> <dbl>  <dbl>
 1 mu         0.1   0.1 0.446 0.133 
 2 mu         0.1   0.2 0.524 0.130 
 3 mu         0.1   0.3 0.586 0.126 
 4 mu         0.1   0.4 0.639 0.126 
 5 mu         0.1   0.5 0.642 0.114 
 6 mu         0.2   0.1 0.387 0.0919
 7 mu         0.2   0.2 0.479 0.0949
 8 mu         0.2   0.3 0.546 0.101 
 9 mu         0.2   0.4 0.614 0.107 
10 mu         0.2   0.5 0.632 0.0925
# ℹ 350 more rows
…
