…
`.groups` argument.
`summarise()` has grouped output by 'theta'. You can override using the
`.groups` argument.
`summarise()` has grouped output by 'theta', 'tau'. You can override using the
`.groups` argument.
`summarise()` has grouped output by 'theta'. You can override using the
`.groups` argument.
`summarise()` has grouped output by 'theta', 'tau'. You can override using the
`.groups` argument.
`summarise()` has grouped output by 'theta'. You can override using the
`.groups` argument.
[1] ""
[1] "Total run time was 135.339 seconds"
[1] "Estimation result: "
# A tibble: 360 × 5
   estimand theta   tau   est     se
   <chr>    <dbl> <dbl> <dbl>  <dbl>
 1 mu         0.1   0.1 0.357 0.0614
 2 mu         0.1   0.2 0.376 0.0629
 3 mu         0.1   0.3 0.502 0.0631
 4 mu         0.1   0.4 0.577 0.0677
 5 mu         0.1   0.5 0.625 0.0692
 6 mu         0.2   0.1 0.288 0.0395
 7 mu         0.2   0.2 0.315 0.0441
 8 mu         0.2   0.3 0.418 0.0464
 9 mu         0.2   0.4 0.485 0.0547
10 mu         0.2   0.5 0.545 0.0422
# ℹ 350 more rows
…
