…
`.groups` argument.
`summarise()` has grouped output by 'theta'. You can override using the
`.groups` argument.
`summarise()` has grouped output by 'theta', 'tau'. You can override using the
`.groups` argument.
`summarise()` has grouped output by 'theta'. You can override using the
`.groups` argument.
`summarise()` has grouped output by 'theta', 'tau'. You can override using the
`.groups` argument.
`summarise()` has grouped output by 'theta'. You can override using the
`.groups` argument.
[1] ""
[1] "Total run time was 131.83 seconds"
[1] "Estimation result: "
# A tibble: 360 × 5
   estimand theta   tau   est     se
   <chr>    <dbl> <dbl> <dbl>  <dbl>
 1 mu         0.1   0.1 0.401 0.0627
 2 mu         0.1   0.2 0.512 0.0766
 3 mu         0.1   0.3 0.559 0.0889
 4 mu         0.1   0.4 0.566 0.0953
 5 mu         0.1   0.5 0.600 0.104 
 6 mu         0.2   0.1 0.402 0.0501
 7 mu         0.2   0.2 0.520 0.0528
 8 mu         0.2   0.3 0.581 0.0583
 9 mu         0.2   0.4 0.597 0.0591
10 mu         0.2   0.5 0.638 0.0665
# ℹ 350 more rows
…
