…
`.groups` argument.
`summarise()` has grouped output by 'theta'. You can override using the
`.groups` argument.
`summarise()` has grouped output by 'theta', 'tau'. You can override using the
`.groups` argument.
`summarise()` has grouped output by 'theta'. You can override using the
`.groups` argument.
`summarise()` has grouped output by 'theta', 'tau'. You can override using the
`.groups` argument.
`summarise()` has grouped output by 'theta'. You can override using the
`.groups` argument.
[1] ""
[1] "Total run time was 126.25 seconds"
[1] "Estimation result: "
# A tibble: 360 × 5
   estimand theta   tau   est     se
   <chr>    <dbl> <dbl> <dbl>  <dbl>
 1 mu         0.1   0.1 0.301 0.0888
 2 mu         0.1   0.2 0.347 0.0704
 3 mu         0.1   0.3 0.336 0.0604
 4 mu         0.1   0.4 0.343 0.0675
 5 mu         0.1   0.5 0.389 0.0461
 6 mu         0.2   0.1 0.302 0.0798
 7 mu         0.2   0.2 0.345 0.0498
 8 mu         0.2   0.3 0.351 0.0431
 9 mu         0.2   0.4 0.364 0.0548
10 mu         0.2   0.5 0.428 0.0417
# ℹ 350 more rows
…
