…
`.groups` argument.
`summarise()` has grouped output by 'theta'. You can override using the
`.groups` argument.
`summarise()` has grouped output by 'theta', 'tau'. You can override using the
`.groups` argument.
`summarise()` has grouped output by 'theta'. You can override using the
`.groups` argument.
`summarise()` has grouped output by 'theta', 'tau'. You can override using the
`.groups` argument.
`summarise()` has grouped output by 'theta'. You can override using the
`.groups` argument.
[1] ""
[1] "Total run time was 167.541 seconds"
[1] "Estimation result: "
# A tibble: 360 × 5
   estimand theta   tau   est     se
   <chr>    <dbl> <dbl> <dbl>  <dbl>
 1 mu         0.1   0.1 0.292 0.0571
 2 mu         0.1   0.2 0.390 0.0735
 3 mu         0.1   0.3 0.446 0.0737
 4 mu         0.1   0.4 0.449 0.0741
 5 mu         0.1   0.5 0.511 0.0672
 6 mu         0.2   0.1 0.327 0.0441
 7 mu         0.2   0.2 0.430 0.0634
 8 mu         0.2   0.3 0.488 0.0684
 9 mu         0.2   0.4 0.500 0.0659
10 mu         0.2   0.5 0.559 0.0592
# ℹ 350 more rows
…
