…
`.groups` argument.
`summarise()` has grouped output by 'theta'. You can override using the
`.groups` argument.
`summarise()` has grouped output by 'theta', 'tau'. You can override using the
`.groups` argument.
`summarise()` has grouped output by 'theta'. You can override using the
`.groups` argument.
`summarise()` has grouped output by 'theta', 'tau'. You can override using the
`.groups` argument.
`summarise()` has grouped output by 'theta'. You can override using the
`.groups` argument.
[1] ""
[1] "Total run time was 185.798 seconds"
[1] "Estimation result: "
# A tibble: 360 × 5
   estimand theta   tau   est     se
   <chr>    <dbl> <dbl> <dbl>  <dbl>
 1 mu         0.1   0.1 0.273 0.0483
 2 mu         0.1   0.2 0.324 0.0782
 3 mu         0.1   0.3 0.351 0.0896
 4 mu         0.1   0.4 0.390 0.0992
 5 mu         0.1   0.5 0.418 0.111 
 6 mu         0.2   0.1 0.300 0.0376
 7 mu         0.2   0.2 0.353 0.0540
 8 mu         0.2   0.3 0.394 0.0693
 9 mu         0.2   0.4 0.455 0.0588
10 mu         0.2   0.5 0.482 0.0647
# ℹ 350 more rows
…
