…
`.groups` argument.
`summarise()` has grouped output by 'theta'. You can override using the
`.groups` argument.
`summarise()` has grouped output by 'theta', 'tau'. You can override using the
`.groups` argument.
`summarise()` has grouped output by 'theta'. You can override using the
`.groups` argument.
`summarise()` has grouped output by 'theta', 'tau'. You can override using the
`.groups` argument.
`summarise()` has grouped output by 'theta'. You can override using the
`.groups` argument.
[1] ""
[1] "Total run time was 154.561 seconds"
[1] "Estimation result: "
# A tibble: 360 × 5
   estimand theta   tau   est     se
   <chr>    <dbl> <dbl> <dbl>  <dbl>
 1 mu         0.1   0.1 0.505 0.121 
 2 mu         0.1   0.2 0.656 0.168 
 3 mu         0.1   0.3 0.755 0.192 
 4 mu         0.1   0.4 0.764 0.198 
 5 mu         0.1   0.5 0.883 0.224 
 6 mu         0.2   0.1 0.399 0.0644
 7 mu         0.2   0.2 0.501 0.0842
 8 mu         0.2   0.3 0.584 0.0931
 9 mu         0.2   0.4 0.586 0.0954
10 mu         0.2   0.5 0.681 0.107 
# ℹ 350 more rows
…
