…
`.groups` argument.
`summarise()` has grouped output by 'theta'. You can override using the
`.groups` argument.
`summarise()` has grouped output by 'theta', 'tau'. You can override using the
`.groups` argument.
`summarise()` has grouped output by 'theta'. You can override using the
`.groups` argument.
`summarise()` has grouped output by 'theta', 'tau'. You can override using the
`.groups` argument.
`summarise()` has grouped output by 'theta'. You can override using the
`.groups` argument.
[1] ""
[1] "Total run time was 154.865 seconds"
[1] "Estimation result: "
# A tibble: 360 × 5
   estimand theta   tau   est     se
   <chr>    <dbl> <dbl> <dbl>  <dbl>
 1 mu         0.1   0.1 0.374 0.144 
 2 mu         0.1   0.2 0.538 0.143 
 3 mu         0.1   0.3 0.534 0.132 
 4 mu         0.1   0.4 0.544 0.127 
 5 mu         0.1   0.5 0.531 0.124 
 6 mu         0.2   0.1 0.358 0.0969
 7 mu         0.2   0.2 0.511 0.101 
 8 mu         0.2   0.3 0.516 0.0918
 9 mu         0.2   0.4 0.551 0.0868
10 mu         0.2   0.5 0.545 0.0845
# ℹ 350 more rows
…
