…
`.groups` argument.
`summarise()` has grouped output by 'theta'. You can override using the
`.groups` argument.
`summarise()` has grouped output by 'theta', 'tau'. You can override using the
`.groups` argument.
`summarise()` has grouped output by 'theta'. You can override using the
`.groups` argument.
`summarise()` has grouped output by 'theta', 'tau'. You can override using the
`.groups` argument.
`summarise()` has grouped output by 'theta'. You can override using the
`.groups` argument.
[1] ""
[1] "Total run time was 495.418 seconds"
[1] "Estimation result: "
# A tibble: 360 × 5
   estimand theta   tau   est     se
   <chr>    <dbl> <dbl> <dbl>  <dbl>
 1 mu         0.1   0.1 0.353 0.0933
 2 mu         0.1   0.2 0.341 0.0574
 3 mu         0.1   0.3 0.326 0.0431
 4 mu         0.1   0.4 0.312 0.0475
 5 mu         0.1   0.5 0.306 0.0611
 6 mu         0.2   0.1 0.335 0.0637
 7 mu         0.2   0.2 0.347 0.0396
 8 mu         0.2   0.3 0.365 0.0328
 9 mu         0.2   0.4 0.375 0.0355
10 mu         0.2   0.5 0.389 0.0448
# ℹ 350 more rows
…
