…
`.groups` argument.
`summarise()` has grouped output by 'theta'. You can override using the
`.groups` argument.
`summarise()` has grouped output by 'theta', 'tau'. You can override using the
`.groups` argument.
`summarise()` has grouped output by 'theta'. You can override using the
`.groups` argument.
`summarise()` has grouped output by 'theta', 'tau'. You can override using the
`.groups` argument.
`summarise()` has grouped output by 'theta'. You can override using the
`.groups` argument.
[1] ""
[1] "Total run time was 242.903 seconds"
[1] "Estimation result: "
# A tibble: 360 × 5
   estimand theta   tau   est     se
   <chr>    <dbl> <dbl> <dbl>  <dbl>
 1 mu         0.1   0.1 0.330 0.0647
 2 mu         0.1   0.2 0.370 0.0749
 3 mu         0.1   0.3 0.395 0.0655
 4 mu         0.1   0.4 0.406 0.0660
 5 mu         0.1   0.5 0.405 0.0684
 6 mu         0.2   0.1 0.359 0.0665
 7 mu         0.2   0.2 0.419 0.0751
 8 mu         0.2   0.3 0.442 0.0579
 9 mu         0.2   0.4 0.457 0.0521
10 mu         0.2   0.5 0.461 0.0522
# ℹ 350 more rows
…
