…
`.groups` argument.
`summarise()` has grouped output by 'theta'. You can override using the
`.groups` argument.
`summarise()` has grouped output by 'theta', 'tau'. You can override using the
`.groups` argument.
`summarise()` has grouped output by 'theta'. You can override using the
`.groups` argument.
`summarise()` has grouped output by 'theta', 'tau'. You can override using the
`.groups` argument.
`summarise()` has grouped output by 'theta'. You can override using the
`.groups` argument.
[1] ""
[1] "Total run time was 215.957 seconds"
[1] "Estimation result: "
# A tibble: 360 × 5
   estimand theta   tau   est     se
   <chr>    <dbl> <dbl> <dbl>  <dbl>
 1 mu         0.1   0.1 0.569 0.129 
 2 mu         0.1   0.2 0.614 0.116 
 3 mu         0.1   0.3 0.834 0.176 
 4 mu         0.1   0.4 0.902 0.181 
 5 mu         0.1   0.5 0.911 0.174 
 6 mu         0.2   0.1 0.480 0.0691
 7 mu         0.2   0.2 0.545 0.0647
 8 mu         0.2   0.3 0.692 0.0916
 9 mu         0.2   0.4 0.754 0.103 
10 mu         0.2   0.5 0.769 0.100 
# ℹ 350 more rows
…
