…
`.groups` argument.
`summarise()` has grouped output by 'theta'. You can override using the
`.groups` argument.
`summarise()` has grouped output by 'theta', 'tau'. You can override using the
`.groups` argument.
`summarise()` has grouped output by 'theta'. You can override using the
`.groups` argument.
`summarise()` has grouped output by 'theta', 'tau'. You can override using the
`.groups` argument.
`summarise()` has grouped output by 'theta'. You can override using the
`.groups` argument.
[1] ""
[1] "Total run time was 114.122 seconds"
[1] "Estimation result: "
# A tibble: 360 × 5
   estimand theta   tau   est     se
   <chr>    <dbl> <dbl> <dbl>  <dbl>
 1 mu         0.1   0.1 0.277 0.0693
 2 mu         0.1   0.2 0.363 0.0309
 3 mu         0.1   0.3 0.436 0.0685
 4 mu         0.1   0.4 0.440 0.0671
 5 mu         0.1   0.5 0.490 0.0942
 6 mu         0.2   0.1 0.286 0.0480
 7 mu         0.2   0.2 0.370 0.0287
 8 mu         0.2   0.3 0.469 0.0553
 9 mu         0.2   0.4 0.482 0.0529
10 mu         0.2   0.5 0.543 0.0712
# ℹ 350 more rows
…
