…
`.groups` argument.
`summarise()` has grouped output by 'theta'. You can override using the
`.groups` argument.
`summarise()` has grouped output by 'theta', 'tau'. You can override using the
`.groups` argument.
`summarise()` has grouped output by 'theta'. You can override using the
`.groups` argument.
`summarise()` has grouped output by 'theta', 'tau'. You can override using the
`.groups` argument.
`summarise()` has grouped output by 'theta'. You can override using the
`.groups` argument.
[1] ""
[1] "Total run time was 120.34 seconds"
[1] "Estimation result: "
# A tibble: 360 × 5
   estimand theta   tau   est     se
   <chr>    <dbl> <dbl> <dbl>  <dbl>
 1 mu         0.1   0.1 0.294 0.0448
 2 mu         0.1   0.2 0.309 0.0528
 3 mu         0.1   0.3 0.319 0.0572
 4 mu         0.1   0.4 0.412 0.0563
 5 mu         0.1   0.5 0.508 0.0971
 6 mu         0.2   0.1 0.336 0.0391
 7 mu         0.2   0.2 0.378 0.0448
 8 mu         0.2   0.3 0.397 0.0408
 9 mu         0.2   0.4 0.452 0.0524
10 mu         0.2   0.5 0.488 0.0689
# ℹ 350 more rows
…
