…
`.groups` argument.
`summarise()` has grouped output by 'theta'. You can override using the
`.groups` argument.
`summarise()` has grouped output by 'theta', 'tau'. You can override using the
`.groups` argument.
`summarise()` has grouped output by 'theta'. You can override using the
`.groups` argument.
`summarise()` has grouped output by 'theta', 'tau'. You can override using the
`.groups` argument.
`summarise()` has grouped output by 'theta'. You can override using the
`.groups` argument.
[1] ""
[1] "Total run time was 177.09 seconds"
[1] "Estimation result: "
# A tibble: 360 × 5
   estimand theta   tau   est     se
   <chr>    <dbl> <dbl> <dbl>  <dbl>
 1 mu         0.1   0.1 0.299 0.0541
 2 mu         0.1   0.2 0.339 0.0811
 3 mu         0.1   0.3 0.369 0.0977
 4 mu         0.1   0.4 0.469 0.0675
 5 mu         0.1   0.5 0.536 0.0923
 6 mu         0.2   0.1 0.285 0.0408
 7 mu         0.2   0.2 0.334 0.0616
 8 mu         0.2   0.3 0.385 0.0755
 9 mu         0.2   0.4 0.474 0.0485
10 mu         0.2   0.5 0.540 0.0656
# ℹ 350 more rows
…
