…
`.groups` argument.
`summarise()` has grouped output by 'theta'. You can override using the
`.groups` argument.
`summarise()` has grouped output by 'theta', 'tau'. You can override using the
`.groups` argument.
`summarise()` has grouped output by 'theta'. You can override using the
`.groups` argument.
`summarise()` has grouped output by 'theta', 'tau'. You can override using the
`.groups` argument.
`summarise()` has grouped output by 'theta'. You can override using the
`.groups` argument.
[1] ""
[1] "Total run time was 126.726 seconds"
[1] "Estimation result: "
# A tibble: 360 × 5
   estimand theta   tau   est     se
   <chr>    <dbl> <dbl> <dbl>  <dbl>
 1 mu         0.1   0.1 0.401 0.0967
 2 mu         0.1   0.2 0.411 0.0850
 3 mu         0.1   0.3 0.417 0.0825
 4 mu         0.1   0.4 0.428 0.0842
 5 mu         0.1   0.5 0.443 0.0818
 6 mu         0.2   0.1 0.427 0.0901
 7 mu         0.2   0.2 0.449 0.0774
 8 mu         0.2   0.3 0.463 0.0740
 9 mu         0.2   0.4 0.481 0.0742
10 mu         0.2   0.5 0.514 0.0702
# ℹ 350 more rows
…
