…
`.groups` argument.
`summarise()` has grouped output by 'theta'. You can override using the
`.groups` argument.
`summarise()` has grouped output by 'theta', 'tau'. You can override using the
`.groups` argument.
`summarise()` has grouped output by 'theta'. You can override using the
`.groups` argument.
`summarise()` has grouped output by 'theta', 'tau'. You can override using the
`.groups` argument.
`summarise()` has grouped output by 'theta'. You can override using the
`.groups` argument.
[1] ""
[1] "Total run time was 115.311 seconds"
[1] "Estimation result: "
# A tibble: 360 × 5
   estimand theta   tau   est     se
   <chr>    <dbl> <dbl> <dbl>  <dbl>
 1 mu         0.1   0.1 0.319 0.0456
 2 mu         0.1   0.2 0.347 0.0598
 3 mu         0.1   0.3 0.452 0.0437
 4 mu         0.1   0.4 0.449 0.0356
 5 mu         0.1   0.5 0.489 0.0459
 6 mu         0.2   0.1 0.341 0.0432
 7 mu         0.2   0.2 0.381 0.0522
 8 mu         0.2   0.3 0.477 0.0413
 9 mu         0.2   0.4 0.494 0.0337
10 mu         0.2   0.5 0.532 0.0394
# ℹ 350 more rows
…
