…
`.groups` argument.
`summarise()` has grouped output by 'theta'. You can override using the
`.groups` argument.
`summarise()` has grouped output by 'theta', 'tau'. You can override using the
`.groups` argument.
`summarise()` has grouped output by 'theta'. You can override using the
`.groups` argument.
`summarise()` has grouped output by 'theta', 'tau'. You can override using the
`.groups` argument.
`summarise()` has grouped output by 'theta'. You can override using the
`.groups` argument.
[1] ""
[1] "Total run time was 157.253 seconds"
[1] "Estimation result: "
# A tibble: 360 × 5
   estimand theta   tau   est     se
   <chr>    <dbl> <dbl> <dbl>  <dbl>
 1 mu         0.1   0.1 0.647 0.218 
 2 mu         0.1   0.2 0.863 0.296 
 3 mu         0.1   0.3 0.972 0.338 
 4 mu         0.1   0.4 1.06  0.367 
 5 mu         0.1   0.5 1.13  0.395 
 6 mu         0.2   0.1 0.492 0.0980
 7 mu         0.2   0.2 0.655 0.130 
 8 mu         0.2   0.3 0.739 0.159 
 9 mu         0.2   0.4 0.821 0.189 
10 mu         0.2   0.5 0.873 0.182 
# ℹ 350 more rows
…
