…
`.groups` argument.
`summarise()` has grouped output by 'theta'. You can override using the
`.groups` argument.
`summarise()` has grouped output by 'theta', 'tau'. You can override using the
`.groups` argument.
`summarise()` has grouped output by 'theta'. You can override using the
`.groups` argument.
`summarise()` has grouped output by 'theta', 'tau'. You can override using the
`.groups` argument.
`summarise()` has grouped output by 'theta'. You can override using the
`.groups` argument.
[1] ""
[1] "Total run time was 127.976 seconds"
[1] "Estimation result: "
# A tibble: 360 × 5
   estimand theta   tau   est     se
   <chr>    <dbl> <dbl> <dbl>  <dbl>
 1 mu         0.1   0.1 0.340 0.0873
 2 mu         0.1   0.2 0.368 0.119 
 3 mu         0.1   0.3 0.483 0.0853
 4 mu         0.1   0.4 0.516 0.112 
 5 mu         0.1   0.5 0.525 0.123 
 6 mu         0.2   0.1 0.319 0.0677
 7 mu         0.2   0.2 0.348 0.0901
 8 mu         0.2   0.3 0.444 0.0663
 9 mu         0.2   0.4 0.486 0.0934
10 mu         0.2   0.5 0.514 0.0992
# ℹ 350 more rows
…
