…
`.groups` argument.
`summarise()` has grouped output by 'theta'. You can override using the
`.groups` argument.
`summarise()` has grouped output by 'theta', 'tau'. You can override using the
`.groups` argument.
`summarise()` has grouped output by 'theta'. You can override using the
`.groups` argument.
`summarise()` has grouped output by 'theta', 'tau'. You can override using the
`.groups` argument.
`summarise()` has grouped output by 'theta'. You can override using the
`.groups` argument.
[1] ""
[1] "Total run time was 142.473 seconds"
[1] "Estimation result: "
# A tibble: 360 × 5
   estimand theta   tau   est     se
   <chr>    <dbl> <dbl> <dbl>  <dbl>
 1 mu         0.1   0.1 0.323 0.0609
 2 mu         0.1   0.2 0.404 0.0627
 3 mu         0.1   0.3 0.564 0.126 
 4 mu         0.1   0.4 0.587 0.121 
 5 mu         0.1   0.5 0.607 0.120 
 6 mu         0.2   0.1 0.278 0.0441
 7 mu         0.2   0.2 0.366 0.0403
 8 mu         0.2   0.3 0.486 0.0904
 9 mu         0.2   0.4 0.513 0.0875
10 mu         0.2   0.5 0.548 0.0856
# ℹ 350 more rows
…
