…
`.groups` argument.
`summarise()` has grouped output by 'theta'. You can override using the
`.groups` argument.
`summarise()` has grouped output by 'theta', 'tau'. You can override using the
`.groups` argument.
`summarise()` has grouped output by 'theta'. You can override using the
`.groups` argument.
`summarise()` has grouped output by 'theta', 'tau'. You can override using the
`.groups` argument.
`summarise()` has grouped output by 'theta'. You can override using the
`.groups` argument.
[1] ""
[1] "Total run time was 113.157 seconds"
[1] "Estimation result: "
# A tibble: 360 × 5
   estimand theta   tau   est     se
   <chr>    <dbl> <dbl> <dbl>  <dbl>
 1 mu         0.1   0.1 0.516 0.0850
 2 mu         0.1   0.2 0.580 0.0884
 3 mu         0.1   0.3 0.632 0.0888
 4 mu         0.1   0.4 0.661 0.0787
 5 mu         0.1   0.5 0.663 0.0764
 6 mu         0.2   0.1 0.412 0.0514
 7 mu         0.2   0.2 0.489 0.0532
 8 mu         0.2   0.3 0.539 0.0532
 9 mu         0.2   0.4 0.585 0.0467
10 mu         0.2   0.5 0.595 0.0456
# ℹ 350 more rows
…
