…
`.groups` argument.
`summarise()` has grouped output by 'theta'. You can override using the
`.groups` argument.
`summarise()` has grouped output by 'theta', 'tau'. You can override using the
`.groups` argument.
`summarise()` has grouped output by 'theta'. You can override using the
`.groups` argument.
`summarise()` has grouped output by 'theta', 'tau'. You can override using the
`.groups` argument.
`summarise()` has grouped output by 'theta'. You can override using the
`.groups` argument.
[1] ""
[1] "Total run time was 149.08 seconds"
[1] "Estimation result: "
# A tibble: 360 × 5
   estimand theta   tau   est     se
   <chr>    <dbl> <dbl> <dbl>  <dbl>
 1 mu         0.1   0.1 0.408 0.0970
 2 mu         0.1   0.2 0.542 0.121 
 3 mu         0.1   0.3 0.649 0.155 
 4 mu         0.1   0.4 0.677 0.158 
 5 mu         0.1   0.5 0.692 0.159 
 6 mu         0.2   0.1 0.332 0.0304
 7 mu         0.2   0.2 0.436 0.0450
 8 mu         0.2   0.3 0.509 0.0578
 9 mu         0.2   0.4 0.540 0.0532
10 mu         0.2   0.5 0.554 0.0517
# ℹ 350 more rows
…
