…
`.groups` argument.
`summarise()` has grouped output by 'theta'. You can override using the
`.groups` argument.
`summarise()` has grouped output by 'theta', 'tau'. You can override using the
`.groups` argument.
`summarise()` has grouped output by 'theta'. You can override using the
`.groups` argument.
`summarise()` has grouped output by 'theta', 'tau'. You can override using the
`.groups` argument.
`summarise()` has grouped output by 'theta'. You can override using the
`.groups` argument.
[1] ""
[1] "Total run time was 126.396 seconds"
[1] "Estimation result: "
# A tibble: 360 × 5
   estimand theta   tau   est     se
   <chr>    <dbl> <dbl> <dbl>  <dbl>
 1 mu         0.1   0.1 0.401 0.0603
 2 mu         0.1   0.2 0.465 0.0671
 3 mu         0.1   0.3 0.505 0.0572
 4 mu         0.1   0.4 0.540 0.0824
 5 mu         0.1   0.5 0.559 0.0778
 6 mu         0.2   0.1 0.352 0.0397
 7 mu         0.2   0.2 0.422 0.0445
 8 mu         0.2   0.3 0.465 0.0397
 9 mu         0.2   0.4 0.512 0.0533
10 mu         0.2   0.5 0.532 0.0478
# ℹ 350 more rows
…
