…
`.groups` argument.
`summarise()` has grouped output by 'theta'. You can override using the
`.groups` argument.
`summarise()` has grouped output by 'theta', 'tau'. You can override using the
`.groups` argument.
`summarise()` has grouped output by 'theta'. You can override using the
`.groups` argument.
`summarise()` has grouped output by 'theta', 'tau'. You can override using the
`.groups` argument.
`summarise()` has grouped output by 'theta'. You can override using the
`.groups` argument.
[1] ""
[1] "Total run time was 274.081 seconds"
[1] "Estimation result: "
# A tibble: 360 × 5
   estimand theta   tau   est     se
   <chr>    <dbl> <dbl> <dbl>  <dbl>
 1 mu         0.1   0.1 0.408 0.146 
 2 mu         0.1   0.2 0.399 0.124 
 3 mu         0.1   0.3 0.389 0.133 
 4 mu         0.1   0.4 0.412 0.148 
 5 mu         0.1   0.5 0.425 0.159 
 6 mu         0.2   0.1 0.379 0.104 
 7 mu         0.2   0.2 0.419 0.0749
 8 mu         0.2   0.3 0.438 0.0718
 9 mu         0.2   0.4 0.488 0.0773
10 mu         0.2   0.5 0.518 0.0831
# ℹ 350 more rows
…
