…
`.groups` argument.
`summarise()` has grouped output by 'theta'. You can override using the
`.groups` argument.
`summarise()` has grouped output by 'theta', 'tau'. You can override using the
`.groups` argument.
`summarise()` has grouped output by 'theta'. You can override using the
`.groups` argument.
`summarise()` has grouped output by 'theta', 'tau'. You can override using the
`.groups` argument.
`summarise()` has grouped output by 'theta'. You can override using the
`.groups` argument.
[1] ""
[1] "Total run time was 117.335 seconds"
[1] "Estimation result: "
# A tibble: 360 × 5
   estimand theta   tau   est     se
   <chr>    <dbl> <dbl> <dbl>  <dbl>
 1 mu         0.1   0.1 0.468 0.109 
 2 mu         0.1   0.2 0.492 0.0936
 3 mu         0.1   0.3 0.497 0.0862
 4 mu         0.1   0.4 0.512 0.0815
 5 mu         0.1   0.5 0.530 0.0796
 6 mu         0.2   0.1 0.391 0.0516
 7 mu         0.2   0.2 0.473 0.0586
 8 mu         0.2   0.3 0.486 0.0542
 9 mu         0.2   0.4 0.527 0.0653
10 mu         0.2   0.5 0.547 0.0624
# ℹ 350 more rows
…
