…
`.groups` argument.
`summarise()` has grouped output by 'theta'. You can override using the
`.groups` argument.
`summarise()` has grouped output by 'theta', 'tau'. You can override using the
`.groups` argument.
`summarise()` has grouped output by 'theta'. You can override using the
`.groups` argument.
`summarise()` has grouped output by 'theta', 'tau'. You can override using the
`.groups` argument.
`summarise()` has grouped output by 'theta'. You can override using the
`.groups` argument.
[1] ""
[1] "Total run time was 127.824 seconds"
[1] "Estimation result: "
# A tibble: 360 × 5
   estimand theta   tau   est     se
   <chr>    <dbl> <dbl> <dbl>  <dbl>
 1 mu         0.1   0.1 0.444 0.0765
 2 mu         0.1   0.2 0.538 0.0920
 3 mu         0.1   0.3 0.550 0.0849
 4 mu         0.1   0.4 0.559 0.0807
 5 mu         0.1   0.5 0.572 0.0806
 6 mu         0.2   0.1 0.424 0.0620
 7 mu         0.2   0.2 0.528 0.0712
 8 mu         0.2   0.3 0.554 0.0618
 9 mu         0.2   0.4 0.568 0.0566
10 mu         0.2   0.5 0.587 0.0544
# ℹ 350 more rows
…
