…
`.groups` argument.
`summarise()` has grouped output by 'theta'. You can override using the
`.groups` argument.
`summarise()` has grouped output by 'theta', 'tau'. You can override using the
`.groups` argument.
`summarise()` has grouped output by 'theta'. You can override using the
`.groups` argument.
`summarise()` has grouped output by 'theta', 'tau'. You can override using the
`.groups` argument.
`summarise()` has grouped output by 'theta'. You can override using the
`.groups` argument.
[1] ""
[1] "Total run time was 134.867 seconds"
[1] "Estimation result: "
# A tibble: 360 × 5
   estimand theta   tau   est     se
   <chr>    <dbl> <dbl> <dbl>  <dbl>
 1 mu         0.1   0.1 0.471 0.0731
 2 mu         0.1   0.2 0.521 0.0639
 3 mu         0.1   0.3 0.616 0.0800
 4 mu         0.1   0.4 0.639 0.0799
 5 mu         0.1   0.5 0.642 0.0750
 6 mu         0.2   0.1 0.375 0.0427
 7 mu         0.2   0.2 0.442 0.0406
 8 mu         0.2   0.3 0.515 0.0516
 9 mu         0.2   0.4 0.542 0.0538
10 mu         0.2   0.5 0.554 0.0521
# ℹ 350 more rows
…
