…
`.groups` argument.
`summarise()` has grouped output by 'theta'. You can override using the
`.groups` argument.
`summarise()` has grouped output by 'theta', 'tau'. You can override using the
`.groups` argument.
`summarise()` has grouped output by 'theta'. You can override using the
`.groups` argument.
`summarise()` has grouped output by 'theta', 'tau'. You can override using the
`.groups` argument.
`summarise()` has grouped output by 'theta'. You can override using the
`.groups` argument.
[1] ""
[1] "Total run time was 130.12 seconds"
[1] "Estimation result: "
# A tibble: 360 × 5
   estimand theta   tau   est     se
   <chr>    <dbl> <dbl> <dbl>  <dbl>
 1 mu         0.1   0.1 0.520 0.0902
 2 mu         0.1   0.2 0.580 0.0981
 3 mu         0.1   0.3 0.684 0.115 
 4 mu         0.1   0.4 0.750 0.111 
 5 mu         0.1   0.5 0.760 0.110 
 6 mu         0.2   0.1 0.420 0.0532
 7 mu         0.2   0.2 0.472 0.0591
 8 mu         0.2   0.3 0.560 0.0724
 9 mu         0.2   0.4 0.642 0.0587
10 mu         0.2   0.5 0.666 0.0561
# ℹ 350 more rows
…
