…
`.groups` argument.
`summarise()` has grouped output by 'theta'. You can override using the
`.groups` argument.
`summarise()` has grouped output by 'theta', 'tau'. You can override using the
`.groups` argument.
`summarise()` has grouped output by 'theta'. You can override using the
`.groups` argument.
`summarise()` has grouped output by 'theta', 'tau'. You can override using the
`.groups` argument.
`summarise()` has grouped output by 'theta'. You can override using the
`.groups` argument.
[1] ""
[1] "Total run time was 164.514 seconds"
[1] "Estimation result: "
# A tibble: 360 × 5
   estimand theta   tau   est     se
   <chr>    <dbl> <dbl> <dbl>  <dbl>
 1 mu         0.1   0.1 0.414 0.0825
 2 mu         0.1   0.2 0.504 0.0833
 3 mu         0.1   0.3 0.518 0.0837
 4 mu         0.1   0.4 0.533 0.0845
 5 mu         0.1   0.5 0.596 0.0874
 6 mu         0.2   0.1 0.371 0.0558
 7 mu         0.2   0.2 0.476 0.0482
 8 mu         0.2   0.3 0.491 0.0471
 9 mu         0.2   0.4 0.523 0.0475
10 mu         0.2   0.5 0.597 0.0466
# ℹ 350 more rows
…
