…
`.groups` argument.
`summarise()` has grouped output by 'theta'. You can override using the
`.groups` argument.
`summarise()` has grouped output by 'theta', 'tau'. You can override using the
`.groups` argument.
`summarise()` has grouped output by 'theta'. You can override using the
`.groups` argument.
`summarise()` has grouped output by 'theta', 'tau'. You can override using the
`.groups` argument.
`summarise()` has grouped output by 'theta'. You can override using the
`.groups` argument.
[1] ""
[1] "Total run time was 175.229 seconds"
[1] "Estimation result: "
# A tibble: 360 × 5
   estimand theta   tau   est     se
   <chr>    <dbl> <dbl> <dbl>  <dbl>
 1 mu         0.1   0.1 0.467 0.168 
 2 mu         0.1   0.2 0.675 0.172 
 3 mu         0.1   0.3 0.696 0.180 
 4 mu         0.1   0.4 0.753 0.196 
 5 mu         0.1   0.5 0.851 0.193 
 6 mu         0.2   0.1 0.303 0.0988
 7 mu         0.2   0.2 0.469 0.0748
 8 mu         0.2   0.3 0.497 0.0742
 9 mu         0.2   0.4 0.542 0.0865
10 mu         0.2   0.5 0.631 0.0704
# ℹ 350 more rows
…
