…
`.groups` argument.
`summarise()` has grouped output by 'theta'. You can override using the
`.groups` argument.
`summarise()` has grouped output by 'theta', 'tau'. You can override using the
`.groups` argument.
`summarise()` has grouped output by 'theta'. You can override using the
`.groups` argument.
`summarise()` has grouped output by 'theta', 'tau'. You can override using the
`.groups` argument.
`summarise()` has grouped output by 'theta'. You can override using the
`.groups` argument.
[1] ""
[1] "Total run time was 122.366 seconds"
[1] "Estimation result: "
# A tibble: 360 × 5
   estimand theta   tau   est     se
   <chr>    <dbl> <dbl> <dbl>  <dbl>
 1 mu         0.1   0.1 0.233 0.147 
 2 mu         0.1   0.2 0.366 0.170 
 3 mu         0.1   0.3 0.408 0.213 
 4 mu         0.1   0.4 0.491 0.220 
 5 mu         0.1   0.5 0.488 0.235 
 6 mu         0.2   0.1 0.222 0.103 
 7 mu         0.2   0.2 0.337 0.0737
 8 mu         0.2   0.3 0.389 0.0984
 9 mu         0.2   0.4 0.483 0.0885
10 mu         0.2   0.5 0.499 0.109 
# ℹ 350 more rows
…
