…
`.groups` argument.
`summarise()` has grouped output by 'theta'. You can override using the
`.groups` argument.
`summarise()` has grouped output by 'theta', 'tau'. You can override using the
`.groups` argument.
`summarise()` has grouped output by 'theta'. You can override using the
`.groups` argument.
`summarise()` has grouped output by 'theta', 'tau'. You can override using the
`.groups` argument.
`summarise()` has grouped output by 'theta'. You can override using the
`.groups` argument.
[1] ""
[1] "Total run time was 232.524 seconds"
[1] "Estimation result: "
# A tibble: 360 × 5
   estimand theta   tau   est     se
   <chr>    <dbl> <dbl> <dbl>  <dbl>
 1 mu         0.1   0.1 0.329 0.0588
 2 mu         0.1   0.2 0.355 0.0600
 3 mu         0.1   0.3 0.408 0.0625
 4 mu         0.1   0.4 0.438 0.0705
 5 mu         0.1   0.5 0.489 0.0688
 6 mu         0.2   0.1 0.355 0.0506
 7 mu         0.2   0.2 0.444 0.0595
 8 mu         0.2   0.3 0.500 0.0652
 9 mu         0.2   0.4 0.545 0.0651
10 mu         0.2   0.5 0.589 0.0762
# ℹ 350 more rows
…
