…
`.groups` argument.
`summarise()` has grouped output by 'theta'. You can override using the
`.groups` argument.
`summarise()` has grouped output by 'theta', 'tau'. You can override using the
`.groups` argument.
`summarise()` has grouped output by 'theta'. You can override using the
`.groups` argument.
`summarise()` has grouped output by 'theta', 'tau'. You can override using the
`.groups` argument.
`summarise()` has grouped output by 'theta'. You can override using the
`.groups` argument.
[1] ""
[1] "Total run time was 199.099 seconds"
[1] "Estimation result: "
# A tibble: 360 × 5
   estimand theta   tau   est     se
   <chr>    <dbl> <dbl> <dbl>  <dbl>
 1 mu         0.1   0.1 0.461 0.0940
 2 mu         0.1   0.2 0.540 0.102 
 3 mu         0.1   0.3 0.630 0.123 
 4 mu         0.1   0.4 0.652 0.111 
 5 mu         0.1   0.5 0.655 0.100 
 6 mu         0.2   0.1 0.411 0.0548
 7 mu         0.2   0.2 0.493 0.0640
 8 mu         0.2   0.3 0.592 0.0995
 9 mu         0.2   0.4 0.609 0.0788
10 mu         0.2   0.5 0.617 0.0693
# ℹ 350 more rows
…
