…
`.groups` argument.
`summarise()` has grouped output by 'theta'. You can override using the
`.groups` argument.
`summarise()` has grouped output by 'theta', 'tau'. You can override using the
`.groups` argument.
`summarise()` has grouped output by 'theta'. You can override using the
`.groups` argument.
`summarise()` has grouped output by 'theta', 'tau'. You can override using the
`.groups` argument.
`summarise()` has grouped output by 'theta'. You can override using the
`.groups` argument.
[1] ""
[1] "Total run time was 235.209 seconds"
[1] "Estimation result: "
# A tibble: 360 × 5
   estimand theta   tau   est     se
   <chr>    <dbl> <dbl> <dbl>  <dbl>
 1 mu         0.1   0.1 0.529 0.242 
 2 mu         0.1   0.2 0.563 0.282 
 3 mu         0.1   0.3 0.731 0.335 
 4 mu         0.1   0.4 0.732 0.347 
 5 mu         0.1   0.5 0.758 0.362 
 6 mu         0.2   0.1 0.444 0.0670
 7 mu         0.2   0.2 0.477 0.0473
 8 mu         0.2   0.3 0.592 0.0822
 9 mu         0.2   0.4 0.600 0.0722
10 mu         0.2   0.5 0.636 0.0733
# ℹ 350 more rows
…
