…
`.groups` argument.
`summarise()` has grouped output by 'theta'. You can override using the
`.groups` argument.
`summarise()` has grouped output by 'theta', 'tau'. You can override using the
`.groups` argument.
`summarise()` has grouped output by 'theta'. You can override using the
`.groups` argument.
`summarise()` has grouped output by 'theta', 'tau'. You can override using the
`.groups` argument.
`summarise()` has grouped output by 'theta'. You can override using the
`.groups` argument.
[1] ""
[1] "Total run time was 180.396 seconds"
[1] "Estimation result: "
# A tibble: 360 × 5
   estimand theta   tau   est     se
   <chr>    <dbl> <dbl> <dbl>  <dbl>
 1 mu         0.1   0.1 0.424 0.104 
 2 mu         0.1   0.2 0.514 0.135 
 3 mu         0.1   0.3 0.574 0.150 
 4 mu         0.1   0.4 0.592 0.167 
 5 mu         0.1   0.5 0.637 0.181 
 6 mu         0.2   0.1 0.311 0.0346
 7 mu         0.2   0.2 0.399 0.0346
 8 mu         0.2   0.3 0.460 0.0380
 9 mu         0.2   0.4 0.462 0.0398
10 mu         0.2   0.5 0.491 0.0465
# ℹ 350 more rows
…
