…
`.groups` argument.
`summarise()` has grouped output by 'theta'. You can override using the
`.groups` argument.
`summarise()` has grouped output by 'theta', 'tau'. You can override using the
`.groups` argument.
`summarise()` has grouped output by 'theta'. You can override using the
`.groups` argument.
`summarise()` has grouped output by 'theta', 'tau'. You can override using the
`.groups` argument.
`summarise()` has grouped output by 'theta'. You can override using the
`.groups` argument.
[1] ""
[1] "Total run time was 113.455 seconds"
[1] "Estimation result: "
# A tibble: 360 × 5
   estimand theta   tau   est     se
   <chr>    <dbl> <dbl> <dbl>  <dbl>
 1 mu         0.1   0.1 0.614 0.112 
 2 mu         0.1   0.2 0.753 0.122 
 3 mu         0.1   0.3 0.867 0.139 
 4 mu         0.1   0.4 0.919 0.145 
 5 mu         0.1   0.5 0.985 0.152 
 6 mu         0.2   0.1 0.484 0.0632
 7 mu         0.2   0.2 0.600 0.0657
 8 mu         0.2   0.3 0.691 0.0757
 9 mu         0.2   0.4 0.744 0.0774
10 mu         0.2   0.5 0.806 0.0790
# ℹ 350 more rows
…
