…
`.groups` argument.
`summarise()` has grouped output by 'theta'. You can override using the
`.groups` argument.
`summarise()` has grouped output by 'theta', 'tau'. You can override using the
`.groups` argument.
`summarise()` has grouped output by 'theta'. You can override using the
`.groups` argument.
`summarise()` has grouped output by 'theta', 'tau'. You can override using the
`.groups` argument.
`summarise()` has grouped output by 'theta'. You can override using the
`.groups` argument.
[1] ""
[1] "Total run time was 239.155 seconds"
[1] "Estimation result: "
# A tibble: 360 × 5
   estimand theta   tau   est     se
   <chr>    <dbl> <dbl> <dbl>  <dbl>
 1 mu         0.1   0.1 0.479 0.106 
 2 mu         0.1   0.2 0.550 0.103 
 3 mu         0.1   0.3 0.615 0.114 
 4 mu         0.1   0.4 0.680 0.124 
 5 mu         0.1   0.5 0.676 0.123 
 6 mu         0.2   0.1 0.388 0.0560
 7 mu         0.2   0.2 0.472 0.0388
 8 mu         0.2   0.3 0.537 0.0422
 9 mu         0.2   0.4 0.594 0.0508
10 mu         0.2   0.5 0.597 0.0442
# ℹ 350 more rows
…
