…
`.groups` argument.
`summarise()` has grouped output by 'theta'. You can override using the
`.groups` argument.
`summarise()` has grouped output by 'theta', 'tau'. You can override using the
`.groups` argument.
`summarise()` has grouped output by 'theta'. You can override using the
`.groups` argument.
`summarise()` has grouped output by 'theta', 'tau'. You can override using the
`.groups` argument.
`summarise()` has grouped output by 'theta'. You can override using the
`.groups` argument.
[1] ""
[1] "Total run time was 263.885 seconds"
[1] "Estimation result: "
# A tibble: 360 × 5
   estimand theta   tau   est     se
   <chr>    <dbl> <dbl> <dbl>  <dbl>
 1 mu         0.1   0.1 0.317 0.0840
 2 mu         0.1   0.2 0.394 0.0801
 3 mu         0.1   0.3 0.451 0.106 
 4 mu         0.1   0.4 0.453 0.0917
 5 mu         0.1   0.5 0.511 0.125 
 6 mu         0.2   0.1 0.366 0.0661
 7 mu         0.2   0.2 0.472 0.0629
 8 mu         0.2   0.3 0.534 0.0809
 9 mu         0.2   0.4 0.548 0.0652
10 mu         0.2   0.5 0.602 0.0934
# ℹ 350 more rows
…
