…
`.groups` argument.
`summarise()` has grouped output by 'theta'. You can override using the
`.groups` argument.
`summarise()` has grouped output by 'theta', 'tau'. You can override using the
`.groups` argument.
`summarise()` has grouped output by 'theta'. You can override using the
`.groups` argument.
`summarise()` has grouped output by 'theta', 'tau'. You can override using the
`.groups` argument.
`summarise()` has grouped output by 'theta'. You can override using the
`.groups` argument.
[1] ""
[1] "Total run time was 112.275 seconds"
[1] "Estimation result: "
# A tibble: 360 × 5
   estimand theta   tau   est     se
   <chr>    <dbl> <dbl> <dbl>  <dbl>
 1 mu         0.1   0.1 0.371 0.0683
 2 mu         0.1   0.2 0.472 0.0770
 3 mu         0.1   0.3 0.552 0.0978
 4 mu         0.1   0.4 0.560 0.0946
 5 mu         0.1   0.5 0.578 0.0926
 6 mu         0.2   0.1 0.367 0.0347
 7 mu         0.2   0.2 0.477 0.0364
 8 mu         0.2   0.3 0.555 0.0470
 9 mu         0.2   0.4 0.573 0.0427
10 mu         0.2   0.5 0.598 0.0368
# ℹ 350 more rows
…
