…
`.groups` argument.
`summarise()` has grouped output by 'theta'. You can override using the
`.groups` argument.
`summarise()` has grouped output by 'theta', 'tau'. You can override using the
`.groups` argument.
`summarise()` has grouped output by 'theta'. You can override using the
`.groups` argument.
`summarise()` has grouped output by 'theta', 'tau'. You can override using the
`.groups` argument.
`summarise()` has grouped output by 'theta'. You can override using the
`.groups` argument.
[1] ""
[1] "Total run time was 320.043 seconds"
[1] "Estimation result: "
# A tibble: 360 × 5
   estimand theta   tau   est    se
   <chr>    <dbl> <dbl> <dbl> <dbl>
 1 mu         0.1   0.1 0.542 0.154
 2 mu         0.1   0.2 0.634 0.164
 3 mu         0.1   0.3 0.731 0.187
 4 mu         0.1   0.4 0.750 0.172
 5 mu         0.1   0.5 0.780 0.168
 6 mu         0.2   0.1 0.442 0.109
 7 mu         0.2   0.2 0.520 0.102
 8 mu         0.2   0.3 0.628 0.136
 9 mu         0.2   0.4 0.653 0.123
10 mu         0.2   0.5 0.687 0.124
# ℹ 350 more rows
…
