…
`.groups` argument.
`summarise()` has grouped output by 'theta'. You can override using the
`.groups` argument.
`summarise()` has grouped output by 'theta', 'tau'. You can override using the
`.groups` argument.
`summarise()` has grouped output by 'theta'. You can override using the
`.groups` argument.
`summarise()` has grouped output by 'theta', 'tau'. You can override using the
`.groups` argument.
`summarise()` has grouped output by 'theta'. You can override using the
`.groups` argument.
[1] ""
[1] "Total run time was 445.398 seconds"
[1] "Estimation result: "
# A tibble: 360 × 5
   estimand theta   tau   est     se
   <chr>    <dbl> <dbl> <dbl>  <dbl>
 1 mu         0.1   0.1 0.430 0.0613
 2 mu         0.1   0.2 0.546 0.0759
 3 mu         0.1   0.3 0.649 0.0881
 4 mu         0.1   0.4 0.668 0.0924
 5 mu         0.1   0.5 0.683 0.104 
 6 mu         0.2   0.1 0.380 0.0221
 7 mu         0.2   0.2 0.507 0.0402
 8 mu         0.2   0.3 0.594 0.0422
 9 mu         0.2   0.4 0.615 0.0420
10 mu         0.2   0.5 0.632 0.0411
# ℹ 350 more rows
…
