…
`.groups` argument.
`summarise()` has grouped output by 'theta'. You can override using the
`.groups` argument.
`summarise()` has grouped output by 'theta', 'tau'. You can override using the
`.groups` argument.
`summarise()` has grouped output by 'theta'. You can override using the
`.groups` argument.
`summarise()` has grouped output by 'theta', 'tau'. You can override using the
`.groups` argument.
`summarise()` has grouped output by 'theta'. You can override using the
`.groups` argument.
[1] ""
[1] "Total run time was 221.123 seconds"
[1] "Estimation result: "
# A tibble: 360 × 5
   estimand theta   tau   est     se
   <chr>    <dbl> <dbl> <dbl>  <dbl>
 1 mu         0.1   0.1 0.380 0.0352
 2 mu         0.1   0.2 0.482 0.0619
 3 mu         0.1   0.3 0.518 0.0880
 4 mu         0.1   0.4 0.567 0.0955
 5 mu         0.1   0.5 0.616 0.121 
 6 mu         0.2   0.1 0.448 0.0610
 7 mu         0.2   0.2 0.536 0.0585
 8 mu         0.2   0.3 0.556 0.0460
 9 mu         0.2   0.4 0.605 0.0507
10 mu         0.2   0.5 0.662 0.0636
# ℹ 350 more rows
…
