…
`.groups` argument.
`summarise()` has grouped output by 'theta'. You can override using the
`.groups` argument.
`summarise()` has grouped output by 'theta', 'tau'. You can override using the
`.groups` argument.
`summarise()` has grouped output by 'theta'. You can override using the
`.groups` argument.
`summarise()` has grouped output by 'theta', 'tau'. You can override using the
`.groups` argument.
`summarise()` has grouped output by 'theta'. You can override using the
`.groups` argument.
[1] ""
[1] "Total run time was 196.214 seconds"
[1] "Estimation result: "
# A tibble: 360 × 5
   estimand theta   tau   est     se
   <chr>    <dbl> <dbl> <dbl>  <dbl>
 1 mu         0.1   0.1 0.302 0.0727
 2 mu         0.1   0.2 0.424 0.0842
 3 mu         0.1   0.3 0.492 0.0797
 4 mu         0.1   0.4 0.499 0.101 
 5 mu         0.1   0.5 0.582 0.109 
 6 mu         0.2   0.1 0.348 0.0528
 7 mu         0.2   0.2 0.440 0.0531
 8 mu         0.2   0.3 0.508 0.0379
 9 mu         0.2   0.4 0.557 0.0642
10 mu         0.2   0.5 0.621 0.0677
# ℹ 350 more rows
…
