…
`.groups` argument.
`summarise()` has grouped output by 'theta'. You can override using the
`.groups` argument.
`summarise()` has grouped output by 'theta', 'tau'. You can override using the
`.groups` argument.
`summarise()` has grouped output by 'theta'. You can override using the
`.groups` argument.
`summarise()` has grouped output by 'theta', 'tau'. You can override using the
`.groups` argument.
`summarise()` has grouped output by 'theta'. You can override using the
`.groups` argument.
[1] ""
[1] "Total run time was 237.633 seconds"
[1] "Estimation result: "
# A tibble: 360 × 5
   estimand theta   tau   est     se
   <chr>    <dbl> <dbl> <dbl>  <dbl>
 1 mu         0.1   0.1 0.359 0.0720
 2 mu         0.1   0.2 0.441 0.104 
 3 mu         0.1   0.3 0.436 0.125 
 4 mu         0.1   0.4 0.533 0.0898
 5 mu         0.1   0.5 0.549 0.104 
 6 mu         0.2   0.1 0.342 0.0515
 7 mu         0.2   0.2 0.416 0.0672
 8 mu         0.2   0.3 0.441 0.0956
 9 mu         0.2   0.4 0.565 0.0717
10 mu         0.2   0.5 0.603 0.0915
# ℹ 350 more rows
…
