…
`.groups` argument.
`summarise()` has grouped output by 'theta'. You can override using the
`.groups` argument.
`summarise()` has grouped output by 'theta', 'tau'. You can override using the
`.groups` argument.
`summarise()` has grouped output by 'theta'. You can override using the
`.groups` argument.
`summarise()` has grouped output by 'theta', 'tau'. You can override using the
`.groups` argument.
`summarise()` has grouped output by 'theta'. You can override using the
`.groups` argument.
[1] ""
[1] "Total run time was 182.946 seconds"
[1] "Estimation result: "
# A tibble: 360 × 5
   estimand theta   tau   est     se
   <chr>    <dbl> <dbl> <dbl>  <dbl>
 1 mu         0.1   0.1 0.411 0.0910
 2 mu         0.1   0.2 0.466 0.112 
 3 mu         0.1   0.3 0.550 0.127 
 4 mu         0.1   0.4 0.650 0.151 
 5 mu         0.1   0.5 0.694 0.164 
 6 mu         0.2   0.1 0.309 0.0461
 7 mu         0.2   0.2 0.357 0.0608
 8 mu         0.2   0.3 0.416 0.0643
 9 mu         0.2   0.4 0.473 0.0719
10 mu         0.2   0.5 0.503 0.0768
# ℹ 350 more rows
…
