…
`.groups` argument.
`summarise()` has grouped output by 'theta'. You can override using the
`.groups` argument.
`summarise()` has grouped output by 'theta', 'tau'. You can override using the
`.groups` argument.
`summarise()` has grouped output by 'theta'. You can override using the
`.groups` argument.
`summarise()` has grouped output by 'theta', 'tau'. You can override using the
`.groups` argument.
`summarise()` has grouped output by 'theta'. You can override using the
`.groups` argument.
[1] ""
[1] "Total run time was 212.517 seconds"
[1] "Estimation result: "
# A tibble: 360 × 5
   estimand theta   tau   est     se
   <chr>    <dbl> <dbl> <dbl>  <dbl>
 1 mu         0.1   0.1 0.402 0.0875
 2 mu         0.1   0.2 0.436 0.0937
 3 mu         0.1   0.3 0.469 0.0784
 4 mu         0.1   0.4 0.546 0.0671
 5 mu         0.1   0.5 0.588 0.0772
 6 mu         0.2   0.1 0.341 0.0801
 7 mu         0.2   0.2 0.391 0.0944
 8 mu         0.2   0.3 0.424 0.0982
 9 mu         0.2   0.4 0.497 0.0811
10 mu         0.2   0.5 0.535 0.0960
# ℹ 350 more rows
…
