…
`.groups` argument.
`summarise()` has grouped output by 'theta'. You can override using the
`.groups` argument.
`summarise()` has grouped output by 'theta', 'tau'. You can override using the
`.groups` argument.
`summarise()` has grouped output by 'theta'. You can override using the
`.groups` argument.
`summarise()` has grouped output by 'theta', 'tau'. You can override using the
`.groups` argument.
`summarise()` has grouped output by 'theta'. You can override using the
`.groups` argument.
[1] ""
[1] "Total run time was 287.484 seconds"
[1] "Estimation result: "
# A tibble: 360 × 5
   estimand theta   tau   est     se
   <chr>    <dbl> <dbl> <dbl>  <dbl>
 1 mu         0.1   0.1 0.486 0.101 
 2 mu         0.1   0.2 0.528 0.102 
 3 mu         0.1   0.3 0.538 0.0935
 4 mu         0.1   0.4 0.579 0.104 
 5 mu         0.1   0.5 0.625 0.0929
 6 mu         0.2   0.1 0.467 0.0639
 7 mu         0.2   0.2 0.524 0.0631
 8 mu         0.2   0.3 0.540 0.0549
 9 mu         0.2   0.4 0.585 0.0625
10 mu         0.2   0.5 0.644 0.0487
# ℹ 350 more rows
…
