…
`.groups` argument.
`summarise()` has grouped output by 'theta'. You can override using the
`.groups` argument.
`summarise()` has grouped output by 'theta', 'tau'. You can override using the
`.groups` argument.
`summarise()` has grouped output by 'theta'. You can override using the
`.groups` argument.
`summarise()` has grouped output by 'theta', 'tau'. You can override using the
`.groups` argument.
`summarise()` has grouped output by 'theta'. You can override using the
`.groups` argument.
[1] ""
[1] "Total run time was 181.998 seconds"
[1] "Estimation result: "
# A tibble: 360 × 5
   estimand theta   tau   est     se
   <chr>    <dbl> <dbl> <dbl>  <dbl>
 1 mu         0.1   0.1 0.379 0.125 
 2 mu         0.1   0.2 0.470 0.147 
 3 mu         0.1   0.3 0.500 0.168 
 4 mu         0.1   0.4 0.580 0.179 
 5 mu         0.1   0.5 0.596 0.185 
 6 mu         0.2   0.1 0.280 0.0383
 7 mu         0.2   0.2 0.378 0.0270
 8 mu         0.2   0.3 0.428 0.0337
 9 mu         0.2   0.4 0.503 0.0405
10 mu         0.2   0.5 0.521 0.0382
# ℹ 350 more rows
…
