…
`.groups` argument.
`summarise()` has grouped output by 'theta'. You can override using the
`.groups` argument.
`summarise()` has grouped output by 'theta', 'tau'. You can override using the
`.groups` argument.
`summarise()` has grouped output by 'theta'. You can override using the
`.groups` argument.
`summarise()` has grouped output by 'theta', 'tau'. You can override using the
`.groups` argument.
`summarise()` has grouped output by 'theta'. You can override using the
`.groups` argument.
[1] ""
[1] "Total run time was 204.224 seconds"
[1] "Estimation result: "
# A tibble: 360 × 5
   estimand theta   tau   est     se
   <chr>    <dbl> <dbl> <dbl>  <dbl>
 1 mu         0.1   0.1 0.413 0.144 
 2 mu         0.1   0.2 0.497 0.171 
 3 mu         0.1   0.3 0.545 0.192 
 4 mu         0.1   0.4 0.573 0.208 
 5 mu         0.1   0.5 0.592 0.216 
 6 mu         0.2   0.1 0.387 0.0470
 7 mu         0.2   0.2 0.474 0.0513
 8 mu         0.2   0.3 0.525 0.0681
 9 mu         0.2   0.4 0.578 0.0692
10 mu         0.2   0.5 0.614 0.0865
# ℹ 350 more rows
…
