…
`.groups` argument.
`summarise()` has grouped output by 'theta'. You can override using the
`.groups` argument.
`summarise()` has grouped output by 'theta', 'tau'. You can override using the
`.groups` argument.
`summarise()` has grouped output by 'theta'. You can override using the
`.groups` argument.
`summarise()` has grouped output by 'theta', 'tau'. You can override using the
`.groups` argument.
`summarise()` has grouped output by 'theta'. You can override using the
`.groups` argument.
[1] ""
[1] "Total run time was 485.092 seconds"
[1] "Estimation result: "
# A tibble: 360 × 5
   estimand theta   tau   est     se
   <chr>    <dbl> <dbl> <dbl>  <dbl>
 1 mu         0.1   0.1 0.517 0.106 
 2 mu         0.1   0.2 0.659 0.133 
 3 mu         0.1   0.3 0.703 0.136 
 4 mu         0.1   0.4 0.772 0.148 
 5 mu         0.1   0.5 0.815 0.159 
 6 mu         0.2   0.1 0.376 0.0419
 7 mu         0.2   0.2 0.484 0.0465
 8 mu         0.2   0.3 0.533 0.0479
 9 mu         0.2   0.4 0.593 0.0576
10 mu         0.2   0.5 0.630 0.0569
# ℹ 350 more rows
…
