…
`.groups` argument.
`summarise()` has grouped output by 'theta'. You can override using the
`.groups` argument.
`summarise()` has grouped output by 'theta', 'tau'. You can override using the
`.groups` argument.
`summarise()` has grouped output by 'theta'. You can override using the
`.groups` argument.
`summarise()` has grouped output by 'theta', 'tau'. You can override using the
`.groups` argument.
`summarise()` has grouped output by 'theta'. You can override using the
`.groups` argument.
[1] ""
[1] "Total run time was 211.61 seconds"
[1] "Estimation result: "
# A tibble: 360 × 5
   estimand theta   tau   est     se
   <chr>    <dbl> <dbl> <dbl>  <dbl>
 1 mu         0.1   0.1 0.628 0.305 
 2 mu         0.1   0.2 0.763 0.373 
 3 mu         0.1   0.3 0.860 0.400 
 4 mu         0.1   0.4 0.892 0.436 
 5 mu         0.1   0.5 0.940 0.472 
 6 mu         0.2   0.1 0.463 0.155 
 7 mu         0.2   0.2 0.539 0.139 
 8 mu         0.2   0.3 0.601 0.114 
 9 mu         0.2   0.4 0.609 0.103 
10 mu         0.2   0.5 0.630 0.0969
# ℹ 350 more rows
…
