…
`.groups` argument.
`summarise()` has grouped output by 'theta'. You can override using the
`.groups` argument.
`summarise()` has grouped output by 'theta', 'tau'. You can override using the
`.groups` argument.
`summarise()` has grouped output by 'theta'. You can override using the
`.groups` argument.
`summarise()` has grouped output by 'theta', 'tau'. You can override using the
`.groups` argument.
`summarise()` has grouped output by 'theta'. You can override using the
`.groups` argument.
[1] ""
[1] "Total run time was 214.394 seconds"
[1] "Estimation result: "
# A tibble: 360 × 5
   estimand theta   tau   est     se
   <chr>    <dbl> <dbl> <dbl>  <dbl>
 1 mu         0.1   0.1 0.340 0.124 
 2 mu         0.1   0.2 0.484 0.143 
 3 mu         0.1   0.3 0.587 0.162 
 4 mu         0.1   0.4 0.655 0.178 
 5 mu         0.1   0.5 0.698 0.189 
 6 mu         0.2   0.1 0.246 0.0613
 7 mu         0.2   0.2 0.359 0.0554
 8 mu         0.2   0.3 0.429 0.0374
 9 mu         0.2   0.4 0.477 0.0427
10 mu         0.2   0.5 0.506 0.0439
# ℹ 350 more rows
…
