…
`.groups` argument.
`summarise()` has grouped output by 'theta'. You can override using the
`.groups` argument.
`summarise()` has grouped output by 'theta', 'tau'. You can override using the
`.groups` argument.
`summarise()` has grouped output by 'theta'. You can override using the
`.groups` argument.
`summarise()` has grouped output by 'theta', 'tau'. You can override using the
`.groups` argument.
`summarise()` has grouped output by 'theta'. You can override using the
`.groups` argument.
[1] ""
[1] "Total run time was 319.631 seconds"
[1] "Estimation result: "
# A tibble: 360 × 5
   estimand theta   tau   est     se
   <chr>    <dbl> <dbl> <dbl>  <dbl>
 1 mu         0.1   0.1 0.392 0.0573
 2 mu         0.1   0.2 0.464 0.0561
 3 mu         0.1   0.3 0.499 0.0628
 4 mu         0.1   0.4 0.526 0.0651
 5 mu         0.1   0.5 0.571 0.0701
 6 mu         0.2   0.1 0.339 0.0468
 7 mu         0.2   0.2 0.420 0.0438
 8 mu         0.2   0.3 0.459 0.0518
 9 mu         0.2   0.4 0.494 0.0494
10 mu         0.2   0.5 0.520 0.0571
# ℹ 350 more rows
…
