…
`.groups` argument.
`summarise()` has grouped output by 'theta'. You can override using the
`.groups` argument.
`summarise()` has grouped output by 'theta', 'tau'. You can override using the
`.groups` argument.
`summarise()` has grouped output by 'theta'. You can override using the
`.groups` argument.
`summarise()` has grouped output by 'theta', 'tau'. You can override using the
`.groups` argument.
`summarise()` has grouped output by 'theta'. You can override using the
`.groups` argument.
[1] ""
[1] "Total run time was 216.983 seconds"
[1] "Estimation result: "
# A tibble: 360 × 5
   estimand theta   tau   est     se
   <chr>    <dbl> <dbl> <dbl>  <dbl>
 1 mu         0.1   0.1 0.508 0.0716
 2 mu         0.1   0.2 0.561 0.0661
 3 mu         0.1   0.3 0.655 0.0953
 4 mu         0.1   0.4 0.716 0.104 
 5 mu         0.1   0.5 0.799 0.144 
 6 mu         0.2   0.1 0.404 0.0367
 7 mu         0.2   0.2 0.466 0.0386
 8 mu         0.2   0.3 0.550 0.0447
 9 mu         0.2   0.4 0.598 0.0456
10 mu         0.2   0.5 0.664 0.0695
# ℹ 350 more rows
…
