…
`.groups` argument.
`summarise()` has grouped output by 'theta'. You can override using the
`.groups` argument.
`summarise()` has grouped output by 'theta', 'tau'. You can override using the
`.groups` argument.
`summarise()` has grouped output by 'theta'. You can override using the
`.groups` argument.
`summarise()` has grouped output by 'theta', 'tau'. You can override using the
`.groups` argument.
`summarise()` has grouped output by 'theta'. You can override using the
`.groups` argument.
[1] ""
[1] "Total run time was 240.863 seconds"
[1] "Estimation result: "
# A tibble: 360 × 5
   estimand theta   tau   est     se
   <chr>    <dbl> <dbl> <dbl>  <dbl>
 1 mu         0.1   0.1 0.425 0.0647
 2 mu         0.1   0.2 0.481 0.0582
 3 mu         0.1   0.3 0.517 0.0696
 4 mu         0.1   0.4 0.604 0.0785
 5 mu         0.1   0.5 0.613 0.0716
 6 mu         0.2   0.1 0.369 0.0301
 7 mu         0.2   0.2 0.455 0.0292
 8 mu         0.2   0.3 0.495 0.0375
 9 mu         0.2   0.4 0.547 0.0460
10 mu         0.2   0.5 0.580 0.0389
# ℹ 350 more rows
…
