…
`.groups` argument.
`summarise()` has grouped output by 'theta'. You can override using the
`.groups` argument.
`summarise()` has grouped output by 'theta', 'tau'. You can override using the
`.groups` argument.
`summarise()` has grouped output by 'theta'. You can override using the
`.groups` argument.
`summarise()` has grouped output by 'theta', 'tau'. You can override using the
`.groups` argument.
`summarise()` has grouped output by 'theta'. You can override using the
`.groups` argument.
[1] ""
[1] "Total run time was 249.134 seconds"
[1] "Estimation result: "
# A tibble: 360 × 5
   estimand theta   tau   est     se
   <chr>    <dbl> <dbl> <dbl>  <dbl>
 1 mu         0.1   0.1 0.628 0.179 
 2 mu         0.1   0.2 0.763 0.213 
 3 mu         0.1   0.3 0.803 0.211 
 4 mu         0.1   0.4 0.852 0.209 
 5 mu         0.1   0.5 0.942 0.214 
 6 mu         0.2   0.1 0.383 0.0573
 7 mu         0.2   0.2 0.442 0.0592
 8 mu         0.2   0.3 0.477 0.0609
 9 mu         0.2   0.4 0.502 0.0631
10 mu         0.2   0.5 0.565 0.0651
# ℹ 350 more rows
…
