…
`.groups` argument.
`summarise()` has grouped output by 'theta'. You can override using the
`.groups` argument.
`summarise()` has grouped output by 'theta', 'tau'. You can override using the
`.groups` argument.
`summarise()` has grouped output by 'theta'. You can override using the
`.groups` argument.
`summarise()` has grouped output by 'theta', 'tau'. You can override using the
`.groups` argument.
`summarise()` has grouped output by 'theta'. You can override using the
`.groups` argument.
[1] ""
[1] "Total run time was 205.531 seconds"
[1] "Estimation result: "
# A tibble: 360 × 5
   estimand theta   tau   est     se
   <chr>    <dbl> <dbl> <dbl>  <dbl>
 1 mu         0.1   0.1 0.458 0.101 
 2 mu         0.1   0.2 0.519 0.113 
 3 mu         0.1   0.3 0.559 0.117 
 4 mu         0.1   0.4 0.625 0.127 
 5 mu         0.1   0.5 0.636 0.127 
 6 mu         0.2   0.1 0.369 0.0455
 7 mu         0.2   0.2 0.420 0.0481
 8 mu         0.2   0.3 0.457 0.0484
 9 mu         0.2   0.4 0.497 0.0493
10 mu         0.2   0.5 0.514 0.0496
# ℹ 350 more rows
…
