…
`.groups` argument.
`summarise()` has grouped output by 'theta'. You can override using the
`.groups` argument.
`summarise()` has grouped output by 'theta', 'tau'. You can override using the
`.groups` argument.
`summarise()` has grouped output by 'theta'. You can override using the
`.groups` argument.
`summarise()` has grouped output by 'theta', 'tau'. You can override using the
`.groups` argument.
`summarise()` has grouped output by 'theta'. You can override using the
`.groups` argument.
[1] ""
[1] "Total run time was 210.045 seconds"
[1] "Estimation result: "
# A tibble: 360 × 5
   estimand theta   tau   est     se
   <chr>    <dbl> <dbl> <dbl>  <dbl>
 1 mu         0.1   0.1 0.496 0.146 
 2 mu         0.1   0.2 0.610 0.193 
 3 mu         0.1   0.3 0.631 0.182 
 4 mu         0.1   0.4 0.641 0.166 
 5 mu         0.1   0.5 0.656 0.160 
 6 mu         0.2   0.1 0.447 0.0922
 7 mu         0.2   0.2 0.541 0.121 
 8 mu         0.2   0.3 0.570 0.112 
 9 mu         0.2   0.4 0.617 0.0999
10 mu         0.2   0.5 0.639 0.0926
# ℹ 350 more rows
…
