…
`.groups` argument.
`summarise()` has grouped output by 'theta'. You can override using the
`.groups` argument.
`summarise()` has grouped output by 'theta', 'tau'. You can override using the
`.groups` argument.
`summarise()` has grouped output by 'theta'. You can override using the
`.groups` argument.
`summarise()` has grouped output by 'theta', 'tau'. You can override using the
`.groups` argument.
`summarise()` has grouped output by 'theta'. You can override using the
`.groups` argument.
[1] ""
[1] "Total run time was 176.941 seconds"
[1] "Estimation result: "
# A tibble: 360 × 5
   estimand theta   tau   est     se
   <chr>    <dbl> <dbl> <dbl>  <dbl>
 1 mu         0.1   0.1 0.466 0.0883
 2 mu         0.1   0.2 0.535 0.0957
 3 mu         0.1   0.3 0.593 0.103 
 4 mu         0.1   0.4 0.633 0.118 
 5 mu         0.1   0.5 0.655 0.114 
 6 mu         0.2   0.1 0.409 0.0461
 7 mu         0.2   0.2 0.502 0.0502
 8 mu         0.2   0.3 0.566 0.0516
 9 mu         0.2   0.4 0.612 0.0611
10 mu         0.2   0.5 0.667 0.0549
# ℹ 350 more rows
…
