…
`.groups` argument.
`summarise()` has grouped output by 'theta'. You can override using the
`.groups` argument.
`summarise()` has grouped output by 'theta', 'tau'. You can override using the
`.groups` argument.
`summarise()` has grouped output by 'theta'. You can override using the
`.groups` argument.
`summarise()` has grouped output by 'theta', 'tau'. You can override using the
`.groups` argument.
`summarise()` has grouped output by 'theta'. You can override using the
`.groups` argument.
[1] ""
[1] "Total run time was 228.611 seconds"
[1] "Estimation result: "
# A tibble: 360 × 5
   estimand theta   tau   est     se
   <chr>    <dbl> <dbl> <dbl>  <dbl>
 1 mu         0.1   0.1 0.462 0.111 
 2 mu         0.1   0.2 0.576 0.126 
 3 mu         0.1   0.3 0.731 0.144 
 4 mu         0.1   0.4 0.773 0.148 
 5 mu         0.1   0.5 0.808 0.157 
 6 mu         0.2   0.1 0.310 0.0537
 7 mu         0.2   0.2 0.409 0.0735
 8 mu         0.2   0.3 0.532 0.0850
 9 mu         0.2   0.4 0.572 0.0836
10 mu         0.2   0.5 0.603 0.0922
# ℹ 350 more rows
…
