…
`.groups` argument.
`summarise()` has grouped output by 'theta'. You can override using the
`.groups` argument.
`summarise()` has grouped output by 'theta', 'tau'. You can override using the
`.groups` argument.
`summarise()` has grouped output by 'theta'. You can override using the
`.groups` argument.
`summarise()` has grouped output by 'theta', 'tau'. You can override using the
`.groups` argument.
`summarise()` has grouped output by 'theta'. You can override using the
`.groups` argument.
[1] ""
[1] "Total run time was 187.125 seconds"
[1] "Estimation result: "
# A tibble: 360 × 5
   estimand theta   tau   est     se
   <chr>    <dbl> <dbl> <dbl>  <dbl>
 1 mu         0.1   0.1 0.319 0.0484
 2 mu         0.1   0.2 0.490 0.0569
 3 mu         0.1   0.3 0.543 0.0583
 4 mu         0.1   0.4 0.599 0.0732
 5 mu         0.1   0.5 0.609 0.0743
 6 mu         0.2   0.1 0.311 0.0395
 7 mu         0.2   0.2 0.440 0.0387
 8 mu         0.2   0.3 0.494 0.0368
 9 mu         0.2   0.4 0.547 0.0408
10 mu         0.2   0.5 0.563 0.0417
# ℹ 350 more rows
…
