…
`.groups` argument.
`summarise()` has grouped output by 'theta'. You can override using the
`.groups` argument.
`summarise()` has grouped output by 'theta', 'tau'. You can override using the
`.groups` argument.
`summarise()` has grouped output by 'theta'. You can override using the
`.groups` argument.
`summarise()` has grouped output by 'theta', 'tau'. You can override using the
`.groups` argument.
`summarise()` has grouped output by 'theta'. You can override using the
`.groups` argument.
[1] ""
[1] "Total run time was 215.524 seconds"
[1] "Estimation result: "
# A tibble: 360 × 5
   estimand theta   tau   est     se
   <chr>    <dbl> <dbl> <dbl>  <dbl>
 1 mu         0.1   0.1 0.393 0.0850
 2 mu         0.1   0.2 0.525 0.136 
 3 mu         0.1   0.3 0.573 0.122 
 4 mu         0.1   0.4 0.647 0.107 
 5 mu         0.1   0.5 0.644 0.0969
 6 mu         0.2   0.1 0.362 0.0445
 7 mu         0.2   0.2 0.456 0.0643
 8 mu         0.2   0.3 0.520 0.0669
 9 mu         0.2   0.4 0.569 0.0628
10 mu         0.2   0.5 0.584 0.0562
# ℹ 350 more rows
…
