…
`.groups` argument.
`summarise()` has grouped output by 'theta'. You can override using the
`.groups` argument.
`summarise()` has grouped output by 'theta', 'tau'. You can override using the
`.groups` argument.
`summarise()` has grouped output by 'theta'. You can override using the
`.groups` argument.
`summarise()` has grouped output by 'theta', 'tau'. You can override using the
`.groups` argument.
`summarise()` has grouped output by 'theta'. You can override using the
`.groups` argument.
[1] ""
[1] "Total run time was 194.093 seconds"
[1] "Estimation result: "
# A tibble: 360 × 5
   estimand theta   tau   est     se
   <chr>    <dbl> <dbl> <dbl>  <dbl>
 1 mu         0.1   0.1 0.317 0.0770
 2 mu         0.1   0.2 0.374 0.0880
 3 mu         0.1   0.3 0.449 0.0977
 4 mu         0.1   0.4 0.483 0.108 
 5 mu         0.1   0.5 0.528 0.113 
 6 mu         0.2   0.1 0.324 0.0349
 7 mu         0.2   0.2 0.396 0.0408
 8 mu         0.2   0.3 0.474 0.0414
 9 mu         0.2   0.4 0.511 0.0480
10 mu         0.2   0.5 0.549 0.0479
# ℹ 350 more rows
…
