…
`.groups` argument.
`summarise()` has grouped output by 'theta'. You can override using the
`.groups` argument.
`summarise()` has grouped output by 'theta', 'tau'. You can override using the
`.groups` argument.
`summarise()` has grouped output by 'theta'. You can override using the
`.groups` argument.
`summarise()` has grouped output by 'theta', 'tau'. You can override using the
`.groups` argument.
`summarise()` has grouped output by 'theta'. You can override using the
`.groups` argument.
[1] ""
[1] "Total run time was 238.735 seconds"
[1] "Estimation result: "
# A tibble: 360 × 5
   estimand theta   tau   est     se
   <chr>    <dbl> <dbl> <dbl>  <dbl>
 1 mu         0.1   0.1 0.339 0.110 
 2 mu         0.1   0.2 0.383 0.127 
 3 mu         0.1   0.3 0.481 0.151 
 4 mu         0.1   0.4 0.497 0.162 
 5 mu         0.1   0.5 0.538 0.175 
 6 mu         0.2   0.1 0.303 0.0604
 7 mu         0.2   0.2 0.343 0.0536
 8 mu         0.2   0.3 0.430 0.0673
 9 mu         0.2   0.4 0.446 0.0701
10 mu         0.2   0.5 0.483 0.0720
# ℹ 350 more rows
…
