…
`.groups` argument.
`summarise()` has grouped output by 'theta'. You can override using the
`.groups` argument.
`summarise()` has grouped output by 'theta', 'tau'. You can override using the
`.groups` argument.
`summarise()` has grouped output by 'theta'. You can override using the
`.groups` argument.
`summarise()` has grouped output by 'theta', 'tau'. You can override using the
`.groups` argument.
`summarise()` has grouped output by 'theta'. You can override using the
`.groups` argument.
[1] ""
[1] "Total run time was 214.923 seconds"
[1] "Estimation result: "
# A tibble: 360 × 5
   estimand theta   tau   est     se
   <chr>    <dbl> <dbl> <dbl>  <dbl>
 1 mu         0.1   0.1 0.396 0.112 
 2 mu         0.1   0.2 0.456 0.114 
 3 mu         0.1   0.3 0.523 0.129 
 4 mu         0.1   0.4 0.574 0.110 
 5 mu         0.1   0.5 0.595 0.101 
 6 mu         0.2   0.1 0.371 0.0912
 7 mu         0.2   0.2 0.447 0.0889
 8 mu         0.2   0.3 0.503 0.100 
 9 mu         0.2   0.4 0.552 0.0866
10 mu         0.2   0.5 0.589 0.0742
# ℹ 350 more rows
…
