…
`.groups` argument.
`summarise()` has grouped output by 'theta'. You can override using the
`.groups` argument.
`summarise()` has grouped output by 'theta', 'tau'. You can override using the
`.groups` argument.
`summarise()` has grouped output by 'theta'. You can override using the
`.groups` argument.
`summarise()` has grouped output by 'theta', 'tau'. You can override using the
`.groups` argument.
`summarise()` has grouped output by 'theta'. You can override using the
`.groups` argument.
[1] ""
[1] "Total run time was 294.722 seconds"
[1] "Estimation result: "
# A tibble: 360 × 5
   estimand theta   tau   est     se
   <chr>    <dbl> <dbl> <dbl>  <dbl>
 1 mu         0.1   0.1 0.408 0.152 
 2 mu         0.1   0.2 0.475 0.191 
 3 mu         0.1   0.3 0.490 0.196 
 4 mu         0.1   0.4 0.489 0.205 
 5 mu         0.1   0.5 0.557 0.224 
 6 mu         0.2   0.1 0.354 0.0624
 7 mu         0.2   0.2 0.416 0.0766
 8 mu         0.2   0.3 0.451 0.0718
 9 mu         0.2   0.4 0.467 0.0771
10 mu         0.2   0.5 0.523 0.0845
# ℹ 350 more rows
…
