…
`.groups` argument.
`summarise()` has grouped output by 'theta'. You can override using the
`.groups` argument.
`summarise()` has grouped output by 'theta', 'tau'. You can override using the
`.groups` argument.
`summarise()` has grouped output by 'theta'. You can override using the
`.groups` argument.
`summarise()` has grouped output by 'theta', 'tau'. You can override using the
`.groups` argument.
`summarise()` has grouped output by 'theta'. You can override using the
`.groups` argument.
[1] ""
[1] "Total run time was 187.977 seconds"
[1] "Estimation result: "
# A tibble: 360 × 5
   estimand theta   tau   est     se
   <chr>    <dbl> <dbl> <dbl>  <dbl>
 1 mu         0.1   0.1 0.457 0.118 
 2 mu         0.1   0.2 0.587 0.120 
 3 mu         0.1   0.3 0.678 0.141 
 4 mu         0.1   0.4 0.699 0.154 
 5 mu         0.1   0.5 0.702 0.162 
 6 mu         0.2   0.1 0.347 0.0645
 7 mu         0.2   0.2 0.454 0.0456
 8 mu         0.2   0.3 0.534 0.0572
 9 mu         0.2   0.4 0.566 0.0588
10 mu         0.2   0.5 0.575 0.0625
# ℹ 350 more rows
…
