…
`.groups` argument.
`summarise()` has grouped output by 'theta'. You can override using the
`.groups` argument.
`summarise()` has grouped output by 'theta', 'tau'. You can override using the
`.groups` argument.
`summarise()` has grouped output by 'theta'. You can override using the
`.groups` argument.
`summarise()` has grouped output by 'theta', 'tau'. You can override using the
`.groups` argument.
`summarise()` has grouped output by 'theta'. You can override using the
`.groups` argument.
[1] ""
[1] "Total run time was 247.852 seconds"
[1] "Estimation result: "
# A tibble: 360 × 5
   estimand theta   tau   est     se
   <chr>    <dbl> <dbl> <dbl>  <dbl>
 1 mu         0.1   0.1 0.455 0.0705
 2 mu         0.1   0.2 0.524 0.0752
 3 mu         0.1   0.3 0.584 0.0808
 4 mu         0.1   0.4 0.612 0.0865
 5 mu         0.1   0.5 0.653 0.0773
 6 mu         0.2   0.1 0.408 0.0458
 7 mu         0.2   0.2 0.479 0.0484
 8 mu         0.2   0.3 0.536 0.0507
 9 mu         0.2   0.4 0.568 0.0539
10 mu         0.2   0.5 0.611 0.0455
# ℹ 350 more rows
…
