…
`.groups` argument.
`summarise()` has grouped output by 'theta'. You can override using the
`.groups` argument.
`summarise()` has grouped output by 'theta', 'tau'. You can override using the
`.groups` argument.
`summarise()` has grouped output by 'theta'. You can override using the
`.groups` argument.
`summarise()` has grouped output by 'theta', 'tau'. You can override using the
`.groups` argument.
`summarise()` has grouped output by 'theta'. You can override using the
`.groups` argument.
[1] ""
[1] "Total run time was 270.567 seconds"
[1] "Estimation result: "
# A tibble: 360 × 5
   estimand theta   tau   est     se
   <chr>    <dbl> <dbl> <dbl>  <dbl>
 1 mu         0.1   0.1 0.389 0.0470
 2 mu         0.1   0.2 0.473 0.0541
 3 mu         0.1   0.3 0.499 0.0547
 4 mu         0.1   0.4 0.623 0.0715
 5 mu         0.1   0.5 0.653 0.0727
 6 mu         0.2   0.1 0.359 0.0253
 7 mu         0.2   0.2 0.420 0.0285
 8 mu         0.2   0.3 0.461 0.0281
 9 mu         0.2   0.4 0.543 0.0373
10 mu         0.2   0.5 0.560 0.0379
# ℹ 350 more rows
…
