…
`.groups` argument.
`summarise()` has grouped output by 'theta'. You can override using the
`.groups` argument.
`summarise()` has grouped output by 'theta', 'tau'. You can override using the
`.groups` argument.
`summarise()` has grouped output by 'theta'. You can override using the
`.groups` argument.
`summarise()` has grouped output by 'theta', 'tau'. You can override using the
`.groups` argument.
`summarise()` has grouped output by 'theta'. You can override using the
`.groups` argument.
[1] ""
[1] "Total run time was 192.834 seconds"
[1] "Estimation result: "
# A tibble: 360 × 5
   estimand theta   tau   est     se
   <chr>    <dbl> <dbl> <dbl>  <dbl>
 1 mu         0.1   0.1 0.430 0.0938
 2 mu         0.1   0.2 0.445 0.0744
 3 mu         0.1   0.3 0.466 0.0630
 4 mu         0.1   0.4 0.498 0.0784
 5 mu         0.1   0.5 0.497 0.0879
 6 mu         0.2   0.1 0.359 0.0462
 7 mu         0.2   0.2 0.400 0.0368
 8 mu         0.2   0.3 0.456 0.0326
 9 mu         0.2   0.4 0.499 0.0388
10 mu         0.2   0.5 0.523 0.0479
# ℹ 350 more rows
…
