…
`.groups` argument.
`summarise()` has grouped output by 'theta'. You can override using the
`.groups` argument.
`summarise()` has grouped output by 'theta', 'tau'. You can override using the
`.groups` argument.
`summarise()` has grouped output by 'theta'. You can override using the
`.groups` argument.
`summarise()` has grouped output by 'theta', 'tau'. You can override using the
`.groups` argument.
`summarise()` has grouped output by 'theta'. You can override using the
`.groups` argument.
[1] ""
[1] "Total run time was 341.293 seconds"
[1] "Estimation result: "
# A tibble: 360 × 5
   estimand theta   tau   est     se
   <chr>    <dbl> <dbl> <dbl>  <dbl>
 1 mu         0.1   0.1 0.436 0.0918
 2 mu         0.1   0.2 0.494 0.0921
 3 mu         0.1   0.3 0.512 0.0859
 4 mu         0.1   0.4 0.539 0.0977
 5 mu         0.1   0.5 0.571 0.110 
 6 mu         0.2   0.1 0.350 0.0496
 7 mu         0.2   0.2 0.437 0.0465
 8 mu         0.2   0.3 0.490 0.0405
 9 mu         0.2   0.4 0.527 0.0461
10 mu         0.2   0.5 0.560 0.0520
# ℹ 350 more rows
…
