…
`.groups` argument.
`summarise()` has grouped output by 'theta'. You can override using the
`.groups` argument.
`summarise()` has grouped output by 'theta', 'tau'. You can override using the
`.groups` argument.
`summarise()` has grouped output by 'theta'. You can override using the
`.groups` argument.
`summarise()` has grouped output by 'theta', 'tau'. You can override using the
`.groups` argument.
`summarise()` has grouped output by 'theta'. You can override using the
`.groups` argument.
[1] ""
[1] "Total run time was 243.763 seconds"
[1] "Estimation result: "
# A tibble: 360 × 5
   estimand theta   tau   est     se
   <chr>    <dbl> <dbl> <dbl>  <dbl>
 1 mu         0.1   0.1 0.442 0.234 
 2 mu         0.1   0.2 0.726 0.314 
 3 mu         0.1   0.3 0.838 0.372 
 4 mu         0.1   0.4 0.881 0.402 
 5 mu         0.1   0.5 0.951 0.452 
 6 mu         0.2   0.1 0.254 0.0638
 7 mu         0.2   0.2 0.477 0.102 
 8 mu         0.2   0.3 0.551 0.0934
 9 mu         0.2   0.4 0.567 0.0876
10 mu         0.2   0.5 0.596 0.0837
# ℹ 350 more rows
…
