…
`.groups` argument.
`summarise()` has grouped output by 'theta'. You can override using the
`.groups` argument.
`summarise()` has grouped output by 'theta', 'tau'. You can override using the
`.groups` argument.
`summarise()` has grouped output by 'theta'. You can override using the
`.groups` argument.
`summarise()` has grouped output by 'theta', 'tau'. You can override using the
`.groups` argument.
`summarise()` has grouped output by 'theta'. You can override using the
`.groups` argument.
[1] ""
[1] "Total run time was 200.905 seconds"
[1] "Estimation result: "
# A tibble: 360 × 5
   estimand theta   tau   est     se
   <chr>    <dbl> <dbl> <dbl>  <dbl>
 1 mu         0.1   0.1 0.590 0.122 
 2 mu         0.1   0.2 0.722 0.141 
 3 mu         0.1   0.3 0.823 0.162 
 4 mu         0.1   0.4 0.878 0.171 
 5 mu         0.1   0.5 0.968 0.196 
 6 mu         0.2   0.1 0.397 0.0258
 7 mu         0.2   0.2 0.500 0.0396
 8 mu         0.2   0.3 0.587 0.0501
 9 mu         0.2   0.4 0.622 0.0467
10 mu         0.2   0.5 0.694 0.0592
# ℹ 350 more rows
…
