…
`.groups` argument.
`summarise()` has grouped output by 'theta'. You can override using the
`.groups` argument.
`summarise()` has grouped output by 'theta', 'tau'. You can override using the
`.groups` argument.
`summarise()` has grouped output by 'theta'. You can override using the
`.groups` argument.
`summarise()` has grouped output by 'theta', 'tau'. You can override using the
`.groups` argument.
`summarise()` has grouped output by 'theta'. You can override using the
`.groups` argument.
[1] ""
[1] "Total run time was 206.186 seconds"
[1] "Estimation result: "
# A tibble: 360 × 5
   estimand theta   tau   est     se
   <chr>    <dbl> <dbl> <dbl>  <dbl>
 1 mu         0.1   0.1 0.261 0.0951
 2 mu         0.1   0.2 0.435 0.0800
 3 mu         0.1   0.3 0.504 0.0593
 4 mu         0.1   0.4 0.519 0.0612
 5 mu         0.1   0.5 0.577 0.0510
 6 mu         0.2   0.1 0.240 0.0576
 7 mu         0.2   0.2 0.391 0.0582
 8 mu         0.2   0.3 0.455 0.0391
 9 mu         0.2   0.4 0.474 0.0345
10 mu         0.2   0.5 0.514 0.0253
# ℹ 350 more rows
…
