…
`.groups` argument.
`summarise()` has grouped output by 'theta'. You can override using the
`.groups` argument.
`summarise()` has grouped output by 'theta', 'tau'. You can override using the
`.groups` argument.
`summarise()` has grouped output by 'theta'. You can override using the
`.groups` argument.
`summarise()` has grouped output by 'theta', 'tau'. You can override using the
`.groups` argument.
`summarise()` has grouped output by 'theta'. You can override using the
`.groups` argument.
[1] ""
[1] "Total run time was 374.613 seconds"
[1] "Estimation result: "
# A tibble: 360 × 5
   estimand theta   tau   est     se
   <chr>    <dbl> <dbl> <dbl>  <dbl>
 1 mu         0.1   0.1 0.547 0.102 
 2 mu         0.1   0.2 0.645 0.105 
 3 mu         0.1   0.3 0.681 0.106 
 4 mu         0.1   0.4 0.778 0.118 
 5 mu         0.1   0.5 0.789 0.116 
 6 mu         0.2   0.1 0.439 0.0731
 7 mu         0.2   0.2 0.540 0.0822
 8 mu         0.2   0.3 0.586 0.0853
 9 mu         0.2   0.4 0.668 0.0825
10 mu         0.2   0.5 0.682 0.0823
# ℹ 350 more rows
…
