…
`.groups` argument.
`summarise()` has grouped output by 'theta'. You can override using the
`.groups` argument.
`summarise()` has grouped output by 'theta', 'tau'. You can override using the
`.groups` argument.
`summarise()` has grouped output by 'theta'. You can override using the
`.groups` argument.
`summarise()` has grouped output by 'theta', 'tau'. You can override using the
`.groups` argument.
`summarise()` has grouped output by 'theta'. You can override using the
`.groups` argument.
[1] ""
[1] "Total run time was 205.654 seconds"
[1] "Estimation result: "
# A tibble: 360 × 5
   estimand theta   tau   est     se
   <chr>    <dbl> <dbl> <dbl>  <dbl>
 1 mu         0.1   0.1 0.513 0.123 
 2 mu         0.1   0.2 0.582 0.132 
 3 mu         0.1   0.3 0.623 0.144 
 4 mu         0.1   0.4 0.690 0.166 
 5 mu         0.1   0.5 0.703 0.171 
 6 mu         0.2   0.1 0.397 0.0761
 7 mu         0.2   0.2 0.452 0.0596
 8 mu         0.2   0.3 0.485 0.0489
 9 mu         0.2   0.4 0.535 0.0649
10 mu         0.2   0.5 0.547 0.0561
# ℹ 350 more rows
…
