…
`.groups` argument.
`summarise()` has grouped output by 'theta'. You can override using the
`.groups` argument.
`summarise()` has grouped output by 'theta', 'tau'. You can override using the
`.groups` argument.
`summarise()` has grouped output by 'theta'. You can override using the
`.groups` argument.
`summarise()` has grouped output by 'theta', 'tau'. You can override using the
`.groups` argument.
`summarise()` has grouped output by 'theta'. You can override using the
`.groups` argument.
[1] ""
[1] "Total run time was 217.228 seconds"
[1] "Estimation result: "
# A tibble: 360 × 5
   estimand theta   tau   est     se
   <chr>    <dbl> <dbl> <dbl>  <dbl>
 1 mu         0.1   0.1 0.460 0.103 
 2 mu         0.1   0.2 0.549 0.136 
 3 mu         0.1   0.3 0.593 0.143 
 4 mu         0.1   0.4 0.626 0.153 
 5 mu         0.1   0.5 0.647 0.162 
 6 mu         0.2   0.1 0.391 0.0344
 7 mu         0.2   0.2 0.452 0.0379
 8 mu         0.2   0.3 0.498 0.0360
 9 mu         0.2   0.4 0.518 0.0408
10 mu         0.2   0.5 0.548 0.0440
# ℹ 350 more rows
…
