…
`.groups` argument.
`summarise()` has grouped output by 'theta'. You can override using the
`.groups` argument.
`summarise()` has grouped output by 'theta', 'tau'. You can override using the
`.groups` argument.
`summarise()` has grouped output by 'theta'. You can override using the
`.groups` argument.
`summarise()` has grouped output by 'theta', 'tau'. You can override using the
`.groups` argument.
`summarise()` has grouped output by 'theta'. You can override using the
`.groups` argument.
[1] ""
[1] "Total run time was 190.861 seconds"
[1] "Estimation result: "
# A tibble: 360 × 5
   estimand theta   tau   est     se
   <chr>    <dbl> <dbl> <dbl>  <dbl>
 1 mu         0.1   0.1 0.182 0.109 
 2 mu         0.1   0.2 0.218 0.139 
 3 mu         0.1   0.3 0.307 0.124 
 4 mu         0.1   0.4 0.369 0.119 
 5 mu         0.1   0.5 0.462 0.135 
 6 mu         0.2   0.1 0.212 0.0556
 7 mu         0.2   0.2 0.273 0.0717
 8 mu         0.2   0.3 0.332 0.0716
 9 mu         0.2   0.4 0.378 0.0740
10 mu         0.2   0.5 0.471 0.0835
# ℹ 350 more rows
…
