…
`.groups` argument.
`summarise()` has grouped output by 'theta'. You can override using the
`.groups` argument.
`summarise()` has grouped output by 'theta', 'tau'. You can override using the
`.groups` argument.
`summarise()` has grouped output by 'theta'. You can override using the
`.groups` argument.
`summarise()` has grouped output by 'theta', 'tau'. You can override using the
`.groups` argument.
`summarise()` has grouped output by 'theta'. You can override using the
`.groups` argument.
[1] ""
[1] "Total run time was 275.43 seconds"
[1] "Estimation result: "
# A tibble: 360 × 5
   estimand theta   tau   est     se
   <chr>    <dbl> <dbl> <dbl>  <dbl>
 1 mu         0.1   0.1 0.374 0.0477
 2 mu         0.1   0.2 0.518 0.0623
 3 mu         0.1   0.3 0.525 0.0580
 4 mu         0.1   0.4 0.613 0.0643
 5 mu         0.1   0.5 0.659 0.0700
 6 mu         0.2   0.1 0.339 0.0297
 7 mu         0.2   0.2 0.463 0.0316
 8 mu         0.2   0.3 0.492 0.0293
 9 mu         0.2   0.4 0.571 0.0319
10 mu         0.2   0.5 0.610 0.0353
# ℹ 350 more rows
…
