…
`.groups` argument.
`summarise()` has grouped output by 'theta'. You can override using the
`.groups` argument.
`summarise()` has grouped output by 'theta', 'tau'. You can override using the
`.groups` argument.
`summarise()` has grouped output by 'theta'. You can override using the
`.groups` argument.
`summarise()` has grouped output by 'theta', 'tau'. You can override using the
`.groups` argument.
`summarise()` has grouped output by 'theta'. You can override using the
`.groups` argument.
[1] ""
[1] "Total run time was 289.276 seconds"
[1] "Estimation result: "
# A tibble: 360 × 5
   estimand theta   tau   est     se
   <chr>    <dbl> <dbl> <dbl>  <dbl>
 1 mu         0.1   0.1 0.375 0.0506
 2 mu         0.1   0.2 0.436 0.0662
 3 mu         0.1   0.3 0.505 0.0847
 4 mu         0.1   0.4 0.594 0.0781
 5 mu         0.1   0.5 0.630 0.0853
 6 mu         0.2   0.1 0.341 0.0251
 7 mu         0.2   0.2 0.399 0.0309
 8 mu         0.2   0.3 0.468 0.0420
 9 mu         0.2   0.4 0.546 0.0362
10 mu         0.2   0.5 0.592 0.0426
# ℹ 350 more rows
…
