…
`.groups` argument.
`summarise()` has grouped output by 'theta'. You can override using the
`.groups` argument.
`summarise()` has grouped output by 'theta', 'tau'. You can override using the
`.groups` argument.
`summarise()` has grouped output by 'theta'. You can override using the
`.groups` argument.
`summarise()` has grouped output by 'theta', 'tau'. You can override using the
`.groups` argument.
`summarise()` has grouped output by 'theta'. You can override using the
`.groups` argument.
[1] ""
[1] "Total run time was 192.332 seconds"
[1] "Estimation result: "
# A tibble: 360 × 5
   estimand theta   tau   est     se
   <chr>    <dbl> <dbl> <dbl>  <dbl>
 1 mu         0.1   0.1 0.414 0.0789
 2 mu         0.1   0.2 0.498 0.0926
 3 mu         0.1   0.3 0.570 0.0896
 4 mu         0.1   0.4 0.651 0.114 
 5 mu         0.1   0.5 0.745 0.138 
 6 mu         0.2   0.1 0.357 0.0456
 7 mu         0.2   0.2 0.426 0.0427
 8 mu         0.2   0.3 0.479 0.0405
 9 mu         0.2   0.4 0.534 0.0505
10 mu         0.2   0.5 0.606 0.0592
# ℹ 350 more rows
…
