…
`.groups` argument.
`summarise()` has grouped output by 'theta'. You can override using the
`.groups` argument.
`summarise()` has grouped output by 'theta', 'tau'. You can override using the
`.groups` argument.
`summarise()` has grouped output by 'theta'. You can override using the
`.groups` argument.
`summarise()` has grouped output by 'theta', 'tau'. You can override using the
`.groups` argument.
`summarise()` has grouped output by 'theta'. You can override using the
`.groups` argument.
[1] ""
[1] "Total run time was 110.125 seconds"
[1] "Estimation result: "
# A tibble: 360 × 5
   estimand theta   tau   est     se
   <chr>    <dbl> <dbl> <dbl>  <dbl>
 1 mu         0.1   0.1 0.379 0.100 
 2 mu         0.1   0.2 0.418 0.133 
 3 mu         0.1   0.3 0.470 0.121 
 4 mu         0.1   0.4 0.552 0.127 
 5 mu         0.1   0.5 0.623 0.108 
 6 mu         0.2   0.1 0.360 0.0548
 7 mu         0.2   0.2 0.416 0.0675
 8 mu         0.2   0.3 0.466 0.0605
 9 mu         0.2   0.4 0.540 0.0616
10 mu         0.2   0.5 0.596 0.0542
# ℹ 350 more rows
…
