…
`.groups` argument.
`summarise()` has grouped output by 'theta'. You can override using the
`.groups` argument.
`summarise()` has grouped output by 'theta', 'tau'. You can override using the
`.groups` argument.
`summarise()` has grouped output by 'theta'. You can override using the
`.groups` argument.
`summarise()` has grouped output by 'theta', 'tau'. You can override using the
`.groups` argument.
`summarise()` has grouped output by 'theta'. You can override using the
`.groups` argument.
[1] ""
[1] "Total run time was 161.087 seconds"
[1] "Estimation result: "
# A tibble: 360 × 5
   estimand theta   tau   est     se
   <chr>    <dbl> <dbl> <dbl>  <dbl>
 1 mu         0.1   0.1 0.454 0.119 
 2 mu         0.1   0.2 0.606 0.140 
 3 mu         0.1   0.3 0.645 0.141 
 4 mu         0.1   0.4 0.679 0.122 
 5 mu         0.1   0.5 0.729 0.129 
 6 mu         0.2   0.1 0.369 0.0607
 7 mu         0.2   0.2 0.505 0.0731
 8 mu         0.2   0.3 0.539 0.0724
 9 mu         0.2   0.4 0.586 0.0645
10 mu         0.2   0.5 0.626 0.0703
# ℹ 350 more rows
…
