…
`.groups` argument.
`summarise()` has grouped output by 'theta'. You can override using the
`.groups` argument.
`summarise()` has grouped output by 'theta', 'tau'. You can override using the
`.groups` argument.
`summarise()` has grouped output by 'theta'. You can override using the
`.groups` argument.
`summarise()` has grouped output by 'theta', 'tau'. You can override using the
`.groups` argument.
`summarise()` has grouped output by 'theta'. You can override using the
`.groups` argument.
[1] ""
[1] "Total run time was 223.234 seconds"
[1] "Estimation result: "
# A tibble: 360 × 5
   estimand theta   tau   est     se
   <chr>    <dbl> <dbl> <dbl>  <dbl>
 1 mu         0.1   0.1 0.425 0.0839
 2 mu         0.1   0.2 0.472 0.0865
 3 mu         0.1   0.3 0.530 0.0965
 4 mu         0.1   0.4 0.532 0.0972
 5 mu         0.1   0.5 0.532 0.0979
 6 mu         0.2   0.1 0.427 0.0587
 7 mu         0.2   0.2 0.492 0.0649
 8 mu         0.2   0.3 0.562 0.0801
 9 mu         0.2   0.4 0.578 0.0675
10 mu         0.2   0.5 0.590 0.0517
# ℹ 350 more rows
…
