…
`.groups` argument.
`summarise()` has grouped output by 'theta'. You can override using the
`.groups` argument.
`summarise()` has grouped output by 'theta', 'tau'. You can override using the
`.groups` argument.
`summarise()` has grouped output by 'theta'. You can override using the
`.groups` argument.
`summarise()` has grouped output by 'theta', 'tau'. You can override using the
`.groups` argument.
`summarise()` has grouped output by 'theta'. You can override using the
`.groups` argument.
[1] ""
[1] "Total run time was 199.037 seconds"
[1] "Estimation result: "
# A tibble: 360 × 5
   estimand theta   tau   est     se
   <chr>    <dbl> <dbl> <dbl>  <dbl>
 1 mu         0.1   0.1 0.291 0.0554
 2 mu         0.1   0.2 0.415 0.0651
 3 mu         0.1   0.3 0.499 0.0933
 4 mu         0.1   0.4 0.565 0.116 
 5 mu         0.1   0.5 0.584 0.108 
 6 mu         0.2   0.1 0.319 0.0461
 7 mu         0.2   0.2 0.448 0.0493
 8 mu         0.2   0.3 0.519 0.0560
 9 mu         0.2   0.4 0.597 0.0689
10 mu         0.2   0.5 0.625 0.0643
# ℹ 350 more rows
…
