…
`.groups` argument.
`summarise()` has grouped output by 'theta'. You can override using the
`.groups` argument.
`summarise()` has grouped output by 'theta', 'tau'. You can override using the
`.groups` argument.
`summarise()` has grouped output by 'theta'. You can override using the
`.groups` argument.
`summarise()` has grouped output by 'theta', 'tau'. You can override using the
`.groups` argument.
`summarise()` has grouped output by 'theta'. You can override using the
`.groups` argument.
[1] ""
[1] "Total run time was 198.459 seconds"
[1] "Estimation result: "
# A tibble: 360 × 5
   estimand theta   tau   est     se
   <chr>    <dbl> <dbl> <dbl>  <dbl>
 1 mu         0.1   0.1 0.329 0.109 
 2 mu         0.1   0.2 0.375 0.141 
 3 mu         0.1   0.3 0.412 0.162 
 4 mu         0.1   0.4 0.478 0.188 
 5 mu         0.1   0.5 0.495 0.208 
 6 mu         0.2   0.1 0.319 0.0435
 7 mu         0.2   0.2 0.370 0.0652
 8 mu         0.2   0.3 0.413 0.0784
 9 mu         0.2   0.4 0.475 0.0959
10 mu         0.2   0.5 0.494 0.110 
# ℹ 350 more rows
…
