…
`.groups` argument.
`summarise()` has grouped output by 'theta'. You can override using the
`.groups` argument.
`summarise()` has grouped output by 'theta', 'tau'. You can override using the
`.groups` argument.
`summarise()` has grouped output by 'theta'. You can override using the
`.groups` argument.
`summarise()` has grouped output by 'theta', 'tau'. You can override using the
`.groups` argument.
`summarise()` has grouped output by 'theta'. You can override using the
`.groups` argument.
[1] ""
[1] "Total run time was 192.849 seconds"
[1] "Estimation result: "
# A tibble: 360 × 5
   estimand theta   tau   est     se
   <chr>    <dbl> <dbl> <dbl>  <dbl>
 1 mu         0.1   0.1 0.348 0.0404
 2 mu         0.1   0.2 0.485 0.0745
 3 mu         0.1   0.3 0.500 0.0690
 4 mu         0.1   0.4 0.539 0.0670
 5 mu         0.1   0.5 0.571 0.0772
 6 mu         0.2   0.1 0.316 0.0583
 7 mu         0.2   0.2 0.415 0.0627
 8 mu         0.2   0.3 0.438 0.0657
 9 mu         0.2   0.4 0.480 0.0614
10 mu         0.2   0.5 0.504 0.0767
# ℹ 350 more rows
…
