…
`.groups` argument.
`summarise()` has grouped output by 'theta'. You can override using the
`.groups` argument.
`summarise()` has grouped output by 'theta', 'tau'. You can override using the
`.groups` argument.
`summarise()` has grouped output by 'theta'. You can override using the
`.groups` argument.
`summarise()` has grouped output by 'theta', 'tau'. You can override using the
`.groups` argument.
`summarise()` has grouped output by 'theta'. You can override using the
`.groups` argument.
[1] ""
[1] "Total run time was 204.674 seconds"
[1] "Estimation result: "
# A tibble: 360 × 5
   estimand theta   tau   est     se
   <chr>    <dbl> <dbl> <dbl>  <dbl>
 1 mu         0.1   0.1 0.225 0.0394
 2 mu         0.1   0.2 0.233 0.0546
 3 mu         0.1   0.3 0.235 0.0768
 4 mu         0.1   0.4 0.257 0.0944
 5 mu         0.1   0.5 0.253 0.104 
 6 mu         0.2   0.1 0.260 0.0306
 7 mu         0.2   0.2 0.281 0.0430
 8 mu         0.2   0.3 0.294 0.0626
 9 mu         0.2   0.4 0.324 0.0788
10 mu         0.2   0.5 0.325 0.0868
# ℹ 350 more rows
…
