…
`.groups` argument.
`summarise()` has grouped output by 'theta'. You can override using the
`.groups` argument.
`summarise()` has grouped output by 'theta', 'tau'. You can override using the
`.groups` argument.
`summarise()` has grouped output by 'theta'. You can override using the
`.groups` argument.
`summarise()` has grouped output by 'theta', 'tau'. You can override using the
`.groups` argument.
`summarise()` has grouped output by 'theta'. You can override using the
`.groups` argument.
[1] ""
[1] "Total run time was 292.53 seconds"
[1] "Estimation result: "
# A tibble: 360 × 5
   estimand theta   tau   est     se
   <chr>    <dbl> <dbl> <dbl>  <dbl>
 1 mu         0.1   0.1 0.332 0.127 
 2 mu         0.1   0.2 0.474 0.0903
 3 mu         0.1   0.3 0.497 0.0948
 4 mu         0.1   0.4 0.553 0.110 
 5 mu         0.1   0.5 0.565 0.106 
 6 mu         0.2   0.1 0.357 0.0695
 7 mu         0.2   0.2 0.467 0.0495
 8 mu         0.2   0.3 0.506 0.0548
 9 mu         0.2   0.4 0.542 0.0617
10 mu         0.2   0.5 0.571 0.0596
# ℹ 350 more rows
…
