…
`.groups` argument.
`summarise()` has grouped output by 'theta'. You can override using the
`.groups` argument.
`summarise()` has grouped output by 'theta', 'tau'. You can override using the
`.groups` argument.
`summarise()` has grouped output by 'theta'. You can override using the
`.groups` argument.
`summarise()` has grouped output by 'theta', 'tau'. You can override using the
`.groups` argument.
`summarise()` has grouped output by 'theta'. You can override using the
`.groups` argument.
[1] ""
[1] "Total run time was 331.575 seconds"
[1] "Estimation result: "
# A tibble: 360 × 5
   estimand theta   tau   est     se
   <chr>    <dbl> <dbl> <dbl>  <dbl>
 1 mu         0.1   0.1 0.283 0.0475
 2 mu         0.1   0.2 0.343 0.0880
 3 mu         0.1   0.3 0.401 0.0774
 4 mu         0.1   0.4 0.416 0.100 
 5 mu         0.1   0.5 0.510 0.0654
 6 mu         0.2   0.1 0.336 0.0355
 7 mu         0.2   0.2 0.411 0.0633
 8 mu         0.2   0.3 0.461 0.0549
 9 mu         0.2   0.4 0.497 0.0613
10 mu         0.2   0.5 0.562 0.0479
# ℹ 350 more rows
…
