…
`.groups` argument.
`summarise()` has grouped output by 'theta'. You can override using the
`.groups` argument.
`summarise()` has grouped output by 'theta', 'tau'. You can override using the
`.groups` argument.
`summarise()` has grouped output by 'theta'. You can override using the
`.groups` argument.
`summarise()` has grouped output by 'theta', 'tau'. You can override using the
`.groups` argument.
`summarise()` has grouped output by 'theta'. You can override using the
`.groups` argument.
[1] ""
[1] "Total run time was 172.757 seconds"
[1] "Estimation result: "
# A tibble: 360 × 5
   estimand theta   tau   est     se
   <chr>    <dbl> <dbl> <dbl>  <dbl>
 1 mu         0.1   0.1 0.392 0.110 
 2 mu         0.1   0.2 0.496 0.0801
 3 mu         0.1   0.3 0.573 0.0857
 4 mu         0.1   0.4 0.709 0.102 
 5 mu         0.1   0.5 0.749 0.0924
 6 mu         0.2   0.1 0.330 0.0683
 7 mu         0.2   0.2 0.401 0.0449
 8 mu         0.2   0.3 0.469 0.0461
 9 mu         0.2   0.4 0.576 0.0638
10 mu         0.2   0.5 0.613 0.0499
# ℹ 350 more rows
…
