…
`.groups` argument.
`summarise()` has grouped output by 'theta'. You can override using the
`.groups` argument.
`summarise()` has grouped output by 'theta', 'tau'. You can override using the
`.groups` argument.
`summarise()` has grouped output by 'theta'. You can override using the
`.groups` argument.
`summarise()` has grouped output by 'theta', 'tau'. You can override using the
`.groups` argument.
`summarise()` has grouped output by 'theta'. You can override using the
`.groups` argument.
[1] ""
[1] "Total run time was 343.48 seconds"
[1] "Estimation result: "
# A tibble: 360 × 5
   estimand theta   tau   est     se
   <chr>    <dbl> <dbl> <dbl>  <dbl>
 1 mu         0.1   0.1 0.456 0.0754
 2 mu         0.1   0.2 0.569 0.0973
 3 mu         0.1   0.3 0.584 0.0958
 4 mu         0.1   0.4 0.689 0.104 
 5 mu         0.1   0.5 0.688 0.104 
 6 mu         0.2   0.1 0.384 0.0347
 7 mu         0.2   0.2 0.481 0.0462
 8 mu         0.2   0.3 0.514 0.0419
 9 mu         0.2   0.4 0.593 0.0441
10 mu         0.2   0.5 0.617 0.0438
# ℹ 350 more rows
…
