…
`.groups` argument.
`summarise()` has grouped output by 'theta'. You can override using the
`.groups` argument.
`summarise()` has grouped output by 'theta', 'tau'. You can override using the
`.groups` argument.
`summarise()` has grouped output by 'theta'. You can override using the
`.groups` argument.
`summarise()` has grouped output by 'theta', 'tau'. You can override using the
`.groups` argument.
`summarise()` has grouped output by 'theta'. You can override using the
`.groups` argument.
[1] ""
[1] "Total run time was 186.457 seconds"
[1] "Estimation result: "
# A tibble: 360 × 5
   estimand theta   tau   est     se
   <chr>    <dbl> <dbl> <dbl>  <dbl>
 1 mu         0.1   0.1 0.238 0.0615
 2 mu         0.1   0.2 0.316 0.0718
 3 mu         0.1   0.3 0.332 0.0808
 4 mu         0.1   0.4 0.350 0.0982
 5 mu         0.1   0.5 0.374 0.122 
 6 mu         0.2   0.1 0.282 0.0471
 7 mu         0.2   0.2 0.342 0.0532
 8 mu         0.2   0.3 0.376 0.0569
 9 mu         0.2   0.4 0.398 0.0671
10 mu         0.2   0.5 0.431 0.0820
# ℹ 350 more rows
…
