…
`.groups` argument.
`summarise()` has grouped output by 'theta'. You can override using the
`.groups` argument.
`summarise()` has grouped output by 'theta', 'tau'. You can override using the
`.groups` argument.
`summarise()` has grouped output by 'theta'. You can override using the
`.groups` argument.
`summarise()` has grouped output by 'theta', 'tau'. You can override using the
`.groups` argument.
`summarise()` has grouped output by 'theta'. You can override using the
`.groups` argument.
[1] ""
[1] "Total run time was 382.354 seconds"
[1] "Estimation result: "
# A tibble: 360 × 5
   estimand theta   tau   est     se
   <chr>    <dbl> <dbl> <dbl>  <dbl>
 1 mu         0.1   0.1 0.428 0.0607
 2 mu         0.1   0.2 0.502 0.0502
 3 mu         0.1   0.3 0.542 0.0517
 4 mu         0.1   0.4 0.580 0.0635
 5 mu         0.1   0.5 0.601 0.0672
 6 mu         0.2   0.1 0.360 0.0368
 7 mu         0.2   0.2 0.443 0.0266
 8 mu         0.2   0.3 0.497 0.0271
 9 mu         0.2   0.4 0.531 0.0293
10 mu         0.2   0.5 0.560 0.0301
# ℹ 350 more rows
…
