…
`.groups` argument.
`summarise()` has grouped output by 'theta'. You can override using the
`.groups` argument.
`summarise()` has grouped output by 'theta', 'tau'. You can override using the
`.groups` argument.
`summarise()` has grouped output by 'theta'. You can override using the
`.groups` argument.
`summarise()` has grouped output by 'theta', 'tau'. You can override using the
`.groups` argument.
`summarise()` has grouped output by 'theta'. You can override using the
`.groups` argument.
[1] ""
[1] "Total run time was 260.96 seconds"
[1] "Estimation result: "
# A tibble: 360 × 5
   estimand theta   tau   est     se
   <chr>    <dbl> <dbl> <dbl>  <dbl>
 1 mu         0.1   0.1 0.769 0.245 
 2 mu         0.1   0.2 0.929 0.302 
 3 mu         0.1   0.3 0.941 0.309 
 4 mu         0.1   0.4 1.00  0.337 
 5 mu         0.1   0.5 1.03  0.355 
 6 mu         0.2   0.1 0.517 0.106 
 7 mu         0.2   0.2 0.621 0.127 
 8 mu         0.2   0.3 0.627 0.108 
 9 mu         0.2   0.4 0.668 0.106 
10 mu         0.2   0.5 0.683 0.0973
# ℹ 350 more rows
…
