…
`.groups` argument.
`summarise()` has grouped output by 'theta'. You can override using the
`.groups` argument.
`summarise()` has grouped output by 'theta', 'tau'. You can override using the
`.groups` argument.
`summarise()` has grouped output by 'theta'. You can override using the
`.groups` argument.
`summarise()` has grouped output by 'theta', 'tau'. You can override using the
`.groups` argument.
`summarise()` has grouped output by 'theta'. You can override using the
`.groups` argument.
[1] ""
[1] "Total run time was 225.278 seconds"
[1] "Estimation result: "
# A tibble: 360 × 5
   estimand theta   tau   est     se
   <chr>    <dbl> <dbl> <dbl>  <dbl>
 1 mu         0.1   0.1 0.449 0.113 
 2 mu         0.1   0.2 0.487 0.102 
 3 mu         0.1   0.3 0.507 0.0859
 4 mu         0.1   0.4 0.559 0.111 
 5 mu         0.1   0.5 0.580 0.118 
 6 mu         0.2   0.1 0.392 0.0498
 7 mu         0.2   0.2 0.439 0.0512
 8 mu         0.2   0.3 0.508 0.0479
 9 mu         0.2   0.4 0.552 0.0513
10 mu         0.2   0.5 0.589 0.0604
# ℹ 350 more rows
…
