…
`.groups` argument.
`summarise()` has grouped output by 'theta'. You can override using the
`.groups` argument.
`summarise()` has grouped output by 'theta', 'tau'. You can override using the
`.groups` argument.
`summarise()` has grouped output by 'theta'. You can override using the
`.groups` argument.
`summarise()` has grouped output by 'theta', 'tau'. You can override using the
`.groups` argument.
`summarise()` has grouped output by 'theta'. You can override using the
`.groups` argument.
[1] ""
[1] "Total run time was 252.718 seconds"
[1] "Estimation result: "
# A tibble: 360 × 5
   estimand theta   tau   est     se
   <chr>    <dbl> <dbl> <dbl>  <dbl>
 1 mu         0.1   0.1 0.390 0.105 
 2 mu         0.1   0.2 0.490 0.126 
 3 mu         0.1   0.3 0.659 0.165 
 4 mu         0.1   0.4 0.753 0.171 
 5 mu         0.1   0.5 0.783 0.180 
 6 mu         0.2   0.1 0.314 0.0654
 7 mu         0.2   0.2 0.396 0.0755
 8 mu         0.2   0.3 0.521 0.106 
 9 mu         0.2   0.4 0.595 0.0978
10 mu         0.2   0.5 0.642 0.101 
# ℹ 350 more rows
…
