…
`.groups` argument.
`summarise()` has grouped output by 'theta'. You can override using the
`.groups` argument.
`summarise()` has grouped output by 'theta', 'tau'. You can override using the
`.groups` argument.
`summarise()` has grouped output by 'theta'. You can override using the
`.groups` argument.
`summarise()` has grouped output by 'theta', 'tau'. You can override using the
`.groups` argument.
`summarise()` has grouped output by 'theta'. You can override using the
`.groups` argument.
[1] ""
[1] "Total run time was 534.741 seconds"
[1] "Estimation result: "
# A tibble: 360 × 5
   estimand theta   tau   est     se
   <chr>    <dbl> <dbl> <dbl>  <dbl>
 1 mu         0.1   0.1 0.299 0.0793
 2 mu         0.1   0.2 0.353 0.0959
 3 mu         0.1   0.3 0.487 0.0779
 4 mu         0.1   0.4 0.609 0.129 
 5 mu         0.1   0.5 0.664 0.152 
 6 mu         0.2   0.1 0.310 0.0603
 7 mu         0.2   0.2 0.394 0.0566
 8 mu         0.2   0.3 0.493 0.0448
 9 mu         0.2   0.4 0.575 0.0762
10 mu         0.2   0.5 0.634 0.0922
# ℹ 350 more rows
…
