…
`.groups` argument.
`summarise()` has grouped output by 'theta'. You can override using the
`.groups` argument.
`summarise()` has grouped output by 'theta', 'tau'. You can override using the
`.groups` argument.
`summarise()` has grouped output by 'theta'. You can override using the
`.groups` argument.
`summarise()` has grouped output by 'theta', 'tau'. You can override using the
`.groups` argument.
`summarise()` has grouped output by 'theta'. You can override using the
`.groups` argument.
[1] ""
[1] "Total run time was 183.668 seconds"
[1] "Estimation result: "
# A tibble: 360 × 5
   estimand theta   tau   est     se
   <chr>    <dbl> <dbl> <dbl>  <dbl>
 1 mu         0.1   0.1 0.403 0.0791
 2 mu         0.1   0.2 0.496 0.0995
 3 mu         0.1   0.3 0.540 0.102 
 4 mu         0.1   0.4 0.601 0.113 
 5 mu         0.1   0.5 0.695 0.127 
 6 mu         0.2   0.1 0.358 0.0527
 7 mu         0.2   0.2 0.447 0.0613
 8 mu         0.2   0.3 0.498 0.0494
 9 mu         0.2   0.4 0.542 0.0528
10 mu         0.2   0.5 0.647 0.0560
# ℹ 350 more rows
…
