…
`.groups` argument.
`summarise()` has grouped output by 'theta'. You can override using the
`.groups` argument.
`summarise()` has grouped output by 'theta', 'tau'. You can override using the
`.groups` argument.
`summarise()` has grouped output by 'theta'. You can override using the
`.groups` argument.
`summarise()` has grouped output by 'theta', 'tau'. You can override using the
`.groups` argument.
`summarise()` has grouped output by 'theta'. You can override using the
`.groups` argument.
[1] ""
[1] "Total run time was 200.953 seconds"
[1] "Estimation result: "
# A tibble: 360 × 5
   estimand theta   tau   est     se
   <chr>    <dbl> <dbl> <dbl>  <dbl>
 1 mu         0.1   0.1 0.466 0.0777
 2 mu         0.1   0.2 0.578 0.0906
 3 mu         0.1   0.3 0.588 0.0889
 4 mu         0.1   0.4 0.699 0.0868
 5 mu         0.1   0.5 0.709 0.0829
 6 mu         0.2   0.1 0.416 0.0392
 7 mu         0.2   0.2 0.505 0.0412
 8 mu         0.2   0.3 0.521 0.0449
 9 mu         0.2   0.4 0.610 0.0347
10 mu         0.2   0.5 0.637 0.0326
# ℹ 350 more rows
…
