…
`.groups` argument.
`summarise()` has grouped output by 'theta'. You can override using the
`.groups` argument.
`summarise()` has grouped output by 'theta', 'tau'. You can override using the
`.groups` argument.
`summarise()` has grouped output by 'theta'. You can override using the
`.groups` argument.
`summarise()` has grouped output by 'theta', 'tau'. You can override using the
`.groups` argument.
`summarise()` has grouped output by 'theta'. You can override using the
`.groups` argument.
[1] ""
[1] "Total run time was 208.853 seconds"
[1] "Estimation result: "
# A tibble: 360 × 5
   estimand theta   tau   est     se
   <chr>    <dbl> <dbl> <dbl>  <dbl>
 1 mu         0.1   0.1 0.293 0.111 
 2 mu         0.1   0.2 0.301 0.115 
 3 mu         0.1   0.3 0.383 0.120 
 4 mu         0.1   0.4 0.431 0.131 
 5 mu         0.1   0.5 0.442 0.129 
 6 mu         0.2   0.1 0.293 0.0894
 7 mu         0.2   0.2 0.341 0.0828
 8 mu         0.2   0.3 0.392 0.0940
 9 mu         0.2   0.4 0.422 0.109 
10 mu         0.2   0.5 0.455 0.108 
# ℹ 350 more rows
…
