…
`.groups` argument.
`summarise()` has grouped output by 'theta'. You can override using the
`.groups` argument.
`summarise()` has grouped output by 'theta', 'tau'. You can override using the
`.groups` argument.
`summarise()` has grouped output by 'theta'. You can override using the
`.groups` argument.
`summarise()` has grouped output by 'theta', 'tau'. You can override using the
`.groups` argument.
`summarise()` has grouped output by 'theta'. You can override using the
`.groups` argument.
[1] ""
[1] "Total run time was 261.131 seconds"
[1] "Estimation result: "
# A tibble: 360 × 5
   estimand theta   tau   est     se
   <chr>    <dbl> <dbl> <dbl>  <dbl>
 1 mu         0.1   0.1 0.357 0.0761
 2 mu         0.1   0.2 0.460 0.107 
 3 mu         0.1   0.3 0.477 0.0911
 4 mu         0.1   0.4 0.515 0.0976
 5 mu         0.1   0.5 0.497 0.101 
 6 mu         0.2   0.1 0.349 0.0484
 7 mu         0.2   0.2 0.445 0.0577
 8 mu         0.2   0.3 0.480 0.0393
 9 mu         0.2   0.4 0.517 0.0394
10 mu         0.2   0.5 0.514 0.0406
# ℹ 350 more rows
…
