…
`.groups` argument.
`summarise()` has grouped output by 'theta'. You can override using the
`.groups` argument.
`summarise()` has grouped output by 'theta', 'tau'. You can override using the
`.groups` argument.
`summarise()` has grouped output by 'theta'. You can override using the
`.groups` argument.
`summarise()` has grouped output by 'theta', 'tau'. You can override using the
`.groups` argument.
`summarise()` has grouped output by 'theta'. You can override using the
`.groups` argument.
[1] ""
[1] "Total run time was 168.187 seconds"
[1] "Estimation result: "
# A tibble: 360 × 5
   estimand theta   tau   est     se
   <chr>    <dbl> <dbl> <dbl>  <dbl>
 1 mu         0.1   0.1 0.421 0.0995
 2 mu         0.1   0.2 0.498 0.144 
 3 mu         0.1   0.3 0.547 0.128 
 4 mu         0.1   0.4 0.627 0.138 
 5 mu         0.1   0.5 0.627 0.123 
 6 mu         0.2   0.1 0.401 0.0738
 7 mu         0.2   0.2 0.479 0.110 
 8 mu         0.2   0.3 0.529 0.0945
 9 mu         0.2   0.4 0.610 0.101 
10 mu         0.2   0.5 0.622 0.0873
# ℹ 350 more rows
…
