…
`.groups` argument.
`summarise()` has grouped output by 'theta'. You can override using the
`.groups` argument.
`summarise()` has grouped output by 'theta', 'tau'. You can override using the
`.groups` argument.
`summarise()` has grouped output by 'theta'. You can override using the
`.groups` argument.
`summarise()` has grouped output by 'theta', 'tau'. You can override using the
`.groups` argument.
`summarise()` has grouped output by 'theta'. You can override using the
`.groups` argument.
[1] ""
[1] "Total run time was 192.321 seconds"
[1] "Estimation result: "
# A tibble: 360 × 5
   estimand theta   tau   est     se
   <chr>    <dbl> <dbl> <dbl>  <dbl>
 1 mu         0.1   0.1 0.512 0.108 
 2 mu         0.1   0.2 0.715 0.189 
 3 mu         0.1   0.3 0.754 0.176 
 4 mu         0.1   0.4 0.794 0.174 
 5 mu         0.1   0.5 0.823 0.170 
 6 mu         0.2   0.1 0.410 0.0565
 7 mu         0.2   0.2 0.567 0.110 
 8 mu         0.2   0.3 0.628 0.108 
 9 mu         0.2   0.4 0.672 0.112 
10 mu         0.2   0.5 0.702 0.104 
# ℹ 350 more rows
…
