…
`.groups` argument.
`summarise()` has grouped output by 'theta'. You can override using the
`.groups` argument.
`summarise()` has grouped output by 'theta', 'tau'. You can override using the
`.groups` argument.
`summarise()` has grouped output by 'theta'. You can override using the
`.groups` argument.
`summarise()` has grouped output by 'theta', 'tau'. You can override using the
`.groups` argument.
`summarise()` has grouped output by 'theta'. You can override using the
`.groups` argument.
[1] ""
[1] "Total run time was 187.72 seconds"
[1] "Estimation result: "
# A tibble: 360 × 5
   estimand theta   tau   est     se
   <chr>    <dbl> <dbl> <dbl>  <dbl>
 1 mu         0.1   0.1 0.304 0.0718
 2 mu         0.1   0.2 0.368 0.0557
 3 mu         0.1   0.3 0.369 0.0625
 4 mu         0.1   0.4 0.401 0.0943
 5 mu         0.1   0.5 0.407 0.0833
 6 mu         0.2   0.1 0.345 0.0543
 7 mu         0.2   0.2 0.426 0.0424
 8 mu         0.2   0.3 0.441 0.0494
 9 mu         0.2   0.4 0.475 0.0721
10 mu         0.2   0.5 0.492 0.0626
# ℹ 350 more rows
…
