…
`.groups` argument.
`summarise()` has grouped output by 'theta'. You can override using the
`.groups` argument.
`summarise()` has grouped output by 'theta', 'tau'. You can override using the
`.groups` argument.
`summarise()` has grouped output by 'theta'. You can override using the
`.groups` argument.
`summarise()` has grouped output by 'theta', 'tau'. You can override using the
`.groups` argument.
`summarise()` has grouped output by 'theta'. You can override using the
`.groups` argument.
[1] ""
[1] "Total run time was 195.299 seconds"
[1] "Estimation result: "
# A tibble: 360 × 5
   estimand theta   tau   est     se
   <chr>    <dbl> <dbl> <dbl>  <dbl>
 1 mu         0.1   0.1 0.461 0.0888
 2 mu         0.1   0.2 0.524 0.0743
 3 mu         0.1   0.3 0.596 0.0629
 4 mu         0.1   0.4 0.627 0.0651
 5 mu         0.1   0.5 0.660 0.0850
 6 mu         0.2   0.1 0.432 0.0525
 7 mu         0.2   0.2 0.505 0.0397
 8 mu         0.2   0.3 0.568 0.0429
 9 mu         0.2   0.4 0.599 0.0419
10 mu         0.2   0.5 0.639 0.0492
# ℹ 350 more rows
…
