…
`.groups` argument.
`summarise()` has grouped output by 'theta'. You can override using the
`.groups` argument.
`summarise()` has grouped output by 'theta', 'tau'. You can override using the
`.groups` argument.
`summarise()` has grouped output by 'theta'. You can override using the
`.groups` argument.
`summarise()` has grouped output by 'theta', 'tau'. You can override using the
`.groups` argument.
`summarise()` has grouped output by 'theta'. You can override using the
`.groups` argument.
[1] ""
[1] "Total run time was 231.743 seconds"
[1] "Estimation result: "
# A tibble: 360 × 5
   estimand theta   tau   est     se
   <chr>    <dbl> <dbl> <dbl>  <dbl>
 1 mu         0.1   0.1 0.350 0.0411
 2 mu         0.1   0.2 0.510 0.0595
 3 mu         0.1   0.3 0.610 0.0946
 4 mu         0.1   0.4 0.634 0.0945
 5 mu         0.1   0.5 0.681 0.0849
 6 mu         0.2   0.1 0.326 0.0288
 7 mu         0.2   0.2 0.435 0.0347
 8 mu         0.2   0.3 0.498 0.0457
 9 mu         0.2   0.4 0.536 0.0520
10 mu         0.2   0.5 0.587 0.0521
# ℹ 350 more rows
…
