…
`.groups` argument.
`summarise()` has grouped output by 'theta'. You can override using the
`.groups` argument.
`summarise()` has grouped output by 'theta', 'tau'. You can override using the
`.groups` argument.
`summarise()` has grouped output by 'theta'. You can override using the
`.groups` argument.
`summarise()` has grouped output by 'theta', 'tau'. You can override using the
`.groups` argument.
`summarise()` has grouped output by 'theta'. You can override using the
`.groups` argument.
[1] ""
[1] "Total run time was 250.948 seconds"
[1] "Estimation result: "
# A tibble: 360 × 5
   estimand theta   tau   est     se
   <chr>    <dbl> <dbl> <dbl>  <dbl>
 1 mu         0.1   0.1 0.484 0.167 
 2 mu         0.1   0.2 0.509 0.166 
 3 mu         0.1   0.3 0.586 0.181 
 4 mu         0.1   0.4 0.601 0.178 
 5 mu         0.1   0.5 0.599 0.181 
 6 mu         0.2   0.1 0.481 0.123 
 7 mu         0.2   0.2 0.524 0.112 
 8 mu         0.2   0.3 0.617 0.117 
 9 mu         0.2   0.4 0.657 0.103 
10 mu         0.2   0.5 0.666 0.0993
# ℹ 350 more rows
…
