…
`.groups` argument.
`summarise()` has grouped output by 'theta'. You can override using the
`.groups` argument.
`summarise()` has grouped output by 'theta', 'tau'. You can override using the
`.groups` argument.
`summarise()` has grouped output by 'theta'. You can override using the
`.groups` argument.
`summarise()` has grouped output by 'theta', 'tau'. You can override using the
`.groups` argument.
`summarise()` has grouped output by 'theta'. You can override using the
`.groups` argument.
[1] ""
[1] "Total run time was 185.602 seconds"
[1] "Estimation result: "
# A tibble: 360 × 5
   estimand theta   tau   est     se
   <chr>    <dbl> <dbl> <dbl>  <dbl>
 1 mu         0.1   0.1 0.306 0.0403
 2 mu         0.1   0.2 0.354 0.0549
 3 mu         0.1   0.3 0.410 0.0643
 4 mu         0.1   0.4 0.441 0.0547
 5 mu         0.1   0.5 0.465 0.0776
 6 mu         0.2   0.1 0.308 0.0275
 7 mu         0.2   0.2 0.365 0.0331
 8 mu         0.2   0.3 0.422 0.0350
 9 mu         0.2   0.4 0.449 0.0288
10 mu         0.2   0.5 0.487 0.0398
# ℹ 350 more rows
…
