…
`.groups` argument.
`summarise()` has grouped output by 'theta'. You can override using the
`.groups` argument.
`summarise()` has grouped output by 'theta', 'tau'. You can override using the
`.groups` argument.
`summarise()` has grouped output by 'theta'. You can override using the
`.groups` argument.
`summarise()` has grouped output by 'theta', 'tau'. You can override using the
`.groups` argument.
`summarise()` has grouped output by 'theta'. You can override using the
`.groups` argument.
[1] ""
[1] "Total run time was 221.349 seconds"
[1] "Estimation result: "
# A tibble: 360 × 5
   estimand theta   tau   est     se
   <chr>    <dbl> <dbl> <dbl>  <dbl>
 1 mu         0.1   0.1 0.582 0.201 
 2 mu         0.1   0.2 0.775 0.272 
 3 mu         0.1   0.3 0.905 0.329 
 4 mu         0.1   0.4 0.965 0.359 
 5 mu         0.1   0.5 1.03  0.389 
 6 mu         0.2   0.1 0.382 0.0626
 7 mu         0.2   0.2 0.505 0.0502
 8 mu         0.2   0.3 0.575 0.0562
 9 mu         0.2   0.4 0.604 0.0676
10 mu         0.2   0.5 0.646 0.0889
# ℹ 350 more rows
…
