…
`.groups` argument.
`summarise()` has grouped output by 'theta'. You can override using the
`.groups` argument.
`summarise()` has grouped output by 'theta', 'tau'. You can override using the
`.groups` argument.
`summarise()` has grouped output by 'theta'. You can override using the
`.groups` argument.
`summarise()` has grouped output by 'theta', 'tau'. You can override using the
`.groups` argument.
`summarise()` has grouped output by 'theta'. You can override using the
`.groups` argument.
[1] ""
[1] "Total run time was 217.14 seconds"
[1] "Estimation result: "
# A tibble: 360 × 5
   estimand theta   tau   est     se
   <chr>    <dbl> <dbl> <dbl>  <dbl>
 1 mu         0.1   0.1 0.520 0.0909
 2 mu         0.1   0.2 0.694 0.156 
 3 mu         0.1   0.3 0.702 0.128 
 4 mu         0.1   0.4 0.728 0.108 
 5 mu         0.1   0.5 0.798 0.135 
 6 mu         0.2   0.1 0.418 0.0399
 7 mu         0.2   0.2 0.507 0.0528
 8 mu         0.2   0.3 0.558 0.0499
 9 mu         0.2   0.4 0.594 0.0426
10 mu         0.2   0.5 0.622 0.0474
# ℹ 350 more rows
…
