…
`.groups` argument.
`summarise()` has grouped output by 'theta'. You can override using the
`.groups` argument.
`summarise()` has grouped output by 'theta', 'tau'. You can override using the
`.groups` argument.
`summarise()` has grouped output by 'theta'. You can override using the
`.groups` argument.
`summarise()` has grouped output by 'theta', 'tau'. You can override using the
`.groups` argument.
`summarise()` has grouped output by 'theta'. You can override using the
`.groups` argument.
[1] ""
[1] "Total run time was 234.89 seconds"
[1] "Estimation result: "
# A tibble: 360 × 5
   estimand theta   tau   est     se
   <chr>    <dbl> <dbl> <dbl>  <dbl>
 1 mu         0.1   0.1 0.386 0.0937
 2 mu         0.1   0.2 0.499 0.117 
 3 mu         0.1   0.3 0.559 0.0760
 4 mu         0.1   0.4 0.567 0.103 
 5 mu         0.1   0.5 0.638 0.136 
 6 mu         0.2   0.1 0.361 0.0347
 7 mu         0.2   0.2 0.439 0.0379
 8 mu         0.2   0.3 0.514 0.0324
 9 mu         0.2   0.4 0.554 0.0383
10 mu         0.2   0.5 0.584 0.0412
# ℹ 350 more rows
…
