…
`.groups` argument.
`summarise()` has grouped output by 'theta'. You can override using the
`.groups` argument.
`summarise()` has grouped output by 'theta', 'tau'. You can override using the
`.groups` argument.
`summarise()` has grouped output by 'theta'. You can override using the
`.groups` argument.
`summarise()` has grouped output by 'theta', 'tau'. You can override using the
`.groups` argument.
`summarise()` has grouped output by 'theta'. You can override using the
`.groups` argument.
[1] ""
[1] "Total run time was 273.85 seconds"
[1] "Estimation result: "
# A tibble: 360 × 5
   estimand theta   tau   est     se
   <chr>    <dbl> <dbl> <dbl>  <dbl>
 1 mu         0.1   0.1 0.285 0.111 
 2 mu         0.1   0.2 0.360 0.165 
 3 mu         0.1   0.3 0.350 0.141 
 4 mu         0.1   0.4 0.363 0.128 
 5 mu         0.1   0.5 0.349 0.118 
 6 mu         0.2   0.1 0.396 0.0973
 7 mu         0.2   0.2 0.532 0.131 
 8 mu         0.2   0.3 0.637 0.157 
 9 mu         0.2   0.4 0.688 0.164 
10 mu         0.2   0.5 0.719 0.173 
# ℹ 350 more rows
…
