…
`.groups` argument.
`summarise()` has grouped output by 'theta'. You can override using the
`.groups` argument.
`summarise()` has grouped output by 'theta', 'tau'. You can override using the
`.groups` argument.
`summarise()` has grouped output by 'theta'. You can override using the
`.groups` argument.
`summarise()` has grouped output by 'theta', 'tau'. You can override using the
`.groups` argument.
`summarise()` has grouped output by 'theta'. You can override using the
`.groups` argument.
[1] ""
[1] "Total run time was 200.884 seconds"
[1] "Estimation result: "
# A tibble: 360 × 5
   estimand theta   tau   est     se
   <chr>    <dbl> <dbl> <dbl>  <dbl>
 1 mu         0.1   0.1 0.421 0.0552
 2 mu         0.1   0.2 0.512 0.0619
 3 mu         0.1   0.3 0.550 0.0772
 4 mu         0.1   0.4 0.667 0.0932
 5 mu         0.1   0.5 0.725 0.0792
 6 mu         0.2   0.1 0.328 0.0281
 7 mu         0.2   0.2 0.419 0.0274
 8 mu         0.2   0.3 0.466 0.0389
 9 mu         0.2   0.4 0.562 0.0524
10 mu         0.2   0.5 0.595 0.0362
# ℹ 350 more rows
…
