…
`.groups` argument.
`summarise()` has grouped output by 'theta'. You can override using the
`.groups` argument.
`summarise()` has grouped output by 'theta', 'tau'. You can override using the
`.groups` argument.
`summarise()` has grouped output by 'theta'. You can override using the
`.groups` argument.
`summarise()` has grouped output by 'theta', 'tau'. You can override using the
`.groups` argument.
`summarise()` has grouped output by 'theta'. You can override using the
`.groups` argument.
[1] ""
[1] "Total run time was 256.584 seconds"
[1] "Estimation result: "
# A tibble: 360 × 5
   estimand theta   tau   est    se
   <chr>    <dbl> <dbl> <dbl> <dbl>
 1 mu         0.1   0.1 1.16  0.540
 2 mu         0.1   0.2 1.67  0.766
 3 mu         0.1   0.3 1.98  0.906
 4 mu         0.1   0.4 2.19  1.03 
 5 mu         0.1   0.5 2.34  1.10 
 6 mu         0.2   0.1 0.539 0.143
 7 mu         0.2   0.2 0.770 0.157
 8 mu         0.2   0.3 0.915 0.192
 9 mu         0.2   0.4 0.991 0.212
10 mu         0.2   0.5 1.06  0.231
# ℹ 350 more rows
…
