…
`.groups` argument.
`summarise()` has grouped output by 'theta'. You can override using the
`.groups` argument.
`summarise()` has grouped output by 'theta', 'tau'. You can override using the
`.groups` argument.
`summarise()` has grouped output by 'theta'. You can override using the
`.groups` argument.
`summarise()` has grouped output by 'theta', 'tau'. You can override using the
`.groups` argument.
`summarise()` has grouped output by 'theta'. You can override using the
`.groups` argument.
[1] ""
[1] "Total run time was 213.768 seconds"
[1] "Estimation result: "
# A tibble: 360 × 5
   estimand theta   tau   est     se
   <chr>    <dbl> <dbl> <dbl>  <dbl>
 1 mu         0.1   0.1 0.469 0.0647
 2 mu         0.1   0.2 0.526 0.0985
 3 mu         0.1   0.3 0.603 0.132 
 4 mu         0.1   0.4 0.654 0.120 
 5 mu         0.1   0.5 0.721 0.116 
 6 mu         0.2   0.1 0.349 0.0261
 7 mu         0.2   0.2 0.399 0.0526
 8 mu         0.2   0.3 0.455 0.0770
 9 mu         0.2   0.4 0.491 0.0640
10 mu         0.2   0.5 0.541 0.0562
# ℹ 350 more rows
…
