…
`.groups` argument.
`summarise()` has grouped output by 'theta'. You can override using the
`.groups` argument.
`summarise()` has grouped output by 'theta', 'tau'. You can override using the
`.groups` argument.
`summarise()` has grouped output by 'theta'. You can override using the
`.groups` argument.
`summarise()` has grouped output by 'theta', 'tau'. You can override using the
`.groups` argument.
`summarise()` has grouped output by 'theta'. You can override using the
`.groups` argument.
[1] ""
[1] "Total run time was 243.8 seconds"
[1] "Estimation result: "
# A tibble: 360 × 5
   estimand theta   tau   est     se
   <chr>    <dbl> <dbl> <dbl>  <dbl>
 1 mu         0.1   0.1 0.449 0.0906
 2 mu         0.1   0.2 0.497 0.0687
 3 mu         0.1   0.3 0.606 0.109 
 4 mu         0.1   0.4 0.627 0.110 
 5 mu         0.1   0.5 0.646 0.105 
 6 mu         0.2   0.1 0.330 0.0430
 7 mu         0.2   0.2 0.408 0.0481
 8 mu         0.2   0.3 0.469 0.0472
 9 mu         0.2   0.4 0.498 0.0497
10 mu         0.2   0.5 0.516 0.0553
# ℹ 350 more rows
…
