…
`.groups` argument.
`summarise()` has grouped output by 'theta'. You can override using the
`.groups` argument.
`summarise()` has grouped output by 'theta', 'tau'. You can override using the
`.groups` argument.
`summarise()` has grouped output by 'theta'. You can override using the
`.groups` argument.
`summarise()` has grouped output by 'theta', 'tau'. You can override using the
`.groups` argument.
`summarise()` has grouped output by 'theta'. You can override using the
`.groups` argument.
[1] ""
[1] "Total run time was 183.957 seconds"
[1] "Estimation result: "
# A tibble: 360 × 5
   estimand theta   tau   est    se
   <chr>    <dbl> <dbl> <dbl> <dbl>
 1 mu         0.1   0.1 0.359 0.164
 2 mu         0.1   0.2 0.401 0.187
 3 mu         0.1   0.3 0.462 0.215
 4 mu         0.1   0.4 0.547 0.264
 5 mu         0.1   0.5 0.585 0.290
 6 mu         0.2   0.1 0.546 0.168
 7 mu         0.2   0.2 0.636 0.193
 8 mu         0.2   0.3 0.737 0.223
 9 mu         0.2   0.4 0.850 0.262
10 mu         0.2   0.5 0.908 0.284
# ℹ 350 more rows
…
