…
`.groups` argument.
`summarise()` has grouped output by 'theta'. You can override using the
`.groups` argument.
`summarise()` has grouped output by 'theta', 'tau'. You can override using the
`.groups` argument.
`summarise()` has grouped output by 'theta'. You can override using the
`.groups` argument.
`summarise()` has grouped output by 'theta', 'tau'. You can override using the
`.groups` argument.
`summarise()` has grouped output by 'theta'. You can override using the
`.groups` argument.
[1] ""
[1] "Total run time was 108.792 seconds"
[1] "Estimation result: "
# A tibble: 360 × 5
   estimand theta   tau   est     se
   <chr>    <dbl> <dbl> <dbl>  <dbl>
 1 mu         0.1   0.1 0.457 0.0700
 2 mu         0.1   0.2 0.508 0.0661
 3 mu         0.1   0.3 0.557 0.0638
 4 mu         0.1   0.4 0.594 0.0631
 5 mu         0.1   0.5 0.617 0.0646
 6 mu         0.2   0.1 0.363 0.0361
 7 mu         0.2   0.2 0.439 0.0503
 8 mu         0.2   0.3 0.467 0.0416
 9 mu         0.2   0.4 0.503 0.0434
10 mu         0.2   0.5 0.526 0.0424
# ℹ 350 more rows
…
