…
`.groups` argument.
`summarise()` has grouped output by 'theta'. You can override using the
`.groups` argument.
`summarise()` has grouped output by 'theta', 'tau'. You can override using the
`.groups` argument.
`summarise()` has grouped output by 'theta'. You can override using the
`.groups` argument.
`summarise()` has grouped output by 'theta', 'tau'. You can override using the
`.groups` argument.
`summarise()` has grouped output by 'theta'. You can override using the
`.groups` argument.
[1] ""
[1] "Total run time was 142.217 seconds"
[1] "Estimation result: "
# A tibble: 360 × 5
   estimand theta   tau   est     se
   <chr>    <dbl> <dbl> <dbl>  <dbl>
 1 mu         0.1   0.1 0.382 0.0398
 2 mu         0.1   0.2 0.507 0.0403
 3 mu         0.1   0.3 0.563 0.0439
 4 mu         0.1   0.4 0.594 0.0399
 5 mu         0.1   0.5 0.616 0.0444
 6 mu         0.2   0.1 0.324 0.0393
 7 mu         0.2   0.2 0.478 0.0441
 8 mu         0.2   0.3 0.530 0.0401
 9 mu         0.2   0.4 0.558 0.0385
10 mu         0.2   0.5 0.587 0.0340
# ℹ 350 more rows
…
