…
`.groups` argument.
`summarise()` has grouped output by 'theta'. You can override using the
`.groups` argument.
`summarise()` has grouped output by 'theta', 'tau'. You can override using the
`.groups` argument.
`summarise()` has grouped output by 'theta'. You can override using the
`.groups` argument.
`summarise()` has grouped output by 'theta', 'tau'. You can override using the
`.groups` argument.
`summarise()` has grouped output by 'theta'. You can override using the
`.groups` argument.
[1] ""
[1] "Total run time was 117.617 seconds"
[1] "Estimation result: "
# A tibble: 360 × 5
   estimand theta   tau   est     se
   <chr>    <dbl> <dbl> <dbl>  <dbl>
 1 mu         0.1   0.1 0.454 0.0962
 2 mu         0.1   0.2 0.549 0.0996
 3 mu         0.1   0.3 0.568 0.0984
 4 mu         0.1   0.4 0.606 0.0812
 5 mu         0.1   0.5 0.636 0.0762
 6 mu         0.2   0.1 0.355 0.0464
 7 mu         0.2   0.2 0.448 0.0489
 8 mu         0.2   0.3 0.471 0.0501
 9 mu         0.2   0.4 0.507 0.0458
10 mu         0.2   0.5 0.563 0.0558
# ℹ 350 more rows
…
