…
`.groups` argument.
`summarise()` has grouped output by 'theta'. You can override using the
`.groups` argument.
`summarise()` has grouped output by 'theta', 'tau'. You can override using the
`.groups` argument.
`summarise()` has grouped output by 'theta'. You can override using the
`.groups` argument.
`summarise()` has grouped output by 'theta', 'tau'. You can override using the
`.groups` argument.
`summarise()` has grouped output by 'theta'. You can override using the
`.groups` argument.
[1] ""
[1] "Total run time was 114.746 seconds"
[1] "Estimation result: "
# A tibble: 360 × 5
   estimand theta   tau   est     se
   <chr>    <dbl> <dbl> <dbl>  <dbl>
 1 mu         0.1   0.1 0.439 0.0700
 2 mu         0.1   0.2 0.496 0.0604
 3 mu         0.1   0.3 0.525 0.0937
 4 mu         0.1   0.4 0.564 0.0771
 5 mu         0.1   0.5 0.570 0.0796
 6 mu         0.2   0.1 0.381 0.0534
 7 mu         0.2   0.2 0.444 0.0472
 8 mu         0.2   0.3 0.478 0.0745
 9 mu         0.2   0.4 0.527 0.0639
10 mu         0.2   0.5 0.542 0.0632
# ℹ 350 more rows
…
