…
`.groups` argument.
`summarise()` has grouped output by 'theta'. You can override using the
`.groups` argument.
`summarise()` has grouped output by 'theta', 'tau'. You can override using the
`.groups` argument.
`summarise()` has grouped output by 'theta'. You can override using the
`.groups` argument.
`summarise()` has grouped output by 'theta', 'tau'. You can override using the
`.groups` argument.
`summarise()` has grouped output by 'theta'. You can override using the
`.groups` argument.
[1] ""
[1] "Total run time was 107.81 seconds"
[1] "Estimation result: "
# A tibble: 360 × 5
   estimand theta   tau   est     se
   <chr>    <dbl> <dbl> <dbl>  <dbl>
 1 mu         0.1   0.1 0.463 0.0451
 2 mu         0.1   0.2 0.513 0.0404
 3 mu         0.1   0.3 0.564 0.0451
 4 mu         0.1   0.4 0.629 0.0578
 5 mu         0.1   0.5 0.677 0.0478
 6 mu         0.2   0.1 0.372 0.0378
 7 mu         0.2   0.2 0.439 0.0451
 8 mu         0.2   0.3 0.491 0.0407
 9 mu         0.2   0.4 0.545 0.0449
10 mu         0.2   0.5 0.600 0.0419
# ℹ 350 more rows
…
