…
`.groups` argument.
`summarise()` has grouped output by 'theta'. You can override using the
`.groups` argument.
`summarise()` has grouped output by 'theta', 'tau'. You can override using the
`.groups` argument.
`summarise()` has grouped output by 'theta'. You can override using the
`.groups` argument.
`summarise()` has grouped output by 'theta', 'tau'. You can override using the
`.groups` argument.
`summarise()` has grouped output by 'theta'. You can override using the
`.groups` argument.
[1] ""
[1] "Total run time was 154.437 seconds"
[1] "Estimation result: "
# A tibble: 360 × 5
   estimand theta   tau   est     se
   <chr>    <dbl> <dbl> <dbl>  <dbl>
 1 mu         0.1   0.1 0.361 0.0424
 2 mu         0.1   0.2 0.466 0.0498
 3 mu         0.1   0.3 0.508 0.0435
 4 mu         0.1   0.4 0.551 0.0432
 5 mu         0.1   0.5 0.586 0.0475
 6 mu         0.2   0.1 0.349 0.0288
 7 mu         0.2   0.2 0.452 0.0362
 8 mu         0.2   0.3 0.494 0.0341
 9 mu         0.2   0.4 0.529 0.0376
10 mu         0.2   0.5 0.575 0.0374
# ℹ 350 more rows
…
