…
`.groups` argument.
`summarise()` has grouped output by 'theta'. You can override using the
`.groups` argument.
`summarise()` has grouped output by 'theta', 'tau'. You can override using the
`.groups` argument.
`summarise()` has grouped output by 'theta'. You can override using the
`.groups` argument.
`summarise()` has grouped output by 'theta', 'tau'. You can override using the
`.groups` argument.
`summarise()` has grouped output by 'theta'. You can override using the
`.groups` argument.
[1] ""
[1] "Total run time was 139.835 seconds"
[1] "Estimation result: "
# A tibble: 360 × 5
   estimand theta   tau   est     se
   <chr>    <dbl> <dbl> <dbl>  <dbl>
 1 mu         0.1   0.1 0.451 0.0457
 2 mu         0.1   0.2 0.524 0.0490
 3 mu         0.1   0.3 0.581 0.0457
 4 mu         0.1   0.4 0.624 0.0550
 5 mu         0.1   0.5 0.655 0.0499
 6 mu         0.2   0.1 0.366 0.0299
 7 mu         0.2   0.2 0.463 0.0351
 8 mu         0.2   0.3 0.519 0.0327
 9 mu         0.2   0.4 0.565 0.0376
10 mu         0.2   0.5 0.610 0.0330
# ℹ 350 more rows
…
