…
`.groups` argument.
`summarise()` has grouped output by 'theta'. You can override using the
`.groups` argument.
`summarise()` has grouped output by 'theta', 'tau'. You can override using the
`.groups` argument.
`summarise()` has grouped output by 'theta'. You can override using the
`.groups` argument.
`summarise()` has grouped output by 'theta', 'tau'. You can override using the
`.groups` argument.
`summarise()` has grouped output by 'theta'. You can override using the
`.groups` argument.
[1] ""
[1] "Total run time was 165.063 seconds"
[1] "Estimation result: "
# A tibble: 360 × 5
   estimand theta   tau   est     se
   <chr>    <dbl> <dbl> <dbl>  <dbl>
 1 mu         0.1   0.1 0.285 0.0570
 2 mu         0.1   0.2 0.413 0.0527
 3 mu         0.1   0.3 0.479 0.0627
 4 mu         0.1   0.4 0.533 0.0637
 5 mu         0.1   0.5 0.583 0.0715
 6 mu         0.2   0.1 0.271 0.0301
 7 mu         0.2   0.2 0.376 0.0320
 8 mu         0.2   0.3 0.445 0.0334
 9 mu         0.2   0.4 0.524 0.0395
10 mu         0.2   0.5 0.572 0.0494
# ℹ 350 more rows
…
