…
`.groups` argument.
`summarise()` has grouped output by 'theta'. You can override using the
`.groups` argument.
`summarise()` has grouped output by 'theta', 'tau'. You can override using the
`.groups` argument.
`summarise()` has grouped output by 'theta'. You can override using the
`.groups` argument.
`summarise()` has grouped output by 'theta', 'tau'. You can override using the
`.groups` argument.
`summarise()` has grouped output by 'theta'. You can override using the
`.groups` argument.
[1] ""
[1] "Total run time was 135.072 seconds"
[1] "Estimation result: "
# A tibble: 360 × 5
   estimand theta   tau   est     se
   <chr>    <dbl> <dbl> <dbl>  <dbl>
 1 mu         0.1   0.1 0.384 0.0447
 2 mu         0.1   0.2 0.437 0.0747
 3 mu         0.1   0.3 0.495 0.0624
 4 mu         0.1   0.4 0.548 0.0614
 5 mu         0.1   0.5 0.599 0.0544
 6 mu         0.2   0.1 0.360 0.0349
 7 mu         0.2   0.2 0.442 0.0405
 8 mu         0.2   0.3 0.479 0.0364
 9 mu         0.2   0.4 0.526 0.0384
10 mu         0.2   0.5 0.573 0.0361
# ℹ 350 more rows
…
