…
`.groups` argument.
`summarise()` has grouped output by 'theta'. You can override using the
`.groups` argument.
`summarise()` has grouped output by 'theta', 'tau'. You can override using the
`.groups` argument.
`summarise()` has grouped output by 'theta'. You can override using the
`.groups` argument.
`summarise()` has grouped output by 'theta', 'tau'. You can override using the
`.groups` argument.
`summarise()` has grouped output by 'theta'. You can override using the
`.groups` argument.
[1] ""
[1] "Total run time was 123.57 seconds"
[1] "Estimation result: "
# A tibble: 360 × 5
   estimand theta   tau   est     se
   <chr>    <dbl> <dbl> <dbl>  <dbl>
 1 mu         0.1   0.1 0.382 0.0650
 2 mu         0.1   0.2 0.478 0.0561
 3 mu         0.1   0.3 0.549 0.0863
 4 mu         0.1   0.4 0.606 0.0977
 5 mu         0.1   0.5 0.651 0.0849
 6 mu         0.2   0.1 0.368 0.0415
 7 mu         0.2   0.2 0.442 0.0395
 8 mu         0.2   0.3 0.487 0.0445
 9 mu         0.2   0.4 0.542 0.0470
10 mu         0.2   0.5 0.569 0.0429
# ℹ 350 more rows
…
