…
`.groups` argument.
`summarise()` has grouped output by 'theta'. You can override using the
`.groups` argument.
`summarise()` has grouped output by 'theta', 'tau'. You can override using the
`.groups` argument.
`summarise()` has grouped output by 'theta'. You can override using the
`.groups` argument.
`summarise()` has grouped output by 'theta', 'tau'. You can override using the
`.groups` argument.
`summarise()` has grouped output by 'theta'. You can override using the
`.groups` argument.
[1] ""
[1] "Total run time was 115.072 seconds"
[1] "Estimation result: "
# A tibble: 360 × 5
   estimand theta   tau   est     se
   <chr>    <dbl> <dbl> <dbl>  <dbl>
 1 mu         0.1   0.1 0.413 0.0425
 2 mu         0.1   0.2 0.508 0.0474
 3 mu         0.1   0.3 0.597 0.0578
 4 mu         0.1   0.4 0.616 0.0591
 5 mu         0.1   0.5 0.634 0.0568
 6 mu         0.2   0.1 0.362 0.0349
 7 mu         0.2   0.2 0.446 0.0336
 8 mu         0.2   0.3 0.522 0.0390
 9 mu         0.2   0.4 0.542 0.0404
10 mu         0.2   0.5 0.568 0.0402
# ℹ 350 more rows
…
