…
`.groups` argument.
`summarise()` has grouped output by 'theta'. You can override using the
`.groups` argument.
`summarise()` has grouped output by 'theta', 'tau'. You can override using the
`.groups` argument.
`summarise()` has grouped output by 'theta'. You can override using the
`.groups` argument.
`summarise()` has grouped output by 'theta', 'tau'. You can override using the
`.groups` argument.
`summarise()` has grouped output by 'theta'. You can override using the
`.groups` argument.
[1] ""
[1] "Total run time was 113.038 seconds"
[1] "Estimation result: "
# A tibble: 360 × 5
   estimand theta   tau   est     se
   <chr>    <dbl> <dbl> <dbl>  <dbl>
 1 mu         0.1   0.1 0.405 0.0463
 2 mu         0.1   0.2 0.472 0.0590
 3 mu         0.1   0.3 0.553 0.0589
 4 mu         0.1   0.4 0.587 0.0542
 5 mu         0.1   0.5 0.614 0.0603
 6 mu         0.2   0.1 0.368 0.0388
 7 mu         0.2   0.2 0.461 0.0436
 8 mu         0.2   0.3 0.554 0.0481
 9 mu         0.2   0.4 0.593 0.0485
10 mu         0.2   0.5 0.620 0.0485
# ℹ 350 more rows
…
