…
`.groups` argument.
`summarise()` has grouped output by 'theta'. You can override using the
`.groups` argument.
`summarise()` has grouped output by 'theta', 'tau'. You can override using the
`.groups` argument.
`summarise()` has grouped output by 'theta'. You can override using the
`.groups` argument.
`summarise()` has grouped output by 'theta', 'tau'. You can override using the
`.groups` argument.
`summarise()` has grouped output by 'theta'. You can override using the
`.groups` argument.
[1] ""
[1] "Total run time was 154 seconds"
[1] "Estimation result: "
# A tibble: 360 × 5
   estimand theta   tau   est     se
   <chr>    <dbl> <dbl> <dbl>  <dbl>
 1 mu         0.1   0.1 0.409 0.0453
 2 mu         0.1   0.2 0.495 0.0413
 3 mu         0.1   0.3 0.564 0.0456
 4 mu         0.1   0.4 0.621 0.0452
 5 mu         0.1   0.5 0.637 0.0424
 6 mu         0.2   0.1 0.374 0.0515
 7 mu         0.2   0.2 0.475 0.0493
 8 mu         0.2   0.3 0.526 0.0530
 9 mu         0.2   0.4 0.593 0.0492
10 mu         0.2   0.5 0.617 0.0460
# ℹ 350 more rows
…
