…
`.groups` argument.
`summarise()` has grouped output by 'theta'. You can override using the
`.groups` argument.
`summarise()` has grouped output by 'theta', 'tau'. You can override using the
`.groups` argument.
`summarise()` has grouped output by 'theta'. You can override using the
`.groups` argument.
`summarise()` has grouped output by 'theta', 'tau'. You can override using the
`.groups` argument.
`summarise()` has grouped output by 'theta'. You can override using the
`.groups` argument.
[1] ""
[1] "Total run time was 165.092 seconds"
[1] "Estimation result: "
# A tibble: 360 × 5
   estimand theta   tau   est     se
   <chr>    <dbl> <dbl> <dbl>  <dbl>
 1 mu         0.1   0.1 0.399 0.0317
 2 mu         0.1   0.2 0.489 0.0326
 3 mu         0.1   0.3 0.547 0.0318
 4 mu         0.1   0.4 0.624 0.0514
 5 mu         0.1   0.5 0.648 0.0482
 6 mu         0.2   0.1 0.373 0.0273
 7 mu         0.2   0.2 0.453 0.0294
 8 mu         0.2   0.3 0.514 0.0297
 9 mu         0.2   0.4 0.589 0.0459
10 mu         0.2   0.5 0.613 0.0426
# ℹ 350 more rows
…
