…
`.groups` argument.
`summarise()` has grouped output by 'theta'. You can override using the
`.groups` argument.
`summarise()` has grouped output by 'theta', 'tau'. You can override using the
`.groups` argument.
`summarise()` has grouped output by 'theta'. You can override using the
`.groups` argument.
`summarise()` has grouped output by 'theta', 'tau'. You can override using the
`.groups` argument.
`summarise()` has grouped output by 'theta'. You can override using the
`.groups` argument.
[1] ""
[1] "Total run time was 220.517 seconds"
[1] "Estimation result: "
# A tibble: 360 × 5
   estimand theta   tau   est     se
   <chr>    <dbl> <dbl> <dbl>  <dbl>
 1 mu         0.1   0.1 0.452 0.0472
 2 mu         0.1   0.2 0.556 0.0449
 3 mu         0.1   0.3 0.597 0.0488
 4 mu         0.1   0.4 0.697 0.0500
 5 mu         0.1   0.5 0.735 0.0581
 6 mu         0.2   0.1 0.369 0.0332
 7 mu         0.2   0.2 0.451 0.0358
 8 mu         0.2   0.3 0.500 0.0413
 9 mu         0.2   0.4 0.572 0.0372
10 mu         0.2   0.5 0.608 0.0446
# ℹ 350 more rows
…
