…
`.groups` argument.
`summarise()` has grouped output by 'theta'. You can override using the
`.groups` argument.
`summarise()` has grouped output by 'theta', 'tau'. You can override using the
`.groups` argument.
`summarise()` has grouped output by 'theta'. You can override using the
`.groups` argument.
`summarise()` has grouped output by 'theta', 'tau'. You can override using the
`.groups` argument.
`summarise()` has grouped output by 'theta'. You can override using the
`.groups` argument.
[1] ""
[1] "Total run time was 103.132 seconds"
[1] "Estimation result: "
# A tibble: 360 × 5
   estimand theta   tau   est     se
   <chr>    <dbl> <dbl> <dbl>  <dbl>
 1 mu         0.1   0.1 0.458 0.0465
 2 mu         0.1   0.2 0.543 0.0437
 3 mu         0.1   0.3 0.578 0.0440
 4 mu         0.1   0.4 0.621 0.0425
 5 mu         0.1   0.5 0.638 0.0397
 6 mu         0.2   0.1 0.408 0.0399
 7 mu         0.2   0.2 0.490 0.0358
 8 mu         0.2   0.3 0.531 0.0343
 9 mu         0.2   0.4 0.569 0.0328
10 mu         0.2   0.5 0.597 0.0349
# ℹ 350 more rows
…
