…
`.groups` argument.
`summarise()` has grouped output by 'theta'. You can override using the
`.groups` argument.
`summarise()` has grouped output by 'theta', 'tau'. You can override using the
`.groups` argument.
`summarise()` has grouped output by 'theta'. You can override using the
`.groups` argument.
`summarise()` has grouped output by 'theta', 'tau'. You can override using the
`.groups` argument.
`summarise()` has grouped output by 'theta'. You can override using the
`.groups` argument.
[1] ""
[1] "Total run time was 124.421 seconds"
[1] "Estimation result: "
# A tibble: 360 × 5
   estimand theta   tau   est     se
   <chr>    <dbl> <dbl> <dbl>  <dbl>
 1 mu         0.1   0.1 0.445 0.0697
 2 mu         0.1   0.2 0.490 0.0822
 3 mu         0.1   0.3 0.517 0.0951
 4 mu         0.1   0.4 0.542 0.101 
 5 mu         0.1   0.5 0.587 0.0845
 6 mu         0.2   0.1 0.366 0.0450
 7 mu         0.2   0.2 0.417 0.0528
 8 mu         0.2   0.3 0.440 0.0591
 9 mu         0.2   0.4 0.464 0.0642
10 mu         0.2   0.5 0.516 0.0574
# ℹ 350 more rows
…
