…
`.groups` argument.
`summarise()` has grouped output by 'theta'. You can override using the
`.groups` argument.
`summarise()` has grouped output by 'theta', 'tau'. You can override using the
`.groups` argument.
`summarise()` has grouped output by 'theta'. You can override using the
`.groups` argument.
`summarise()` has grouped output by 'theta', 'tau'. You can override using the
`.groups` argument.
`summarise()` has grouped output by 'theta'. You can override using the
`.groups` argument.
[1] ""
[1] "Total run time was 112.643 seconds"
[1] "Estimation result: "
# A tibble: 360 × 5
   estimand theta   tau   est     se
   <chr>    <dbl> <dbl> <dbl>  <dbl>
 1 mu         0.1   0.1 0.345 0.0368
 2 mu         0.1   0.2 0.450 0.0405
 3 mu         0.1   0.3 0.521 0.0506
 4 mu         0.1   0.4 0.561 0.0547
 5 mu         0.1   0.5 0.619 0.0655
 6 mu         0.2   0.1 0.303 0.0238
 7 mu         0.2   0.2 0.400 0.0311
 8 mu         0.2   0.3 0.478 0.0375
 9 mu         0.2   0.4 0.522 0.0382
10 mu         0.2   0.5 0.579 0.0441
# ℹ 350 more rows
…
