…
`.groups` argument.
`summarise()` has grouped output by 'theta'. You can override using the
`.groups` argument.
`summarise()` has grouped output by 'theta', 'tau'. You can override using the
`.groups` argument.
`summarise()` has grouped output by 'theta'. You can override using the
`.groups` argument.
`summarise()` has grouped output by 'theta', 'tau'. You can override using the
`.groups` argument.
`summarise()` has grouped output by 'theta'. You can override using the
`.groups` argument.
[1] ""
[1] "Total run time was 186.832 seconds"
[1] "Estimation result: "
# A tibble: 360 × 5
   estimand theta   tau   est     se
   <chr>    <dbl> <dbl> <dbl>  <dbl>
 1 mu         0.1   0.1 0.413 0.0412
 2 mu         0.1   0.2 0.458 0.0439
 3 mu         0.1   0.3 0.505 0.0511
 4 mu         0.1   0.4 0.548 0.0491
 5 mu         0.1   0.5 0.585 0.0470
 6 mu         0.2   0.1 0.372 0.0308
 7 mu         0.2   0.2 0.431 0.0349
 8 mu         0.2   0.3 0.477 0.0391
 9 mu         0.2   0.4 0.518 0.0367
10 mu         0.2   0.5 0.563 0.0310
# ℹ 350 more rows
…
