…
`.groups` argument.
`summarise()` has grouped output by 'theta'. You can override using the
`.groups` argument.
`summarise()` has grouped output by 'theta', 'tau'. You can override using the
`.groups` argument.
`summarise()` has grouped output by 'theta'. You can override using the
`.groups` argument.
`summarise()` has grouped output by 'theta', 'tau'. You can override using the
`.groups` argument.
`summarise()` has grouped output by 'theta'. You can override using the
`.groups` argument.
[1] ""
[1] "Total run time was 154.352 seconds"
[1] "Estimation result: "
# A tibble: 360 × 5
   estimand theta   tau   est     se
   <chr>    <dbl> <dbl> <dbl>  <dbl>
 1 mu         0.1   0.1 0.525 0.0437
 2 mu         0.1   0.2 0.615 0.0583
 3 mu         0.1   0.3 0.672 0.0476
 4 mu         0.1   0.4 0.719 0.0522
 5 mu         0.1   0.5 0.768 0.0491
 6 mu         0.2   0.1 0.443 0.0333
 7 mu         0.2   0.2 0.517 0.0418
 8 mu         0.2   0.3 0.573 0.0361
 9 mu         0.2   0.4 0.631 0.0386
10 mu         0.2   0.5 0.672 0.0365
# ℹ 350 more rows
…
