…
`.groups` argument.
`summarise()` has grouped output by 'theta'. You can override using the
`.groups` argument.
`summarise()` has grouped output by 'theta', 'tau'. You can override using the
`.groups` argument.
`summarise()` has grouped output by 'theta'. You can override using the
`.groups` argument.
`summarise()` has grouped output by 'theta', 'tau'. You can override using the
`.groups` argument.
`summarise()` has grouped output by 'theta'. You can override using the
`.groups` argument.
[1] ""
[1] "Total run time was 106.473 seconds"
[1] "Estimation result: "
# A tibble: 360 × 5
   estimand theta   tau   est     se
   <chr>    <dbl> <dbl> <dbl>  <dbl>
 1 mu         0.1   0.1 0.459 0.0571
 2 mu         0.1   0.2 0.561 0.0596
 3 mu         0.1   0.3 0.613 0.0498
 4 mu         0.1   0.4 0.649 0.0459
 5 mu         0.1   0.5 0.680 0.0408
 6 mu         0.2   0.1 0.400 0.0315
 7 mu         0.2   0.2 0.509 0.0397
 8 mu         0.2   0.3 0.561 0.0367
 9 mu         0.2   0.4 0.597 0.0401
10 mu         0.2   0.5 0.623 0.0338
# ℹ 350 more rows
…
