…
`.groups` argument.
`summarise()` has grouped output by 'theta'. You can override using the
`.groups` argument.
`summarise()` has grouped output by 'theta', 'tau'. You can override using the
`.groups` argument.
`summarise()` has grouped output by 'theta'. You can override using the
`.groups` argument.
`summarise()` has grouped output by 'theta', 'tau'. You can override using the
`.groups` argument.
`summarise()` has grouped output by 'theta'. You can override using the
`.groups` argument.
[1] ""
[1] "Total run time was 114.917 seconds"
[1] "Estimation result: "
# A tibble: 360 × 5
   estimand theta   tau   est     se
   <chr>    <dbl> <dbl> <dbl>  <dbl>
 1 mu         0.1   0.1 0.333 0.0678
 2 mu         0.1   0.2 0.393 0.0576
 3 mu         0.1   0.3 0.520 0.0408
 4 mu         0.1   0.4 0.558 0.0458
 5 mu         0.1   0.5 0.627 0.0551
 6 mu         0.2   0.1 0.359 0.0429
 7 mu         0.2   0.2 0.415 0.0368
 8 mu         0.2   0.3 0.506 0.0379
 9 mu         0.2   0.4 0.529 0.0384
10 mu         0.2   0.5 0.572 0.0364
# ℹ 350 more rows
…
