…
`.groups` argument.
`summarise()` has grouped output by 'theta'. You can override using the
`.groups` argument.
`summarise()` has grouped output by 'theta', 'tau'. You can override using the
`.groups` argument.
`summarise()` has grouped output by 'theta'. You can override using the
`.groups` argument.
`summarise()` has grouped output by 'theta', 'tau'. You can override using the
`.groups` argument.
`summarise()` has grouped output by 'theta'. You can override using the
`.groups` argument.
[1] ""
[1] "Total run time was 115.829 seconds"
[1] "Estimation result: "
# A tibble: 360 × 5
   estimand theta   tau   est     se
   <chr>    <dbl> <dbl> <dbl>  <dbl>
 1 mu         0.1   0.1 0.482 0.0608
 2 mu         0.1   0.2 0.579 0.0459
 3 mu         0.1   0.3 0.626 0.0506
 4 mu         0.1   0.4 0.670 0.0590
 5 mu         0.1   0.5 0.735 0.0511
 6 mu         0.2   0.1 0.378 0.0441
 7 mu         0.2   0.2 0.479 0.0341
 8 mu         0.2   0.3 0.525 0.0372
 9 mu         0.2   0.4 0.561 0.0401
10 mu         0.2   0.5 0.634 0.0396
# ℹ 350 more rows
…
