…
`.groups` argument.
`summarise()` has grouped output by 'theta'. You can override using the
`.groups` argument.
`summarise()` has grouped output by 'theta', 'tau'. You can override using the
`.groups` argument.
`summarise()` has grouped output by 'theta'. You can override using the
`.groups` argument.
`summarise()` has grouped output by 'theta', 'tau'. You can override using the
`.groups` argument.
`summarise()` has grouped output by 'theta'. You can override using the
`.groups` argument.
[1] ""
[1] "Total run time was 126.23 seconds"
[1] "Estimation result: "
# A tibble: 360 × 5
   estimand theta   tau   est     se
   <chr>    <dbl> <dbl> <dbl>  <dbl>
 1 mu         0.1   0.1 0.445 0.0561
 2 mu         0.1   0.2 0.517 0.0700
 3 mu         0.1   0.3 0.583 0.0626
 4 mu         0.1   0.4 0.598 0.0587
 5 mu         0.1   0.5 0.613 0.0701
 6 mu         0.2   0.1 0.353 0.0317
 7 mu         0.2   0.2 0.412 0.0388
 8 mu         0.2   0.3 0.487 0.0348
 9 mu         0.2   0.4 0.511 0.0299
10 mu         0.2   0.5 0.542 0.0366
# ℹ 350 more rows
…
