…
`.groups` argument.
`summarise()` has grouped output by 'theta'. You can override using the
`.groups` argument.
`summarise()` has grouped output by 'theta', 'tau'. You can override using the
`.groups` argument.
`summarise()` has grouped output by 'theta'. You can override using the
`.groups` argument.
`summarise()` has grouped output by 'theta', 'tau'. You can override using the
`.groups` argument.
`summarise()` has grouped output by 'theta'. You can override using the
`.groups` argument.
[1] ""
[1] "Total run time was 121.261 seconds"
[1] "Estimation result: "
# A tibble: 360 × 5
   estimand theta   tau   est     se
   <chr>    <dbl> <dbl> <dbl>  <dbl>
 1 mu         0.1   0.1 0.455 0.0554
 2 mu         0.1   0.2 0.557 0.0681
 3 mu         0.1   0.3 0.639 0.0568
 4 mu         0.1   0.4 0.665 0.0456
 5 mu         0.1   0.5 0.688 0.0485
 6 mu         0.2   0.1 0.384 0.0436
 7 mu         0.2   0.2 0.455 0.0514
 8 mu         0.2   0.3 0.529 0.0467
 9 mu         0.2   0.4 0.576 0.0389
10 mu         0.2   0.5 0.605 0.0427
# ℹ 350 more rows
…
