…
`.groups` argument.
`summarise()` has grouped output by 'theta'. You can override using the
`.groups` argument.
`summarise()` has grouped output by 'theta', 'tau'. You can override using the
`.groups` argument.
`summarise()` has grouped output by 'theta'. You can override using the
`.groups` argument.
`summarise()` has grouped output by 'theta', 'tau'. You can override using the
`.groups` argument.
`summarise()` has grouped output by 'theta'. You can override using the
`.groups` argument.
[1] ""
[1] "Total run time was 110.707 seconds"
[1] "Estimation result: "
# A tibble: 360 × 5
   estimand theta   tau   est     se
   <chr>    <dbl> <dbl> <dbl>  <dbl>
 1 mu         0.1   0.1 0.356 0.0715
 2 mu         0.1   0.2 0.504 0.104 
 3 mu         0.1   0.3 0.529 0.0998
 4 mu         0.1   0.4 0.577 0.113 
 5 mu         0.1   0.5 0.647 0.119 
 6 mu         0.2   0.1 0.314 0.0434
 7 mu         0.2   0.2 0.445 0.0539
 8 mu         0.2   0.3 0.487 0.0537
 9 mu         0.2   0.4 0.538 0.0620
10 mu         0.2   0.5 0.598 0.0656
# ℹ 350 more rows
…
