…
`.groups` argument.
`summarise()` has grouped output by 'theta'. You can override using the
`.groups` argument.
`summarise()` has grouped output by 'theta', 'tau'. You can override using the
`.groups` argument.
`summarise()` has grouped output by 'theta'. You can override using the
`.groups` argument.
`summarise()` has grouped output by 'theta', 'tau'. You can override using the
`.groups` argument.
`summarise()` has grouped output by 'theta'. You can override using the
`.groups` argument.
[1] ""
[1] "Total run time was 162.913 seconds"
[1] "Estimation result: "
# A tibble: 360 × 5
   estimand theta   tau   est     se
   <chr>    <dbl> <dbl> <dbl>  <dbl>
 1 mu         0.1   0.1 0.478 0.0567
 2 mu         0.1   0.2 0.568 0.0801
 3 mu         0.1   0.3 0.587 0.0744
 4 mu         0.1   0.4 0.617 0.0785
 5 mu         0.1   0.5 0.613 0.0787
 6 mu         0.2   0.1 0.401 0.0432
 7 mu         0.2   0.2 0.471 0.0488
 8 mu         0.2   0.3 0.506 0.0525
 9 mu         0.2   0.4 0.543 0.0580
10 mu         0.2   0.5 0.552 0.0624
# ℹ 350 more rows
…
