…
`.groups` argument.
`summarise()` has grouped output by 'theta'. You can override using the
`.groups` argument.
`summarise()` has grouped output by 'theta', 'tau'. You can override using the
`.groups` argument.
`summarise()` has grouped output by 'theta'. You can override using the
`.groups` argument.
`summarise()` has grouped output by 'theta', 'tau'. You can override using the
`.groups` argument.
`summarise()` has grouped output by 'theta'. You can override using the
`.groups` argument.
[1] ""
[1] "Total run time was 114.07 seconds"
[1] "Estimation result: "
# A tibble: 360 × 5
   estimand theta   tau   est     se
   <chr>    <dbl> <dbl> <dbl>  <dbl>
 1 mu         0.1   0.1 0.361 0.0533
 2 mu         0.1   0.2 0.434 0.0554
 3 mu         0.1   0.3 0.498 0.0512
 4 mu         0.1   0.4 0.523 0.0512
 5 mu         0.1   0.5 0.569 0.0469
 6 mu         0.2   0.1 0.279 0.0388
 7 mu         0.2   0.2 0.368 0.0412
 8 mu         0.2   0.3 0.426 0.0383
 9 mu         0.2   0.4 0.454 0.0414
10 mu         0.2   0.5 0.502 0.0449
# ℹ 350 more rows
…
