…
`.groups` argument.
`summarise()` has grouped output by 'theta'. You can override using the
`.groups` argument.
`summarise()` has grouped output by 'theta', 'tau'. You can override using the
`.groups` argument.
`summarise()` has grouped output by 'theta'. You can override using the
`.groups` argument.
`summarise()` has grouped output by 'theta', 'tau'. You can override using the
`.groups` argument.
`summarise()` has grouped output by 'theta'. You can override using the
`.groups` argument.
[1] ""
[1] "Total run time was 126.253 seconds"
[1] "Estimation result: "
# A tibble: 360 × 5
   estimand theta   tau   est     se
   <chr>    <dbl> <dbl> <dbl>  <dbl>
 1 mu         0.1   0.1 0.317 0.0323
 2 mu         0.1   0.2 0.449 0.0355
 3 mu         0.1   0.3 0.546 0.0529
 4 mu         0.1   0.4 0.597 0.0559
 5 mu         0.1   0.5 0.659 0.0719
 6 mu         0.2   0.1 0.319 0.0294
 7 mu         0.2   0.2 0.422 0.0403
 8 mu         0.2   0.3 0.511 0.0513
 9 mu         0.2   0.4 0.556 0.0446
10 mu         0.2   0.5 0.606 0.0435
# ℹ 350 more rows
…
