…
`.groups` argument.
`summarise()` has grouped output by 'theta'. You can override using the
`.groups` argument.
`summarise()` has grouped output by 'theta', 'tau'. You can override using the
`.groups` argument.
`summarise()` has grouped output by 'theta'. You can override using the
`.groups` argument.
`summarise()` has grouped output by 'theta', 'tau'. You can override using the
`.groups` argument.
`summarise()` has grouped output by 'theta'. You can override using the
`.groups` argument.
[1] ""
[1] "Total run time was 139.559 seconds"
[1] "Estimation result: "
# A tibble: 360 × 5
   estimand theta   tau   est     se
   <chr>    <dbl> <dbl> <dbl>  <dbl>
 1 mu         0.1   0.1 0.468 0.0540
 2 mu         0.1   0.2 0.571 0.0593
 3 mu         0.1   0.3 0.602 0.0563
 4 mu         0.1   0.4 0.642 0.0505
 5 mu         0.1   0.5 0.713 0.0558
 6 mu         0.2   0.1 0.383 0.0274
 7 mu         0.2   0.2 0.474 0.0319
 8 mu         0.2   0.3 0.510 0.0331
 9 mu         0.2   0.4 0.550 0.0287
10 mu         0.2   0.5 0.608 0.0307
# ℹ 350 more rows
…
