…
`.groups` argument.
`summarise()` has grouped output by 'theta'. You can override using the
`.groups` argument.
`summarise()` has grouped output by 'theta', 'tau'. You can override using the
`.groups` argument.
`summarise()` has grouped output by 'theta'. You can override using the
`.groups` argument.
`summarise()` has grouped output by 'theta', 'tau'. You can override using the
`.groups` argument.
`summarise()` has grouped output by 'theta'. You can override using the
`.groups` argument.
[1] ""
[1] "Total run time was 120.088 seconds"
[1] "Estimation result: "
# A tibble: 360 × 5
   estimand theta   tau   est     se
   <chr>    <dbl> <dbl> <dbl>  <dbl>
 1 mu         0.1   0.1 0.402 0.0477
 2 mu         0.1   0.2 0.455 0.0430
 3 mu         0.1   0.3 0.548 0.0596
 4 mu         0.1   0.4 0.587 0.0507
 5 mu         0.1   0.5 0.622 0.0507
 6 mu         0.2   0.1 0.350 0.0288
 7 mu         0.2   0.2 0.419 0.0317
 8 mu         0.2   0.3 0.497 0.0353
 9 mu         0.2   0.4 0.540 0.0309
10 mu         0.2   0.5 0.578 0.0314
# ℹ 350 more rows
…
