…
`.groups` argument.
`summarise()` has grouped output by 'theta'. You can override using the
`.groups` argument.
`summarise()` has grouped output by 'theta', 'tau'. You can override using the
`.groups` argument.
`summarise()` has grouped output by 'theta'. You can override using the
`.groups` argument.
`summarise()` has grouped output by 'theta', 'tau'. You can override using the
`.groups` argument.
`summarise()` has grouped output by 'theta'. You can override using the
`.groups` argument.
[1] ""
[1] "Total run time was 115.589 seconds"
[1] "Estimation result: "
# A tibble: 360 × 5
   estimand theta   tau   est     se
   <chr>    <dbl> <dbl> <dbl>  <dbl>
 1 mu         0.1   0.1 0.340 0.0352
 2 mu         0.1   0.2 0.445 0.0393
 3 mu         0.1   0.3 0.542 0.0434
 4 mu         0.1   0.4 0.564 0.0415
 5 mu         0.1   0.5 0.623 0.0363
 6 mu         0.2   0.1 0.288 0.0287
 7 mu         0.2   0.2 0.379 0.0336
 8 mu         0.2   0.3 0.455 0.0372
 9 mu         0.2   0.4 0.489 0.0369
10 mu         0.2   0.5 0.537 0.0352
# ℹ 350 more rows
…
