…
`.groups` argument.
`summarise()` has grouped output by 'theta'. You can override using the
`.groups` argument.
`summarise()` has grouped output by 'theta', 'tau'. You can override using the
`.groups` argument.
`summarise()` has grouped output by 'theta'. You can override using the
`.groups` argument.
`summarise()` has grouped output by 'theta', 'tau'. You can override using the
`.groups` argument.
`summarise()` has grouped output by 'theta'. You can override using the
`.groups` argument.
[1] ""
[1] "Total run time was 176.845 seconds"
[1] "Estimation result: "
# A tibble: 360 × 5
   estimand theta   tau   est     se
   <chr>    <dbl> <dbl> <dbl>  <dbl>
 1 mu         0.1   0.1 0.438 0.0558
 2 mu         0.1   0.2 0.516 0.0556
 3 mu         0.1   0.3 0.566 0.0467
 4 mu         0.1   0.4 0.604 0.0529
 5 mu         0.1   0.5 0.641 0.0508
 6 mu         0.2   0.1 0.374 0.0436
 7 mu         0.2   0.2 0.466 0.0464
 8 mu         0.2   0.3 0.536 0.0434
 9 mu         0.2   0.4 0.576 0.0469
10 mu         0.2   0.5 0.612 0.0447
# ℹ 350 more rows
…
