…
`.groups` argument.
`summarise()` has grouped output by 'theta'. You can override using the
`.groups` argument.
`summarise()` has grouped output by 'theta', 'tau'. You can override using the
`.groups` argument.
`summarise()` has grouped output by 'theta'. You can override using the
`.groups` argument.
`summarise()` has grouped output by 'theta', 'tau'. You can override using the
`.groups` argument.
`summarise()` has grouped output by 'theta'. You can override using the
`.groups` argument.
[1] ""
[1] "Total run time was 114.844 seconds"
[1] "Estimation result: "
# A tibble: 360 × 5
   estimand theta   tau   est     se
   <chr>    <dbl> <dbl> <dbl>  <dbl>
 1 mu         0.1   0.1 0.467 0.0476
 2 mu         0.1   0.2 0.514 0.0438
 3 mu         0.1   0.3 0.561 0.0361
 4 mu         0.1   0.4 0.614 0.0468
 5 mu         0.1   0.5 0.626 0.0503
 6 mu         0.2   0.1 0.414 0.0430
 7 mu         0.2   0.2 0.475 0.0407
 8 mu         0.2   0.3 0.517 0.0319
 9 mu         0.2   0.4 0.572 0.0372
10 mu         0.2   0.5 0.596 0.0413
# ℹ 350 more rows
…
