…
`.groups` argument.
`summarise()` has grouped output by 'theta'. You can override using the
`.groups` argument.
`summarise()` has grouped output by 'theta', 'tau'. You can override using the
`.groups` argument.
`summarise()` has grouped output by 'theta'. You can override using the
`.groups` argument.
`summarise()` has grouped output by 'theta', 'tau'. You can override using the
`.groups` argument.
`summarise()` has grouped output by 'theta'. You can override using the
`.groups` argument.
[1] ""
[1] "Total run time was 42.78 seconds"
[1] "Estimation result: "
# A tibble: 360 × 5
   estimand theta   tau   est     se
   <chr>    <dbl> <dbl> <dbl>  <dbl>
 1 mu         0.1   0.1 0.507 0.0829
 2 mu         0.1   0.2 0.633 0.146 
 3 mu         0.1   0.3 0.648 0.107 
 4 mu         0.1   0.4 0.661 0.0863
 5 mu         0.1   0.5 0.653 0.0759
 6 mu         0.2   0.1 0.445 0.0597
 7 mu         0.2   0.2 0.556 0.105 
 8 mu         0.2   0.3 0.589 0.0790
 9 mu         0.2   0.4 0.619 0.0641
10 mu         0.2   0.5 0.621 0.0570
# ℹ 350 more rows
…
