…
`.groups` argument.
`summarise()` has grouped output by 'theta'. You can override using the
`.groups` argument.
`summarise()` has grouped output by 'theta', 'tau'. You can override using the
`.groups` argument.
`summarise()` has grouped output by 'theta'. You can override using the
`.groups` argument.
`summarise()` has grouped output by 'theta', 'tau'. You can override using the
`.groups` argument.
`summarise()` has grouped output by 'theta'. You can override using the
`.groups` argument.
[1] ""
[1] "Total run time was 145.065 seconds"
[1] "Estimation result: "
# A tibble: 360 × 5
   estimand theta   tau   est     se
   <chr>    <dbl> <dbl> <dbl>  <dbl>
 1 mu         0.1   0.1 0.425 0.0749
 2 mu         0.1   0.2 0.468 0.0965
 3 mu         0.1   0.3 0.562 0.0904
 4 mu         0.1   0.4 0.652 0.0719
 5 mu         0.1   0.5 0.686 0.0817
 6 mu         0.2   0.1 0.399 0.0502
 7 mu         0.2   0.2 0.455 0.0614
 8 mu         0.2   0.3 0.514 0.0563
 9 mu         0.2   0.4 0.577 0.0422
10 mu         0.2   0.5 0.606 0.0495
# ℹ 350 more rows
…
