…
`.groups` argument.
`summarise()` has grouped output by 'theta'. You can override using the
`.groups` argument.
`summarise()` has grouped output by 'theta', 'tau'. You can override using the
`.groups` argument.
`summarise()` has grouped output by 'theta'. You can override using the
`.groups` argument.
`summarise()` has grouped output by 'theta', 'tau'. You can override using the
`.groups` argument.
`summarise()` has grouped output by 'theta'. You can override using the
`.groups` argument.
[1] ""
[1] "Total run time was 184.542 seconds"
[1] "Estimation result: "
# A tibble: 360 × 5
   estimand theta   tau   est     se
   <chr>    <dbl> <dbl> <dbl>  <dbl>
 1 mu         0.1   0.1 0.334 0.0502
 2 mu         0.1   0.2 0.451 0.0856
 3 mu         0.1   0.3 0.514 0.0727
 4 mu         0.1   0.4 0.565 0.0794
 5 mu         0.1   0.5 0.608 0.0874
 6 mu         0.2   0.1 0.335 0.0402
 7 mu         0.2   0.2 0.446 0.0685
 8 mu         0.2   0.3 0.507 0.0551
 9 mu         0.2   0.4 0.564 0.0577
10 mu         0.2   0.5 0.608 0.0610
# ℹ 350 more rows
…
