…
`.groups` argument.
`summarise()` has grouped output by 'theta'. You can override using the
`.groups` argument.
`summarise()` has grouped output by 'theta', 'tau'. You can override using the
`.groups` argument.
`summarise()` has grouped output by 'theta'. You can override using the
`.groups` argument.
`summarise()` has grouped output by 'theta', 'tau'. You can override using the
`.groups` argument.
`summarise()` has grouped output by 'theta'. You can override using the
`.groups` argument.
[1] ""
[1] "Total run time was 170.864 seconds"
[1] "Estimation result: "
# A tibble: 360 × 5
   estimand theta   tau   est     se
   <chr>    <dbl> <dbl> <dbl>  <dbl>
 1 mu         0.1   0.1 0.369 0.0535
 2 mu         0.1   0.2 0.416 0.0453
 3 mu         0.1   0.3 0.452 0.0510
 4 mu         0.1   0.4 0.541 0.0613
 5 mu         0.1   0.5 0.539 0.0644
 6 mu         0.2   0.1 0.377 0.0399
 7 mu         0.2   0.2 0.444 0.0317
 8 mu         0.2   0.3 0.490 0.0350
 9 mu         0.2   0.4 0.567 0.0441
10 mu         0.2   0.5 0.577 0.0450
# ℹ 350 more rows
…
