…
`.groups` argument.
`summarise()` has grouped output by 'theta'. You can override using the
`.groups` argument.
`summarise()` has grouped output by 'theta', 'tau'. You can override using the
`.groups` argument.
`summarise()` has grouped output by 'theta'. You can override using the
`.groups` argument.
`summarise()` has grouped output by 'theta', 'tau'. You can override using the
`.groups` argument.
`summarise()` has grouped output by 'theta'. You can override using the
`.groups` argument.
[1] ""
[1] "Total run time was 141.14 seconds"
[1] "Estimation result: "
# A tibble: 360 × 5
   estimand theta   tau   est     se
   <chr>    <dbl> <dbl> <dbl>  <dbl>
 1 mu         0.1   0.1 0.552 0.219 
 2 mu         0.1   0.2 0.609 0.229 
 3 mu         0.1   0.3 0.621 0.212 
 4 mu         0.1   0.4 0.693 0.182 
 5 mu         0.1   0.5 0.692 0.166 
 6 mu         0.2   0.1 0.376 0.0699
 7 mu         0.2   0.2 0.451 0.0759
 8 mu         0.2   0.3 0.490 0.0736
 9 mu         0.2   0.4 0.585 0.0607
10 mu         0.2   0.5 0.607 0.0563
# ℹ 350 more rows
…
