…
`.groups` argument.
`summarise()` has grouped output by 'theta'. You can override using the
`.groups` argument.
`summarise()` has grouped output by 'theta', 'tau'. You can override using the
`.groups` argument.
`summarise()` has grouped output by 'theta'. You can override using the
`.groups` argument.
`summarise()` has grouped output by 'theta', 'tau'. You can override using the
`.groups` argument.
`summarise()` has grouped output by 'theta'. You can override using the
`.groups` argument.
[1] ""
[1] "Total run time was 165.471 seconds"
[1] "Estimation result: "
# A tibble: 360 × 5
   estimand theta   tau   est     se
   <chr>    <dbl> <dbl> <dbl>  <dbl>
 1 mu         0.1   0.1 0.458 0.114 
 2 mu         0.1   0.2 0.537 0.120 
 3 mu         0.1   0.3 0.618 0.166 
 4 mu         0.1   0.4 0.634 0.138 
 5 mu         0.1   0.5 0.653 0.123 
 6 mu         0.2   0.1 0.399 0.0612
 7 mu         0.2   0.2 0.484 0.0577
 8 mu         0.2   0.3 0.536 0.0750
 9 mu         0.2   0.4 0.597 0.0691
10 mu         0.2   0.5 0.672 0.0643
# ℹ 350 more rows
…
