…
`.groups` argument.
`summarise()` has grouped output by 'theta'. You can override using the
`.groups` argument.
`summarise()` has grouped output by 'theta', 'tau'. You can override using the
`.groups` argument.
`summarise()` has grouped output by 'theta'. You can override using the
`.groups` argument.
`summarise()` has grouped output by 'theta', 'tau'. You can override using the
`.groups` argument.
`summarise()` has grouped output by 'theta'. You can override using the
`.groups` argument.
[1] ""
[1] "Total run time was 148.382 seconds"
[1] "Estimation result: "
# A tibble: 360 × 5
   estimand theta   tau   est     se
   <chr>    <dbl> <dbl> <dbl>  <dbl>
 1 mu         0.1   0.1 0.226 0.0919
 2 mu         0.1   0.2 0.316 0.0652
 3 mu         0.1   0.3 0.390 0.0805
 4 mu         0.1   0.4 0.390 0.0818
 5 mu         0.1   0.5 0.435 0.102 
 6 mu         0.2   0.1 0.274 0.0704
 7 mu         0.2   0.2 0.388 0.0397
 8 mu         0.2   0.3 0.464 0.0480
 9 mu         0.2   0.4 0.472 0.0434
10 mu         0.2   0.5 0.506 0.0611
# ℹ 350 more rows
…
