…
`.groups` argument.
`summarise()` has grouped output by 'theta'. You can override using the
`.groups` argument.
`summarise()` has grouped output by 'theta', 'tau'. You can override using the
`.groups` argument.
`summarise()` has grouped output by 'theta'. You can override using the
`.groups` argument.
`summarise()` has grouped output by 'theta', 'tau'. You can override using the
`.groups` argument.
`summarise()` has grouped output by 'theta'. You can override using the
`.groups` argument.
[1] ""
[1] "Total run time was 523.689 seconds"
[1] "Estimation result: "
# A tibble: 360 × 5
   estimand theta   tau   est     se
   <chr>    <dbl> <dbl> <dbl>  <dbl>
 1 mu         0.1   0.1 0.498 0.164 
 2 mu         0.1   0.2 0.621 0.184 
 3 mu         0.1   0.3 0.680 0.204 
 4 mu         0.1   0.4 0.735 0.225 
 5 mu         0.1   0.5 0.784 0.241 
 6 mu         0.2   0.1 0.436 0.106 
 7 mu         0.2   0.2 0.532 0.0856
 8 mu         0.2   0.3 0.577 0.0781
 9 mu         0.2   0.4 0.620 0.0836
10 mu         0.2   0.5 0.661 0.0969
# ℹ 350 more rows
…
