…
`.groups` argument.
`summarise()` has grouped output by 'theta'. You can override using the
`.groups` argument.
`summarise()` has grouped output by 'theta', 'tau'. You can override using the
`.groups` argument.
`summarise()` has grouped output by 'theta'. You can override using the
`.groups` argument.
`summarise()` has grouped output by 'theta', 'tau'. You can override using the
`.groups` argument.
`summarise()` has grouped output by 'theta'. You can override using the
`.groups` argument.
[1] ""
[1] "Total run time was 145.755 seconds"
[1] "Estimation result: "
# A tibble: 360 × 5
   estimand theta   tau   est     se
   <chr>    <dbl> <dbl> <dbl>  <dbl>
 1 mu         0.1   0.1 0.397 0.0569
 2 mu         0.1   0.2 0.455 0.0654
 3 mu         0.1   0.3 0.494 0.0686
 4 mu         0.1   0.4 0.529 0.0743
 5 mu         0.1   0.5 0.599 0.0781
 6 mu         0.2   0.1 0.365 0.0370
 7 mu         0.2   0.2 0.435 0.0456
 8 mu         0.2   0.3 0.482 0.0462
 9 mu         0.2   0.4 0.521 0.0484
10 mu         0.2   0.5 0.573 0.0467
# ℹ 350 more rows
…
