…
`.groups` argument.
`summarise()` has grouped output by 'theta'. You can override using the
`.groups` argument.
`summarise()` has grouped output by 'theta', 'tau'. You can override using the
`.groups` argument.
`summarise()` has grouped output by 'theta'. You can override using the
`.groups` argument.
`summarise()` has grouped output by 'theta', 'tau'. You can override using the
`.groups` argument.
`summarise()` has grouped output by 'theta'. You can override using the
`.groups` argument.
[1] ""
[1] "Total run time was 157.769 seconds"
[1] "Estimation result: "
# A tibble: 360 × 5
   estimand theta   tau   est     se
   <chr>    <dbl> <dbl> <dbl>  <dbl>
 1 mu         0.1   0.1 0.460 0.114 
 2 mu         0.1   0.2 0.650 0.180 
 3 mu         0.1   0.3 0.762 0.234 
 4 mu         0.1   0.4 0.797 0.209 
 5 mu         0.1   0.5 0.837 0.196 
 6 mu         0.2   0.1 0.396 0.0708
 7 mu         0.2   0.2 0.552 0.123 
 8 mu         0.2   0.3 0.642 0.168 
 9 mu         0.2   0.4 0.676 0.139 
10 mu         0.2   0.5 0.707 0.121 
# ℹ 350 more rows
…
