…
`.groups` argument.
`summarise()` has grouped output by 'theta'. You can override using the
`.groups` argument.
`summarise()` has grouped output by 'theta', 'tau'. You can override using the
`.groups` argument.
`summarise()` has grouped output by 'theta'. You can override using the
`.groups` argument.
`summarise()` has grouped output by 'theta', 'tau'. You can override using the
`.groups` argument.
`summarise()` has grouped output by 'theta'. You can override using the
`.groups` argument.
[1] ""
[1] "Total run time was 276.093 seconds"
[1] "Estimation result: "
# A tibble: 360 × 5
   estimand theta   tau   est     se
   <chr>    <dbl> <dbl> <dbl>  <dbl>
 1 mu         0.1   0.1 0.357 0.0706
 2 mu         0.1   0.2 0.474 0.0871
 3 mu         0.1   0.3 0.519 0.0974
 4 mu         0.1   0.4 0.617 0.104 
 5 mu         0.1   0.5 0.657 0.106 
 6 mu         0.2   0.1 0.351 0.0455
 7 mu         0.2   0.2 0.461 0.0543
 8 mu         0.2   0.3 0.513 0.0637
 9 mu         0.2   0.4 0.612 0.0615
10 mu         0.2   0.5 0.655 0.0562
# ℹ 350 more rows
…
