…
`.groups` argument.
`summarise()` has grouped output by 'theta'. You can override using the
`.groups` argument.
`summarise()` has grouped output by 'theta', 'tau'. You can override using the
`.groups` argument.
`summarise()` has grouped output by 'theta'. You can override using the
`.groups` argument.
`summarise()` has grouped output by 'theta', 'tau'. You can override using the
`.groups` argument.
`summarise()` has grouped output by 'theta'. You can override using the
`.groups` argument.
[1] ""
[1] "Total run time was 162.741 seconds"
[1] "Estimation result: "
# A tibble: 360 × 5
   estimand theta   tau   est     se
   <chr>    <dbl> <dbl> <dbl>  <dbl>
 1 mu         0.1   0.1 0.374 0.0642
 2 mu         0.1   0.2 0.443 0.0897
 3 mu         0.1   0.3 0.504 0.0811
 4 mu         0.1   0.4 0.605 0.0465
 5 mu         0.1   0.5 0.656 0.0696
 6 mu         0.2   0.1 0.367 0.0459
 7 mu         0.2   0.2 0.449 0.0654
 8 mu         0.2   0.3 0.510 0.0584
 9 mu         0.2   0.4 0.601 0.0279
10 mu         0.2   0.5 0.641 0.0415
# ℹ 350 more rows
…
