…
`.groups` argument.
`summarise()` has grouped output by 'theta'. You can override using the
`.groups` argument.
`summarise()` has grouped output by 'theta', 'tau'. You can override using the
`.groups` argument.
`summarise()` has grouped output by 'theta'. You can override using the
`.groups` argument.
`summarise()` has grouped output by 'theta', 'tau'. You can override using the
`.groups` argument.
`summarise()` has grouped output by 'theta'. You can override using the
`.groups` argument.
[1] ""
[1] "Total run time was 178.809 seconds"
[1] "Estimation result: "
# A tibble: 360 × 5
   estimand theta   tau   est     se
   <chr>    <dbl> <dbl> <dbl>  <dbl>
 1 mu         0.1   0.1 0.341 0.0768
 2 mu         0.1   0.2 0.437 0.0987
 3 mu         0.1   0.3 0.494 0.118 
 4 mu         0.1   0.4 0.487 0.105 
 5 mu         0.1   0.5 0.518 0.0903
 6 mu         0.2   0.1 0.362 0.0542
 7 mu         0.2   0.2 0.454 0.0705
 8 mu         0.2   0.3 0.503 0.0855
 9 mu         0.2   0.4 0.508 0.0769
10 mu         0.2   0.5 0.553 0.0617
# ℹ 350 more rows
…
