…
`.groups` argument.
`summarise()` has grouped output by 'theta'. You can override using the
`.groups` argument.
`summarise()` has grouped output by 'theta', 'tau'. You can override using the
`.groups` argument.
`summarise()` has grouped output by 'theta'. You can override using the
`.groups` argument.
`summarise()` has grouped output by 'theta', 'tau'. You can override using the
`.groups` argument.
`summarise()` has grouped output by 'theta'. You can override using the
`.groups` argument.
[1] ""
[1] "Total run time was 168.154 seconds"
[1] "Estimation result: "
# A tibble: 360 × 5
   estimand theta   tau   est     se
   <chr>    <dbl> <dbl> <dbl>  <dbl>
 1 mu         0.1   0.1 0.676 0.152 
 2 mu         0.1   0.2 0.792 0.151 
 3 mu         0.1   0.3 0.843 0.133 
 4 mu         0.1   0.4 0.948 0.186 
 5 mu         0.1   0.5 0.976 0.167 
 6 mu         0.2   0.1 0.462 0.0585
 7 mu         0.2   0.2 0.540 0.0562
 8 mu         0.2   0.3 0.596 0.0529
 9 mu         0.2   0.4 0.653 0.0645
10 mu         0.2   0.5 0.686 0.0634
# ℹ 350 more rows
…
