…
`.groups` argument.
`summarise()` has grouped output by 'theta'. You can override using the
`.groups` argument.
`summarise()` has grouped output by 'theta', 'tau'. You can override using the
`.groups` argument.
`summarise()` has grouped output by 'theta'. You can override using the
`.groups` argument.
`summarise()` has grouped output by 'theta', 'tau'. You can override using the
`.groups` argument.
`summarise()` has grouped output by 'theta'. You can override using the
`.groups` argument.
[1] ""
[1] "Total run time was 237.648 seconds"
[1] "Estimation result: "
# A tibble: 360 × 5
   estimand theta   tau   est     se
   <chr>    <dbl> <dbl> <dbl>  <dbl>
 1 mu         0.1   0.1 0.448 0.0709
 2 mu         0.1   0.2 0.554 0.0914
 3 mu         0.1   0.3 0.592 0.112 
 4 mu         0.1   0.4 0.668 0.104 
 5 mu         0.1   0.5 0.670 0.100 
 6 mu         0.2   0.1 0.388 0.0421
 7 mu         0.2   0.2 0.505 0.0560
 8 mu         0.2   0.3 0.534 0.0670
 9 mu         0.2   0.4 0.593 0.0615
10 mu         0.2   0.5 0.603 0.0568
# ℹ 350 more rows
…
