…
`.groups` argument.
`summarise()` has grouped output by 'theta'. You can override using the
`.groups` argument.
`summarise()` has grouped output by 'theta', 'tau'. You can override using the
`.groups` argument.
`summarise()` has grouped output by 'theta'. You can override using the
`.groups` argument.
`summarise()` has grouped output by 'theta', 'tau'. You can override using the
`.groups` argument.
`summarise()` has grouped output by 'theta'. You can override using the
`.groups` argument.
[1] ""
[1] "Total run time was 179.192 seconds"
[1] "Estimation result: "
# A tibble: 360 × 5
   estimand theta   tau   est     se
   <chr>    <dbl> <dbl> <dbl>  <dbl>
 1 mu         0.1   0.1 0.349 0.0630
 2 mu         0.1   0.2 0.451 0.0596
 3 mu         0.1   0.3 0.547 0.0558
 4 mu         0.1   0.4 0.558 0.0482
 5 mu         0.1   0.5 0.609 0.0529
 6 mu         0.2   0.1 0.373 0.0475
 7 mu         0.2   0.2 0.467 0.0437
 8 mu         0.2   0.3 0.562 0.0378
 9 mu         0.2   0.4 0.588 0.0303
10 mu         0.2   0.5 0.635 0.0359
# ℹ 350 more rows
…
