…
`.groups` argument.
`summarise()` has grouped output by 'theta'. You can override using the
`.groups` argument.
`summarise()` has grouped output by 'theta', 'tau'. You can override using the
`.groups` argument.
`summarise()` has grouped output by 'theta'. You can override using the
`.groups` argument.
`summarise()` has grouped output by 'theta', 'tau'. You can override using the
`.groups` argument.
`summarise()` has grouped output by 'theta'. You can override using the
`.groups` argument.
[1] ""
[1] "Total run time was 158.682 seconds"
[1] "Estimation result: "
# A tibble: 360 × 5
   estimand theta   tau   est     se
   <chr>    <dbl> <dbl> <dbl>  <dbl>
 1 mu         0.1   0.1 0.446 0.0953
 2 mu         0.1   0.2 0.524 0.0943
 3 mu         0.1   0.3 0.629 0.144 
 4 mu         0.1   0.4 0.678 0.128 
 5 mu         0.1   0.5 0.720 0.116 
 6 mu         0.2   0.1 0.381 0.0563
 7 mu         0.2   0.2 0.457 0.0621
 8 mu         0.2   0.3 0.536 0.0836
 9 mu         0.2   0.4 0.592 0.0727
10 mu         0.2   0.5 0.618 0.0644
# ℹ 350 more rows
…
