…
`.groups` argument.
`summarise()` has grouped output by 'theta'. You can override using the
`.groups` argument.
`summarise()` has grouped output by 'theta', 'tau'. You can override using the
`.groups` argument.
`summarise()` has grouped output by 'theta'. You can override using the
`.groups` argument.
`summarise()` has grouped output by 'theta', 'tau'. You can override using the
`.groups` argument.
`summarise()` has grouped output by 'theta'. You can override using the
`.groups` argument.
[1] ""
[1] "Total run time was 141.303 seconds"
[1] "Estimation result: "
# A tibble: 360 × 5
   estimand theta   tau   est     se
   <chr>    <dbl> <dbl> <dbl>  <dbl>
 1 mu         0.1   0.1 0.259 0.0717
 2 mu         0.1   0.2 0.248 0.0771
 3 mu         0.1   0.3 0.282 0.101 
 4 mu         0.1   0.4 0.275 0.110 
 5 mu         0.1   0.5 0.259 0.127 
 6 mu         0.2   0.1 0.312 0.0640
 7 mu         0.2   0.2 0.334 0.0536
 8 mu         0.2   0.3 0.407 0.0659
 9 mu         0.2   0.4 0.433 0.0685
10 mu         0.2   0.5 0.438 0.0769
# ℹ 350 more rows
…
