…
`.groups` argument.
`summarise()` has grouped output by 'theta'. You can override using the
`.groups` argument.
`summarise()` has grouped output by 'theta', 'tau'. You can override using the
`.groups` argument.
`summarise()` has grouped output by 'theta'. You can override using the
`.groups` argument.
`summarise()` has grouped output by 'theta', 'tau'. You can override using the
`.groups` argument.
`summarise()` has grouped output by 'theta'. You can override using the
`.groups` argument.
[1] ""
[1] "Total run time was 145.956 seconds"
[1] "Estimation result: "
# A tibble: 360 × 5
   estimand theta   tau   est     se
   <chr>    <dbl> <dbl> <dbl>  <dbl>
 1 mu         0.1   0.1 0.189 0.0678
 2 mu         0.1   0.2 0.265 0.0813
 3 mu         0.1   0.3 0.362 0.0678
 4 mu         0.1   0.4 0.381 0.0862
 5 mu         0.1   0.5 0.413 0.0931
 6 mu         0.2   0.1 0.221 0.0450
 7 mu         0.2   0.2 0.305 0.0529
 8 mu         0.2   0.3 0.382 0.0452
 9 mu         0.2   0.4 0.423 0.0548
10 mu         0.2   0.5 0.462 0.0577
# ℹ 350 more rows
…
