…
`.groups` argument.
`summarise()` has grouped output by 'theta'. You can override using the
`.groups` argument.
`summarise()` has grouped output by 'theta', 'tau'. You can override using the
`.groups` argument.
`summarise()` has grouped output by 'theta'. You can override using the
`.groups` argument.
`summarise()` has grouped output by 'theta', 'tau'. You can override using the
`.groups` argument.
`summarise()` has grouped output by 'theta'. You can override using the
`.groups` argument.
[1] ""
[1] "Total run time was 153.926 seconds"
[1] "Estimation result: "
# A tibble: 360 × 5
   estimand theta   tau   est    se
   <chr>    <dbl> <dbl> <dbl> <dbl>
 1 mu         0.1   0.1 0.311 0.190
 2 mu         0.1   0.2 0.439 0.208
 3 mu         0.1   0.3 0.444 0.225
 4 mu         0.1   0.4 0.502 0.221
 5 mu         0.1   0.5 0.584 0.197
 6 mu         0.2   0.1 0.291 0.142
 7 mu         0.2   0.2 0.417 0.148
 8 mu         0.2   0.3 0.429 0.165
 9 mu         0.2   0.4 0.485 0.157
10 mu         0.2   0.5 0.575 0.122
# ℹ 350 more rows
…
