…
`.groups` argument.
`summarise()` has grouped output by 'theta'. You can override using the
`.groups` argument.
`summarise()` has grouped output by 'theta', 'tau'. You can override using the
`.groups` argument.
`summarise()` has grouped output by 'theta'. You can override using the
`.groups` argument.
`summarise()` has grouped output by 'theta', 'tau'. You can override using the
`.groups` argument.
`summarise()` has grouped output by 'theta'. You can override using the
`.groups` argument.
[1] ""
[1] "Total run time was 212.286 seconds"
[1] "Estimation result: "
# A tibble: 360 × 5
   estimand theta   tau   est     se
   <chr>    <dbl> <dbl> <dbl>  <dbl>
 1 mu         0.1   0.1 0.323 0.0772
 2 mu         0.1   0.2 0.440 0.104 
 3 mu         0.1   0.3 0.604 0.0941
 4 mu         0.1   0.4 0.635 0.0850
 5 mu         0.1   0.5 0.723 0.0850
 6 mu         0.2   0.1 0.332 0.0590
 7 mu         0.2   0.2 0.412 0.0612
 8 mu         0.2   0.3 0.523 0.0499
 9 mu         0.2   0.4 0.565 0.0430
10 mu         0.2   0.5 0.619 0.0403
# ℹ 350 more rows
…
