…
`.groups` argument.
`summarise()` has grouped output by 'theta'. You can override using the
`.groups` argument.
`summarise()` has grouped output by 'theta', 'tau'. You can override using the
`.groups` argument.
`summarise()` has grouped output by 'theta'. You can override using the
`.groups` argument.
`summarise()` has grouped output by 'theta', 'tau'. You can override using the
`.groups` argument.
`summarise()` has grouped output by 'theta'. You can override using the
`.groups` argument.
[1] ""
[1] "Total run time was 179.367 seconds"
[1] "Estimation result: "
# A tibble: 360 × 5
   estimand theta   tau   est     se
   <chr>    <dbl> <dbl> <dbl>  <dbl>
 1 mu         0.1   0.1 0.535 0.150 
 2 mu         0.1   0.2 0.606 0.142 
 3 mu         0.1   0.3 0.609 0.131 
 4 mu         0.1   0.4 0.741 0.182 
 5 mu         0.1   0.5 0.739 0.164 
 6 mu         0.2   0.1 0.403 0.0854
 7 mu         0.2   0.2 0.476 0.0767
 8 mu         0.2   0.3 0.493 0.0660
 9 mu         0.2   0.4 0.589 0.112 
10 mu         0.2   0.5 0.592 0.0922
# ℹ 350 more rows
…
