…
`.groups` argument.
`summarise()` has grouped output by 'theta'. You can override using the
`.groups` argument.
`summarise()` has grouped output by 'theta', 'tau'. You can override using the
`.groups` argument.
`summarise()` has grouped output by 'theta'. You can override using the
`.groups` argument.
`summarise()` has grouped output by 'theta', 'tau'. You can override using the
`.groups` argument.
`summarise()` has grouped output by 'theta'. You can override using the
`.groups` argument.
[1] ""
[1] "Total run time was 129.675 seconds"
[1] "Estimation result: "
# A tibble: 360 × 5
   estimand theta   tau   est     se
   <chr>    <dbl> <dbl> <dbl>  <dbl>
 1 mu         0.1   0.1 0.394 0.0872
 2 mu         0.1   0.2 0.456 0.104 
 3 mu         0.1   0.3 0.457 0.0866
 4 mu         0.1   0.4 0.469 0.0711
 5 mu         0.1   0.5 0.458 0.0737
 6 mu         0.2   0.1 0.398 0.0697
 7 mu         0.2   0.2 0.450 0.0818
 8 mu         0.2   0.3 0.472 0.0766
 9 mu         0.2   0.4 0.501 0.0622
10 mu         0.2   0.5 0.510 0.0641
# ℹ 350 more rows
…
