…
`.groups` argument.
`summarise()` has grouped output by 'theta'. You can override using the
`.groups` argument.
`summarise()` has grouped output by 'theta', 'tau'. You can override using the
`.groups` argument.
`summarise()` has grouped output by 'theta'. You can override using the
`.groups` argument.
`summarise()` has grouped output by 'theta', 'tau'. You can override using the
`.groups` argument.
`summarise()` has grouped output by 'theta'. You can override using the
`.groups` argument.
[1] ""
[1] "Total run time was 132.969 seconds"
[1] "Estimation result: "
# A tibble: 360 × 5
   estimand theta   tau   est     se
   <chr>    <dbl> <dbl> <dbl>  <dbl>
 1 mu         0.1   0.1 0.448 0.130 
 2 mu         0.1   0.2 0.498 0.107 
 3 mu         0.1   0.3 0.501 0.0907
 4 mu         0.1   0.4 0.554 0.104 
 5 mu         0.1   0.5 0.565 0.0952
 6 mu         0.2   0.1 0.417 0.0656
 7 mu         0.2   0.2 0.503 0.0647
 8 mu         0.2   0.3 0.532 0.0547
 9 mu         0.2   0.4 0.604 0.0723
10 mu         0.2   0.5 0.650 0.0811
# ℹ 350 more rows
…
