…
`.groups` argument.
`summarise()` has grouped output by 'theta'. You can override using the
`.groups` argument.
`summarise()` has grouped output by 'theta', 'tau'. You can override using the
`.groups` argument.
`summarise()` has grouped output by 'theta'. You can override using the
`.groups` argument.
`summarise()` has grouped output by 'theta', 'tau'. You can override using the
`.groups` argument.
`summarise()` has grouped output by 'theta'. You can override using the
`.groups` argument.
[1] ""
[1] "Total run time was 256.607 seconds"
[1] "Estimation result: "
# A tibble: 360 × 5
   estimand theta   tau   est     se
   <chr>    <dbl> <dbl> <dbl>  <dbl>
 1 mu         0.1   0.1 0.303 0.0303
 2 mu         0.1   0.2 0.426 0.0488
 3 mu         0.1   0.3 0.461 0.0682
 4 mu         0.1   0.4 0.500 0.0834
 5 mu         0.1   0.5 0.523 0.0737
 6 mu         0.2   0.1 0.306 0.0305
 7 mu         0.2   0.2 0.398 0.0400
 8 mu         0.2   0.3 0.433 0.0378
 9 mu         0.2   0.4 0.488 0.0512
10 mu         0.2   0.5 0.525 0.0467
# ℹ 350 more rows
…
