…
`.groups` argument.
`summarise()` has grouped output by 'theta'. You can override using the
`.groups` argument.
`summarise()` has grouped output by 'theta', 'tau'. You can override using the
`.groups` argument.
`summarise()` has grouped output by 'theta'. You can override using the
`.groups` argument.
`summarise()` has grouped output by 'theta', 'tau'. You can override using the
`.groups` argument.
`summarise()` has grouped output by 'theta'. You can override using the
`.groups` argument.
[1] ""
[1] "Total run time was 217.605 seconds"
[1] "Estimation result: "
# A tibble: 360 × 5
   estimand theta   tau   est     se
   <chr>    <dbl> <dbl> <dbl>  <dbl>
 1 mu         0.1   0.1 0.342 0.0839
 2 mu         0.1   0.2 0.356 0.0833
 3 mu         0.1   0.3 0.379 0.0836
 4 mu         0.1   0.4 0.395 0.0975
 5 mu         0.1   0.5 0.400 0.101 
 6 mu         0.2   0.1 0.379 0.0684
 7 mu         0.2   0.2 0.406 0.0675
 8 mu         0.2   0.3 0.456 0.0725
 9 mu         0.2   0.4 0.487 0.0837
10 mu         0.2   0.5 0.510 0.0797
# ℹ 350 more rows
…
