…
`.groups` argument.
`summarise()` has grouped output by 'theta'. You can override using the
`.groups` argument.
`summarise()` has grouped output by 'theta', 'tau'. You can override using the
`.groups` argument.
`summarise()` has grouped output by 'theta'. You can override using the
`.groups` argument.
`summarise()` has grouped output by 'theta', 'tau'. You can override using the
`.groups` argument.
`summarise()` has grouped output by 'theta'. You can override using the
`.groups` argument.
[1] ""
[1] "Total run time was 146.631 seconds"
[1] "Estimation result: "
# A tibble: 360 × 5
   estimand theta   tau   est     se
   <chr>    <dbl> <dbl> <dbl>  <dbl>
 1 mu         0.1   0.1 0.429 0.0726
 2 mu         0.1   0.2 0.484 0.0740
 3 mu         0.1   0.3 0.555 0.131 
 4 mu         0.1   0.4 0.604 0.113 
 5 mu         0.1   0.5 0.628 0.104 
 6 mu         0.2   0.1 0.434 0.0528
 7 mu         0.2   0.2 0.506 0.0495
 8 mu         0.2   0.3 0.566 0.0850
 9 mu         0.2   0.4 0.630 0.0720
10 mu         0.2   0.5 0.654 0.0644
# ℹ 350 more rows
…
