…
`.groups` argument.
`summarise()` has grouped output by 'theta'. You can override using the
`.groups` argument.
`summarise()` has grouped output by 'theta', 'tau'. You can override using the
`.groups` argument.
`summarise()` has grouped output by 'theta'. You can override using the
`.groups` argument.
`summarise()` has grouped output by 'theta', 'tau'. You can override using the
`.groups` argument.
`summarise()` has grouped output by 'theta'. You can override using the
`.groups` argument.
[1] ""
[1] "Total run time was 189.112 seconds"
[1] "Estimation result: "
# A tibble: 360 × 5
   estimand theta   tau   est     se
   <chr>    <dbl> <dbl> <dbl>  <dbl>
 1 mu         0.1   0.1 0.545 0.0883
 2 mu         0.1   0.2 0.634 0.110 
 3 mu         0.1   0.3 0.654 0.104 
 4 mu         0.1   0.4 0.673 0.103 
 5 mu         0.1   0.5 0.728 0.101 
 6 mu         0.2   0.1 0.473 0.0609
 7 mu         0.2   0.2 0.544 0.0724
 8 mu         0.2   0.3 0.577 0.0644
 9 mu         0.2   0.4 0.597 0.0612
10 mu         0.2   0.5 0.668 0.0645
# ℹ 350 more rows
…
