…
`.groups` argument.
`summarise()` has grouped output by 'theta'. You can override using the
`.groups` argument.
`summarise()` has grouped output by 'theta', 'tau'. You can override using the
`.groups` argument.
`summarise()` has grouped output by 'theta'. You can override using the
`.groups` argument.
`summarise()` has grouped output by 'theta', 'tau'. You can override using the
`.groups` argument.
`summarise()` has grouped output by 'theta'. You can override using the
`.groups` argument.
[1] ""
[1] "Total run time was 179.535 seconds"
[1] "Estimation result: "
# A tibble: 360 × 5
   estimand theta   tau   est     se
   <chr>    <dbl> <dbl> <dbl>  <dbl>
 1 mu         0.1   0.1 0.340 0.0977
 2 mu         0.1   0.2 0.518 0.0848
 3 mu         0.1   0.3 0.558 0.101 
 4 mu         0.1   0.4 0.623 0.107 
 5 mu         0.1   0.5 0.669 0.130 
 6 mu         0.2   0.1 0.274 0.0544
 7 mu         0.2   0.2 0.426 0.0452
 8 mu         0.2   0.3 0.464 0.0505
 9 mu         0.2   0.4 0.524 0.0517
10 mu         0.2   0.5 0.557 0.0625
# ℹ 350 more rows
…
