…
`.groups` argument.
`summarise()` has grouped output by 'theta'. You can override using the
`.groups` argument.
`summarise()` has grouped output by 'theta', 'tau'. You can override using the
`.groups` argument.
`summarise()` has grouped output by 'theta'. You can override using the
`.groups` argument.
`summarise()` has grouped output by 'theta', 'tau'. You can override using the
`.groups` argument.
`summarise()` has grouped output by 'theta'. You can override using the
`.groups` argument.
[1] ""
[1] "Total run time was 160.968 seconds"
[1] "Estimation result: "
# A tibble: 360 × 5
   estimand theta   tau   est     se
   <chr>    <dbl> <dbl> <dbl>  <dbl>
 1 mu         0.1   0.1 0.283 0.0851
 2 mu         0.1   0.2 0.381 0.0711
 3 mu         0.1   0.3 0.501 0.0775
 4 mu         0.1   0.4 0.589 0.134 
 5 mu         0.1   0.5 0.584 0.141 
 6 mu         0.2   0.1 0.294 0.0651
 7 mu         0.2   0.2 0.414 0.0588
 8 mu         0.2   0.3 0.531 0.0568
 9 mu         0.2   0.4 0.610 0.0842
10 mu         0.2   0.5 0.615 0.0842
# ℹ 350 more rows
…
