…
`.groups` argument.
`summarise()` has grouped output by 'theta'. You can override using the
`.groups` argument.
`summarise()` has grouped output by 'theta', 'tau'. You can override using the
`.groups` argument.
`summarise()` has grouped output by 'theta'. You can override using the
`.groups` argument.
`summarise()` has grouped output by 'theta', 'tau'. You can override using the
`.groups` argument.
`summarise()` has grouped output by 'theta'. You can override using the
`.groups` argument.
[1] ""
[1] "Total run time was 170.155 seconds"
[1] "Estimation result: "
# A tibble: 360 × 5
   estimand theta   tau   est     se
   <chr>    <dbl> <dbl> <dbl>  <dbl>
 1 mu         0.1   0.1 0.454 0.0923
 2 mu         0.1   0.2 0.572 0.115 
 3 mu         0.1   0.3 0.586 0.118 
 4 mu         0.1   0.4 0.626 0.128 
 5 mu         0.1   0.5 0.763 0.142 
 6 mu         0.2   0.1 0.349 0.0246
 7 mu         0.2   0.2 0.440 0.0399
 8 mu         0.2   0.3 0.464 0.0314
 9 mu         0.2   0.4 0.496 0.0320
10 mu         0.2   0.5 0.599 0.0457
# ℹ 350 more rows
…
