…
`.groups` argument.
`summarise()` has grouped output by 'theta'. You can override using the
`.groups` argument.
`summarise()` has grouped output by 'theta', 'tau'. You can override using the
`.groups` argument.
`summarise()` has grouped output by 'theta'. You can override using the
`.groups` argument.
`summarise()` has grouped output by 'theta', 'tau'. You can override using the
`.groups` argument.
`summarise()` has grouped output by 'theta'. You can override using the
`.groups` argument.
[1] ""
[1] "Total run time was 306.897 seconds"
[1] "Estimation result: "
# A tibble: 360 × 5
   estimand theta   tau   est     se
   <chr>    <dbl> <dbl> <dbl>  <dbl>
 1 mu         0.1   0.1 0.520 0.0999
 2 mu         0.1   0.2 0.577 0.0848
 3 mu         0.1   0.3 0.634 0.0785
 4 mu         0.1   0.4 0.646 0.0787
 5 mu         0.1   0.5 0.721 0.0795
 6 mu         0.2   0.1 0.405 0.0641
 7 mu         0.2   0.2 0.462 0.0526
 8 mu         0.2   0.3 0.514 0.0481
 9 mu         0.2   0.4 0.536 0.0468
10 mu         0.2   0.5 0.610 0.0455
# ℹ 350 more rows
…
