…
`.groups` argument.
`summarise()` has grouped output by 'theta'. You can override using the
`.groups` argument.
`summarise()` has grouped output by 'theta', 'tau'. You can override using the
`.groups` argument.
`summarise()` has grouped output by 'theta'. You can override using the
`.groups` argument.
`summarise()` has grouped output by 'theta', 'tau'. You can override using the
`.groups` argument.
`summarise()` has grouped output by 'theta'. You can override using the
`.groups` argument.
[1] ""
[1] "Total run time was 138.338 seconds"
[1] "Estimation result: "
# A tibble: 360 × 5
   estimand theta   tau   est     se
   <chr>    <dbl> <dbl> <dbl>  <dbl>
 1 mu         0.1   0.1 0.170 0.117 
 2 mu         0.1   0.2 0.269 0.144 
 3 mu         0.1   0.3 0.321 0.123 
 4 mu         0.1   0.4 0.349 0.125 
 5 mu         0.1   0.5 0.486 0.138 
 6 mu         0.2   0.1 0.246 0.0423
 7 mu         0.2   0.2 0.350 0.0496
 8 mu         0.2   0.3 0.393 0.0434
 9 mu         0.2   0.4 0.425 0.0469
10 mu         0.2   0.5 0.528 0.0531
# ℹ 350 more rows
…
