…
`.groups` argument.
`summarise()` has grouped output by 'theta'. You can override using the
`.groups` argument.
`summarise()` has grouped output by 'theta', 'tau'. You can override using the
`.groups` argument.
`summarise()` has grouped output by 'theta'. You can override using the
`.groups` argument.
`summarise()` has grouped output by 'theta', 'tau'. You can override using the
`.groups` argument.
`summarise()` has grouped output by 'theta'. You can override using the
`.groups` argument.
[1] ""
[1] "Total run time was 161.143 seconds"
[1] "Estimation result: "
# A tibble: 360 × 5
   estimand theta   tau   est     se
   <chr>    <dbl> <dbl> <dbl>  <dbl>
 1 mu         0.1   0.1 0.458 0.0828
 2 mu         0.1   0.2 0.500 0.0807
 3 mu         0.1   0.3 0.517 0.0791
 4 mu         0.1   0.4 0.594 0.0791
 5 mu         0.1   0.5 0.610 0.0754
 6 mu         0.2   0.1 0.410 0.0496
 7 mu         0.2   0.2 0.492 0.0590
 8 mu         0.2   0.3 0.525 0.0569
 9 mu         0.2   0.4 0.580 0.0528
10 mu         0.2   0.5 0.627 0.0515
# ℹ 350 more rows
…
