…
`.groups` argument.
`summarise()` has grouped output by 'theta'. You can override using the
`.groups` argument.
`summarise()` has grouped output by 'theta', 'tau'. You can override using the
`.groups` argument.
`summarise()` has grouped output by 'theta'. You can override using the
`.groups` argument.
`summarise()` has grouped output by 'theta', 'tau'. You can override using the
`.groups` argument.
`summarise()` has grouped output by 'theta'. You can override using the
`.groups` argument.
[1] ""
[1] "Total run time was 241.548 seconds"
[1] "Estimation result: "
# A tibble: 360 × 5
   estimand theta   tau   est     se
   <chr>    <dbl> <dbl> <dbl>  <dbl>
 1 mu         0.1   0.1 0.444 0.107 
 2 mu         0.1   0.2 0.560 0.0838
 3 mu         0.1   0.3 0.660 0.0783
 4 mu         0.1   0.4 0.667 0.0875
 5 mu         0.1   0.5 0.708 0.121 
 6 mu         0.2   0.1 0.357 0.0671
 7 mu         0.2   0.2 0.460 0.0473
 8 mu         0.2   0.3 0.535 0.0385
 9 mu         0.2   0.4 0.549 0.0482
10 mu         0.2   0.5 0.580 0.0706
# ℹ 350 more rows
…
