…
`.groups` argument.
`summarise()` has grouped output by 'theta'. You can override using the
`.groups` argument.
`summarise()` has grouped output by 'theta', 'tau'. You can override using the
`.groups` argument.
`summarise()` has grouped output by 'theta'. You can override using the
`.groups` argument.
`summarise()` has grouped output by 'theta', 'tau'. You can override using the
`.groups` argument.
`summarise()` has grouped output by 'theta'. You can override using the
`.groups` argument.
[1] ""
[1] "Total run time was 181.709 seconds"
[1] "Estimation result: "
# A tibble: 360 × 5
   estimand theta   tau   est     se
   <chr>    <dbl> <dbl> <dbl>  <dbl>
 1 mu         0.1   0.1 0.458 0.0944
 2 mu         0.1   0.2 0.467 0.0841
 3 mu         0.1   0.3 0.492 0.0903
 4 mu         0.1   0.4 0.581 0.0805
 5 mu         0.1   0.5 0.603 0.0906
 6 mu         0.2   0.1 0.397 0.0812
 7 mu         0.2   0.2 0.437 0.0729
 8 mu         0.2   0.3 0.482 0.0689
 9 mu         0.2   0.4 0.570 0.0578
10 mu         0.2   0.5 0.596 0.0656
# ℹ 350 more rows
…
