…
`.groups` argument.
`summarise()` has grouped output by 'theta'. You can override using the
`.groups` argument.
`summarise()` has grouped output by 'theta', 'tau'. You can override using the
`.groups` argument.
`summarise()` has grouped output by 'theta'. You can override using the
`.groups` argument.
`summarise()` has grouped output by 'theta', 'tau'. You can override using the
`.groups` argument.
`summarise()` has grouped output by 'theta'. You can override using the
`.groups` argument.
[1] ""
[1] "Total run time was 179.91 seconds"
[1] "Estimation result: "
# A tibble: 360 × 5
   estimand theta   tau   est     se
   <chr>    <dbl> <dbl> <dbl>  <dbl>
 1 mu         0.1   0.1 0.397 0.116 
 2 mu         0.1   0.2 0.566 0.0943
 3 mu         0.1   0.3 0.571 0.0840
 4 mu         0.1   0.4 0.628 0.0826
 5 mu         0.1   0.5 0.672 0.0885
 6 mu         0.2   0.1 0.379 0.0841
 7 mu         0.2   0.2 0.507 0.0689
 8 mu         0.2   0.3 0.526 0.0604
 9 mu         0.2   0.4 0.580 0.0489
10 mu         0.2   0.5 0.617 0.0567
# ℹ 350 more rows
…
