…
`.groups` argument.
`summarise()` has grouped output by 'theta'. You can override using the
`.groups` argument.
`summarise()` has grouped output by 'theta', 'tau'. You can override using the
`.groups` argument.
`summarise()` has grouped output by 'theta'. You can override using the
`.groups` argument.
`summarise()` has grouped output by 'theta', 'tau'. You can override using the
`.groups` argument.
`summarise()` has grouped output by 'theta'. You can override using the
`.groups` argument.
[1] ""
[1] "Total run time was 185.237 seconds"
[1] "Estimation result: "
# A tibble: 360 × 5
   estimand theta   tau   est     se
   <chr>    <dbl> <dbl> <dbl>  <dbl>
 1 mu         0.1   0.1 0.427 0.100 
 2 mu         0.1   0.2 0.502 0.0893
 3 mu         0.1   0.3 0.575 0.0923
 4 mu         0.1   0.4 0.614 0.0932
 5 mu         0.1   0.5 0.617 0.0962
 6 mu         0.2   0.1 0.370 0.0606
 7 mu         0.2   0.2 0.473 0.0426
 8 mu         0.2   0.3 0.555 0.0494
 9 mu         0.2   0.4 0.621 0.0551
10 mu         0.2   0.5 0.639 0.0518
# ℹ 350 more rows
…
