…
`.groups` argument.
`summarise()` has grouped output by 'theta'. You can override using the
`.groups` argument.
`summarise()` has grouped output by 'theta', 'tau'. You can override using the
`.groups` argument.
`summarise()` has grouped output by 'theta'. You can override using the
`.groups` argument.
`summarise()` has grouped output by 'theta', 'tau'. You can override using the
`.groups` argument.
`summarise()` has grouped output by 'theta'. You can override using the
`.groups` argument.
[1] ""
[1] "Total run time was 157.986 seconds"
[1] "Estimation result: "
# A tibble: 360 × 5
   estimand theta   tau   est     se
   <chr>    <dbl> <dbl> <dbl>  <dbl>
 1 mu         0.1   0.1 0.420 0.0564
 2 mu         0.1   0.2 0.486 0.0631
 3 mu         0.1   0.3 0.549 0.0740
 4 mu         0.1   0.4 0.613 0.0730
 5 mu         0.1   0.5 0.641 0.0735
 6 mu         0.2   0.1 0.395 0.0378
 7 mu         0.2   0.2 0.462 0.0406
 8 mu         0.2   0.3 0.520 0.0478
 9 mu         0.2   0.4 0.587 0.0444
10 mu         0.2   0.5 0.623 0.0446
# ℹ 350 more rows
…
