…
`.groups` argument.
`summarise()` has grouped output by 'theta'. You can override using the
`.groups` argument.
`summarise()` has grouped output by 'theta', 'tau'. You can override using the
`.groups` argument.
`summarise()` has grouped output by 'theta'. You can override using the
`.groups` argument.
`summarise()` has grouped output by 'theta', 'tau'. You can override using the
`.groups` argument.
`summarise()` has grouped output by 'theta'. You can override using the
`.groups` argument.
[1] ""
[1] "Total run time was 203.356 seconds"
[1] "Estimation result: "
# A tibble: 360 × 5
   estimand theta   tau   est    se
   <chr>    <dbl> <dbl> <dbl> <dbl>
 1 mu         0.1   0.1 0.238 0.115
 2 mu         0.1   0.2 0.259 0.143
 3 mu         0.1   0.3 0.295 0.152
 4 mu         0.1   0.4 0.316 0.162
 5 mu         0.1   0.5 0.346 0.175
 6 mu         0.2   0.1 0.340 0.114
 7 mu         0.2   0.2 0.387 0.139
 8 mu         0.2   0.3 0.443 0.157
 9 mu         0.2   0.4 0.482 0.169
10 mu         0.2   0.5 0.531 0.181
# ℹ 350 more rows
…
