…
`.groups` argument.
`summarise()` has grouped output by 'theta'. You can override using the
`.groups` argument.
`summarise()` has grouped output by 'theta', 'tau'. You can override using the
`.groups` argument.
`summarise()` has grouped output by 'theta'. You can override using the
`.groups` argument.
`summarise()` has grouped output by 'theta', 'tau'. You can override using the
`.groups` argument.
`summarise()` has grouped output by 'theta'. You can override using the
`.groups` argument.
[1] ""
[1] "Total run time was 199.187 seconds"
[1] "Estimation result: "
# A tibble: 360 × 5
   estimand theta   tau   est     se
   <chr>    <dbl> <dbl> <dbl>  <dbl>
 1 mu         0.1   0.1 0.371 0.0660
 2 mu         0.1   0.2 0.448 0.0922
 3 mu         0.1   0.3 0.493 0.142 
 4 mu         0.1   0.4 0.484 0.143 
 5 mu         0.1   0.5 0.479 0.147 
 6 mu         0.2   0.1 0.380 0.0451
 7 mu         0.2   0.2 0.461 0.0565
 8 mu         0.2   0.3 0.529 0.0797
 9 mu         0.2   0.4 0.536 0.0747
10 mu         0.2   0.5 0.535 0.0732
# ℹ 350 more rows
…
