…
`.groups` argument.
`summarise()` has grouped output by 'theta'. You can override using the
`.groups` argument.
`summarise()` has grouped output by 'theta', 'tau'. You can override using the
`.groups` argument.
`summarise()` has grouped output by 'theta'. You can override using the
`.groups` argument.
`summarise()` has grouped output by 'theta', 'tau'. You can override using the
`.groups` argument.
`summarise()` has grouped output by 'theta'. You can override using the
`.groups` argument.
[1] ""
[1] "Total run time was 142.235 seconds"
[1] "Estimation result: "
# A tibble: 360 × 5
   estimand theta   tau   est     se
   <chr>    <dbl> <dbl> <dbl>  <dbl>
 1 mu         0.1   0.1 0.330 0.0811
 2 mu         0.1   0.2 0.468 0.0985
 3 mu         0.1   0.3 0.482 0.0928
 4 mu         0.1   0.4 0.619 0.122 
 5 mu         0.1   0.5 0.634 0.115 
 6 mu         0.2   0.1 0.267 0.0517
 7 mu         0.2   0.2 0.337 0.0785
 8 mu         0.2   0.3 0.364 0.0881
 9 mu         0.2   0.4 0.470 0.0761
10 mu         0.2   0.5 0.496 0.0762
# ℹ 350 more rows
…
