…
`.groups` argument.
`summarise()` has grouped output by 'theta'. You can override using the
`.groups` argument.
`summarise()` has grouped output by 'theta', 'tau'. You can override using the
`.groups` argument.
`summarise()` has grouped output by 'theta'. You can override using the
`.groups` argument.
`summarise()` has grouped output by 'theta', 'tau'. You can override using the
`.groups` argument.
`summarise()` has grouped output by 'theta'. You can override using the
`.groups` argument.
[1] ""
[1] "Total run time was 166.109 seconds"
[1] "Estimation result: "
# A tibble: 360 × 5
   estimand theta   tau   est     se
   <chr>    <dbl> <dbl> <dbl>  <dbl>
 1 mu         0.1   0.1 0.326 0.104 
 2 mu         0.1   0.2 0.424 0.144 
 3 mu         0.1   0.3 0.473 0.169 
 4 mu         0.1   0.4 0.498 0.175 
 5 mu         0.1   0.5 0.513 0.189 
 6 mu         0.2   0.1 0.291 0.0388
 7 mu         0.2   0.2 0.394 0.0480
 8 mu         0.2   0.3 0.427 0.0604
 9 mu         0.2   0.4 0.471 0.0598
10 mu         0.2   0.5 0.488 0.0634
# ℹ 350 more rows
…
