…
`.groups` argument.
`summarise()` has grouped output by 'theta'. You can override using the
`.groups` argument.
`summarise()` has grouped output by 'theta', 'tau'. You can override using the
`.groups` argument.
`summarise()` has grouped output by 'theta'. You can override using the
`.groups` argument.
`summarise()` has grouped output by 'theta', 'tau'. You can override using the
`.groups` argument.
`summarise()` has grouped output by 'theta'. You can override using the
`.groups` argument.
[1] ""
[1] "Total run time was 144.182 seconds"
[1] "Estimation result: "
# A tibble: 360 × 5
   estimand theta   tau   est     se
   <chr>    <dbl> <dbl> <dbl>  <dbl>
 1 mu         0.1   0.1 0.545 0.147 
 2 mu         0.1   0.2 0.647 0.185 
 3 mu         0.1   0.3 0.707 0.191 
 4 mu         0.1   0.4 0.775 0.210 
 5 mu         0.1   0.5 0.811 0.228 
 6 mu         0.2   0.1 0.418 0.0633
 7 mu         0.2   0.2 0.489 0.0832
 8 mu         0.2   0.3 0.541 0.0687
 9 mu         0.2   0.4 0.599 0.0767
10 mu         0.2   0.5 0.630 0.0828
# ℹ 350 more rows
…
