…
`.groups` argument.
`summarise()` has grouped output by 'theta'. You can override using the
`.groups` argument.
`summarise()` has grouped output by 'theta', 'tau'. You can override using the
`.groups` argument.
`summarise()` has grouped output by 'theta'. You can override using the
`.groups` argument.
`summarise()` has grouped output by 'theta', 'tau'. You can override using the
`.groups` argument.
`summarise()` has grouped output by 'theta'. You can override using the
`.groups` argument.
[1] ""
[1] "Total run time was 161.361 seconds"
[1] "Estimation result: "
# A tibble: 360 × 5
   estimand theta   tau   est     se
   <chr>    <dbl> <dbl> <dbl>  <dbl>
 1 mu         0.1   0.1 0.450 0.0911
 2 mu         0.1   0.2 0.516 0.0666
 3 mu         0.1   0.3 0.566 0.0830
 4 mu         0.1   0.4 0.645 0.0823
 5 mu         0.1   0.5 0.629 0.0792
 6 mu         0.2   0.1 0.351 0.0492
 7 mu         0.2   0.2 0.431 0.0314
 8 mu         0.2   0.3 0.484 0.0399
 9 mu         0.2   0.4 0.541 0.0362
10 mu         0.2   0.5 0.543 0.0295
# ℹ 350 more rows
…
