…
`.groups` argument.
`summarise()` has grouped output by 'theta'. You can override using the
`.groups` argument.
`summarise()` has grouped output by 'theta', 'tau'. You can override using the
`.groups` argument.
`summarise()` has grouped output by 'theta'. You can override using the
`.groups` argument.
`summarise()` has grouped output by 'theta', 'tau'. You can override using the
`.groups` argument.
`summarise()` has grouped output by 'theta'. You can override using the
`.groups` argument.
[1] ""
[1] "Total run time was 155.376 seconds"
[1] "Estimation result: "
# A tibble: 360 × 5
   estimand theta   tau   est     se
   <chr>    <dbl> <dbl> <dbl>  <dbl>
 1 mu         0.1   0.1 0.339 0.0873
 2 mu         0.1   0.2 0.532 0.0782
 3 mu         0.1   0.3 0.608 0.111 
 4 mu         0.1   0.4 0.634 0.113 
 5 mu         0.1   0.5 0.667 0.0917
 6 mu         0.2   0.1 0.343 0.0466
 7 mu         0.2   0.2 0.498 0.0623
 8 mu         0.2   0.3 0.581 0.0785
 9 mu         0.2   0.4 0.623 0.0814
10 mu         0.2   0.5 0.654 0.0682
# ℹ 350 more rows
…
