…
`.groups` argument.
`summarise()` has grouped output by 'theta'. You can override using the
`.groups` argument.
`summarise()` has grouped output by 'theta', 'tau'. You can override using the
`.groups` argument.
`summarise()` has grouped output by 'theta'. You can override using the
`.groups` argument.
`summarise()` has grouped output by 'theta', 'tau'. You can override using the
`.groups` argument.
`summarise()` has grouped output by 'theta'. You can override using the
`.groups` argument.
[1] ""
[1] "Total run time was 195.507 seconds"
[1] "Estimation result: "
# A tibble: 360 × 5
   estimand theta   tau   est     se
   <chr>    <dbl> <dbl> <dbl>  <dbl>
 1 mu         0.1   0.1 0.446 0.0608
 2 mu         0.1   0.2 0.538 0.0476
 3 mu         0.1   0.3 0.609 0.0449
 4 mu         0.1   0.4 0.682 0.0567
 5 mu         0.1   0.5 0.749 0.0781
 6 mu         0.2   0.1 0.345 0.0389
 7 mu         0.2   0.2 0.438 0.0260
 8 mu         0.2   0.3 0.522 0.0264
 9 mu         0.2   0.4 0.556 0.0323
10 mu         0.2   0.5 0.608 0.0404
# ℹ 350 more rows
…
