…
`.groups` argument.
`summarise()` has grouped output by 'theta'. You can override using the
`.groups` argument.
`summarise()` has grouped output by 'theta', 'tau'. You can override using the
`.groups` argument.
`summarise()` has grouped output by 'theta'. You can override using the
`.groups` argument.
`summarise()` has grouped output by 'theta', 'tau'. You can override using the
`.groups` argument.
`summarise()` has grouped output by 'theta'. You can override using the
`.groups` argument.
[1] ""
[1] "Total run time was 199.1 seconds"
[1] "Estimation result: "
# A tibble: 360 × 5
   estimand theta   tau   est     se
   <chr>    <dbl> <dbl> <dbl>  <dbl>
 1 mu         0.1   0.1 0.569 0.130 
 2 mu         0.1   0.2 0.610 0.121 
 3 mu         0.1   0.3 0.632 0.110 
 4 mu         0.1   0.4 0.633 0.110 
 5 mu         0.1   0.5 0.748 0.178 
 6 mu         0.2   0.1 0.466 0.0717
 7 mu         0.2   0.2 0.532 0.0577
 8 mu         0.2   0.3 0.567 0.0497
 9 mu         0.2   0.4 0.571 0.0462
10 mu         0.2   0.5 0.656 0.0870
# ℹ 350 more rows
…
