…
`.groups` argument.
`summarise()` has grouped output by 'theta'. You can override using the
`.groups` argument.
`summarise()` has grouped output by 'theta', 'tau'. You can override using the
`.groups` argument.
`summarise()` has grouped output by 'theta'. You can override using the
`.groups` argument.
`summarise()` has grouped output by 'theta', 'tau'. You can override using the
`.groups` argument.
`summarise()` has grouped output by 'theta'. You can override using the
`.groups` argument.
[1] ""
[1] "Total run time was 178.347 seconds"
[1] "Estimation result: "
# A tibble: 360 × 5
   estimand theta   tau   est     se
   <chr>    <dbl> <dbl> <dbl>  <dbl>
 1 mu         0.1   0.1 0.433 0.0800
 2 mu         0.1   0.2 0.467 0.0588
 3 mu         0.1   0.3 0.474 0.0462
 4 mu         0.1   0.4 0.488 0.0467
 5 mu         0.1   0.5 0.580 0.0695
 6 mu         0.2   0.1 0.349 0.0414
 7 mu         0.2   0.2 0.405 0.0382
 8 mu         0.2   0.3 0.457 0.0350
 9 mu         0.2   0.4 0.508 0.0478
10 mu         0.2   0.5 0.630 0.0426
# ℹ 350 more rows
…
