…
`.groups` argument.
`summarise()` has grouped output by 'theta'. You can override using the
`.groups` argument.
`summarise()` has grouped output by 'theta', 'tau'. You can override using the
`.groups` argument.
`summarise()` has grouped output by 'theta'. You can override using the
`.groups` argument.
`summarise()` has grouped output by 'theta', 'tau'. You can override using the
`.groups` argument.
`summarise()` has grouped output by 'theta'. You can override using the
`.groups` argument.
[1] ""
[1] "Total run time was 152.691 seconds"
[1] "Estimation result: "
# A tibble: 360 × 5
   estimand theta   tau   est     se
   <chr>    <dbl> <dbl> <dbl>  <dbl>
 1 mu         0.1   0.1 0.358 0.0688
 2 mu         0.1   0.2 0.448 0.0714
 3 mu         0.1   0.3 0.490 0.0641
 4 mu         0.1   0.4 0.492 0.0597
 5 mu         0.1   0.5 0.522 0.0707
 6 mu         0.2   0.1 0.351 0.0552
 7 mu         0.2   0.2 0.432 0.0592
 8 mu         0.2   0.3 0.473 0.0501
 9 mu         0.2   0.4 0.484 0.0516
10 mu         0.2   0.5 0.524 0.0524
# ℹ 350 more rows
…
