…
`.groups` argument.
`summarise()` has grouped output by 'theta'. You can override using the
`.groups` argument.
`summarise()` has grouped output by 'theta', 'tau'. You can override using the
`.groups` argument.
`summarise()` has grouped output by 'theta'. You can override using the
`.groups` argument.
`summarise()` has grouped output by 'theta', 'tau'. You can override using the
`.groups` argument.
`summarise()` has grouped output by 'theta'. You can override using the
`.groups` argument.
[1] ""
[1] "Total run time was 205.102 seconds"
[1] "Estimation result: "
# A tibble: 360 × 5
   estimand theta   tau   est     se
   <chr>    <dbl> <dbl> <dbl>  <dbl>
 1 mu         0.1   0.1 0.393 0.0888
 2 mu         0.1   0.2 0.449 0.102 
 3 mu         0.1   0.3 0.527 0.109 
 4 mu         0.1   0.4 0.573 0.123 
 5 mu         0.1   0.5 0.688 0.134 
 6 mu         0.2   0.1 0.390 0.0443
 7 mu         0.2   0.2 0.475 0.0674
 8 mu         0.2   0.3 0.541 0.0599
 9 mu         0.2   0.4 0.573 0.0603
10 mu         0.2   0.5 0.682 0.0708
# ℹ 350 more rows
…
