…
`.groups` argument.
`summarise()` has grouped output by 'theta'. You can override using the
`.groups` argument.
`summarise()` has grouped output by 'theta', 'tau'. You can override using the
`.groups` argument.
`summarise()` has grouped output by 'theta'. You can override using the
`.groups` argument.
`summarise()` has grouped output by 'theta', 'tau'. You can override using the
`.groups` argument.
`summarise()` has grouped output by 'theta'. You can override using the
`.groups` argument.
[1] ""
[1] "Total run time was 285.471 seconds"
[1] "Estimation result: "
# A tibble: 360 × 5
   estimand theta   tau   est     se
   <chr>    <dbl> <dbl> <dbl>  <dbl>
 1 mu         0.1   0.1 0.502 0.0785
 2 mu         0.1   0.2 0.558 0.109 
 3 mu         0.1   0.3 0.613 0.0829
 4 mu         0.1   0.4 0.623 0.0696
 5 mu         0.1   0.5 0.673 0.0605
 6 mu         0.2   0.1 0.433 0.0526
 7 mu         0.2   0.2 0.495 0.0720
 8 mu         0.2   0.3 0.556 0.0534
 9 mu         0.2   0.4 0.582 0.0441
10 mu         0.2   0.5 0.626 0.0384
# ℹ 350 more rows
…
