…
`.groups` argument.
`summarise()` has grouped output by 'theta'. You can override using the
`.groups` argument.
`summarise()` has grouped output by 'theta', 'tau'. You can override using the
`.groups` argument.
`summarise()` has grouped output by 'theta'. You can override using the
`.groups` argument.
`summarise()` has grouped output by 'theta', 'tau'. You can override using the
`.groups` argument.
`summarise()` has grouped output by 'theta'. You can override using the
`.groups` argument.
[1] ""
[1] "Total run time was 132.114 seconds"
[1] "Estimation result: "
# A tibble: 360 × 5
   estimand theta   tau   est     se
   <chr>    <dbl> <dbl> <dbl>  <dbl>
 1 mu         0.1   0.1 0.612 0.129 
 2 mu         0.1   0.2 0.701 0.113 
 3 mu         0.1   0.3 0.752 0.122 
 4 mu         0.1   0.4 0.759 0.114 
 5 mu         0.1   0.5 0.765 0.106 
 6 mu         0.2   0.1 0.495 0.113 
 7 mu         0.2   0.2 0.575 0.0926
 8 mu         0.2   0.3 0.617 0.103 
 9 mu         0.2   0.4 0.623 0.0951
10 mu         0.2   0.5 0.632 0.0864
# ℹ 350 more rows
…
