…
`.groups` argument.
`summarise()` has grouped output by 'theta'. You can override using the
`.groups` argument.
`summarise()` has grouped output by 'theta', 'tau'. You can override using the
`.groups` argument.
`summarise()` has grouped output by 'theta'. You can override using the
`.groups` argument.
`summarise()` has grouped output by 'theta', 'tau'. You can override using the
`.groups` argument.
`summarise()` has grouped output by 'theta'. You can override using the
`.groups` argument.
[1] ""
[1] "Total run time was 170.906 seconds"
[1] "Estimation result: "
# A tibble: 360 × 5
   estimand theta   tau   est     se
   <chr>    <dbl> <dbl> <dbl>  <dbl>
 1 mu         0.1   0.1 0.507 0.101 
 2 mu         0.1   0.2 0.562 0.0836
 3 mu         0.1   0.3 0.587 0.0759
 4 mu         0.1   0.4 0.645 0.0794
 5 mu         0.1   0.5 0.675 0.0859
 6 mu         0.2   0.1 0.433 0.0632
 7 mu         0.2   0.2 0.501 0.0576
 8 mu         0.2   0.3 0.544 0.0534
 9 mu         0.2   0.4 0.642 0.0485
10 mu         0.2   0.5 0.690 0.0481
# ℹ 350 more rows
…
