…
`.groups` argument.
`summarise()` has grouped output by 'theta'. You can override using the
`.groups` argument.
`summarise()` has grouped output by 'theta', 'tau'. You can override using the
`.groups` argument.
`summarise()` has grouped output by 'theta'. You can override using the
`.groups` argument.
`summarise()` has grouped output by 'theta', 'tau'. You can override using the
`.groups` argument.
`summarise()` has grouped output by 'theta'. You can override using the
`.groups` argument.
[1] ""
[1] "Total run time was 246.228 seconds"
[1] "Estimation result: "
# A tibble: 360 × 5
   estimand theta   tau   est     se
   <chr>    <dbl> <dbl> <dbl>  <dbl>
 1 mu         0.1   0.1 0.385 0.0598
 2 mu         0.1   0.2 0.395 0.0612
 3 mu         0.1   0.3 0.444 0.109 
 4 mu         0.1   0.4 0.502 0.0886
 5 mu         0.1   0.5 0.604 0.0802
 6 mu         0.2   0.1 0.328 0.0405
 7 mu         0.2   0.2 0.357 0.0393
 8 mu         0.2   0.3 0.396 0.0701
 9 mu         0.2   0.4 0.453 0.0535
10 mu         0.2   0.5 0.551 0.0486
# ℹ 350 more rows
…
