…
`.groups` argument.
`summarise()` has grouped output by 'theta'. You can override using the
`.groups` argument.
`summarise()` has grouped output by 'theta', 'tau'. You can override using the
`.groups` argument.
`summarise()` has grouped output by 'theta'. You can override using the
`.groups` argument.
`summarise()` has grouped output by 'theta', 'tau'. You can override using the
`.groups` argument.
`summarise()` has grouped output by 'theta'. You can override using the
`.groups` argument.
[1] ""
[1] "Total run time was 185.511 seconds"
[1] "Estimation result: "
# A tibble: 360 × 5
   estimand theta   tau   est     se
   <chr>    <dbl> <dbl> <dbl>  <dbl>
 1 mu         0.1   0.1 0.378 0.0658
 2 mu         0.1   0.2 0.530 0.0924
 3 mu         0.1   0.3 0.597 0.0804
 4 mu         0.1   0.4 0.643 0.107 
 5 mu         0.1   0.5 0.650 0.109 
 6 mu         0.2   0.1 0.329 0.0414
 7 mu         0.2   0.2 0.429 0.0483
 8 mu         0.2   0.3 0.483 0.0336
 9 mu         0.2   0.4 0.514 0.0528
10 mu         0.2   0.5 0.526 0.0542
# ℹ 350 more rows
…
