…
`.groups` argument.
`summarise()` has grouped output by 'theta'. You can override using the
`.groups` argument.
`summarise()` has grouped output by 'theta', 'tau'. You can override using the
`.groups` argument.
`summarise()` has grouped output by 'theta'. You can override using the
`.groups` argument.
`summarise()` has grouped output by 'theta', 'tau'. You can override using the
`.groups` argument.
`summarise()` has grouped output by 'theta'. You can override using the
`.groups` argument.
[1] ""
[1] "Total run time was 129.828 seconds"
[1] "Estimation result: "
# A tibble: 360 × 5
   estimand theta   tau   est     se
   <chr>    <dbl> <dbl> <dbl>  <dbl>
 1 mu         0.1   0.1 0.458 0.108 
 2 mu         0.1   0.2 0.495 0.0995
 3 mu         0.1   0.3 0.594 0.157 
 4 mu         0.1   0.4 0.631 0.131 
 5 mu         0.1   0.5 0.641 0.114 
 6 mu         0.2   0.1 0.416 0.0636
 7 mu         0.2   0.2 0.467 0.0574
 8 mu         0.2   0.3 0.547 0.0863
 9 mu         0.2   0.4 0.598 0.0730
10 mu         0.2   0.5 0.636 0.0638
# ℹ 350 more rows
…
