…
`.groups` argument.
`summarise()` has grouped output by 'theta'. You can override using the
`.groups` argument.
`summarise()` has grouped output by 'theta', 'tau'. You can override using the
`.groups` argument.
`summarise()` has grouped output by 'theta'. You can override using the
`.groups` argument.
`summarise()` has grouped output by 'theta', 'tau'. You can override using the
`.groups` argument.
`summarise()` has grouped output by 'theta'. You can override using the
`.groups` argument.
[1] ""
[1] "Total run time was 174.709 seconds"
[1] "Estimation result: "
# A tibble: 360 × 5
   estimand theta   tau   est     se
   <chr>    <dbl> <dbl> <dbl>  <dbl>
 1 mu         0.1   0.1 0.547 0.0969
 2 mu         0.1   0.2 0.575 0.0844
 3 mu         0.1   0.3 0.604 0.0689
 4 mu         0.1   0.4 0.663 0.0931
 5 mu         0.1   0.5 0.675 0.0933
 6 mu         0.2   0.1 0.452 0.0579
 7 mu         0.2   0.2 0.492 0.0550
 8 mu         0.2   0.3 0.536 0.0444
 9 mu         0.2   0.4 0.584 0.0591
10 mu         0.2   0.5 0.617 0.0650
# ℹ 350 more rows
…
