…
`.groups` argument.
`summarise()` has grouped output by 'theta'. You can override using the
`.groups` argument.
`summarise()` has grouped output by 'theta', 'tau'. You can override using the
`.groups` argument.
`summarise()` has grouped output by 'theta'. You can override using the
`.groups` argument.
`summarise()` has grouped output by 'theta', 'tau'. You can override using the
`.groups` argument.
`summarise()` has grouped output by 'theta'. You can override using the
`.groups` argument.
[1] ""
[1] "Total run time was 156.65 seconds"
[1] "Estimation result: "
# A tibble: 360 × 5
   estimand theta   tau   est     se
   <chr>    <dbl> <dbl> <dbl>  <dbl>
 1 mu         0.1   0.1 0.354 0.0800
 2 mu         0.1   0.2 0.379 0.0603
 3 mu         0.1   0.3 0.469 0.0809
 4 mu         0.1   0.4 0.504 0.0719
 5 mu         0.1   0.5 0.514 0.0711
 6 mu         0.2   0.1 0.315 0.0411
 7 mu         0.2   0.2 0.366 0.0352
 8 mu         0.2   0.3 0.453 0.0505
 9 mu         0.2   0.4 0.515 0.0427
10 mu         0.2   0.5 0.525 0.0433
# ℹ 350 more rows
…
