…
`.groups` argument.
`summarise()` has grouped output by 'theta'. You can override using the
`.groups` argument.
`summarise()` has grouped output by 'theta', 'tau'. You can override using the
`.groups` argument.
`summarise()` has grouped output by 'theta'. You can override using the
`.groups` argument.
`summarise()` has grouped output by 'theta', 'tau'. You can override using the
`.groups` argument.
`summarise()` has grouped output by 'theta'. You can override using the
`.groups` argument.
[1] ""
[1] "Total run time was 139.386 seconds"
[1] "Estimation result: "
# A tibble: 360 × 5
   estimand theta   tau   est     se
   <chr>    <dbl> <dbl> <dbl>  <dbl>
 1 mu         0.1   0.1 0.401 0.194 
 2 mu         0.1   0.2 0.471 0.141 
 3 mu         0.1   0.3 0.475 0.136 
 4 mu         0.1   0.4 0.532 0.106 
 5 mu         0.1   0.5 0.585 0.0846
 6 mu         0.2   0.1 0.334 0.0601
 7 mu         0.2   0.2 0.429 0.0543
 8 mu         0.2   0.3 0.473 0.0535
 9 mu         0.2   0.4 0.578 0.0512
10 mu         0.2   0.5 0.620 0.0476
# ℹ 350 more rows
…
