…
`.groups` argument.
`summarise()` has grouped output by 'theta'. You can override using the
`.groups` argument.
`summarise()` has grouped output by 'theta', 'tau'. You can override using the
`.groups` argument.
`summarise()` has grouped output by 'theta'. You can override using the
`.groups` argument.
`summarise()` has grouped output by 'theta', 'tau'. You can override using the
`.groups` argument.
`summarise()` has grouped output by 'theta'. You can override using the
`.groups` argument.
[1] ""
[1] "Total run time was 158.557 seconds"
[1] "Estimation result: "
# A tibble: 360 × 5
   estimand theta   tau   est     se
   <chr>    <dbl> <dbl> <dbl>  <dbl>
 1 mu         0.1   0.1 0.406 0.0799
 2 mu         0.1   0.2 0.483 0.0781
 3 mu         0.1   0.3 0.526 0.0864
 4 mu         0.1   0.4 0.524 0.0717
 5 mu         0.1   0.5 0.563 0.0638
 6 mu         0.2   0.1 0.364 0.0510
 7 mu         0.2   0.2 0.413 0.0487
 8 mu         0.2   0.3 0.452 0.0574
 9 mu         0.2   0.4 0.467 0.0631
10 mu         0.2   0.5 0.545 0.0517
# ℹ 350 more rows
…
