…
`.groups` argument.
`summarise()` has grouped output by 'theta'. You can override using the
`.groups` argument.
`summarise()` has grouped output by 'theta', 'tau'. You can override using the
`.groups` argument.
`summarise()` has grouped output by 'theta'. You can override using the
`.groups` argument.
`summarise()` has grouped output by 'theta', 'tau'. You can override using the
`.groups` argument.
`summarise()` has grouped output by 'theta'. You can override using the
`.groups` argument.
[1] ""
[1] "Total run time was 760.927 seconds"
[1] "Estimation result: "
# A tibble: 360 × 5
   estimand theta   tau   est     se
   <chr>    <dbl> <dbl> <dbl>  <dbl>
 1 mu         0.1   0.1 0.332 0.133 
 2 mu         0.1   0.2 0.460 0.0912
 3 mu         0.1   0.3 0.532 0.0572
 4 mu         0.1   0.4 0.546 0.0687
 5 mu         0.1   0.5 0.566 0.0755
 6 mu         0.2   0.1 0.367 0.0804
 7 mu         0.2   0.2 0.464 0.0610
 8 mu         0.2   0.3 0.528 0.0391
 9 mu         0.2   0.4 0.565 0.0423
10 mu         0.2   0.5 0.611 0.0491
# ℹ 350 more rows
…
