…
`.groups` argument.
`summarise()` has grouped output by 'theta'. You can override using the
`.groups` argument.
`summarise()` has grouped output by 'theta', 'tau'. You can override using the
`.groups` argument.
`summarise()` has grouped output by 'theta'. You can override using the
`.groups` argument.
`summarise()` has grouped output by 'theta', 'tau'. You can override using the
`.groups` argument.
`summarise()` has grouped output by 'theta'. You can override using the
`.groups` argument.
[1] ""
[1] "Total run time was 216.614 seconds"
[1] "Estimation result: "
# A tibble: 360 × 5
   estimand theta   tau   est     se
   <chr>    <dbl> <dbl> <dbl>  <dbl>
 1 mu         0.1   0.1 0.423 0.0845
 2 mu         0.1   0.2 0.491 0.0902
 3 mu         0.1   0.3 0.510 0.0796
 4 mu         0.1   0.4 0.605 0.120 
 5 mu         0.1   0.5 0.611 0.118 
 6 mu         0.2   0.1 0.361 0.0548
 7 mu         0.2   0.2 0.431 0.0556
 8 mu         0.2   0.3 0.472 0.0458
 9 mu         0.2   0.4 0.552 0.0608
10 mu         0.2   0.5 0.570 0.0605
# ℹ 350 more rows
…
