…
`.groups` argument.
`summarise()` has grouped output by 'theta'. You can override using the
`.groups` argument.
`summarise()` has grouped output by 'theta', 'tau'. You can override using the
`.groups` argument.
`summarise()` has grouped output by 'theta'. You can override using the
`.groups` argument.
`summarise()` has grouped output by 'theta', 'tau'. You can override using the
`.groups` argument.
`summarise()` has grouped output by 'theta'. You can override using the
`.groups` argument.
[1] ""
[1] "Total run time was 218.759 seconds"
[1] "Estimation result: "
# A tibble: 360 × 5
   estimand theta   tau   est     se
   <chr>    <dbl> <dbl> <dbl>  <dbl>
 1 mu         0.1   0.1 0.415 0.184 
 2 mu         0.1   0.2 0.468 0.216 
 3 mu         0.1   0.3 0.555 0.259 
 4 mu         0.1   0.4 0.606 0.279 
 5 mu         0.1   0.5 0.733 0.295 
 6 mu         0.2   0.1 0.328 0.0703
 7 mu         0.2   0.2 0.393 0.0897
 8 mu         0.2   0.3 0.439 0.117 
 9 mu         0.2   0.4 0.492 0.122 
10 mu         0.2   0.5 0.610 0.113 
# ℹ 350 more rows
…
