…
`.groups` argument.
`summarise()` has grouped output by 'theta'. You can override using the
`.groups` argument.
`summarise()` has grouped output by 'theta', 'tau'. You can override using the
`.groups` argument.
`summarise()` has grouped output by 'theta'. You can override using the
`.groups` argument.
`summarise()` has grouped output by 'theta', 'tau'. You can override using the
`.groups` argument.
`summarise()` has grouped output by 'theta'. You can override using the
`.groups` argument.
[1] ""
[1] "Total run time was 183.218 seconds"
[1] "Estimation result: "
# A tibble: 360 × 5
   estimand theta   tau   est     se
   <chr>    <dbl> <dbl> <dbl>  <dbl>
 1 mu         0.1   0.1 0.519 0.0946
 2 mu         0.1   0.2 0.645 0.126 
 3 mu         0.1   0.3 0.707 0.133 
 4 mu         0.1   0.4 0.720 0.128 
 5 mu         0.1   0.5 0.779 0.145 
 6 mu         0.2   0.1 0.426 0.0497
 7 mu         0.2   0.2 0.522 0.0739
 8 mu         0.2   0.3 0.580 0.0757
 9 mu         0.2   0.4 0.600 0.0667
10 mu         0.2   0.5 0.650 0.0794
# ℹ 350 more rows
…
