…
`.groups` argument.
`summarise()` has grouped output by 'theta'. You can override using the
`.groups` argument.
`summarise()` has grouped output by 'theta', 'tau'. You can override using the
`.groups` argument.
`summarise()` has grouped output by 'theta'. You can override using the
`.groups` argument.
`summarise()` has grouped output by 'theta', 'tau'. You can override using the
`.groups` argument.
`summarise()` has grouped output by 'theta'. You can override using the
`.groups` argument.
[1] ""
[1] "Total run time was 169.994 seconds"
[1] "Estimation result: "
# A tibble: 360 × 5
   estimand theta   tau   est     se
   <chr>    <dbl> <dbl> <dbl>  <dbl>
 1 mu         0.1   0.1 0.337 0.149 
 2 mu         0.1   0.2 0.461 0.184 
 3 mu         0.1   0.3 0.498 0.206 
 4 mu         0.1   0.4 0.654 0.167 
 5 mu         0.1   0.5 0.696 0.171 
 6 mu         0.2   0.1 0.302 0.0935
 7 mu         0.2   0.2 0.407 0.110 
 8 mu         0.2   0.3 0.464 0.124 
 9 mu         0.2   0.4 0.584 0.0648
10 mu         0.2   0.5 0.623 0.0569
# ℹ 350 more rows
…
