…
`.groups` argument.
`summarise()` has grouped output by 'theta'. You can override using the
`.groups` argument.
`summarise()` has grouped output by 'theta', 'tau'. You can override using the
`.groups` argument.
`summarise()` has grouped output by 'theta'. You can override using the
`.groups` argument.
`summarise()` has grouped output by 'theta', 'tau'. You can override using the
`.groups` argument.
`summarise()` has grouped output by 'theta'. You can override using the
`.groups` argument.
[1] ""
[1] "Total run time was 171.113 seconds"
[1] "Estimation result: "
# A tibble: 360 × 5
   estimand theta   tau   est     se
   <chr>    <dbl> <dbl> <dbl>  <dbl>
 1 mu         0.1   0.1 0.389 0.0864
 2 mu         0.1   0.2 0.427 0.108 
 3 mu         0.1   0.3 0.536 0.122 
 4 mu         0.1   0.4 0.612 0.130 
 5 mu         0.1   0.5 0.612 0.131 
 6 mu         0.2   0.1 0.344 0.0303
 7 mu         0.2   0.2 0.385 0.0404
 8 mu         0.2   0.3 0.474 0.0490
 9 mu         0.2   0.4 0.547 0.0515
10 mu         0.2   0.5 0.564 0.0407
# ℹ 350 more rows
…
