…
`.groups` argument.
`summarise()` has grouped output by 'theta'. You can override using the
`.groups` argument.
`summarise()` has grouped output by 'theta', 'tau'. You can override using the
`.groups` argument.
`summarise()` has grouped output by 'theta'. You can override using the
`.groups` argument.
`summarise()` has grouped output by 'theta', 'tau'. You can override using the
`.groups` argument.
`summarise()` has grouped output by 'theta'. You can override using the
`.groups` argument.
[1] ""
[1] "Total run time was 155.795 seconds"
[1] "Estimation result: "
# A tibble: 360 × 5
   estimand theta   tau   est     se
   <chr>    <dbl> <dbl> <dbl>  <dbl>
 1 mu         0.1   0.1 0.390 0.195 
 2 mu         0.1   0.2 0.379 0.200 
 3 mu         0.1   0.3 0.467 0.142 
 4 mu         0.1   0.4 0.512 0.120 
 5 mu         0.1   0.5 0.578 0.163 
 6 mu         0.2   0.1 0.344 0.164 
 7 mu         0.2   0.2 0.355 0.167 
 8 mu         0.2   0.3 0.444 0.108 
 9 mu         0.2   0.4 0.512 0.0808
10 mu         0.2   0.5 0.560 0.122 
# ℹ 350 more rows
…
