…
`.groups` argument.
`summarise()` has grouped output by 'theta'. You can override using the
`.groups` argument.
`summarise()` has grouped output by 'theta', 'tau'. You can override using the
`.groups` argument.
`summarise()` has grouped output by 'theta'. You can override using the
`.groups` argument.
`summarise()` has grouped output by 'theta', 'tau'. You can override using the
`.groups` argument.
`summarise()` has grouped output by 'theta'. You can override using the
`.groups` argument.
[1] ""
[1] "Total run time was 211.289 seconds"
[1] "Estimation result: "
# A tibble: 360 × 5
   estimand theta   tau   est     se
   <chr>    <dbl> <dbl> <dbl>  <dbl>
 1 mu         0.1   0.1 0.247 0.0578
 2 mu         0.1   0.2 0.272 0.0694
 3 mu         0.1   0.3 0.322 0.0960
 4 mu         0.1   0.4 0.476 0.0907
 5 mu         0.1   0.5 0.608 0.138 
 6 mu         0.2   0.1 0.287 0.0352
 7 mu         0.2   0.2 0.331 0.0594
 8 mu         0.2   0.3 0.379 0.0659
 9 mu         0.2   0.4 0.517 0.0450
10 mu         0.2   0.5 0.618 0.0856
# ℹ 350 more rows
…
