…
`.groups` argument.
`summarise()` has grouped output by 'theta'. You can override using the
`.groups` argument.
`summarise()` has grouped output by 'theta', 'tau'. You can override using the
`.groups` argument.
`summarise()` has grouped output by 'theta'. You can override using the
`.groups` argument.
`summarise()` has grouped output by 'theta', 'tau'. You can override using the
`.groups` argument.
`summarise()` has grouped output by 'theta'. You can override using the
`.groups` argument.
[1] ""
[1] "Total run time was 143.875 seconds"
[1] "Estimation result: "
# A tibble: 360 × 5
   estimand theta   tau   est     se
   <chr>    <dbl> <dbl> <dbl>  <dbl>
 1 mu         0.1   0.1 0.439 0.0783
 2 mu         0.1   0.2 0.602 0.103 
 3 mu         0.1   0.3 0.677 0.119 
 4 mu         0.1   0.4 0.702 0.111 
 5 mu         0.1   0.5 0.755 0.107 
 6 mu         0.2   0.1 0.411 0.0524
 7 mu         0.2   0.2 0.540 0.0711
 8 mu         0.2   0.3 0.599 0.0835
 9 mu         0.2   0.4 0.615 0.0763
10 mu         0.2   0.5 0.655 0.0679
# ℹ 350 more rows
…
