…
`.groups` argument.
`summarise()` has grouped output by 'theta'. You can override using the
`.groups` argument.
`summarise()` has grouped output by 'theta', 'tau'. You can override using the
`.groups` argument.
`summarise()` has grouped output by 'theta'. You can override using the
`.groups` argument.
`summarise()` has grouped output by 'theta', 'tau'. You can override using the
`.groups` argument.
`summarise()` has grouped output by 'theta'. You can override using the
`.groups` argument.
[1] ""
[1] "Total run time was 450.322 seconds"
[1] "Estimation result: "
# A tibble: 360 × 5
   estimand theta   tau   est     se
   <chr>    <dbl> <dbl> <dbl>  <dbl>
 1 mu         0.1   0.1 0.227 0.0574
 2 mu         0.1   0.2 0.284 0.100 
 3 mu         0.1   0.3 0.343 0.0766
 4 mu         0.1   0.4 0.416 0.0691
 5 mu         0.1   0.5 0.476 0.0755
 6 mu         0.2   0.1 0.220 0.0408
 7 mu         0.2   0.2 0.282 0.0758
 8 mu         0.2   0.3 0.347 0.0535
 9 mu         0.2   0.4 0.411 0.0447
10 mu         0.2   0.5 0.482 0.0489
# ℹ 350 more rows
…
