…
[Simulation setting] 

- M: 1000 

- taus: 0.2 

- thetas: 0.3, 0.4, 0.5, 0.6, 0.7 

- r: 100 

# A tibble: 35 × 4
   theta   tau estimand   truth
   <dbl> <dbl> <chr>      <dbl>
 1   0.3   0.2 mu        0.392 
 2   0.3   0.2 mu_1      0.215 
 3   0.3   0.2 mu_0      0.468 
 4   0.3   0.2 de       -0.253 
 5   0.3   0.2 se_1      0.0165
 6   0.3   0.2 se_0      0.0177
 7   0.3   0.2 oe        0.0677
 8   0.4   0.2 mu        0.360 
 9   0.4   0.2 mu_1      0.208 
10   0.4   0.2 mu_0      0.462 
# ℹ 25 more rows
…
