…
`.groups` argument.
`summarise()` has grouped output by 'theta'. You can override using the
`.groups` argument.
`summarise()` has grouped output by 'theta', 'tau'. You can override using the
`.groups` argument.
`summarise()` has grouped output by 'theta'. You can override using the
`.groups` argument.
`summarise()` has grouped output by 'theta', 'tau'. You can override using the
`.groups` argument.
`summarise()` has grouped output by 'theta'. You can override using the
`.groups` argument.
[1] ""
[1] "Total run time was 309.212 seconds"
[1] "Estimation result: "
# A tibble: 360 × 5
   estimand theta   tau   est    se
   <chr>    <dbl> <dbl> <dbl> <dbl>
 1 mu         0.1   0.1  1.30 0.846
 2 mu         0.1   0.2  1.56 1.01 
 3 mu         0.1   0.3  1.37 0.823
 4 mu         0.1   0.4  2.09 1.42 
 5 mu         0.1   0.5  2.00 1.17 
 6 mu         0.2   0.1  1.29 0.913
 7 mu         0.2   0.2  1.58 1.09 
 8 mu         0.2   0.3  1.35 0.887
 9 mu         0.2   0.4  2.21 1.54 
10 mu         0.2   0.5  2.06 1.27 
# ℹ 350 more rows
…
