…
`.groups` argument.
`summarise()` has grouped output by 'theta'. You can override using the
`.groups` argument.
`summarise()` has grouped output by 'theta', 'tau'. You can override using the
`.groups` argument.
`summarise()` has grouped output by 'theta'. You can override using the
`.groups` argument.
`summarise()` has grouped output by 'theta', 'tau'. You can override using the
`.groups` argument.
`summarise()` has grouped output by 'theta'. You can override using the
`.groups` argument.
[1] ""
[1] "Total run time was 473.36 seconds"
[1] "Estimation result: "
# A tibble: 360 × 5
   estimand theta   tau   est    se
   <chr>    <dbl> <dbl> <dbl> <dbl>
 1 mu         0.1   0.1 1.11  0.518
 2 mu         0.1   0.2 1.08  0.493
 3 mu         0.1   0.3 1.05  0.411
 4 mu         0.1   0.4 0.871 0.305
 5 mu         0.1   0.5 0.752 0.235
 6 mu         0.2   0.1 0.944 0.415
 7 mu         0.2   0.2 0.900 0.393
 8 mu         0.2   0.3 1.01  0.392
 9 mu         0.2   0.4 0.881 0.306
10 mu         0.2   0.5 0.798 0.242
# ℹ 350 more rows
…
