…
`.groups` argument.
`summarise()` has grouped output by 'theta'. You can override using the
`.groups` argument.
`summarise()` has grouped output by 'theta', 'tau'. You can override using the
`.groups` argument.
`summarise()` has grouped output by 'theta'. You can override using the
`.groups` argument.
`summarise()` has grouped output by 'theta', 'tau'. You can override using the
`.groups` argument.
`summarise()` has grouped output by 'theta'. You can override using the
`.groups` argument.
[1] ""
[1] "Total run time was 615.087 seconds"
[1] "Estimation result: "
# A tibble: 360 × 5
   estimand theta   tau   est     se
   <chr>    <dbl> <dbl> <dbl>  <dbl>
 1 mu         0.1   0.1 0.430 0.115 
 2 mu         0.1   0.2 0.466 0.0669
 3 mu         0.1   0.3 0.765 0.174 
 4 mu         0.1   0.4 0.740 0.141 
 5 mu         0.1   0.5 0.940 0.282 
 6 mu         0.2   0.1 0.380 0.0821
 7 mu         0.2   0.2 0.421 0.0538
 8 mu         0.2   0.3 0.595 0.0960
 9 mu         0.2   0.4 0.596 0.0789
10 mu         0.2   0.5 0.703 0.108 
# ℹ 350 more rows
…
