…
`.groups` argument.
`summarise()` has grouped output by 'theta'. You can override using the
`.groups` argument.
`summarise()` has grouped output by 'theta', 'tau'. You can override using the
`.groups` argument.
`summarise()` has grouped output by 'theta'. You can override using the
`.groups` argument.
`summarise()` has grouped output by 'theta', 'tau'. You can override using the
`.groups` argument.
`summarise()` has grouped output by 'theta'. You can override using the
`.groups` argument.
[1] ""
[1] "Total run time was 320.199 seconds"
[1] "Estimation result: "
# A tibble: 360 × 5
   estimand theta   tau   est     se
   <chr>    <dbl> <dbl> <dbl>  <dbl>
 1 mu         0.1   0.1 0.466 0.0557
 2 mu         0.1   0.2 0.585 0.0929
 3 mu         0.1   0.3 0.633 0.0940
 4 mu         0.1   0.4 0.730 0.0989
 5 mu         0.1   0.5 0.762 0.0992
 6 mu         0.2   0.1 0.400 0.0304
 7 mu         0.2   0.2 0.482 0.0418
 8 mu         0.2   0.3 0.530 0.0418
 9 mu         0.2   0.4 0.612 0.0443
10 mu         0.2   0.5 0.656 0.0444
# ℹ 350 more rows
…
