…
`.groups` argument.
`summarise()` has grouped output by 'theta'. You can override using the
`.groups` argument.
`summarise()` has grouped output by 'theta', 'tau'. You can override using the
`.groups` argument.
`summarise()` has grouped output by 'theta'. You can override using the
`.groups` argument.
`summarise()` has grouped output by 'theta', 'tau'. You can override using the
`.groups` argument.
`summarise()` has grouped output by 'theta'. You can override using the
`.groups` argument.
[1] ""
[1] "Total run time was 280.449 seconds"
[1] "Estimation result: "
# A tibble: 360 × 5
   estimand theta   tau   est     se
   <chr>    <dbl> <dbl> <dbl>  <dbl>
 1 mu         0.1   0.1 0.578 0.106 
 2 mu         0.1   0.2 0.751 0.205 
 3 mu         0.1   0.3 0.911 0.269 
 4 mu         0.1   0.4 0.785 0.141 
 5 mu         0.1   0.5 0.643 0.0893
 6 mu         0.2   0.1 0.482 0.0831
 7 mu         0.2   0.2 0.520 0.0747
 8 mu         0.2   0.3 0.634 0.103 
 9 mu         0.2   0.4 0.610 0.0659
10 mu         0.2   0.5 0.582 0.0588
# ℹ 350 more rows
…
