…
`.groups` argument.
`summarise()` has grouped output by 'theta'. You can override using the
`.groups` argument.
`summarise()` has grouped output by 'theta', 'tau'. You can override using the
`.groups` argument.
`summarise()` has grouped output by 'theta'. You can override using the
`.groups` argument.
`summarise()` has grouped output by 'theta', 'tau'. You can override using the
`.groups` argument.
`summarise()` has grouped output by 'theta'. You can override using the
`.groups` argument.
[1] ""
[1] "Total run time was 390.817 seconds"
[1] "Estimation result: "
# A tibble: 360 × 5
   estimand theta   tau   est    se
   <chr>    <dbl> <dbl> <dbl> <dbl>
 1 mu         0.1   0.1 1.48  0.602
 2 mu         0.1   0.2 1.36  0.459
 3 mu         0.1   0.3 1.17  0.502
 4 mu         0.1   0.4 0.885 0.699
 5 mu         0.1   0.5 0.648 0.861
 6 mu         0.2   0.1 0.738 0.397
 7 mu         0.2   0.2 0.857 0.295
 8 mu         0.2   0.3 0.855 0.266
 9 mu         0.2   0.4 0.691 0.337
10 mu         0.2   0.5 0.498 0.387
# ℹ 350 more rows
…
