…
`.groups` argument.
`summarise()` has grouped output by 'theta'. You can override using the
`.groups` argument.
`summarise()` has grouped output by 'theta', 'tau'. You can override using the
`.groups` argument.
`summarise()` has grouped output by 'theta'. You can override using the
`.groups` argument.
`summarise()` has grouped output by 'theta', 'tau'. You can override using the
`.groups` argument.
`summarise()` has grouped output by 'theta'. You can override using the
`.groups` argument.
[1] ""
[1] "Total run time was 253.616 seconds"
[1] "Estimation result: "
# A tibble: 360 × 5
   estimand theta   tau   est     se
   <chr>    <dbl> <dbl> <dbl>  <dbl>
 1 mu         0.1   0.1 0.511 0.114 
 2 mu         0.1   0.2 0.562 0.0816
 3 mu         0.1   0.3 0.548 0.0992
 4 mu         0.1   0.4 0.534 0.108 
 5 mu         0.1   0.5 0.563 0.152 
 6 mu         0.2   0.1 0.359 0.0738
 7 mu         0.2   0.2 0.469 0.0605
 8 mu         0.2   0.3 0.511 0.0662
 9 mu         0.2   0.4 0.521 0.0684
10 mu         0.2   0.5 0.575 0.0734
# ℹ 350 more rows
…
