…
`.groups` argument.
`summarise()` has grouped output by 'theta'. You can override using the
`.groups` argument.
`summarise()` has grouped output by 'theta', 'tau'. You can override using the
`.groups` argument.
`summarise()` has grouped output by 'theta'. You can override using the
`.groups` argument.
`summarise()` has grouped output by 'theta', 'tau'. You can override using the
`.groups` argument.
`summarise()` has grouped output by 'theta'. You can override using the
`.groups` argument.
[1] ""
[1] "Total run time was 389.926 seconds"
[1] "Estimation result: "
# A tibble: 360 × 5
   estimand theta   tau   est     se
   <chr>    <dbl> <dbl> <dbl>  <dbl>
 1 mu         0.1   0.1 0.566 0.241 
 2 mu         0.1   0.2 0.771 0.198 
 3 mu         0.1   0.3 1.02  0.260 
 4 mu         0.1   0.4 1.04  0.236 
 5 mu         0.1   0.5 1.01  0.189 
 6 mu         0.2   0.1 0.405 0.109 
 7 mu         0.2   0.2 0.567 0.0845
 8 mu         0.2   0.3 0.712 0.103 
 9 mu         0.2   0.4 0.761 0.103 
10 mu         0.2   0.5 0.789 0.0779
# ℹ 350 more rows
…
