…
`.groups` argument.
`summarise()` has grouped output by 'theta'. You can override using the
`.groups` argument.
`summarise()` has grouped output by 'theta', 'tau'. You can override using the
`.groups` argument.
`summarise()` has grouped output by 'theta'. You can override using the
`.groups` argument.
`summarise()` has grouped output by 'theta', 'tau'. You can override using the
`.groups` argument.
`summarise()` has grouped output by 'theta'. You can override using the
`.groups` argument.
[1] ""
[1] "Total run time was 88.276 seconds"
[1] "Estimation result: "
# A tibble: 360 × 5
   estimand theta   tau   est    se
   <chr>    <dbl> <dbl> <dbl> <dbl>
 1 mu         0.1   0.1 0.432 0.184
 2 mu         0.1   0.2 0.609 0.236
 3 mu         0.1   0.3 0.658 0.237
 4 mu         0.1   0.4 0.751 0.278
 5 mu         0.1   0.5 0.762 0.278
 6 mu         0.2   0.1 0.364 0.105
 7 mu         0.2   0.2 0.540 0.142
 8 mu         0.2   0.3 0.573 0.134
 9 mu         0.2   0.4 0.668 0.168
10 mu         0.2   0.5 0.684 0.163
# ℹ 350 more rows
…
