…
`.groups` argument.
`summarise()` has grouped output by 'theta'. You can override using the
`.groups` argument.
`summarise()` has grouped output by 'theta', 'tau'. You can override using the
`.groups` argument.
`summarise()` has grouped output by 'theta'. You can override using the
`.groups` argument.
`summarise()` has grouped output by 'theta', 'tau'. You can override using the
`.groups` argument.
`summarise()` has grouped output by 'theta'. You can override using the
`.groups` argument.
[1] ""
[1] "Total run time was 316.274 seconds"
[1] "Estimation result: "
# A tibble: 360 × 5
   estimand theta   tau   est     se
   <chr>    <dbl> <dbl> <dbl>  <dbl>
 1 mu         0.1   0.1 0.332 0.0686
 2 mu         0.1   0.2 0.484 0.144 
 3 mu         0.1   0.3 0.544 0.142 
 4 mu         0.1   0.4 0.564 0.138 
 5 mu         0.1   0.5 0.573 0.140 
 6 mu         0.2   0.1 0.287 0.0368
 7 mu         0.2   0.2 0.393 0.0757
 8 mu         0.2   0.3 0.454 0.0751
 9 mu         0.2   0.4 0.473 0.0750
10 mu         0.2   0.5 0.484 0.0794
# ℹ 350 more rows
…
