…
`.groups` argument.
`summarise()` has grouped output by 'theta'. You can override using the
`.groups` argument.
`summarise()` has grouped output by 'theta', 'tau'. You can override using the
`.groups` argument.
`summarise()` has grouped output by 'theta'. You can override using the
`.groups` argument.
`summarise()` has grouped output by 'theta', 'tau'. You can override using the
`.groups` argument.
`summarise()` has grouped output by 'theta'. You can override using the
`.groups` argument.
[1] ""
[1] "Total run time was 88.627 seconds"
[1] "Estimation result: "
# A tibble: 360 × 5
   estimand theta   tau   est     se
   <chr>    <dbl> <dbl> <dbl>  <dbl>
 1 mu         0.1   0.1 0.271 0.0845
 2 mu         0.1   0.2 0.363 0.123 
 3 mu         0.1   0.3 0.426 0.125 
 4 mu         0.1   0.4 0.565 0.156 
 5 mu         0.1   0.5 0.581 0.159 
 6 mu         0.2   0.1 0.272 0.0616
 7 mu         0.2   0.2 0.361 0.0854
 8 mu         0.2   0.3 0.436 0.0793
 9 mu         0.2   0.4 0.526 0.0976
10 mu         0.2   0.5 0.549 0.100 
# ℹ 350 more rows
…
