…
`.groups` argument.
`summarise()` has grouped output by 'theta'. You can override using the
`.groups` argument.
`summarise()` has grouped output by 'theta', 'tau'. You can override using the
`.groups` argument.
`summarise()` has grouped output by 'theta'. You can override using the
`.groups` argument.
`summarise()` has grouped output by 'theta', 'tau'. You can override using the
`.groups` argument.
`summarise()` has grouped output by 'theta'. You can override using the
`.groups` argument.
[1] ""
[1] "Total run time was 343.492 seconds"
[1] "Estimation result: "
# A tibble: 360 × 5
   estimand theta   tau   est    se
   <chr>    <dbl> <dbl> <dbl> <dbl>
 1 mu         0.1   0.1 0.435 0.170
 2 mu         0.1   0.2 0.531 0.201
 3 mu         0.1   0.3 0.587 0.215
 4 mu         0.1   0.4 0.630 0.231
 5 mu         0.1   0.5 0.678 0.245
 6 mu         0.2   0.1 0.386 0.134
 7 mu         0.2   0.2 0.503 0.159
 8 mu         0.2   0.3 0.547 0.166
 9 mu         0.2   0.4 0.596 0.181
10 mu         0.2   0.5 0.639 0.185
# ℹ 350 more rows
…
