…
`.groups` argument.
`summarise()` has grouped output by 'theta'. You can override using the
`.groups` argument.
`summarise()` has grouped output by 'theta', 'tau'. You can override using the
`.groups` argument.
`summarise()` has grouped output by 'theta'. You can override using the
`.groups` argument.
`summarise()` has grouped output by 'theta', 'tau'. You can override using the
`.groups` argument.
`summarise()` has grouped output by 'theta'. You can override using the
`.groups` argument.
[1] ""
[1] "Total run time was 104.947 seconds"
[1] "Estimation result: "
# A tibble: 360 × 5
   estimand theta   tau   est     se
   <chr>    <dbl> <dbl> <dbl>  <dbl>
 1 mu         0.1   0.1 0.425 0.0917
 2 mu         0.1   0.2 0.457 0.0983
 3 mu         0.1   0.3 0.473 0.120 
 4 mu         0.1   0.4 0.580 0.134 
 5 mu         0.1   0.5 0.575 0.133 
 6 mu         0.2   0.1 0.386 0.0549
 7 mu         0.2   0.2 0.425 0.0578
 8 mu         0.2   0.3 0.454 0.0718
 9 mu         0.2   0.4 0.543 0.0813
10 mu         0.2   0.5 0.546 0.0783
# ℹ 350 more rows
…
