…
`.groups` argument.
`summarise()` has grouped output by 'theta'. You can override using the
`.groups` argument.
`summarise()` has grouped output by 'theta', 'tau'. You can override using the
`.groups` argument.
`summarise()` has grouped output by 'theta'. You can override using the
`.groups` argument.
`summarise()` has grouped output by 'theta', 'tau'. You can override using the
`.groups` argument.
`summarise()` has grouped output by 'theta'. You can override using the
`.groups` argument.
[1] ""
[1] "Total run time was 236.729 seconds"
[1] "Estimation result: "
# A tibble: 360 × 5
   estimand theta   tau   est    se
   <chr>    <dbl> <dbl> <dbl> <dbl>
 1 mu         0.1   0.1 0.304 0.190
 2 mu         0.1   0.2 0.474 0.210
 3 mu         0.1   0.3 0.546 0.232
 4 mu         0.1   0.4 0.593 0.257
 5 mu         0.1   0.5 0.592 0.268
 6 mu         0.2   0.1 0.349 0.126
 7 mu         0.2   0.2 0.475 0.146
 8 mu         0.2   0.3 0.548 0.163
 9 mu         0.2   0.4 0.601 0.177
10 mu         0.2   0.5 0.605 0.183
# ℹ 350 more rows
…
