…
`.groups` argument.
`summarise()` has grouped output by 'theta'. You can override using the
`.groups` argument.
`summarise()` has grouped output by 'theta', 'tau'. You can override using the
`.groups` argument.
`summarise()` has grouped output by 'theta'. You can override using the
`.groups` argument.
`summarise()` has grouped output by 'theta', 'tau'. You can override using the
`.groups` argument.
`summarise()` has grouped output by 'theta'. You can override using the
`.groups` argument.
[1] ""
[1] "Total run time was 130.382 seconds"
[1] "Estimation result: "
# A tibble: 360 × 5
   estimand theta   tau   est     se
   <chr>    <dbl> <dbl> <dbl>  <dbl>
 1 mu         0.1   0.1 0.515 0.109 
 2 mu         0.1   0.2 0.597 0.138 
 3 mu         0.1   0.3 0.599 0.139 
 4 mu         0.1   0.4 0.623 0.147 
 5 mu         0.1   0.5 0.634 0.150 
 6 mu         0.2   0.1 0.457 0.0733
 7 mu         0.2   0.2 0.526 0.0939
 8 mu         0.2   0.3 0.537 0.0951
 9 mu         0.2   0.4 0.556 0.0998
10 mu         0.2   0.5 0.573 0.103 
# ℹ 350 more rows
…
