…
`.groups` argument.
`summarise()` has grouped output by 'theta'. You can override using the
`.groups` argument.
`summarise()` has grouped output by 'theta', 'tau'. You can override using the
`.groups` argument.
`summarise()` has grouped output by 'theta'. You can override using the
`.groups` argument.
`summarise()` has grouped output by 'theta', 'tau'. You can override using the
`.groups` argument.
`summarise()` has grouped output by 'theta'. You can override using the
`.groups` argument.
[1] ""
[1] "Total run time was 85.876 seconds"
[1] "Estimation result: "
# A tibble: 360 × 5
   estimand theta   tau   est     se
   <chr>    <dbl> <dbl> <dbl>  <dbl>
 1 mu         0.1   0.1 0.307 0.108 
 2 mu         0.1   0.2 0.407 0.101 
 3 mu         0.1   0.3 0.436 0.119 
 4 mu         0.1   0.4 0.529 0.0999
 5 mu         0.1   0.5 0.688 0.160 
 6 mu         0.2   0.1 0.306 0.0617
 7 mu         0.2   0.2 0.379 0.0609
 8 mu         0.2   0.3 0.432 0.0744
 9 mu         0.2   0.4 0.479 0.0688
10 mu         0.2   0.5 0.571 0.0893
# ℹ 350 more rows
…
