…
`.groups` argument.
`summarise()` has grouped output by 'theta'. You can override using the
`.groups` argument.
`summarise()` has grouped output by 'theta', 'tau'. You can override using the
`.groups` argument.
`summarise()` has grouped output by 'theta'. You can override using the
`.groups` argument.
`summarise()` has grouped output by 'theta', 'tau'. You can override using the
`.groups` argument.
`summarise()` has grouped output by 'theta'. You can override using the
`.groups` argument.
[1] ""
[1] "Total run time was 101.816 seconds"
[1] "Estimation result: "
# A tibble: 360 × 5
   estimand theta   tau   est     se
   <chr>    <dbl> <dbl> <dbl>  <dbl>
 1 mu         0.1   0.1 0.398 0.0882
 2 mu         0.1   0.2 0.477 0.0810
 3 mu         0.1   0.3 0.545 0.117 
 4 mu         0.1   0.4 0.561 0.109 
 5 mu         0.1   0.5 0.555 0.109 
 6 mu         0.2   0.1 0.344 0.0574
 7 mu         0.2   0.2 0.450 0.0608
 8 mu         0.2   0.3 0.506 0.0860
 9 mu         0.2   0.4 0.531 0.0787
10 mu         0.2   0.5 0.549 0.0746
# ℹ 350 more rows
…
