…
`.groups` argument.
`summarise()` has grouped output by 'theta'. You can override using the
`.groups` argument.
`summarise()` has grouped output by 'theta', 'tau'. You can override using the
`.groups` argument.
`summarise()` has grouped output by 'theta'. You can override using the
`.groups` argument.
`summarise()` has grouped output by 'theta', 'tau'. You can override using the
`.groups` argument.
`summarise()` has grouped output by 'theta'. You can override using the
`.groups` argument.
[1] ""
[1] "Total run time was 78.072 seconds"
[1] "Estimation result: "
# A tibble: 360 × 5
   estimand theta   tau   est     se
   <chr>    <dbl> <dbl> <dbl>  <dbl>
 1 mu         0.1   0.1 0.560 0.134 
 2 mu         0.1   0.2 0.588 0.135 
 3 mu         0.1   0.3 0.699 0.166 
 4 mu         0.1   0.4 0.707 0.165 
 5 mu         0.1   0.5 0.703 0.166 
 6 mu         0.2   0.1 0.503 0.0937
 7 mu         0.2   0.2 0.539 0.0767
 8 mu         0.2   0.3 0.646 0.103 
 9 mu         0.2   0.4 0.665 0.0991
10 mu         0.2   0.5 0.667 0.0943
# ℹ 350 more rows
…
