…
`.groups` argument.
`summarise()` has grouped output by 'theta'. You can override using the
`.groups` argument.
`summarise()` has grouped output by 'theta', 'tau'. You can override using the
`.groups` argument.
`summarise()` has grouped output by 'theta'. You can override using the
`.groups` argument.
`summarise()` has grouped output by 'theta', 'tau'. You can override using the
`.groups` argument.
`summarise()` has grouped output by 'theta'. You can override using the
`.groups` argument.
[1] ""
[1] "Total run time was 227.391 seconds"
[1] "Estimation result: "
# A tibble: 360 × 5
   estimand theta   tau   est    se
   <chr>    <dbl> <dbl> <dbl> <dbl>
 1 mu         0.1   0.1 0.411 0.141
 2 mu         0.1   0.2 0.549 0.195
 3 mu         0.1   0.3 0.559 0.201
 4 mu         0.1   0.4 0.560 0.212
 5 mu         0.1   0.5 0.616 0.227
 6 mu         0.2   0.1 0.367 0.108
 7 mu         0.2   0.2 0.477 0.149
 8 mu         0.2   0.3 0.489 0.155
 9 mu         0.2   0.4 0.497 0.164
10 mu         0.2   0.5 0.551 0.178
# ℹ 350 more rows
…
