…
`.groups` argument.
`summarise()` has grouped output by 'theta'. You can override using the
`.groups` argument.
`summarise()` has grouped output by 'theta', 'tau'. You can override using the
`.groups` argument.
`summarise()` has grouped output by 'theta'. You can override using the
`.groups` argument.
`summarise()` has grouped output by 'theta', 'tau'. You can override using the
`.groups` argument.
`summarise()` has grouped output by 'theta'. You can override using the
`.groups` argument.
[1] ""
[1] "Total run time was 328.062 seconds"
[1] "Estimation result: "
# A tibble: 360 × 5
   estimand theta   tau   est     se
   <chr>    <dbl> <dbl> <dbl>  <dbl>
 1 mu         0.1   0.1 0.312 0.0926
 2 mu         0.1   0.2 0.562 0.180 
 3 mu         0.1   0.3 0.627 0.183 
 4 mu         0.1   0.4 0.688 0.178 
 5 mu         0.1   0.5 0.690 0.179 
 6 mu         0.2   0.1 0.303 0.0737
 7 mu         0.2   0.2 0.523 0.131 
 8 mu         0.2   0.3 0.570 0.125 
 9 mu         0.2   0.4 0.629 0.122 
10 mu         0.2   0.5 0.646 0.123 
# ℹ 350 more rows
…
