…
`.groups` argument.
`summarise()` has grouped output by 'theta'. You can override using the
`.groups` argument.
`summarise()` has grouped output by 'theta', 'tau'. You can override using the
`.groups` argument.
`summarise()` has grouped output by 'theta'. You can override using the
`.groups` argument.
`summarise()` has grouped output by 'theta', 'tau'. You can override using the
`.groups` argument.
`summarise()` has grouped output by 'theta'. You can override using the
`.groups` argument.
[1] ""
[1] "Total run time was 100.125 seconds"
[1] "Estimation result: "
# A tibble: 360 × 5
   estimand theta   tau   est    se
   <chr>    <dbl> <dbl> <dbl> <dbl>
 1 mu         0.1   0.1 0.421 0.150
 2 mu         0.1   0.2 0.484 0.182
 3 mu         0.1   0.3 0.488 0.187
 4 mu         0.1   0.4 0.571 0.232
 5 mu         0.1   0.5 0.576 0.234
 6 mu         0.2   0.1 0.391 0.117
 7 mu         0.2   0.2 0.455 0.142
 8 mu         0.2   0.3 0.465 0.145
 9 mu         0.2   0.4 0.537 0.181
10 mu         0.2   0.5 0.547 0.182
# ℹ 350 more rows
…
