…
`.groups` argument.
`summarise()` has grouped output by 'theta'. You can override using the
`.groups` argument.
`summarise()` has grouped output by 'theta', 'tau'. You can override using the
`.groups` argument.
`summarise()` has grouped output by 'theta'. You can override using the
`.groups` argument.
`summarise()` has grouped output by 'theta', 'tau'. You can override using the
`.groups` argument.
`summarise()` has grouped output by 'theta'. You can override using the
`.groups` argument.
[1] ""
[1] "Total run time was 126.284 seconds"
[1] "Estimation result: "
# A tibble: 360 × 5
   estimand theta   tau   est     se
   <chr>    <dbl> <dbl> <dbl>  <dbl>
 1 mu         0.1   0.1 0.292 0.0764
 2 mu         0.1   0.2 0.416 0.0846
 3 mu         0.1   0.3 0.429 0.0938
 4 mu         0.1   0.4 0.444 0.106 
 5 mu         0.1   0.5 0.539 0.108 
 6 mu         0.2   0.1 0.261 0.0494
 7 mu         0.2   0.2 0.377 0.0491
 8 mu         0.2   0.3 0.395 0.0537
 9 mu         0.2   0.4 0.413 0.0639
10 mu         0.2   0.5 0.500 0.0599
# ℹ 350 more rows
…
