…
`.groups` argument.
`summarise()` has grouped output by 'theta'. You can override using the
`.groups` argument.
`summarise()` has grouped output by 'theta', 'tau'. You can override using the
`.groups` argument.
`summarise()` has grouped output by 'theta'. You can override using the
`.groups` argument.
`summarise()` has grouped output by 'theta', 'tau'. You can override using the
`.groups` argument.
`summarise()` has grouped output by 'theta'. You can override using the
`.groups` argument.
[1] ""
[1] "Total run time was 127.789 seconds"
[1] "Estimation result: "
# A tibble: 360 × 5
   estimand theta   tau   est     se
   <chr>    <dbl> <dbl> <dbl>  <dbl>
 1 mu         0.1   0.1 0.348 0.107 
 2 mu         0.1   0.2 0.443 0.124 
 3 mu         0.1   0.3 0.438 0.141 
 4 mu         0.1   0.4 0.441 0.158 
 5 mu         0.1   0.5 0.451 0.176 
 6 mu         0.2   0.1 0.307 0.0555
 7 mu         0.2   0.2 0.390 0.0585
 8 mu         0.2   0.3 0.390 0.0746
 9 mu         0.2   0.4 0.396 0.0900
10 mu         0.2   0.5 0.408 0.107 
# ℹ 350 more rows
…
