…
`.groups` argument.
`summarise()` has grouped output by 'theta'. You can override using the
`.groups` argument.
`summarise()` has grouped output by 'theta', 'tau'. You can override using the
`.groups` argument.
`summarise()` has grouped output by 'theta'. You can override using the
`.groups` argument.
`summarise()` has grouped output by 'theta', 'tau'. You can override using the
`.groups` argument.
`summarise()` has grouped output by 'theta'. You can override using the
`.groups` argument.
[1] ""
[1] "Total run time was 134.78 seconds"
[1] "Estimation result: "
# A tibble: 360 × 5
   estimand theta   tau   est     se
   <chr>    <dbl> <dbl> <dbl>  <dbl>
 1 mu         0.1   0.1 0.397 0.0689
 2 mu         0.1   0.2 0.517 0.0929
 3 mu         0.1   0.3 0.514 0.0799
 4 mu         0.1   0.4 0.531 0.0831
 5 mu         0.1   0.5 0.522 0.0865
 6 mu         0.2   0.1 0.374 0.0460
 7 mu         0.2   0.2 0.486 0.0578
 8 mu         0.2   0.3 0.502 0.0501
 9 mu         0.2   0.4 0.525 0.0553
10 mu         0.2   0.5 0.529 0.0571
# ℹ 350 more rows
…
