…
`.groups` argument.
`summarise()` has grouped output by 'theta'. You can override using the
`.groups` argument.
`summarise()` has grouped output by 'theta', 'tau'. You can override using the
`.groups` argument.
`summarise()` has grouped output by 'theta'. You can override using the
`.groups` argument.
`summarise()` has grouped output by 'theta', 'tau'. You can override using the
`.groups` argument.
`summarise()` has grouped output by 'theta'. You can override using the
`.groups` argument.
[1] ""
[1] "Total run time was 180.812 seconds"
[1] "Estimation result: "
# A tibble: 360 × 5
   estimand theta   tau   est    se
   <chr>    <dbl> <dbl> <dbl> <dbl>
 1 mu         0.1   0.1 0.496 0.282
 2 mu         0.1   0.2 0.540 0.261
 3 mu         0.1   0.3 0.564 0.248
 4 mu         0.1   0.4 0.624 0.234
 5 mu         0.1   0.5 0.633 0.224
 6 mu         0.2   0.1 0.439 0.211
 7 mu         0.2   0.2 0.515 0.188
 8 mu         0.2   0.3 0.549 0.172
 9 mu         0.2   0.4 0.639 0.165
10 mu         0.2   0.5 0.645 0.154
# ℹ 350 more rows
…
