…
`.groups` argument.
`summarise()` has grouped output by 'theta'. You can override using the
`.groups` argument.
`summarise()` has grouped output by 'theta', 'tau'. You can override using the
`.groups` argument.
`summarise()` has grouped output by 'theta'. You can override using the
`.groups` argument.
`summarise()` has grouped output by 'theta', 'tau'. You can override using the
`.groups` argument.
`summarise()` has grouped output by 'theta'. You can override using the
`.groups` argument.
[1] ""
[1] "Total run time was 139.028 seconds"
[1] "Estimation result: "
# A tibble: 360 × 5
   estimand theta   tau   est     se
   <chr>    <dbl> <dbl> <dbl>  <dbl>
 1 mu         0.1   0.1 0.299 0.0633
 2 mu         0.1   0.2 0.381 0.0741
 3 mu         0.1   0.3 0.383 0.0928
 4 mu         0.1   0.4 0.455 0.0914
 5 mu         0.1   0.5 0.536 0.105 
 6 mu         0.2   0.1 0.283 0.0385
 7 mu         0.2   0.2 0.354 0.0417
 8 mu         0.2   0.3 0.372 0.0605
 9 mu         0.2   0.4 0.445 0.0551
10 mu         0.2   0.5 0.561 0.0718
# ℹ 350 more rows
…
