…
`.groups` argument.
`summarise()` has grouped output by 'theta'. You can override using the
`.groups` argument.
`summarise()` has grouped output by 'theta', 'tau'. You can override using the
`.groups` argument.
`summarise()` has grouped output by 'theta'. You can override using the
`.groups` argument.
`summarise()` has grouped output by 'theta', 'tau'. You can override using the
`.groups` argument.
`summarise()` has grouped output by 'theta'. You can override using the
`.groups` argument.
[1] ""
[1] "Total run time was 80.954 seconds"
[1] "Estimation result: "
# A tibble: 360 × 5
   estimand theta   tau   est    se
   <chr>    <dbl> <dbl> <dbl> <dbl>
 1 mu         0.1   0.1 0.650 0.248
 2 mu         0.1   0.2 0.652 0.255
 3 mu         0.1   0.3 0.671 0.270
 4 mu         0.1   0.4 0.672 0.278
 5 mu         0.1   0.5 0.854 0.355
 6 mu         0.2   0.1 0.596 0.244
 7 mu         0.2   0.2 0.609 0.246
 8 mu         0.2   0.3 0.642 0.253
 9 mu         0.2   0.4 0.644 0.257
10 mu         0.2   0.5 0.786 0.311
# ℹ 350 more rows
…
