…
`.groups` argument.
`summarise()` has grouped output by 'theta'. You can override using the
`.groups` argument.
`summarise()` has grouped output by 'theta', 'tau'. You can override using the
`.groups` argument.
`summarise()` has grouped output by 'theta'. You can override using the
`.groups` argument.
`summarise()` has grouped output by 'theta', 'tau'. You can override using the
`.groups` argument.
`summarise()` has grouped output by 'theta'. You can override using the
`.groups` argument.
[1] ""
[1] "Total run time was 138.05 seconds"
[1] "Estimation result: "
# A tibble: 360 × 5
   estimand theta   tau   est     se
   <chr>    <dbl> <dbl> <dbl>  <dbl>
 1 mu         0.1   0.1 0.449 0.0809
 2 mu         0.1   0.2 0.491 0.0745
 3 mu         0.1   0.3 0.507 0.0757
 4 mu         0.1   0.4 0.549 0.0848
 5 mu         0.1   0.5 0.568 0.0883
 6 mu         0.2   0.1 0.401 0.0569
 7 mu         0.2   0.2 0.452 0.0490
 8 mu         0.2   0.3 0.465 0.0485
 9 mu         0.2   0.4 0.506 0.0528
10 mu         0.2   0.5 0.529 0.0559
# ℹ 350 more rows
…
