…
`.groups` argument.
`summarise()` has grouped output by 'theta'. You can override using the
`.groups` argument.
`summarise()` has grouped output by 'theta', 'tau'. You can override using the
`.groups` argument.
`summarise()` has grouped output by 'theta'. You can override using the
`.groups` argument.
`summarise()` has grouped output by 'theta', 'tau'. You can override using the
`.groups` argument.
`summarise()` has grouped output by 'theta'. You can override using the
`.groups` argument.
[1] ""
[1] "Total run time was 68.417 seconds"
[1] "Estimation result: "
# A tibble: 360 × 5
   estimand theta   tau   est     se
   <chr>    <dbl> <dbl> <dbl>  <dbl>
 1 mu         0.1   0.1 0.418 0.138 
 2 mu         0.1   0.2 0.499 0.177 
 3 mu         0.1   0.3 0.621 0.185 
 4 mu         0.1   0.4 0.636 0.189 
 5 mu         0.1   0.5 0.739 0.207 
 6 mu         0.2   0.1 0.356 0.0654
 7 mu         0.2   0.2 0.430 0.0893
 8 mu         0.2   0.3 0.530 0.0908
 9 mu         0.2   0.4 0.557 0.0905
10 mu         0.2   0.5 0.657 0.101 
# ℹ 350 more rows
…
