…
`.groups` argument.
`summarise()` has grouped output by 'theta'. You can override using the
`.groups` argument.
`summarise()` has grouped output by 'theta', 'tau'. You can override using the
`.groups` argument.
`summarise()` has grouped output by 'theta'. You can override using the
`.groups` argument.
`summarise()` has grouped output by 'theta', 'tau'. You can override using the
`.groups` argument.
`summarise()` has grouped output by 'theta'. You can override using the
`.groups` argument.
[1] ""
[1] "Total run time was 135.317 seconds"
[1] "Estimation result: "
# A tibble: 360 × 5
   estimand theta   tau   est     se
   <chr>    <dbl> <dbl> <dbl>  <dbl>
 1 mu         0.1   0.1 0.316 0.118 
 2 mu         0.1   0.2 0.381 0.165 
 3 mu         0.1   0.3 0.415 0.194 
 4 mu         0.1   0.4 0.429 0.215 
 5 mu         0.1   0.5 0.538 0.192 
 6 mu         0.2   0.1 0.307 0.0844
 7 mu         0.2   0.2 0.376 0.120 
 8 mu         0.2   0.3 0.399 0.138 
 9 mu         0.2   0.4 0.435 0.153 
10 mu         0.2   0.5 0.536 0.136 
# ℹ 350 more rows
…
