…
`.groups` argument.
`summarise()` has grouped output by 'theta'. You can override using the
`.groups` argument.
`summarise()` has grouped output by 'theta', 'tau'. You can override using the
`.groups` argument.
`summarise()` has grouped output by 'theta'. You can override using the
`.groups` argument.
`summarise()` has grouped output by 'theta', 'tau'. You can override using the
`.groups` argument.
`summarise()` has grouped output by 'theta'. You can override using the
`.groups` argument.
[1] ""
[1] "Total run time was 100.532 seconds"
[1] "Estimation result: "
# A tibble: 360 × 5
   estimand theta   tau   est     se
   <chr>    <dbl> <dbl> <dbl>  <dbl>
 1 mu         0.1   0.1 0.453 0.161 
 2 mu         0.1   0.2 0.640 0.229 
 3 mu         0.1   0.3 0.623 0.226 
 4 mu         0.1   0.4 0.645 0.235 
 5 mu         0.1   0.5 0.636 0.238 
 6 mu         0.2   0.1 0.418 0.0873
 7 mu         0.2   0.2 0.559 0.123 
 8 mu         0.2   0.3 0.550 0.109 
 9 mu         0.2   0.4 0.577 0.110 
10 mu         0.2   0.5 0.572 0.111 
# ℹ 350 more rows
…
