…
`.groups` argument.
`summarise()` has grouped output by 'theta'. You can override using the
`.groups` argument.
`summarise()` has grouped output by 'theta', 'tau'. You can override using the
`.groups` argument.
`summarise()` has grouped output by 'theta'. You can override using the
`.groups` argument.
`summarise()` has grouped output by 'theta', 'tau'. You can override using the
`.groups` argument.
`summarise()` has grouped output by 'theta'. You can override using the
`.groups` argument.
[1] ""
[1] "Total run time was 264.457 seconds"
[1] "Estimation result: "
# A tibble: 360 × 5
   estimand theta   tau   est    se
   <chr>    <dbl> <dbl> <dbl> <dbl>
 1 mu         0.1   0.1 0.524 0.216
 2 mu         0.1   0.2 0.499 0.165
 3 mu         0.1   0.3 0.480 0.144
 4 mu         0.1   0.4 0.473 0.138
 5 mu         0.1   0.5 0.648 0.145
 6 mu         0.2   0.1 0.457 0.165
 7 mu         0.2   0.2 0.439 0.121
 8 mu         0.2   0.3 0.425 0.108
 9 mu         0.2   0.4 0.424 0.107
10 mu         0.2   0.5 0.602 0.106
# ℹ 350 more rows
…
