…
`.groups` argument.
`summarise()` has grouped output by 'theta'. You can override using the
`.groups` argument.
`summarise()` has grouped output by 'theta', 'tau'. You can override using the
`.groups` argument.
`summarise()` has grouped output by 'theta'. You can override using the
`.groups` argument.
`summarise()` has grouped output by 'theta', 'tau'. You can override using the
`.groups` argument.
`summarise()` has grouped output by 'theta'. You can override using the
`.groups` argument.
[1] ""
[1] "Total run time was 444.778 seconds"
[1] "Estimation result: "
# A tibble: 360 × 5
   estimand theta   tau   est     se
   <chr>    <dbl> <dbl> <dbl>  <dbl>
 1 mu         0.1   0.1 0.462 0.117 
 2 mu         0.1   0.2 0.545 0.133 
 3 mu         0.1   0.3 0.653 0.169 
 4 mu         0.1   0.4 0.660 0.165 
 5 mu         0.1   0.5 0.667 0.164 
 6 mu         0.2   0.1 0.390 0.0829
 7 mu         0.2   0.2 0.477 0.0911
 8 mu         0.2   0.3 0.574 0.121 
 9 mu         0.2   0.4 0.585 0.115 
10 mu         0.2   0.5 0.599 0.114 
# ℹ 350 more rows
…
