…
`.groups` argument.
`summarise()` has grouped output by 'theta'. You can override using the
`.groups` argument.
`summarise()` has grouped output by 'theta', 'tau'. You can override using the
`.groups` argument.
`summarise()` has grouped output by 'theta'. You can override using the
`.groups` argument.
`summarise()` has grouped output by 'theta', 'tau'. You can override using the
`.groups` argument.
`summarise()` has grouped output by 'theta'. You can override using the
`.groups` argument.
[1] ""
[1] "Total run time was 70.405 seconds"
[1] "Estimation result: "
# A tibble: 360 × 5
   estimand theta   tau   est     se
   <chr>    <dbl> <dbl> <dbl>  <dbl>
 1 mu         0.1   0.1 0.215 0.0964
 2 mu         0.1   0.2 0.316 0.109 
 3 mu         0.1   0.3 0.316 0.129 
 4 mu         0.1   0.4 0.349 0.124 
 5 mu         0.1   0.5 0.348 0.139 
 6 mu         0.2   0.1 0.249 0.0735
 7 mu         0.2   0.2 0.337 0.0782
 8 mu         0.2   0.3 0.349 0.0919
 9 mu         0.2   0.4 0.381 0.0831
10 mu         0.2   0.5 0.390 0.0919
# ℹ 350 more rows
…
