…
`.groups` argument.
`summarise()` has grouped output by 'theta'. You can override using the
`.groups` argument.
`summarise()` has grouped output by 'theta', 'tau'. You can override using the
`.groups` argument.
`summarise()` has grouped output by 'theta'. You can override using the
`.groups` argument.
`summarise()` has grouped output by 'theta', 'tau'. You can override using the
`.groups` argument.
`summarise()` has grouped output by 'theta'. You can override using the
`.groups` argument.
[1] ""
[1] "Total run time was 179.873 seconds"
[1] "Estimation result: "
# A tibble: 360 × 5
   estimand theta   tau   est     se
   <chr>    <dbl> <dbl> <dbl>  <dbl>
 1 mu         0.1   0.1 0.534 0.137 
 2 mu         0.1   0.2 0.600 0.152 
 3 mu         0.1   0.3 0.618 0.166 
 4 mu         0.1   0.4 0.693 0.186 
 5 mu         0.1   0.5 0.690 0.188 
 6 mu         0.2   0.1 0.461 0.0841
 7 mu         0.2   0.2 0.523 0.0932
 8 mu         0.2   0.3 0.558 0.104 
 9 mu         0.2   0.4 0.619 0.114 
10 mu         0.2   0.5 0.620 0.115 
# ℹ 350 more rows
…
