…
`.groups` argument.
`summarise()` has grouped output by 'theta'. You can override using the
`.groups` argument.
`summarise()` has grouped output by 'theta', 'tau'. You can override using the
`.groups` argument.
`summarise()` has grouped output by 'theta'. You can override using the
`.groups` argument.
`summarise()` has grouped output by 'theta', 'tau'. You can override using the
`.groups` argument.
`summarise()` has grouped output by 'theta'. You can override using the
`.groups` argument.
[1] ""
[1] "Total run time was 87.603 seconds"
[1] "Estimation result: "
# A tibble: 360 × 5
   estimand theta   tau   est     se
   <chr>    <dbl> <dbl> <dbl>  <dbl>
 1 mu         0.1   0.1 0.383 0.0955
 2 mu         0.1   0.2 0.463 0.102 
 3 mu         0.1   0.3 0.511 0.153 
 4 mu         0.1   0.4 0.531 0.150 
 5 mu         0.1   0.5 0.672 0.127 
 6 mu         0.2   0.1 0.381 0.0717
 7 mu         0.2   0.2 0.442 0.0767
 8 mu         0.2   0.3 0.483 0.124 
 9 mu         0.2   0.4 0.520 0.113 
10 mu         0.2   0.5 0.637 0.0949
# ℹ 350 more rows
…
