…
`.groups` argument.
`summarise()` has grouped output by 'theta'. You can override using the
`.groups` argument.
`summarise()` has grouped output by 'theta', 'tau'. You can override using the
`.groups` argument.
`summarise()` has grouped output by 'theta'. You can override using the
`.groups` argument.
`summarise()` has grouped output by 'theta', 'tau'. You can override using the
`.groups` argument.
`summarise()` has grouped output by 'theta'. You can override using the
`.groups` argument.
[1] ""
[1] "Total run time was 136.022 seconds"
[1] "Estimation result: "
# A tibble: 360 × 5
   estimand theta   tau   est     se
   <chr>    <dbl> <dbl> <dbl>  <dbl>
 1 mu         0.1   0.1 0.205 0.0935
 2 mu         0.1   0.2 0.370 0.0931
 3 mu         0.1   0.3 0.424 0.112 
 4 mu         0.1   0.4 0.484 0.115 
 5 mu         0.1   0.5 0.552 0.129 
 6 mu         0.2   0.1 0.224 0.0556
 7 mu         0.2   0.2 0.353 0.0580
 8 mu         0.2   0.3 0.409 0.0711
 9 mu         0.2   0.4 0.447 0.0717
10 mu         0.2   0.5 0.517 0.0817
# ℹ 350 more rows
…
