…
`.groups` argument.
`summarise()` has grouped output by 'theta'. You can override using the
`.groups` argument.
`summarise()` has grouped output by 'theta', 'tau'. You can override using the
`.groups` argument.
`summarise()` has grouped output by 'theta'. You can override using the
`.groups` argument.
`summarise()` has grouped output by 'theta', 'tau'. You can override using the
`.groups` argument.
`summarise()` has grouped output by 'theta'. You can override using the
`.groups` argument.
[1] ""
[1] "Total run time was 67.125 seconds"
[1] "Estimation result: "
# A tibble: 360 × 5
   estimand theta   tau   est     se
   <chr>    <dbl> <dbl> <dbl>  <dbl>
 1 mu         0.1   0.1 0.297 0.0700
 2 mu         0.1   0.2 0.399 0.0867
 3 mu         0.1   0.3 0.481 0.119 
 4 mu         0.1   0.4 0.578 0.151 
 5 mu         0.1   0.5 0.620 0.151 
 6 mu         0.2   0.1 0.332 0.0771
 7 mu         0.2   0.2 0.392 0.0723
 8 mu         0.2   0.3 0.446 0.0860
 9 mu         0.2   0.4 0.522 0.0956
10 mu         0.2   0.5 0.582 0.104 
# ℹ 350 more rows
…
