…
`.groups` argument.
`summarise()` has grouped output by 'theta'. You can override using the
`.groups` argument.
`summarise()` has grouped output by 'theta', 'tau'. You can override using the
`.groups` argument.
`summarise()` has grouped output by 'theta'. You can override using the
`.groups` argument.
`summarise()` has grouped output by 'theta', 'tau'. You can override using the
`.groups` argument.
`summarise()` has grouped output by 'theta'. You can override using the
`.groups` argument.
[1] ""
[1] "Total run time was 196.448 seconds"
[1] "Estimation result: "
# A tibble: 360 × 5
   estimand theta   tau   est     se
   <chr>    <dbl> <dbl> <dbl>  <dbl>
 1 mu         0.1   0.1 0.201 0.102 
 2 mu         0.1   0.2 0.391 0.103 
 3 mu         0.1   0.3 0.419 0.122 
 4 mu         0.1   0.4 0.552 0.138 
 5 mu         0.1   0.5 0.608 0.153 
 6 mu         0.2   0.1 0.226 0.0603
 7 mu         0.2   0.2 0.374 0.0578
 8 mu         0.2   0.3 0.426 0.0699
 9 mu         0.2   0.4 0.526 0.0715
10 mu         0.2   0.5 0.582 0.0816
# ℹ 350 more rows
…
