…
`.groups` argument.
`summarise()` has grouped output by 'theta'. You can override using the
`.groups` argument.
`summarise()` has grouped output by 'theta', 'tau'. You can override using the
`.groups` argument.
`summarise()` has grouped output by 'theta'. You can override using the
`.groups` argument.
`summarise()` has grouped output by 'theta', 'tau'. You can override using the
`.groups` argument.
`summarise()` has grouped output by 'theta'. You can override using the
`.groups` argument.
[1] ""
[1] "Total run time was 190.356 seconds"
[1] "Estimation result: "
# A tibble: 360 × 5
   estimand theta   tau   est    se
   <chr>    <dbl> <dbl> <dbl> <dbl>
 1 mu         0.1   0.1 0.450 0.195
 2 mu         0.1   0.2 0.464 0.175
 3 mu         0.1   0.3 0.494 0.170
 4 mu         0.1   0.4 0.515 0.170
 5 mu         0.1   0.5 0.541 0.170
 6 mu         0.2   0.1 0.400 0.135
 7 mu         0.2   0.2 0.435 0.121
 8 mu         0.2   0.3 0.471 0.114
 9 mu         0.2   0.4 0.494 0.112
10 mu         0.2   0.5 0.531 0.113
# ℹ 350 more rows
…
