…
`.groups` argument.
`summarise()` has grouped output by 'theta'. You can override using the
`.groups` argument.
`summarise()` has grouped output by 'theta', 'tau'. You can override using the
`.groups` argument.
`summarise()` has grouped output by 'theta'. You can override using the
`.groups` argument.
`summarise()` has grouped output by 'theta', 'tau'. You can override using the
`.groups` argument.
`summarise()` has grouped output by 'theta'. You can override using the
`.groups` argument.
[1] ""
[1] "Total run time was 69.949 seconds"
[1] "Estimation result: "
# A tibble: 360 × 5
   estimand theta   tau   est     se
   <chr>    <dbl> <dbl> <dbl>  <dbl>
 1 mu         0.1   0.1 0.330 0.0958
 2 mu         0.1   0.2 0.362 0.114 
 3 mu         0.1   0.3 0.482 0.152 
 4 mu         0.1   0.4 0.528 0.156 
 5 mu         0.1   0.5 0.555 0.164 
 6 mu         0.2   0.1 0.324 0.0838
 7 mu         0.2   0.2 0.352 0.0990
 8 mu         0.2   0.3 0.470 0.139 
 9 mu         0.2   0.4 0.522 0.138 
10 mu         0.2   0.5 0.550 0.145 
# ℹ 350 more rows
…
