…
`.groups` argument.
`summarise()` has grouped output by 'theta'. You can override using the
`.groups` argument.
`summarise()` has grouped output by 'theta', 'tau'. You can override using the
`.groups` argument.
`summarise()` has grouped output by 'theta'. You can override using the
`.groups` argument.
`summarise()` has grouped output by 'theta', 'tau'. You can override using the
`.groups` argument.
`summarise()` has grouped output by 'theta'. You can override using the
`.groups` argument.
[1] ""
[1] "Total run time was 88.591 seconds"
[1] "Estimation result: "
# A tibble: 360 × 5
   estimand theta   tau   est     se
   <chr>    <dbl> <dbl> <dbl>  <dbl>
 1 mu         0.1   0.1 0.490 0.169 
 2 mu         0.1   0.2 0.590 0.168 
 3 mu         0.1   0.3 0.580 0.160 
 4 mu         0.1   0.4 0.606 0.160 
 5 mu         0.1   0.5 0.618 0.160 
 6 mu         0.2   0.1 0.397 0.127 
 7 mu         0.2   0.2 0.491 0.114 
 8 mu         0.2   0.3 0.491 0.103 
 9 mu         0.2   0.4 0.527 0.0999
10 mu         0.2   0.5 0.540 0.0977
# ℹ 350 more rows
…
