…
`.groups` argument.
`summarise()` has grouped output by 'theta'. You can override using the
`.groups` argument.
`summarise()` has grouped output by 'theta', 'tau'. You can override using the
`.groups` argument.
`summarise()` has grouped output by 'theta'. You can override using the
`.groups` argument.
`summarise()` has grouped output by 'theta', 'tau'. You can override using the
`.groups` argument.
`summarise()` has grouped output by 'theta'. You can override using the
`.groups` argument.
[1] ""
[1] "Total run time was 177.804 seconds"
[1] "Estimation result: "
# A tibble: 360 × 5
   estimand theta   tau   est    se
   <chr>    <dbl> <dbl> <dbl> <dbl>
 1 mu         0.1   0.1 0.295 0.140
 2 mu         0.1   0.2 0.347 0.198
 3 mu         0.1   0.3 0.360 0.241
 4 mu         0.1   0.4 0.523 0.249
 5 mu         0.1   0.5 0.533 0.276
 6 mu         0.2   0.1 0.303 0.132
 7 mu         0.2   0.2 0.347 0.173
 8 mu         0.2   0.3 0.369 0.214
 9 mu         0.2   0.4 0.497 0.234
10 mu         0.2   0.5 0.537 0.259
# ℹ 350 more rows
…
