…
`.groups` argument.
`summarise()` has grouped output by 'theta'. You can override using the
`.groups` argument.
`summarise()` has grouped output by 'theta', 'tau'. You can override using the
`.groups` argument.
`summarise()` has grouped output by 'theta'. You can override using the
`.groups` argument.
`summarise()` has grouped output by 'theta', 'tau'. You can override using the
`.groups` argument.
`summarise()` has grouped output by 'theta'. You can override using the
`.groups` argument.
[1] ""
[1] "Total run time was 90.845 seconds"
[1] "Estimation result: "
# A tibble: 360 × 5
   estimand theta   tau   est     se
   <chr>    <dbl> <dbl> <dbl>  <dbl>
 1 mu         0.1   0.1 0.406 0.183 
 2 mu         0.1   0.2 0.415 0.228 
 3 mu         0.1   0.3 0.424 0.275 
 4 mu         0.1   0.4 0.414 0.299 
 5 mu         0.1   0.5 0.397 0.362 
 6 mu         0.2   0.1 0.365 0.0982
 7 mu         0.2   0.2 0.386 0.127 
 8 mu         0.2   0.3 0.410 0.160 
 9 mu         0.2   0.4 0.406 0.178 
10 mu         0.2   0.5 0.396 0.227 
# ℹ 350 more rows
…
