…
`.groups` argument.
`summarise()` has grouped output by 'theta'. You can override using the
`.groups` argument.
`summarise()` has grouped output by 'theta', 'tau'. You can override using the
`.groups` argument.
`summarise()` has grouped output by 'theta'. You can override using the
`.groups` argument.
`summarise()` has grouped output by 'theta', 'tau'. You can override using the
`.groups` argument.
`summarise()` has grouped output by 'theta'. You can override using the
`.groups` argument.
[1] ""
[1] "Total run time was 125.747 seconds"
[1] "Estimation result: "
# A tibble: 360 × 5
   estimand theta   tau   est    se
   <chr>    <dbl> <dbl> <dbl> <dbl>
 1 mu         0.1   0.1 0.592 0.222
 2 mu         0.1   0.2 0.597 0.223
 3 mu         0.1   0.3 0.606 0.217
 4 mu         0.1   0.4 0.625 0.232
 5 mu         0.1   0.5 0.624 0.245
 6 mu         0.2   0.1 0.438 0.103
 7 mu         0.2   0.2 0.457 0.110
 8 mu         0.2   0.3 0.501 0.116
 9 mu         0.2   0.4 0.554 0.133
10 mu         0.2   0.5 0.571 0.148
# ℹ 350 more rows
…
