…
`.groups` argument.
`summarise()` has grouped output by 'theta'. You can override using the
`.groups` argument.
`summarise()` has grouped output by 'theta', 'tau'. You can override using the
`.groups` argument.
`summarise()` has grouped output by 'theta'. You can override using the
`.groups` argument.
`summarise()` has grouped output by 'theta', 'tau'. You can override using the
`.groups` argument.
`summarise()` has grouped output by 'theta'. You can override using the
`.groups` argument.
[1] ""
[1] "Total run time was 76.253 seconds"
[1] "Estimation result: "
# A tibble: 360 × 5
   estimand theta   tau   est    se
   <chr>    <dbl> <dbl> <dbl> <dbl>
 1 mu         0.1   0.1 0.594 0.206
 2 mu         0.1   0.2 0.601 0.215
 3 mu         0.1   0.3 0.601 0.220
 4 mu         0.1   0.4 0.613 0.231
 5 mu         0.1   0.5 0.619 0.241
 6 mu         0.2   0.1 0.495 0.147
 7 mu         0.2   0.2 0.525 0.159
 8 mu         0.2   0.3 0.529 0.166
 9 mu         0.2   0.4 0.548 0.179
10 mu         0.2   0.5 0.569 0.192
# ℹ 350 more rows
…
