…
`.groups` argument.
`summarise()` has grouped output by 'theta'. You can override using the
`.groups` argument.
`summarise()` has grouped output by 'theta', 'tau'. You can override using the
`.groups` argument.
`summarise()` has grouped output by 'theta'. You can override using the
`.groups` argument.
`summarise()` has grouped output by 'theta', 'tau'. You can override using the
`.groups` argument.
`summarise()` has grouped output by 'theta'. You can override using the
`.groups` argument.
[1] ""
[1] "Total run time was 522.094 seconds"
[1] "Estimation result: "
# A tibble: 360 × 5
   estimand theta   tau   est     se
   <chr>    <dbl> <dbl> <dbl>  <dbl>
 1 mu         0.1   0.1 0.404 0.122 
 2 mu         0.1   0.2 0.523 0.130 
 3 mu         0.1   0.3 0.579 0.138 
 4 mu         0.1   0.4 0.624 0.154 
 5 mu         0.1   0.5 0.685 0.183 
 6 mu         0.2   0.1 0.322 0.0621
 7 mu         0.2   0.2 0.442 0.0693
 8 mu         0.2   0.3 0.509 0.0831
 9 mu         0.2   0.4 0.556 0.104 
10 mu         0.2   0.5 0.625 0.136 
# ℹ 350 more rows
…
