…
`.groups` argument.
`summarise()` has grouped output by 'theta'. You can override using the
`.groups` argument.
`summarise()` has grouped output by 'theta', 'tau'. You can override using the
`.groups` argument.
`summarise()` has grouped output by 'theta'. You can override using the
`.groups` argument.
`summarise()` has grouped output by 'theta', 'tau'. You can override using the
`.groups` argument.
`summarise()` has grouped output by 'theta'. You can override using the
`.groups` argument.
[1] ""
[1] "Total run time was 92.358 seconds"
[1] "Estimation result: "
# A tibble: 360 × 5
   estimand theta   tau   est    se
   <chr>    <dbl> <dbl> <dbl> <dbl>
 1 mu         0.1   0.1 0.423 0.212
 2 mu         0.1   0.2 0.487 0.258
 3 mu         0.1   0.3 0.525 0.289
 4 mu         0.1   0.4 0.628 0.312
 5 mu         0.1   0.5 0.672 0.330
 6 mu         0.2   0.1 0.397 0.158
 7 mu         0.2   0.2 0.465 0.193
 8 mu         0.2   0.3 0.517 0.220
 9 mu         0.2   0.4 0.615 0.238
10 mu         0.2   0.5 0.657 0.248
# ℹ 350 more rows
…
