…
`.groups` argument.
`summarise()` has grouped output by 'theta'. You can override using the
`.groups` argument.
`summarise()` has grouped output by 'theta', 'tau'. You can override using the
`.groups` argument.
`summarise()` has grouped output by 'theta'. You can override using the
`.groups` argument.
`summarise()` has grouped output by 'theta', 'tau'. You can override using the
`.groups` argument.
`summarise()` has grouped output by 'theta'. You can override using the
`.groups` argument.
[1] ""
[1] "Total run time was 85.22 seconds"
[1] "Estimation result: "
# A tibble: 360 × 5
   estimand theta   tau   est    se
   <chr>    <dbl> <dbl> <dbl> <dbl>
 1 mu         0.1   0.1 0.479 0.167
 2 mu         0.1   0.2 0.583 0.205
 3 mu         0.1   0.3 0.583 0.199
 4 mu         0.1   0.4 0.577 0.200
 5 mu         0.1   0.5 0.596 0.208
 6 mu         0.2   0.1 0.436 0.122
 7 mu         0.2   0.2 0.536 0.157
 8 mu         0.2   0.3 0.540 0.150
 9 mu         0.2   0.4 0.539 0.148
10 mu         0.2   0.5 0.560 0.152
# ℹ 350 more rows
…
