…
`.groups` argument.
`summarise()` has grouped output by 'theta'. You can override using the
`.groups` argument.
`summarise()` has grouped output by 'theta', 'tau'. You can override using the
`.groups` argument.
`summarise()` has grouped output by 'theta'. You can override using the
`.groups` argument.
`summarise()` has grouped output by 'theta', 'tau'. You can override using the
`.groups` argument.
`summarise()` has grouped output by 'theta'. You can override using the
`.groups` argument.
[1] ""
[1] "Total run time was 161.622 seconds"
[1] "Estimation result: "
# A tibble: 360 × 5
   estimand theta   tau   est     se
   <chr>    <dbl> <dbl> <dbl>  <dbl>
 1 mu         0.1   0.1 0.353 0.0620
 2 mu         0.1   0.2 0.542 0.102 
 3 mu         0.1   0.3 0.557 0.101 
 4 mu         0.1   0.4 0.585 0.101 
 5 mu         0.1   0.5 0.628 0.114 
 6 mu         0.2   0.1 0.344 0.0497
 7 mu         0.2   0.2 0.524 0.0840
 8 mu         0.2   0.3 0.559 0.0873
 9 mu         0.2   0.4 0.589 0.0867
10 mu         0.2   0.5 0.622 0.0873
# ℹ 350 more rows
…
