…
`.groups` argument.
`summarise()` has grouped output by 'theta'. You can override using the
`.groups` argument.
`summarise()` has grouped output by 'theta', 'tau'. You can override using the
`.groups` argument.
`summarise()` has grouped output by 'theta'. You can override using the
`.groups` argument.
`summarise()` has grouped output by 'theta', 'tau'. You can override using the
`.groups` argument.
`summarise()` has grouped output by 'theta'. You can override using the
`.groups` argument.
[1] ""
[1] "Total run time was 123.278 seconds"
[1] "Estimation result: "
# A tibble: 360 × 5
   estimand theta   tau   est    se
   <chr>    <dbl> <dbl> <dbl> <dbl>
 1 mu         0.1   0.1 0.503 0.211
 2 mu         0.1   0.2 0.536 0.250
 3 mu         0.1   0.3 0.621 0.261
 4 mu         0.1   0.4 0.678 0.290
 5 mu         0.1   0.5 0.684 0.301
 6 mu         0.2   0.1 0.426 0.114
 7 mu         0.2   0.2 0.478 0.131
 8 mu         0.2   0.3 0.576 0.147
 9 mu         0.2   0.4 0.620 0.157
10 mu         0.2   0.5 0.636 0.166
# ℹ 350 more rows
…
