…
`.groups` argument.
`summarise()` has grouped output by 'theta'. You can override using the
`.groups` argument.
`summarise()` has grouped output by 'theta', 'tau'. You can override using the
`.groups` argument.
`summarise()` has grouped output by 'theta'. You can override using the
`.groups` argument.
`summarise()` has grouped output by 'theta', 'tau'. You can override using the
`.groups` argument.
`summarise()` has grouped output by 'theta'. You can override using the
`.groups` argument.
[1] ""
[1] "Total run time was 189.907 seconds"
[1] "Estimation result: "
# A tibble: 360 × 5
   estimand theta   tau   est     se
   <chr>    <dbl> <dbl> <dbl>  <dbl>
 1 mu         0.1   0.1 0.271 0.164 
 2 mu         0.1   0.2 0.362 0.230 
 3 mu         0.1   0.3 0.377 0.255 
 4 mu         0.1   0.4 0.387 0.280 
 5 mu         0.1   0.5 0.432 0.284 
 6 mu         0.2   0.1 0.293 0.0990
 7 mu         0.2   0.2 0.403 0.139 
 8 mu         0.2   0.3 0.429 0.153 
 9 mu         0.2   0.4 0.450 0.165 
10 mu         0.2   0.5 0.482 0.167 
# ℹ 350 more rows
…
