…
`.groups` argument.
`summarise()` has grouped output by 'theta'. You can override using the
`.groups` argument.
`summarise()` has grouped output by 'theta', 'tau'. You can override using the
`.groups` argument.
`summarise()` has grouped output by 'theta'. You can override using the
`.groups` argument.
`summarise()` has grouped output by 'theta', 'tau'. You can override using the
`.groups` argument.
`summarise()` has grouped output by 'theta'. You can override using the
`.groups` argument.
[1] ""
[1] "Total run time was 78.936 seconds"
[1] "Estimation result: "
# A tibble: 360 × 5
   estimand theta   tau   est    se
   <chr>    <dbl> <dbl> <dbl> <dbl>
 1 mu         0.1   0.1 0.612 0.174
 2 mu         0.1   0.2 0.667 0.188
 3 mu         0.1   0.3 0.736 0.217
 4 mu         0.1   0.4 0.745 0.211
 5 mu         0.1   0.5 0.764 0.204
 6 mu         0.2   0.1 0.543 0.136
 7 mu         0.2   0.2 0.607 0.152
 8 mu         0.2   0.3 0.681 0.182
 9 mu         0.2   0.4 0.700 0.171
10 mu         0.2   0.5 0.722 0.155
# ℹ 350 more rows
…
