…
`.groups` argument.
`summarise()` has grouped output by 'theta'. You can override using the
`.groups` argument.
`summarise()` has grouped output by 'theta', 'tau'. You can override using the
`.groups` argument.
`summarise()` has grouped output by 'theta'. You can override using the
`.groups` argument.
`summarise()` has grouped output by 'theta', 'tau'. You can override using the
`.groups` argument.
`summarise()` has grouped output by 'theta'. You can override using the
`.groups` argument.
[1] ""
[1] "Total run time was 255.862 seconds"
[1] "Estimation result: "
# A tibble: 360 × 5
   estimand theta   tau   est     se
   <chr>    <dbl> <dbl> <dbl>  <dbl>
 1 mu         0.1   0.1 0.314 0.159 
 2 mu         0.1   0.2 0.435 0.114 
 3 mu         0.1   0.3 0.583 0.141 
 4 mu         0.1   0.4 0.613 0.134 
 5 mu         0.1   0.5 0.620 0.132 
 6 mu         0.2   0.1 0.342 0.109 
 7 mu         0.2   0.2 0.423 0.0853
 8 mu         0.2   0.3 0.499 0.0731
 9 mu         0.2   0.4 0.544 0.0714
10 mu         0.2   0.5 0.551 0.0697
# ℹ 350 more rows
…
