…
`.groups` argument.
`summarise()` has grouped output by 'theta'. You can override using the
`.groups` argument.
`summarise()` has grouped output by 'theta', 'tau'. You can override using the
`.groups` argument.
`summarise()` has grouped output by 'theta'. You can override using the
`.groups` argument.
`summarise()` has grouped output by 'theta', 'tau'. You can override using the
`.groups` argument.
`summarise()` has grouped output by 'theta'. You can override using the
`.groups` argument.
[1] ""
[1] "Total run time was 139.313 seconds"
[1] "Estimation result: "
# A tibble: 360 × 5
   estimand theta   tau   est     se
   <chr>    <dbl> <dbl> <dbl>  <dbl>
 1 mu         0.1   0.1 0.358 0.0928
 2 mu         0.1   0.2 0.423 0.140 
 3 mu         0.1   0.3 0.445 0.153 
 4 mu         0.1   0.4 0.473 0.154 
 5 mu         0.1   0.5 0.555 0.117 
 6 mu         0.2   0.1 0.334 0.0691
 7 mu         0.2   0.2 0.408 0.109 
 8 mu         0.2   0.3 0.436 0.111 
 9 mu         0.2   0.4 0.475 0.106 
10 mu         0.2   0.5 0.530 0.0769
# ℹ 350 more rows
…
