…
`.groups` argument.
`summarise()` has grouped output by 'theta'. You can override using the
`.groups` argument.
`summarise()` has grouped output by 'theta', 'tau'. You can override using the
`.groups` argument.
`summarise()` has grouped output by 'theta'. You can override using the
`.groups` argument.
`summarise()` has grouped output by 'theta', 'tau'. You can override using the
`.groups` argument.
`summarise()` has grouped output by 'theta'. You can override using the
`.groups` argument.
[1] ""
[1] "Total run time was 96.726 seconds"
[1] "Estimation result: "
# A tibble: 360 × 5
   estimand theta   tau   est     se
   <chr>    <dbl> <dbl> <dbl>  <dbl>
 1 mu         0.1   0.1 0.269 0.0837
 2 mu         0.1   0.2 0.323 0.0896
 3 mu         0.1   0.3 0.347 0.103 
 4 mu         0.1   0.4 0.420 0.129 
 5 mu         0.1   0.5 0.484 0.150 
 6 mu         0.2   0.1 0.260 0.0524
 7 mu         0.2   0.2 0.324 0.0552
 8 mu         0.2   0.3 0.351 0.0609
 9 mu         0.2   0.4 0.407 0.0832
10 mu         0.2   0.5 0.477 0.102 
# ℹ 350 more rows
…
