…
`.groups` argument.
`summarise()` has grouped output by 'theta'. You can override using the
`.groups` argument.
`summarise()` has grouped output by 'theta', 'tau'. You can override using the
`.groups` argument.
`summarise()` has grouped output by 'theta'. You can override using the
`.groups` argument.
`summarise()` has grouped output by 'theta', 'tau'. You can override using the
`.groups` argument.
`summarise()` has grouped output by 'theta'. You can override using the
`.groups` argument.
[1] ""
[1] "Total run time was 70.807 seconds"
[1] "Estimation result: "
# A tibble: 360 × 5
   estimand theta   tau   est     se
   <chr>    <dbl> <dbl> <dbl>  <dbl>
 1 mu         0.1   0.1 0.157 0.129 
 2 mu         0.1   0.2 0.205 0.173 
 3 mu         0.1   0.3 0.237 0.221 
 4 mu         0.1   0.4 0.270 0.238 
 5 mu         0.1   0.5 0.435 0.195 
 6 mu         0.2   0.1 0.176 0.0923
 7 mu         0.2   0.2 0.242 0.121 
 8 mu         0.2   0.3 0.297 0.152 
 9 mu         0.2   0.4 0.340 0.159 
10 mu         0.2   0.5 0.446 0.150 
# ℹ 350 more rows
…
