…
`.groups` argument.
`summarise()` has grouped output by 'theta'. You can override using the
`.groups` argument.
`summarise()` has grouped output by 'theta', 'tau'. You can override using the
`.groups` argument.
`summarise()` has grouped output by 'theta'. You can override using the
`.groups` argument.
`summarise()` has grouped output by 'theta', 'tau'. You can override using the
`.groups` argument.
`summarise()` has grouped output by 'theta'. You can override using the
`.groups` argument.
[1] ""
[1] "Total run time was 369.048 seconds"
[1] "Estimation result: "
# A tibble: 360 × 5
   estimand theta   tau   est     se
   <chr>    <dbl> <dbl> <dbl>  <dbl>
 1 mu         0.1   0.1 0.275 0.109 
 2 mu         0.1   0.2 0.318 0.160 
 3 mu         0.1   0.3 0.463 0.123 
 4 mu         0.1   0.4 0.452 0.149 
 5 mu         0.1   0.5 0.459 0.157 
 6 mu         0.2   0.1 0.254 0.0641
 7 mu         0.2   0.2 0.318 0.112 
 8 mu         0.2   0.3 0.445 0.0655
 9 mu         0.2   0.4 0.444 0.0950
10 mu         0.2   0.5 0.468 0.105 
# ℹ 350 more rows
…
