…
`.groups` argument.
`summarise()` has grouped output by 'theta'. You can override using the
`.groups` argument.
`summarise()` has grouped output by 'theta', 'tau'. You can override using the
`.groups` argument.
`summarise()` has grouped output by 'theta'. You can override using the
`.groups` argument.
`summarise()` has grouped output by 'theta', 'tau'. You can override using the
`.groups` argument.
`summarise()` has grouped output by 'theta'. You can override using the
`.groups` argument.
[1] ""
[1] "Total run time was 105.095 seconds"
[1] "Estimation result: "
# A tibble: 360 × 5
   estimand theta   tau   est     se
   <chr>    <dbl> <dbl> <dbl>  <dbl>
 1 mu         0.1   0.1 0.267 0.122 
 2 mu         0.1   0.2 0.516 0.126 
 3 mu         0.1   0.3 0.549 0.116 
 4 mu         0.1   0.4 0.548 0.119 
 5 mu         0.1   0.5 0.554 0.129 
 6 mu         0.2   0.1 0.227 0.107 
 7 mu         0.2   0.2 0.437 0.0849
 8 mu         0.2   0.3 0.484 0.0790
 9 mu         0.2   0.4 0.493 0.0826
10 mu         0.2   0.5 0.514 0.0903
# ℹ 350 more rows
…
