…
`.groups` argument.
`summarise()` has grouped output by 'theta'. You can override using the
`.groups` argument.
`summarise()` has grouped output by 'theta', 'tau'. You can override using the
`.groups` argument.
`summarise()` has grouped output by 'theta'. You can override using the
`.groups` argument.
`summarise()` has grouped output by 'theta', 'tau'. You can override using the
`.groups` argument.
`summarise()` has grouped output by 'theta'. You can override using the
`.groups` argument.
[1] ""
[1] "Total run time was 242.828 seconds"
[1] "Estimation result: "
# A tibble: 360 × 5
   estimand theta   tau   est    se
   <chr>    <dbl> <dbl> <dbl> <dbl>
 1 mu         0.1   0.1 0.468 0.165
 2 mu         0.1   0.2 0.591 0.170
 3 mu         0.1   0.3 0.730 0.226
 4 mu         0.1   0.4 0.736 0.226
 5 mu         0.1   0.5 0.855 0.232
 6 mu         0.2   0.1 0.468 0.134
 7 mu         0.2   0.2 0.566 0.124
 8 mu         0.2   0.3 0.628 0.129
 9 mu         0.2   0.4 0.651 0.130
10 mu         0.2   0.5 0.723 0.134
# ℹ 350 more rows
…
