…
`.groups` argument.
`summarise()` has grouped output by 'theta'. You can override using the
`.groups` argument.
`summarise()` has grouped output by 'theta', 'tau'. You can override using the
`.groups` argument.
`summarise()` has grouped output by 'theta'. You can override using the
`.groups` argument.
`summarise()` has grouped output by 'theta', 'tau'. You can override using the
`.groups` argument.
`summarise()` has grouped output by 'theta'. You can override using the
`.groups` argument.
[1] ""
[1] "Total run time was 162.264 seconds"
[1] "Estimation result: "
# A tibble: 360 × 5
   estimand theta   tau   est     se
   <chr>    <dbl> <dbl> <dbl>  <dbl>
 1 mu         0.1   0.1 0.250 0.0455
 2 mu         0.1   0.2 0.422 0.0679
 3 mu         0.1   0.3 0.431 0.0676
 4 mu         0.1   0.4 0.491 0.0805
 5 mu         0.1   0.5 0.566 0.0945
 6 mu         0.2   0.1 0.232 0.0327
 7 mu         0.2   0.2 0.401 0.0542
 8 mu         0.2   0.3 0.412 0.0461
 9 mu         0.2   0.4 0.455 0.0522
10 mu         0.2   0.5 0.535 0.0684
# ℹ 350 more rows
…
