…
`.groups` argument.
`summarise()` has grouped output by 'theta'. You can override using the
`.groups` argument.
`summarise()` has grouped output by 'theta', 'tau'. You can override using the
`.groups` argument.
`summarise()` has grouped output by 'theta'. You can override using the
`.groups` argument.
`summarise()` has grouped output by 'theta', 'tau'. You can override using the
`.groups` argument.
`summarise()` has grouped output by 'theta'. You can override using the
`.groups` argument.
[1] ""
[1] "Total run time was 163.275 seconds"
[1] "Estimation result: "
# A tibble: 360 × 5
   estimand theta   tau   est     se
   <chr>    <dbl> <dbl> <dbl>  <dbl>
 1 mu         0.1   0.1 0.361 0.113 
 2 mu         0.1   0.2 0.382 0.139 
 3 mu         0.1   0.3 0.486 0.125 
 4 mu         0.1   0.4 0.604 0.157 
 5 mu         0.1   0.5 0.664 0.163 
 6 mu         0.2   0.1 0.356 0.0997
 7 mu         0.2   0.2 0.395 0.115 
 8 mu         0.2   0.3 0.476 0.0973
 9 mu         0.2   0.4 0.580 0.114 
10 mu         0.2   0.5 0.639 0.133 
# ℹ 350 more rows
…
