…
`.groups` argument.
`summarise()` has grouped output by 'theta'. You can override using the
`.groups` argument.
`summarise()` has grouped output by 'theta', 'tau'. You can override using the
`.groups` argument.
`summarise()` has grouped output by 'theta'. You can override using the
`.groups` argument.
`summarise()` has grouped output by 'theta', 'tau'. You can override using the
`.groups` argument.
`summarise()` has grouped output by 'theta'. You can override using the
`.groups` argument.
[1] ""
[1] "Total run time was 66.799 seconds"
[1] "Estimation result: "
# A tibble: 360 × 5
   estimand theta   tau   est     se
   <chr>    <dbl> <dbl> <dbl>  <dbl>
 1 mu         0.1   0.1 0.216 0.124 
 2 mu         0.1   0.2 0.412 0.167 
 3 mu         0.1   0.3 0.424 0.187 
 4 mu         0.1   0.4 0.447 0.208 
 5 mu         0.1   0.5 0.493 0.239 
 6 mu         0.2   0.1 0.234 0.0969
 7 mu         0.2   0.2 0.390 0.146 
 8 mu         0.2   0.3 0.406 0.163 
 9 mu         0.2   0.4 0.424 0.182 
10 mu         0.2   0.5 0.461 0.211 
# ℹ 350 more rows
…
