…
`.groups` argument.
`summarise()` has grouped output by 'theta'. You can override using the
`.groups` argument.
`summarise()` has grouped output by 'theta', 'tau'. You can override using the
`.groups` argument.
`summarise()` has grouped output by 'theta'. You can override using the
`.groups` argument.
`summarise()` has grouped output by 'theta', 'tau'. You can override using the
`.groups` argument.
`summarise()` has grouped output by 'theta'. You can override using the
`.groups` argument.
[1] ""
[1] "Total run time was 91.573 seconds"
[1] "Estimation result: "
# A tibble: 360 × 5
   estimand theta   tau   est     se
   <chr>    <dbl> <dbl> <dbl>  <dbl>
 1 mu         0.1   0.1 0.318 0.0616
 2 mu         0.1   0.2 0.445 0.0823
 3 mu         0.1   0.3 0.449 0.0878
 4 mu         0.1   0.4 0.458 0.0943
 5 mu         0.1   0.5 0.550 0.129 
 6 mu         0.2   0.1 0.288 0.0465
 7 mu         0.2   0.2 0.437 0.0674
 8 mu         0.2   0.3 0.439 0.0595
 9 mu         0.2   0.4 0.447 0.0624
10 mu         0.2   0.5 0.513 0.0765
# ℹ 350 more rows
…
