…
`.groups` argument.
`summarise()` has grouped output by 'theta'. You can override using the
`.groups` argument.
`summarise()` has grouped output by 'theta', 'tau'. You can override using the
`.groups` argument.
`summarise()` has grouped output by 'theta'. You can override using the
`.groups` argument.
`summarise()` has grouped output by 'theta', 'tau'. You can override using the
`.groups` argument.
`summarise()` has grouped output by 'theta'. You can override using the
`.groups` argument.
[1] ""
[1] "Total run time was 141.632 seconds"
[1] "Estimation result: "
# A tibble: 360 × 5
   estimand theta   tau   est     se
   <chr>    <dbl> <dbl> <dbl>  <dbl>
 1 mu         0.1   0.1 0.367 0.0653
 2 mu         0.1   0.2 0.534 0.120 
 3 mu         0.1   0.3 0.581 0.115 
 4 mu         0.1   0.4 0.661 0.126 
 5 mu         0.1   0.5 0.672 0.125 
 6 mu         0.2   0.1 0.331 0.0449
 7 mu         0.2   0.2 0.470 0.0774
 8 mu         0.2   0.3 0.530 0.0750
 9 mu         0.2   0.4 0.598 0.0820
10 mu         0.2   0.5 0.612 0.0820
# ℹ 350 more rows
…
