…
`.groups` argument.
`summarise()` has grouped output by 'theta'. You can override using the
`.groups` argument.
`summarise()` has grouped output by 'theta', 'tau'. You can override using the
`.groups` argument.
`summarise()` has grouped output by 'theta'. You can override using the
`.groups` argument.
`summarise()` has grouped output by 'theta', 'tau'. You can override using the
`.groups` argument.
`summarise()` has grouped output by 'theta'. You can override using the
`.groups` argument.
[1] ""
[1] "Total run time was 155.317 seconds"
[1] "Estimation result: "
# A tibble: 360 × 5
   estimand theta   tau   est     se
   <chr>    <dbl> <dbl> <dbl>  <dbl>
 1 mu         0.1   0.1 0.503 0.164 
 2 mu         0.1   0.2 0.532 0.138 
 3 mu         0.1   0.3 0.567 0.136 
 4 mu         0.1   0.4 0.592 0.135 
 5 mu         0.1   0.5 0.601 0.134 
 6 mu         0.2   0.1 0.406 0.112 
 7 mu         0.2   0.2 0.485 0.0984
 8 mu         0.2   0.3 0.552 0.0985
 9 mu         0.2   0.4 0.586 0.103 
10 mu         0.2   0.5 0.592 0.0949
# ℹ 350 more rows
…
