…
`.groups` argument.
`summarise()` has grouped output by 'theta'. You can override using the
`.groups` argument.
`summarise()` has grouped output by 'theta', 'tau'. You can override using the
`.groups` argument.
`summarise()` has grouped output by 'theta'. You can override using the
`.groups` argument.
`summarise()` has grouped output by 'theta', 'tau'. You can override using the
`.groups` argument.
`summarise()` has grouped output by 'theta'. You can override using the
`.groups` argument.
[1] ""
[1] "Total run time was 82.414 seconds"
[1] "Estimation result: "
# A tibble: 360 × 5
   estimand theta   tau   est    se
   <chr>    <dbl> <dbl> <dbl> <dbl>
 1 mu         0.1   0.1 0.402 0.175
 2 mu         0.1   0.2 0.583 0.202
 3 mu         0.1   0.3 0.597 0.205
 4 mu         0.1   0.4 0.608 0.199
 5 mu         0.1   0.5 0.631 0.198
 6 mu         0.2   0.1 0.382 0.144
 7 mu         0.2   0.2 0.550 0.160
 8 mu         0.2   0.3 0.565 0.158
 9 mu         0.2   0.4 0.583 0.144
10 mu         0.2   0.5 0.607 0.137
# ℹ 350 more rows
…
