…
`.groups` argument.
`summarise()` has grouped output by 'theta'. You can override using the
`.groups` argument.
`summarise()` has grouped output by 'theta', 'tau'. You can override using the
`.groups` argument.
`summarise()` has grouped output by 'theta'. You can override using the
`.groups` argument.
`summarise()` has grouped output by 'theta', 'tau'. You can override using the
`.groups` argument.
`summarise()` has grouped output by 'theta'. You can override using the
`.groups` argument.
[1] ""
[1] "Total run time was 130.218 seconds"
[1] "Estimation result: "
# A tibble: 360 × 5
   estimand theta   tau   est     se
   <chr>    <dbl> <dbl> <dbl>  <dbl>
 1 mu         0.1   0.1 0.355 0.157 
 2 mu         0.1   0.2 0.442 0.172 
 3 mu         0.1   0.3 0.502 0.170 
 4 mu         0.1   0.4 0.539 0.186 
 5 mu         0.1   0.5 0.566 0.192 
 6 mu         0.2   0.1 0.329 0.0926
 7 mu         0.2   0.2 0.422 0.101 
 8 mu         0.2   0.3 0.477 0.0960
 9 mu         0.2   0.4 0.529 0.108 
10 mu         0.2   0.5 0.568 0.109 
# ℹ 350 more rows
…
