…
`.groups` argument.
`summarise()` has grouped output by 'theta'. You can override using the
`.groups` argument.
`summarise()` has grouped output by 'theta', 'tau'. You can override using the
`.groups` argument.
`summarise()` has grouped output by 'theta'. You can override using the
`.groups` argument.
`summarise()` has grouped output by 'theta', 'tau'. You can override using the
`.groups` argument.
`summarise()` has grouped output by 'theta'. You can override using the
`.groups` argument.
[1] ""
[1] "Total run time was 125.87 seconds"
[1] "Estimation result: "
# A tibble: 360 × 5
   estimand theta   tau   est     se
   <chr>    <dbl> <dbl> <dbl>  <dbl>
 1 mu         0.1   0.1 0.315 0.0878
 2 mu         0.1   0.2 0.350 0.122 
 3 mu         0.1   0.3 0.377 0.146 
 4 mu         0.1   0.4 0.406 0.170 
 5 mu         0.1   0.5 0.431 0.178 
 6 mu         0.2   0.1 0.291 0.0522
 7 mu         0.2   0.2 0.366 0.0636
 8 mu         0.2   0.3 0.400 0.0750
 9 mu         0.2   0.4 0.453 0.0863
10 mu         0.2   0.5 0.485 0.0862
# ℹ 350 more rows
…
