…
`.groups` argument.
`summarise()` has grouped output by 'theta'. You can override using the
`.groups` argument.
`summarise()` has grouped output by 'theta', 'tau'. You can override using the
`.groups` argument.
`summarise()` has grouped output by 'theta'. You can override using the
`.groups` argument.
`summarise()` has grouped output by 'theta', 'tau'. You can override using the
`.groups` argument.
`summarise()` has grouped output by 'theta'. You can override using the
`.groups` argument.
[1] ""
[1] "Total run time was 94.881 seconds"
[1] "Estimation result: "
# A tibble: 360 × 5
   estimand theta   tau   est     se
   <chr>    <dbl> <dbl> <dbl>  <dbl>
 1 mu         0.1   0.1 0.602 0.166 
 2 mu         0.1   0.2 0.631 0.141 
 3 mu         0.1   0.3 0.644 0.126 
 4 mu         0.1   0.4 0.702 0.133 
 5 mu         0.1   0.5 0.740 0.128 
 6 mu         0.2   0.1 0.498 0.121 
 7 mu         0.2   0.2 0.547 0.102 
 8 mu         0.2   0.3 0.573 0.0893
 9 mu         0.2   0.4 0.616 0.0924
10 mu         0.2   0.5 0.652 0.0881
# ℹ 350 more rows
…
