…
`.groups` argument.
`summarise()` has grouped output by 'theta'. You can override using the
`.groups` argument.
`summarise()` has grouped output by 'theta', 'tau'. You can override using the
`.groups` argument.
`summarise()` has grouped output by 'theta'. You can override using the
`.groups` argument.
`summarise()` has grouped output by 'theta', 'tau'. You can override using the
`.groups` argument.
`summarise()` has grouped output by 'theta'. You can override using the
`.groups` argument.
[1] ""
[1] "Total run time was 120.686 seconds"
[1] "Estimation result: "
# A tibble: 360 × 5
   estimand theta   tau   est     se
   <chr>    <dbl> <dbl> <dbl>  <dbl>
 1 mu         0.1   0.1 0.478 0.125 
 2 mu         0.1   0.2 0.583 0.109 
 3 mu         0.1   0.3 0.631 0.121 
 4 mu         0.1   0.4 0.658 0.153 
 5 mu         0.1   0.5 0.668 0.159 
 6 mu         0.2   0.1 0.447 0.115 
 7 mu         0.2   0.2 0.536 0.0832
 8 mu         0.2   0.3 0.577 0.0815
 9 mu         0.2   0.4 0.608 0.117 
10 mu         0.2   0.5 0.625 0.124 
# ℹ 350 more rows
…
