…
`.groups` argument.
`summarise()` has grouped output by 'theta'. You can override using the
`.groups` argument.
`summarise()` has grouped output by 'theta', 'tau'. You can override using the
`.groups` argument.
`summarise()` has grouped output by 'theta'. You can override using the
`.groups` argument.
`summarise()` has grouped output by 'theta', 'tau'. You can override using the
`.groups` argument.
`summarise()` has grouped output by 'theta'. You can override using the
`.groups` argument.
[1] ""
[1] "Total run time was 90.089 seconds"
[1] "Estimation result: "
# A tibble: 360 × 5
   estimand theta   tau   est    se
   <chr>    <dbl> <dbl> <dbl> <dbl>
 1 mu         0.1   0.1 0.333 0.138
 2 mu         0.1   0.2 0.424 0.154
 3 mu         0.1   0.3 0.575 0.186
 4 mu         0.1   0.4 0.605 0.199
 5 mu         0.1   0.5 0.617 0.208
 6 mu         0.2   0.1 0.311 0.118
 7 mu         0.2   0.2 0.404 0.138
 8 mu         0.2   0.3 0.537 0.164
 9 mu         0.2   0.4 0.583 0.181
10 mu         0.2   0.5 0.601 0.190
# ℹ 350 more rows
…
