…
`.groups` argument.
`summarise()` has grouped output by 'theta'. You can override using the
`.groups` argument.
`summarise()` has grouped output by 'theta', 'tau'. You can override using the
`.groups` argument.
`summarise()` has grouped output by 'theta'. You can override using the
`.groups` argument.
`summarise()` has grouped output by 'theta', 'tau'. You can override using the
`.groups` argument.
`summarise()` has grouped output by 'theta'. You can override using the
`.groups` argument.
[1] ""
[1] "Total run time was 111.798 seconds"
[1] "Estimation result: "
# A tibble: 360 × 5
   estimand theta   tau   est     se
   <chr>    <dbl> <dbl> <dbl>  <dbl>
 1 mu         0.1   0.1 0.368 0.205 
 2 mu         0.1   0.2 0.437 0.255 
 3 mu         0.1   0.3 0.428 0.267 
 4 mu         0.1   0.4 0.525 0.197 
 5 mu         0.1   0.5 0.668 0.140 
 6 mu         0.2   0.1 0.401 0.162 
 7 mu         0.2   0.2 0.471 0.200 
 8 mu         0.2   0.3 0.500 0.185 
 9 mu         0.2   0.4 0.562 0.135 
10 mu         0.2   0.5 0.667 0.0968
# ℹ 350 more rows
…
