…
`.groups` argument.
`summarise()` has grouped output by 'theta'. You can override using the
`.groups` argument.
`summarise()` has grouped output by 'theta', 'tau'. You can override using the
`.groups` argument.
`summarise()` has grouped output by 'theta'. You can override using the
`.groups` argument.
`summarise()` has grouped output by 'theta', 'tau'. You can override using the
`.groups` argument.
`summarise()` has grouped output by 'theta'. You can override using the
`.groups` argument.
[1] ""
[1] "Total run time was 97.536 seconds"
[1] "Estimation result: "
# A tibble: 360 × 5
   estimand theta   tau   est     se
   <chr>    <dbl> <dbl> <dbl>  <dbl>
 1 mu         0.1   0.1 0.355 0.0672
 2 mu         0.1   0.2 0.383 0.0652
 3 mu         0.1   0.3 0.586 0.177 
 4 mu         0.1   0.4 0.609 0.162 
 5 mu         0.1   0.5 0.633 0.153 
 6 mu         0.2   0.1 0.297 0.0510
 7 mu         0.2   0.2 0.328 0.0486
 8 mu         0.2   0.3 0.497 0.127 
 9 mu         0.2   0.4 0.520 0.114 
10 mu         0.2   0.5 0.554 0.108 
# ℹ 350 more rows
…
