…
`.groups` argument.
`summarise()` has grouped output by 'theta'. You can override using the
`.groups` argument.
`summarise()` has grouped output by 'theta', 'tau'. You can override using the
`.groups` argument.
`summarise()` has grouped output by 'theta'. You can override using the
`.groups` argument.
`summarise()` has grouped output by 'theta', 'tau'. You can override using the
`.groups` argument.
`summarise()` has grouped output by 'theta'. You can override using the
`.groups` argument.
[1] ""
[1] "Total run time was 139.137 seconds"
[1] "Estimation result: "
# A tibble: 360 × 5
   estimand theta   tau   est     se
   <chr>    <dbl> <dbl> <dbl>  <dbl>
 1 mu         0.1   0.1 0.327 0.111 
 2 mu         0.1   0.2 0.447 0.110 
 3 mu         0.1   0.3 0.547 0.122 
 4 mu         0.1   0.4 0.667 0.171 
 5 mu         0.1   0.5 0.676 0.164 
 6 mu         0.2   0.1 0.300 0.0807
 7 mu         0.2   0.2 0.396 0.0651
 8 mu         0.2   0.3 0.472 0.0761
 9 mu         0.2   0.4 0.576 0.105 
10 mu         0.2   0.5 0.585 0.0990
# ℹ 350 more rows
…
