…
`.groups` argument.
`summarise()` has grouped output by 'theta'. You can override using the
`.groups` argument.
`summarise()` has grouped output by 'theta', 'tau'. You can override using the
`.groups` argument.
`summarise()` has grouped output by 'theta'. You can override using the
`.groups` argument.
`summarise()` has grouped output by 'theta', 'tau'. You can override using the
`.groups` argument.
`summarise()` has grouped output by 'theta'. You can override using the
`.groups` argument.
[1] ""
[1] "Total run time was 81.81 seconds"
[1] "Estimation result: "
# A tibble: 360 × 5
   estimand theta   tau   est     se
   <chr>    <dbl> <dbl> <dbl>  <dbl>
 1 mu         0.1   0.1 0.318 0.0815
 2 mu         0.1   0.2 0.369 0.0954
 3 mu         0.1   0.3 0.376 0.125 
 4 mu         0.1   0.4 0.387 0.149 
 5 mu         0.1   0.5 0.529 0.113 
 6 mu         0.2   0.1 0.286 0.0605
 7 mu         0.2   0.2 0.333 0.0676
 8 mu         0.2   0.3 0.347 0.0881
 9 mu         0.2   0.4 0.367 0.107 
10 mu         0.2   0.5 0.482 0.0792
# ℹ 350 more rows
…
