…
`.groups` argument.
`summarise()` has grouped output by 'theta'. You can override using the
`.groups` argument.
`summarise()` has grouped output by 'theta', 'tau'. You can override using the
`.groups` argument.
`summarise()` has grouped output by 'theta'. You can override using the
`.groups` argument.
`summarise()` has grouped output by 'theta', 'tau'. You can override using the
`.groups` argument.
`summarise()` has grouped output by 'theta'. You can override using the
`.groups` argument.
[1] ""
[1] "Total run time was 128.946 seconds"
[1] "Estimation result: "
# A tibble: 360 × 5
   estimand theta   tau   est     se
   <chr>    <dbl> <dbl> <dbl>  <dbl>
 1 mu         0.1   0.1 0.491 0.293 
 2 mu         0.1   0.2 0.654 0.427 
 3 mu         0.1   0.3 1.01  0.525 
 4 mu         0.1   0.4 1.09  0.577 
 5 mu         0.1   0.5 1.14  0.636 
 6 mu         0.2   0.1 0.339 0.0879
 7 mu         0.2   0.2 0.444 0.127 
 8 mu         0.2   0.3 0.661 0.153 
 9 mu         0.2   0.4 0.733 0.167 
10 mu         0.2   0.5 0.756 0.182 
# ℹ 350 more rows
…
