…
`.groups` argument.
`summarise()` has grouped output by 'theta'. You can override using the
`.groups` argument.
`summarise()` has grouped output by 'theta', 'tau'. You can override using the
`.groups` argument.
`summarise()` has grouped output by 'theta'. You can override using the
`.groups` argument.
`summarise()` has grouped output by 'theta', 'tau'. You can override using the
`.groups` argument.
`summarise()` has grouped output by 'theta'. You can override using the
`.groups` argument.
[1] ""
[1] "Total run time was 211.944 seconds"
[1] "Estimation result: "
# A tibble: 360 × 5
   estimand theta   tau   est     se
   <chr>    <dbl> <dbl> <dbl>  <dbl>
 1 mu         0.1   0.1 0.441 0.0747
 2 mu         0.1   0.2 0.579 0.124 
 3 mu         0.1   0.3 0.639 0.106 
 4 mu         0.1   0.4 0.673 0.0938
 5 mu         0.1   0.5 0.727 0.0989
 6 mu         0.2   0.1 0.385 0.0504
 7 mu         0.2   0.2 0.500 0.0838
 8 mu         0.2   0.3 0.569 0.0729
 9 mu         0.2   0.4 0.602 0.0626
10 mu         0.2   0.5 0.652 0.0662
# ℹ 350 more rows
…
