…
`.groups` argument.
`summarise()` has grouped output by 'theta'. You can override using the
`.groups` argument.
`summarise()` has grouped output by 'theta', 'tau'. You can override using the
`.groups` argument.
`summarise()` has grouped output by 'theta'. You can override using the
`.groups` argument.
`summarise()` has grouped output by 'theta', 'tau'. You can override using the
`.groups` argument.
`summarise()` has grouped output by 'theta'. You can override using the
`.groups` argument.
[1] ""
[1] "Total run time was 132.413 seconds"
[1] "Estimation result: "
# A tibble: 360 × 5
   estimand theta   tau   est     se
   <chr>    <dbl> <dbl> <dbl>  <dbl>
 1 mu         0.1   0.1 0.437 0.0597
 2 mu         0.1   0.2 0.514 0.0794
 3 mu         0.1   0.3 0.551 0.0508
 4 mu         0.1   0.4 0.567 0.0469
 5 mu         0.1   0.5 0.638 0.0724
 6 mu         0.2   0.1 0.392 0.0439
 7 mu         0.2   0.2 0.455 0.0514
 8 mu         0.2   0.3 0.531 0.0369
 9 mu         0.2   0.4 0.561 0.0355
10 mu         0.2   0.5 0.619 0.0453
# ℹ 350 more rows
…
