…
`.groups` argument.
`summarise()` has grouped output by 'theta'. You can override using the
`.groups` argument.
`summarise()` has grouped output by 'theta', 'tau'. You can override using the
`.groups` argument.
`summarise()` has grouped output by 'theta'. You can override using the
`.groups` argument.
`summarise()` has grouped output by 'theta', 'tau'. You can override using the
`.groups` argument.
`summarise()` has grouped output by 'theta'. You can override using the
`.groups` argument.
[1] ""
[1] "Total run time was 188.81 seconds"
[1] "Estimation result: "
# A tibble: 360 × 5
   estimand theta   tau   est     se
   <chr>    <dbl> <dbl> <dbl>  <dbl>
 1 mu         0.1   0.1 0.453 0.0578
 2 mu         0.1   0.2 0.513 0.0665
 3 mu         0.1   0.3 0.577 0.0890
 4 mu         0.1   0.4 0.674 0.0596
 5 mu         0.1   0.5 0.704 0.0835
 6 mu         0.2   0.1 0.382 0.0372
 7 mu         0.2   0.2 0.480 0.0479
 8 mu         0.2   0.3 0.543 0.0620
 9 mu         0.2   0.4 0.610 0.0523
10 mu         0.2   0.5 0.643 0.0563
# ℹ 350 more rows
…
