…
`.groups` argument.
`summarise()` has grouped output by 'theta'. You can override using the
`.groups` argument.
`summarise()` has grouped output by 'theta', 'tau'. You can override using the
`.groups` argument.
`summarise()` has grouped output by 'theta'. You can override using the
`.groups` argument.
`summarise()` has grouped output by 'theta', 'tau'. You can override using the
`.groups` argument.
`summarise()` has grouped output by 'theta'. You can override using the
`.groups` argument.
[1] ""
[1] "Total run time was 127.528 seconds"
[1] "Estimation result: "
# A tibble: 360 × 5
   estimand theta   tau   est     se
   <chr>    <dbl> <dbl> <dbl>  <dbl>
 1 mu         0.1   0.1 0.408 0.0577
 2 mu         0.1   0.2 0.519 0.0565
 3 mu         0.1   0.3 0.578 0.0437
 4 mu         0.1   0.4 0.598 0.0423
 5 mu         0.1   0.5 0.644 0.0364
 6 mu         0.2   0.1 0.349 0.0465
 7 mu         0.2   0.2 0.451 0.0425
 8 mu         0.2   0.3 0.542 0.0472
 9 mu         0.2   0.4 0.588 0.0446
10 mu         0.2   0.5 0.615 0.0385
# ℹ 350 more rows
…
