…
`.groups` argument.
`summarise()` has grouped output by 'theta'. You can override using the
`.groups` argument.
`summarise()` has grouped output by 'theta', 'tau'. You can override using the
`.groups` argument.
`summarise()` has grouped output by 'theta'. You can override using the
`.groups` argument.
`summarise()` has grouped output by 'theta', 'tau'. You can override using the
`.groups` argument.
`summarise()` has grouped output by 'theta'. You can override using the
`.groups` argument.
[1] ""
[1] "Total run time was 122.511 seconds"
[1] "Estimation result: "
# A tibble: 360 × 5
   estimand theta   tau   est     se
   <chr>    <dbl> <dbl> <dbl>  <dbl>
 1 mu         0.1   0.1 0.359 0.0354
 2 mu         0.1   0.2 0.445 0.0476
 3 mu         0.1   0.3 0.500 0.0590
 4 mu         0.1   0.4 0.536 0.0519
 5 mu         0.1   0.5 0.542 0.0609
 6 mu         0.2   0.1 0.382 0.0282
 7 mu         0.2   0.2 0.476 0.0382
 8 mu         0.2   0.3 0.538 0.0446
 9 mu         0.2   0.4 0.573 0.0389
10 mu         0.2   0.5 0.593 0.0451
# ℹ 350 more rows
…
