…
`.groups` argument.
`summarise()` has grouped output by 'theta'. You can override using the
`.groups` argument.
`summarise()` has grouped output by 'theta', 'tau'. You can override using the
`.groups` argument.
`summarise()` has grouped output by 'theta'. You can override using the
`.groups` argument.
`summarise()` has grouped output by 'theta', 'tau'. You can override using the
`.groups` argument.
`summarise()` has grouped output by 'theta'. You can override using the
`.groups` argument.
[1] ""
[1] "Total run time was 140.868 seconds"
[1] "Estimation result: "
# A tibble: 360 × 5
   estimand theta   tau   est     se
   <chr>    <dbl> <dbl> <dbl>  <dbl>
 1 mu         0.1   0.1 0.335 0.0718
 2 mu         0.1   0.2 0.389 0.119 
 3 mu         0.1   0.3 0.432 0.112 
 4 mu         0.1   0.4 0.446 0.120 
 5 mu         0.1   0.5 0.471 0.144 
 6 mu         0.2   0.1 0.291 0.0421
 7 mu         0.2   0.2 0.363 0.0671
 8 mu         0.2   0.3 0.407 0.0641
 9 mu         0.2   0.4 0.447 0.0698
10 mu         0.2   0.5 0.519 0.0959
# ℹ 350 more rows
…
