…
`.groups` argument.
`summarise()` has grouped output by 'theta'. You can override using the
`.groups` argument.
`summarise()` has grouped output by 'theta', 'tau'. You can override using the
`.groups` argument.
`summarise()` has grouped output by 'theta'. You can override using the
`.groups` argument.
`summarise()` has grouped output by 'theta', 'tau'. You can override using the
`.groups` argument.
`summarise()` has grouped output by 'theta'. You can override using the
`.groups` argument.
[1] ""
[1] "Total run time was 117.143 seconds"
[1] "Estimation result: "
# A tibble: 360 × 5
   estimand theta   tau   est     se
   <chr>    <dbl> <dbl> <dbl>  <dbl>
 1 mu         0.1   0.1 0.317 0.0826
 2 mu         0.1   0.2 0.404 0.129 
 3 mu         0.1   0.3 0.505 0.153 
 4 mu         0.1   0.4 0.545 0.211 
 5 mu         0.1   0.5 0.599 0.183 
 6 mu         0.2   0.1 0.276 0.0558
 7 mu         0.2   0.2 0.362 0.0779
 8 mu         0.2   0.3 0.437 0.0850
 9 mu         0.2   0.4 0.462 0.121 
10 mu         0.2   0.5 0.507 0.0975
# ℹ 350 more rows
…
