…
`.groups` argument.
`summarise()` has grouped output by 'theta'. You can override using the
`.groups` argument.
`summarise()` has grouped output by 'theta', 'tau'. You can override using the
`.groups` argument.
`summarise()` has grouped output by 'theta'. You can override using the
`.groups` argument.
`summarise()` has grouped output by 'theta', 'tau'. You can override using the
`.groups` argument.
`summarise()` has grouped output by 'theta'. You can override using the
`.groups` argument.
[1] ""
[1] "Total run time was 105.916 seconds"
[1] "Estimation result: "
# A tibble: 360 × 5
   estimand theta   tau   est     se
   <chr>    <dbl> <dbl> <dbl>  <dbl>
 1 mu         0.1   0.1 0.593 0.201 
 2 mu         0.1   0.2 0.872 0.274 
 3 mu         0.1   0.3 0.918 0.285 
 4 mu         0.1   0.4 0.932 0.289 
 5 mu         0.1   0.5 0.947 0.297 
 6 mu         0.2   0.1 0.351 0.0483
 7 mu         0.2   0.2 0.584 0.113 
 8 mu         0.2   0.3 0.629 0.0990
 9 mu         0.2   0.4 0.642 0.0898
10 mu         0.2   0.5 0.650 0.0815
# ℹ 350 more rows
…
