…
`.groups` argument.
`summarise()` has grouped output by 'theta'. You can override using the
`.groups` argument.
`summarise()` has grouped output by 'theta', 'tau'. You can override using the
`.groups` argument.
`summarise()` has grouped output by 'theta'. You can override using the
`.groups` argument.
`summarise()` has grouped output by 'theta', 'tau'. You can override using the
`.groups` argument.
`summarise()` has grouped output by 'theta'. You can override using the
`.groups` argument.
[1] ""
[1] "Total run time was 127.803 seconds"
[1] "Estimation result: "
# A tibble: 360 × 5
   estimand theta   tau   est     se
   <chr>    <dbl> <dbl> <dbl>  <dbl>
 1 mu         0.1   0.1 0.487 0.0691
 2 mu         0.1   0.2 0.499 0.0641
 3 mu         0.1   0.3 0.512 0.0629
 4 mu         0.1   0.4 0.632 0.0665
 5 mu         0.1   0.5 0.661 0.0583
 6 mu         0.2   0.1 0.385 0.0548
 7 mu         0.2   0.2 0.408 0.0623
 8 mu         0.2   0.3 0.439 0.0568
 9 mu         0.2   0.4 0.528 0.0713
10 mu         0.2   0.5 0.570 0.0488
# ℹ 350 more rows
…
