…
`.groups` argument.
`summarise()` has grouped output by 'theta'. You can override using the
`.groups` argument.
`summarise()` has grouped output by 'theta', 'tau'. You can override using the
`.groups` argument.
`summarise()` has grouped output by 'theta'. You can override using the
`.groups` argument.
`summarise()` has grouped output by 'theta', 'tau'. You can override using the
`.groups` argument.
`summarise()` has grouped output by 'theta'. You can override using the
`.groups` argument.
[1] ""
[1] "Total run time was 144.862 seconds"
[1] "Estimation result: "
# A tibble: 360 × 5
   estimand theta   tau   est     se
   <chr>    <dbl> <dbl> <dbl>  <dbl>
 1 mu         0.1   0.1 0.461 0.104 
 2 mu         0.1   0.2 0.496 0.0888
 3 mu         0.1   0.3 0.498 0.0811
 4 mu         0.1   0.4 0.508 0.0709
 5 mu         0.1   0.5 0.510 0.0701
 6 mu         0.2   0.1 0.409 0.0720
 7 mu         0.2   0.2 0.467 0.0570
 8 mu         0.2   0.3 0.482 0.0500
 9 mu         0.2   0.4 0.496 0.0414
10 mu         0.2   0.5 0.514 0.0400
# ℹ 350 more rows
…
