…
`.groups` argument.
`summarise()` has grouped output by 'theta'. You can override using the
`.groups` argument.
`summarise()` has grouped output by 'theta', 'tau'. You can override using the
`.groups` argument.
`summarise()` has grouped output by 'theta'. You can override using the
`.groups` argument.
`summarise()` has grouped output by 'theta', 'tau'. You can override using the
`.groups` argument.
`summarise()` has grouped output by 'theta'. You can override using the
`.groups` argument.
[1] ""
[1] "Total run time was 149.31 seconds"
[1] "Estimation result: "
# A tibble: 360 × 5
   estimand theta   tau   est     se
   <chr>    <dbl> <dbl> <dbl>  <dbl>
 1 mu         0.1   0.1 0.402 0.0850
 2 mu         0.1   0.2 0.413 0.0726
 3 mu         0.1   0.3 0.470 0.0704
 4 mu         0.1   0.4 0.538 0.0761
 5 mu         0.1   0.5 0.533 0.0690
 6 mu         0.2   0.1 0.345 0.0479
 7 mu         0.2   0.2 0.386 0.0415
 8 mu         0.2   0.3 0.455 0.0505
 9 mu         0.2   0.4 0.527 0.0615
10 mu         0.2   0.5 0.531 0.0545
# ℹ 350 more rows
…
