…
`.groups` argument.
`summarise()` has grouped output by 'theta'. You can override using the
`.groups` argument.
`summarise()` has grouped output by 'theta', 'tau'. You can override using the
`.groups` argument.
`summarise()` has grouped output by 'theta'. You can override using the
`.groups` argument.
`summarise()` has grouped output by 'theta', 'tau'. You can override using the
`.groups` argument.
`summarise()` has grouped output by 'theta'. You can override using the
`.groups` argument.
[1] ""
[1] "Total run time was 147.357 seconds"
[1] "Estimation result: "
# A tibble: 360 × 5
   estimand theta   tau   est     se
   <chr>    <dbl> <dbl> <dbl>  <dbl>
 1 mu         0.1   0.1 0.468 0.0870
 2 mu         0.1   0.2 0.673 0.143 
 3 mu         0.1   0.3 0.701 0.129 
 4 mu         0.1   0.4 0.739 0.117 
 5 mu         0.1   0.5 0.757 0.111 
 6 mu         0.2   0.1 0.398 0.0377
 7 mu         0.2   0.2 0.550 0.0612
 8 mu         0.2   0.3 0.584 0.0558
 9 mu         0.2   0.4 0.625 0.0518
10 mu         0.2   0.5 0.659 0.0499
# ℹ 350 more rows
…
