…
`.groups` argument.
`summarise()` has grouped output by 'theta'. You can override using the
`.groups` argument.
`summarise()` has grouped output by 'theta', 'tau'. You can override using the
`.groups` argument.
`summarise()` has grouped output by 'theta'. You can override using the
`.groups` argument.
`summarise()` has grouped output by 'theta', 'tau'. You can override using the
`.groups` argument.
`summarise()` has grouped output by 'theta'. You can override using the
`.groups` argument.
[1] ""
[1] "Total run time was 143.419 seconds"
[1] "Estimation result: "
# A tibble: 360 × 5
   estimand theta   tau   est     se
   <chr>    <dbl> <dbl> <dbl>  <dbl>
 1 mu         0.1   0.1 0.550 0.128 
 2 mu         0.1   0.2 0.620 0.112 
 3 mu         0.1   0.3 0.665 0.104 
 4 mu         0.1   0.4 0.702 0.101 
 5 mu         0.1   0.5 0.700 0.0990
 6 mu         0.2   0.1 0.460 0.0587
 7 mu         0.2   0.2 0.532 0.0545
 8 mu         0.2   0.3 0.588 0.0488
 9 mu         0.2   0.4 0.635 0.0565
10 mu         0.2   0.5 0.638 0.0534
# ℹ 350 more rows
…
