…
`.groups` argument.
`summarise()` has grouped output by 'theta'. You can override using the
`.groups` argument.
`summarise()` has grouped output by 'theta', 'tau'. You can override using the
`.groups` argument.
`summarise()` has grouped output by 'theta'. You can override using the
`.groups` argument.
`summarise()` has grouped output by 'theta', 'tau'. You can override using the
`.groups` argument.
`summarise()` has grouped output by 'theta'. You can override using the
`.groups` argument.
[1] ""
[1] "Total run time was 149.18 seconds"
[1] "Estimation result: "
# A tibble: 360 × 5
   estimand theta   tau   est     se
   <chr>    <dbl> <dbl> <dbl>  <dbl>
 1 mu         0.1   0.1 0.427 0.0919
 2 mu         0.1   0.2 0.560 0.120 
 3 mu         0.1   0.3 0.554 0.105 
 4 mu         0.1   0.4 0.553 0.106 
 5 mu         0.1   0.5 0.705 0.127 
 6 mu         0.2   0.1 0.449 0.0773
 7 mu         0.2   0.2 0.596 0.0981
 8 mu         0.2   0.3 0.602 0.0887
 9 mu         0.2   0.4 0.620 0.0948
10 mu         0.2   0.5 0.769 0.119 
# ℹ 350 more rows
…
