…
`.groups` argument.
`summarise()` has grouped output by 'theta'. You can override using the
`.groups` argument.
`summarise()` has grouped output by 'theta', 'tau'. You can override using the
`.groups` argument.
`summarise()` has grouped output by 'theta'. You can override using the
`.groups` argument.
`summarise()` has grouped output by 'theta', 'tau'. You can override using the
`.groups` argument.
`summarise()` has grouped output by 'theta'. You can override using the
`.groups` argument.
[1] ""
[1] "Total run time was 134.847 seconds"
[1] "Estimation result: "
# A tibble: 360 × 5
   estimand theta   tau   est     se
   <chr>    <dbl> <dbl> <dbl>  <dbl>
 1 mu         0.1   0.1 0.322 0.0987
 2 mu         0.1   0.2 0.366 0.0898
 3 mu         0.1   0.3 0.373 0.0804
 4 mu         0.1   0.4 0.381 0.0701
 5 mu         0.1   0.5 0.377 0.0656
 6 mu         0.2   0.1 0.338 0.0720
 7 mu         0.2   0.2 0.419 0.0668
 8 mu         0.2   0.3 0.449 0.0599
 9 mu         0.2   0.4 0.471 0.0509
10 mu         0.2   0.5 0.485 0.0485
# ℹ 350 more rows
…
