…
`.groups` argument.
`summarise()` has grouped output by 'theta'. You can override using the
`.groups` argument.
`summarise()` has grouped output by 'theta', 'tau'. You can override using the
`.groups` argument.
`summarise()` has grouped output by 'theta'. You can override using the
`.groups` argument.
`summarise()` has grouped output by 'theta', 'tau'. You can override using the
`.groups` argument.
`summarise()` has grouped output by 'theta'. You can override using the
`.groups` argument.
[1] ""
[1] "Total run time was 132.535 seconds"
[1] "Estimation result: "
# A tibble: 360 × 5
   estimand theta   tau   est     se
   <chr>    <dbl> <dbl> <dbl>  <dbl>
 1 mu         0.1   0.1 0.404 0.0675
 2 mu         0.1   0.2 0.436 0.0840
 3 mu         0.1   0.3 0.518 0.0715
 4 mu         0.1   0.4 0.522 0.0755
 5 mu         0.1   0.5 0.597 0.0762
 6 mu         0.2   0.1 0.332 0.0463
 7 mu         0.2   0.2 0.378 0.0712
 8 mu         0.2   0.3 0.478 0.0458
 9 mu         0.2   0.4 0.480 0.0492
10 mu         0.2   0.5 0.536 0.0471
# ℹ 350 more rows
…
