…
`.groups` argument.
`summarise()` has grouped output by 'theta'. You can override using the
`.groups` argument.
`summarise()` has grouped output by 'theta', 'tau'. You can override using the
`.groups` argument.
`summarise()` has grouped output by 'theta'. You can override using the
`.groups` argument.
`summarise()` has grouped output by 'theta', 'tau'. You can override using the
`.groups` argument.
`summarise()` has grouped output by 'theta'. You can override using the
`.groups` argument.
[1] ""
[1] "Total run time was 115.274 seconds"
[1] "Estimation result: "
# A tibble: 360 × 5
   estimand theta   tau   est     se
   <chr>    <dbl> <dbl> <dbl>  <dbl>
 1 mu         0.1   0.1 0.368 0.104 
 2 mu         0.1   0.2 0.393 0.120 
 3 mu         0.1   0.3 0.568 0.143 
 4 mu         0.1   0.4 0.573 0.127 
 5 mu         0.1   0.5 0.601 0.118 
 6 mu         0.2   0.1 0.366 0.0787
 7 mu         0.2   0.2 0.407 0.0879
 8 mu         0.2   0.3 0.549 0.109 
 9 mu         0.2   0.4 0.576 0.0969
10 mu         0.2   0.5 0.621 0.0897
# ℹ 350 more rows
…
