…
`.groups` argument.
`summarise()` has grouped output by 'theta'. You can override using the
`.groups` argument.
`summarise()` has grouped output by 'theta', 'tau'. You can override using the
`.groups` argument.
`summarise()` has grouped output by 'theta'. You can override using the
`.groups` argument.
`summarise()` has grouped output by 'theta', 'tau'. You can override using the
`.groups` argument.
`summarise()` has grouped output by 'theta'. You can override using the
`.groups` argument.
[1] ""
[1] "Total run time was 117.961 seconds"
[1] "Estimation result: "
# A tibble: 360 × 5
   estimand theta   tau   est    se
   <chr>    <dbl> <dbl> <dbl> <dbl>
 1 mu         0.1   0.1 0.908 0.386
 2 mu         0.1   0.2 1.03  0.428
 3 mu         0.1   0.3 1.12  0.489
 4 mu         0.1   0.4 1.19  0.543
 5 mu         0.1   0.5 1.27  0.580
 6 mu         0.2   0.1 0.620 0.156
 7 mu         0.2   0.2 0.712 0.169
 8 mu         0.2   0.3 0.773 0.187
 9 mu         0.2   0.4 0.822 0.204
10 mu         0.2   0.5 0.877 0.217
# ℹ 350 more rows
…
