…
`.groups` argument.
`summarise()` has grouped output by 'theta'. You can override using the
`.groups` argument.
`summarise()` has grouped output by 'theta', 'tau'. You can override using the
`.groups` argument.
`summarise()` has grouped output by 'theta'. You can override using the
`.groups` argument.
`summarise()` has grouped output by 'theta', 'tau'. You can override using the
`.groups` argument.
`summarise()` has grouped output by 'theta'. You can override using the
`.groups` argument.
[1] ""
[1] "Total run time was 108.613 seconds"
[1] "Estimation result: "
# A tibble: 360 × 5
   estimand theta   tau   est     se
   <chr>    <dbl> <dbl> <dbl>  <dbl>
 1 mu         0.1   0.1 0.455 0.0748
 2 mu         0.1   0.2 0.530 0.0837
 3 mu         0.1   0.3 0.561 0.116 
 4 mu         0.1   0.4 0.757 0.121 
 5 mu         0.1   0.5 0.756 0.116 
 6 mu         0.2   0.1 0.399 0.0480
 7 mu         0.2   0.2 0.477 0.0471
 8 mu         0.2   0.3 0.528 0.0766
 9 mu         0.2   0.4 0.680 0.0765
10 mu         0.2   0.5 0.691 0.0671
# ℹ 350 more rows
…
