…
`.groups` argument.
`summarise()` has grouped output by 'theta'. You can override using the
`.groups` argument.
`summarise()` has grouped output by 'theta', 'tau'. You can override using the
`.groups` argument.
`summarise()` has grouped output by 'theta'. You can override using the
`.groups` argument.
`summarise()` has grouped output by 'theta', 'tau'. You can override using the
`.groups` argument.
`summarise()` has grouped output by 'theta'. You can override using the
`.groups` argument.
[1] ""
[1] "Total run time was 224.122 seconds"
[1] "Estimation result: "
# A tibble: 360 × 5
   estimand theta   tau   est     se
   <chr>    <dbl> <dbl> <dbl>  <dbl>
 1 mu         0.1   0.1 0.346 0.0809
 2 mu         0.1   0.2 0.411 0.0992
 3 mu         0.1   0.3 0.436 0.103 
 4 mu         0.1   0.4 0.520 0.0790
 5 mu         0.1   0.5 0.613 0.0996
 6 mu         0.2   0.1 0.313 0.0572
 7 mu         0.2   0.2 0.377 0.0646
 8 mu         0.2   0.3 0.406 0.0661
 9 mu         0.2   0.4 0.479 0.0535
10 mu         0.2   0.5 0.557 0.0682
# ℹ 350 more rows
…
