…
`.groups` argument.
`summarise()` has grouped output by 'theta'. You can override using the
`.groups` argument.
`summarise()` has grouped output by 'theta', 'tau'. You can override using the
`.groups` argument.
`summarise()` has grouped output by 'theta'. You can override using the
`.groups` argument.
`summarise()` has grouped output by 'theta', 'tau'. You can override using the
`.groups` argument.
`summarise()` has grouped output by 'theta'. You can override using the
`.groups` argument.
[1] ""
[1] "Total run time was 116.571 seconds"
[1] "Estimation result: "
# A tibble: 360 × 5
   estimand theta   tau   est    se
   <chr>    <dbl> <dbl> <dbl> <dbl>
 1 mu         0.1   0.1 0.325 0.157
 2 mu         0.1   0.2 0.415 0.176
 3 mu         0.1   0.3 0.491 0.190
 4 mu         0.1   0.4 0.488 0.169
 5 mu         0.1   0.5 0.510 0.144
 6 mu         0.2   0.1 0.377 0.136
 7 mu         0.2   0.2 0.484 0.154
 8 mu         0.2   0.3 0.565 0.167
 9 mu         0.2   0.4 0.572 0.149
10 mu         0.2   0.5 0.601 0.127
# ℹ 350 more rows
…
