…
`.groups` argument.
`summarise()` has grouped output by 'theta'. You can override using the
`.groups` argument.
`summarise()` has grouped output by 'theta', 'tau'. You can override using the
`.groups` argument.
`summarise()` has grouped output by 'theta'. You can override using the
`.groups` argument.
`summarise()` has grouped output by 'theta', 'tau'. You can override using the
`.groups` argument.
`summarise()` has grouped output by 'theta'. You can override using the
`.groups` argument.
[1] ""
[1] "Total run time was 146.192 seconds"
[1] "Estimation result: "
# A tibble: 360 × 5
   estimand theta   tau   est     se
   <chr>    <dbl> <dbl> <dbl>  <dbl>
 1 mu         0.1   0.1 0.513 0.154 
 2 mu         0.1   0.2 0.582 0.141 
 3 mu         0.1   0.3 0.629 0.140 
 4 mu         0.1   0.4 0.636 0.125 
 5 mu         0.1   0.5 0.633 0.119 
 6 mu         0.2   0.1 0.397 0.0592
 7 mu         0.2   0.2 0.479 0.0757
 8 mu         0.2   0.3 0.537 0.0825
 9 mu         0.2   0.4 0.560 0.0748
10 mu         0.2   0.5 0.569 0.0709
# ℹ 350 more rows
…
