…
`.groups` argument.
`summarise()` has grouped output by 'theta'. You can override using the
`.groups` argument.
`summarise()` has grouped output by 'theta', 'tau'. You can override using the
`.groups` argument.
`summarise()` has grouped output by 'theta'. You can override using the
`.groups` argument.
`summarise()` has grouped output by 'theta', 'tau'. You can override using the
`.groups` argument.
`summarise()` has grouped output by 'theta'. You can override using the
`.groups` argument.
[1] ""
[1] "Total run time was 108.566 seconds"
[1] "Estimation result: "
# A tibble: 360 × 5
   estimand theta   tau   est     se
   <chr>    <dbl> <dbl> <dbl>  <dbl>
 1 mu         0.1   0.1 0.284 0.0897
 2 mu         0.1   0.2 0.387 0.0933
 3 mu         0.1   0.3 0.452 0.108 
 4 mu         0.1   0.4 0.475 0.111 
 5 mu         0.1   0.5 0.546 0.0851
 6 mu         0.2   0.1 0.275 0.0593
 7 mu         0.2   0.2 0.362 0.0613
 8 mu         0.2   0.3 0.455 0.0670
 9 mu         0.2   0.4 0.485 0.0679
10 mu         0.2   0.5 0.545 0.0501
# ℹ 350 more rows
…
