…
`.groups` argument.
`summarise()` has grouped output by 'theta'. You can override using the
`.groups` argument.
`summarise()` has grouped output by 'theta', 'tau'. You can override using the
`.groups` argument.
`summarise()` has grouped output by 'theta'. You can override using the
`.groups` argument.
`summarise()` has grouped output by 'theta', 'tau'. You can override using the
`.groups` argument.
`summarise()` has grouped output by 'theta'. You can override using the
`.groups` argument.
[1] ""
[1] "Total run time was 139.061 seconds"
[1] "Estimation result: "
# A tibble: 360 × 5
   estimand theta   tau   est     se
   <chr>    <dbl> <dbl> <dbl>  <dbl>
 1 mu         0.1   0.1 0.385 0.0752
 2 mu         0.1   0.2 0.416 0.0732
 3 mu         0.1   0.3 0.559 0.0902
 4 mu         0.1   0.4 0.638 0.0772
 5 mu         0.1   0.5 0.648 0.0756
 6 mu         0.2   0.1 0.334 0.0535
 7 mu         0.2   0.2 0.363 0.0552
 8 mu         0.2   0.3 0.493 0.0637
 9 mu         0.2   0.4 0.568 0.0601
10 mu         0.2   0.5 0.582 0.0593
# ℹ 350 more rows
…
