…
`.groups` argument.
`summarise()` has grouped output by 'theta'. You can override using the
`.groups` argument.
`summarise()` has grouped output by 'theta', 'tau'. You can override using the
`.groups` argument.
`summarise()` has grouped output by 'theta'. You can override using the
`.groups` argument.
`summarise()` has grouped output by 'theta', 'tau'. You can override using the
`.groups` argument.
`summarise()` has grouped output by 'theta'. You can override using the
`.groups` argument.
[1] ""
[1] "Total run time was 126.095 seconds"
[1] "Estimation result: "
# A tibble: 360 × 5
   estimand theta   tau   est     se
   <chr>    <dbl> <dbl> <dbl>  <dbl>
 1 mu         0.1   0.1 0.352 0.0727
 2 mu         0.1   0.2 0.378 0.0754
 3 mu         0.1   0.3 0.437 0.0758
 4 mu         0.1   0.4 0.455 0.0796
 5 mu         0.1   0.5 0.465 0.0835
 6 mu         0.2   0.1 0.289 0.0319
 7 mu         0.2   0.2 0.323 0.0431
 8 mu         0.2   0.3 0.379 0.0467
 9 mu         0.2   0.4 0.406 0.0542
10 mu         0.2   0.5 0.423 0.0616
# ℹ 350 more rows
…
