…
`.groups` argument.
`summarise()` has grouped output by 'theta'. You can override using the
`.groups` argument.
`summarise()` has grouped output by 'theta', 'tau'. You can override using the
`.groups` argument.
`summarise()` has grouped output by 'theta'. You can override using the
`.groups` argument.
`summarise()` has grouped output by 'theta', 'tau'. You can override using the
`.groups` argument.
`summarise()` has grouped output by 'theta'. You can override using the
`.groups` argument.
[1] ""
[1] "Total run time was 140.392 seconds"
[1] "Estimation result: "
# A tibble: 360 × 5
   estimand theta   tau   est     se
   <chr>    <dbl> <dbl> <dbl>  <dbl>
 1 mu         0.1   0.1 0.295 0.0625
 2 mu         0.1   0.2 0.320 0.0662
 3 mu         0.1   0.3 0.379 0.104 
 4 mu         0.1   0.4 0.385 0.110 
 5 mu         0.1   0.5 0.421 0.135 
 6 mu         0.2   0.1 0.301 0.0385
 7 mu         0.2   0.2 0.365 0.0468
 8 mu         0.2   0.3 0.425 0.0725
 9 mu         0.2   0.4 0.451 0.0762
10 mu         0.2   0.5 0.484 0.0918
# ℹ 350 more rows
…
