…
`.groups` argument.
`summarise()` has grouped output by 'theta'. You can override using the
`.groups` argument.
`summarise()` has grouped output by 'theta', 'tau'. You can override using the
`.groups` argument.
`summarise()` has grouped output by 'theta'. You can override using the
`.groups` argument.
`summarise()` has grouped output by 'theta', 'tau'. You can override using the
`.groups` argument.
`summarise()` has grouped output by 'theta'. You can override using the
`.groups` argument.
[1] ""
[1] "Total run time was 109.861 seconds"
[1] "Estimation result: "
# A tibble: 360 × 5
   estimand theta   tau   est     se
   <chr>    <dbl> <dbl> <dbl>  <dbl>
 1 mu         0.1   0.1 0.468 0.201 
 2 mu         0.1   0.2 0.503 0.189 
 3 mu         0.1   0.3 0.656 0.117 
 4 mu         0.1   0.4 0.663 0.116 
 5 mu         0.1   0.5 0.816 0.142 
 6 mu         0.2   0.1 0.397 0.102 
 7 mu         0.2   0.2 0.474 0.112 
 8 mu         0.2   0.3 0.604 0.0655
 9 mu         0.2   0.4 0.620 0.0643
10 mu         0.2   0.5 0.722 0.0826
# ℹ 350 more rows
…
