…
`.groups` argument.
`summarise()` has grouped output by 'theta'. You can override using the
`.groups` argument.
`summarise()` has grouped output by 'theta', 'tau'. You can override using the
`.groups` argument.
`summarise()` has grouped output by 'theta'. You can override using the
`.groups` argument.
`summarise()` has grouped output by 'theta', 'tau'. You can override using the
`.groups` argument.
`summarise()` has grouped output by 'theta'. You can override using the
`.groups` argument.
[1] ""
[1] "Total run time was 112.317 seconds"
[1] "Estimation result: "
# A tibble: 360 × 5
   estimand theta   tau   est     se
   <chr>    <dbl> <dbl> <dbl>  <dbl>
 1 mu         0.1   0.1 0.121 0.0789
 2 mu         0.1   0.2 0.248 0.103 
 3 mu         0.1   0.3 0.273 0.0875
 4 mu         0.1   0.4 0.251 0.116 
 5 mu         0.1   0.5 0.242 0.123 
 6 mu         0.2   0.1 0.180 0.0762
 7 mu         0.2   0.2 0.287 0.0857
 8 mu         0.2   0.3 0.349 0.0805
 9 mu         0.2   0.4 0.356 0.113 
10 mu         0.2   0.5 0.360 0.118 
# ℹ 350 more rows
…
