…
`.groups` argument.
`summarise()` has grouped output by 'theta'. You can override using the
`.groups` argument.
`summarise()` has grouped output by 'theta', 'tau'. You can override using the
`.groups` argument.
`summarise()` has grouped output by 'theta'. You can override using the
`.groups` argument.
`summarise()` has grouped output by 'theta', 'tau'. You can override using the
`.groups` argument.
`summarise()` has grouped output by 'theta'. You can override using the
`.groups` argument.
[1] ""
[1] "Total run time was 144.677 seconds"
[1] "Estimation result: "
# A tibble: 360 × 5
   estimand theta   tau   est     se
   <chr>    <dbl> <dbl> <dbl>  <dbl>
 1 mu         0.1   0.1 0.155 0.0594
 2 mu         0.1   0.2 0.160 0.0924
 3 mu         0.1   0.3 0.245 0.0845
 4 mu         0.1   0.4 0.249 0.0956
 5 mu         0.1   0.5 0.234 0.116 
 6 mu         0.2   0.1 0.219 0.0481
 7 mu         0.2   0.2 0.251 0.0755
 8 mu         0.2   0.3 0.341 0.0652
 9 mu         0.2   0.4 0.356 0.0745
10 mu         0.2   0.5 0.352 0.0917
# ℹ 350 more rows
…
