…
`.groups` argument.
`summarise()` has grouped output by 'theta'. You can override using the
`.groups` argument.
`summarise()` has grouped output by 'theta', 'tau'. You can override using the
`.groups` argument.
`summarise()` has grouped output by 'theta'. You can override using the
`.groups` argument.
`summarise()` has grouped output by 'theta', 'tau'. You can override using the
`.groups` argument.
`summarise()` has grouped output by 'theta'. You can override using the
`.groups` argument.
[1] ""
[1] "Total run time was 146.413 seconds"
[1] "Estimation result: "
# A tibble: 360 × 5
   estimand theta   tau   est     se
   <chr>    <dbl> <dbl> <dbl>  <dbl>
 1 mu         0.1   0.1 0.379 0.0508
 2 mu         0.1   0.2 0.485 0.0717
 3 mu         0.1   0.3 0.494 0.0683
 4 mu         0.1   0.4 0.496 0.0643
 5 mu         0.1   0.5 0.496 0.0715
 6 mu         0.2   0.1 0.351 0.0487
 7 mu         0.2   0.2 0.443 0.0560
 8 mu         0.2   0.3 0.478 0.0654
 9 mu         0.2   0.4 0.497 0.0534
10 mu         0.2   0.5 0.519 0.0657
# ℹ 350 more rows
…
