…
`.groups` argument.
`summarise()` has grouped output by 'theta'. You can override using the
`.groups` argument.
`summarise()` has grouped output by 'theta', 'tau'. You can override using the
`.groups` argument.
`summarise()` has grouped output by 'theta'. You can override using the
`.groups` argument.
`summarise()` has grouped output by 'theta', 'tau'. You can override using the
`.groups` argument.
`summarise()` has grouped output by 'theta'. You can override using the
`.groups` argument.
[1] ""
[1] "Total run time was 304.649 seconds"
[1] "Estimation result: "
# A tibble: 360 × 5
   estimand theta   tau   est     se
   <chr>    <dbl> <dbl> <dbl>  <dbl>
 1 mu         0.1   0.1 0.263 0.0447
 2 mu         0.1   0.2 0.310 0.0455
 3 mu         0.1   0.3 0.368 0.0429
 4 mu         0.1   0.4 0.447 0.0817
 5 mu         0.1   0.5 0.450 0.0660
 6 mu         0.2   0.1 0.277 0.0398
 7 mu         0.2   0.2 0.315 0.0299
 8 mu         0.2   0.3 0.389 0.0303
 9 mu         0.2   0.4 0.476 0.0759
10 mu         0.2   0.5 0.493 0.0565
# ℹ 350 more rows
…
