…
`.groups` argument.
`summarise()` has grouped output by 'theta'. You can override using the
`.groups` argument.
`summarise()` has grouped output by 'theta', 'tau'. You can override using the
`.groups` argument.
`summarise()` has grouped output by 'theta'. You can override using the
`.groups` argument.
`summarise()` has grouped output by 'theta', 'tau'. You can override using the
`.groups` argument.
`summarise()` has grouped output by 'theta'. You can override using the
`.groups` argument.
[1] ""
[1] "Total run time was 143.329 seconds"
[1] "Estimation result: "
# A tibble: 360 × 5
   estimand theta   tau   est     se
   <chr>    <dbl> <dbl> <dbl>  <dbl>
 1 mu         0.1   0.1 0.436 0.0457
 2 mu         0.1   0.2 0.472 0.0602
 3 mu         0.1   0.3 0.549 0.103 
 4 mu         0.1   0.4 0.575 0.120 
 5 mu         0.1   0.5 0.581 0.142 
 6 mu         0.2   0.1 0.366 0.0335
 7 mu         0.2   0.2 0.427 0.0391
 8 mu         0.2   0.3 0.498 0.0508
 9 mu         0.2   0.4 0.528 0.0586
10 mu         0.2   0.5 0.558 0.0644
# ℹ 350 more rows
…
