…
`.groups` argument.
`summarise()` has grouped output by 'theta'. You can override using the
`.groups` argument.
`summarise()` has grouped output by 'theta', 'tau'. You can override using the
`.groups` argument.
`summarise()` has grouped output by 'theta'. You can override using the
`.groups` argument.
`summarise()` has grouped output by 'theta', 'tau'. You can override using the
`.groups` argument.
`summarise()` has grouped output by 'theta'. You can override using the
`.groups` argument.
[1] ""
[1] "Total run time was 111.429 seconds"
[1] "Estimation result: "
# A tibble: 360 × 5
   estimand theta   tau   est     se
   <chr>    <dbl> <dbl> <dbl>  <dbl>
 1 mu         0.1   0.1 0.275 0.137 
 2 mu         0.1   0.2 0.427 0.154 
 3 mu         0.1   0.3 0.445 0.142 
 4 mu         0.1   0.4 0.433 0.154 
 5 mu         0.1   0.5 0.428 0.166 
 6 mu         0.2   0.1 0.174 0.100 
 7 mu         0.2   0.2 0.313 0.0940
 8 mu         0.2   0.3 0.355 0.0928
 9 mu         0.2   0.4 0.341 0.116 
10 mu         0.2   0.5 0.333 0.136 
# ℹ 350 more rows
…
