…
`.groups` argument.
`summarise()` has grouped output by 'theta'. You can override using the
`.groups` argument.
`summarise()` has grouped output by 'theta', 'tau'. You can override using the
`.groups` argument.
`summarise()` has grouped output by 'theta'. You can override using the
`.groups` argument.
`summarise()` has grouped output by 'theta', 'tau'. You can override using the
`.groups` argument.
`summarise()` has grouped output by 'theta'. You can override using the
`.groups` argument.
[1] ""
[1] "Total run time was 103.645 seconds"
[1] "Estimation result: "
# A tibble: 360 × 5
   estimand theta   tau   est     se
   <chr>    <dbl> <dbl> <dbl>  <dbl>
 1 mu         0.1   0.1 0.301 0.109 
 2 mu         0.1   0.2 0.339 0.113 
 3 mu         0.1   0.3 0.356 0.120 
 4 mu         0.1   0.4 0.364 0.129 
 5 mu         0.1   0.5 0.386 0.135 
 6 mu         0.2   0.1 0.311 0.0591
 7 mu         0.2   0.2 0.374 0.0709
 8 mu         0.2   0.3 0.417 0.0842
 9 mu         0.2   0.4 0.435 0.0902
10 mu         0.2   0.5 0.475 0.0961
# ℹ 350 more rows
…
