…
`.groups` argument.
`summarise()` has grouped output by 'theta'. You can override using the
`.groups` argument.
`summarise()` has grouped output by 'theta', 'tau'. You can override using the
`.groups` argument.
`summarise()` has grouped output by 'theta'. You can override using the
`.groups` argument.
`summarise()` has grouped output by 'theta', 'tau'. You can override using the
`.groups` argument.
`summarise()` has grouped output by 'theta'. You can override using the
`.groups` argument.
[1] ""
[1] "Total run time was 124.208 seconds"
[1] "Estimation result: "
# A tibble: 360 × 5
   estimand theta   tau   est     se
   <chr>    <dbl> <dbl> <dbl>  <dbl>
 1 mu         0.1   0.1 0.428 0.153 
 2 mu         0.1   0.2 0.453 0.163 
 3 mu         0.1   0.3 0.495 0.179 
 4 mu         0.1   0.4 0.586 0.206 
 5 mu         0.1   0.5 0.580 0.211 
 6 mu         0.2   0.1 0.377 0.0817
 7 mu         0.2   0.2 0.407 0.0713
 8 mu         0.2   0.3 0.453 0.0949
 9 mu         0.2   0.4 0.523 0.127 
10 mu         0.2   0.5 0.524 0.119 
# ℹ 350 more rows
…
