…
`.groups` argument.
`summarise()` has grouped output by 'theta'. You can override using the
`.groups` argument.
`summarise()` has grouped output by 'theta', 'tau'. You can override using the
`.groups` argument.
`summarise()` has grouped output by 'theta'. You can override using the
`.groups` argument.
`summarise()` has grouped output by 'theta', 'tau'. You can override using the
`.groups` argument.
`summarise()` has grouped output by 'theta'. You can override using the
`.groups` argument.
[1] ""
[1] "Total run time was 175.962 seconds"
[1] "Estimation result: "
# A tibble: 360 × 5
   estimand theta   tau   est     se
   <chr>    <dbl> <dbl> <dbl>  <dbl>
 1 mu         0.1   0.1 0.375 0.0593
 2 mu         0.1   0.2 0.447 0.0435
 3 mu         0.1   0.3 0.462 0.0549
 4 mu         0.1   0.4 0.645 0.114 
 5 mu         0.1   0.5 0.668 0.109 
 6 mu         0.2   0.1 0.343 0.0339
 7 mu         0.2   0.2 0.435 0.0257
 8 mu         0.2   0.3 0.483 0.0405
 9 mu         0.2   0.4 0.648 0.108 
10 mu         0.2   0.5 0.669 0.101 
# ℹ 350 more rows
…
