…
`.groups` argument.
`summarise()` has grouped output by 'theta'. You can override using the
`.groups` argument.
`summarise()` has grouped output by 'theta', 'tau'. You can override using the
`.groups` argument.
`summarise()` has grouped output by 'theta'. You can override using the
`.groups` argument.
`summarise()` has grouped output by 'theta', 'tau'. You can override using the
`.groups` argument.
`summarise()` has grouped output by 'theta'. You can override using the
`.groups` argument.
[1] ""
[1] "Total run time was 195.475 seconds"
[1] "Estimation result: "
# A tibble: 360 × 5
   estimand theta   tau   est     se
   <chr>    <dbl> <dbl> <dbl>  <dbl>
 1 mu         0.1   0.1 0.278 0.118 
 2 mu         0.1   0.2 0.358 0.151 
 3 mu         0.1   0.3 0.430 0.149 
 4 mu         0.1   0.4 0.458 0.128 
 5 mu         0.1   0.5 0.608 0.109 
 6 mu         0.2   0.1 0.319 0.0778
 7 mu         0.2   0.2 0.385 0.0949
 8 mu         0.2   0.3 0.472 0.0954
 9 mu         0.2   0.4 0.513 0.0823
10 mu         0.2   0.5 0.654 0.0735
# ℹ 350 more rows
…
