…
`.groups` argument.
`summarise()` has grouped output by 'theta'. You can override using the
`.groups` argument.
`summarise()` has grouped output by 'theta', 'tau'. You can override using the
`.groups` argument.
`summarise()` has grouped output by 'theta'. You can override using the
`.groups` argument.
`summarise()` has grouped output by 'theta', 'tau'. You can override using the
`.groups` argument.
`summarise()` has grouped output by 'theta'. You can override using the
`.groups` argument.
[1] ""
[1] "Total run time was 211.666 seconds"
[1] "Estimation result: "
# A tibble: 360 × 5
   estimand theta   tau   est     se
   <chr>    <dbl> <dbl> <dbl>  <dbl>
 1 mu         0.1   0.1 0.384 0.104 
 2 mu         0.1   0.2 0.416 0.0826
 3 mu         0.1   0.3 0.467 0.0771
 4 mu         0.1   0.4 0.470 0.0804
 5 mu         0.1   0.5 0.499 0.0714
 6 mu         0.2   0.1 0.369 0.0893
 7 mu         0.2   0.2 0.407 0.0660
 8 mu         0.2   0.3 0.453 0.0536
 9 mu         0.2   0.4 0.461 0.0540
10 mu         0.2   0.5 0.492 0.0437
# ℹ 350 more rows
…
