…
`.groups` argument.
`summarise()` has grouped output by 'theta'. You can override using the
`.groups` argument.
`summarise()` has grouped output by 'theta', 'tau'. You can override using the
`.groups` argument.
`summarise()` has grouped output by 'theta'. You can override using the
`.groups` argument.
`summarise()` has grouped output by 'theta', 'tau'. You can override using the
`.groups` argument.
`summarise()` has grouped output by 'theta'. You can override using the
`.groups` argument.
[1] ""
[1] "Total run time was 280.349 seconds"
[1] "Estimation result: "
# A tibble: 360 × 5
   estimand theta   tau   est     se
   <chr>    <dbl> <dbl> <dbl>  <dbl>
 1 mu         0.1   0.1 0.139 0.0647
 2 mu         0.1   0.2 0.137 0.0729
 3 mu         0.1   0.3 0.180 0.0652
 4 mu         0.1   0.4 0.358 0.0785
 5 mu         0.1   0.5 0.403 0.0651
 6 mu         0.2   0.1 0.194 0.0679
 7 mu         0.2   0.2 0.223 0.0821
 8 mu         0.2   0.3 0.319 0.0652
 9 mu         0.2   0.4 0.469 0.0665
10 mu         0.2   0.5 0.570 0.0772
# ℹ 350 more rows
…
