…
`.groups` argument.
`summarise()` has grouped output by 'theta'. You can override using the
`.groups` argument.
`summarise()` has grouped output by 'theta', 'tau'. You can override using the
`.groups` argument.
`summarise()` has grouped output by 'theta'. You can override using the
`.groups` argument.
`summarise()` has grouped output by 'theta', 'tau'. You can override using the
`.groups` argument.
`summarise()` has grouped output by 'theta'. You can override using the
`.groups` argument.
[1] ""
[1] "Total run time was 362.189 seconds"
[1] "Estimation result: "
# A tibble: 360 × 5
   estimand theta   tau   est     se
   <chr>    <dbl> <dbl> <dbl>  <dbl>
 1 mu         0.1   0.1 0.323 0.0559
 2 mu         0.1   0.2 0.361 0.0645
 3 mu         0.1   0.3 0.373 0.0682
 4 mu         0.1   0.4 0.389 0.0744
 5 mu         0.1   0.5 0.493 0.0567
 6 mu         0.2   0.1 0.303 0.0378
 7 mu         0.2   0.2 0.356 0.0534
 8 mu         0.2   0.3 0.369 0.0566
 9 mu         0.2   0.4 0.391 0.0621
10 mu         0.2   0.5 0.506 0.0543
# ℹ 350 more rows
…
