…
`.groups` argument.
`summarise()` has grouped output by 'theta'. You can override using the
`.groups` argument.
`summarise()` has grouped output by 'theta', 'tau'. You can override using the
`.groups` argument.
`summarise()` has grouped output by 'theta'. You can override using the
`.groups` argument.
`summarise()` has grouped output by 'theta', 'tau'. You can override using the
`.groups` argument.
`summarise()` has grouped output by 'theta'. You can override using the
`.groups` argument.
[1] ""
[1] "Total run time was 172.181 seconds"
[1] "Estimation result: "
# A tibble: 360 × 5
   estimand theta   tau   est    se
   <chr>    <dbl> <dbl> <dbl> <dbl>
 1 mu         0.1   0.1 0.738 0.217
 2 mu         0.1   0.2 0.848 0.251
 3 mu         0.1   0.3 0.881 0.246
 4 mu         0.1   0.4 0.942 0.252
 5 mu         0.1   0.5 0.946 0.252
 6 mu         0.2   0.1 0.533 0.167
 7 mu         0.2   0.2 0.630 0.194
 8 mu         0.2   0.3 0.641 0.166
 9 mu         0.2   0.4 0.697 0.151
10 mu         0.2   0.5 0.698 0.142
# ℹ 350 more rows
…
