…
`.groups` argument.
`summarise()` has grouped output by 'theta'. You can override using the
`.groups` argument.
`summarise()` has grouped output by 'theta', 'tau'. You can override using the
`.groups` argument.
`summarise()` has grouped output by 'theta'. You can override using the
`.groups` argument.
`summarise()` has grouped output by 'theta', 'tau'. You can override using the
`.groups` argument.
`summarise()` has grouped output by 'theta'. You can override using the
`.groups` argument.
[1] ""
[1] "Total run time was 194.408 seconds"
[1] "Estimation result: "
# A tibble: 360 × 5
   estimand theta   tau   est     se
   <chr>    <dbl> <dbl> <dbl>  <dbl>
 1 mu         0.1   0.1 0.364 0.0529
 2 mu         0.1   0.2 0.421 0.0612
 3 mu         0.1   0.3 0.413 0.0509
 4 mu         0.1   0.4 0.418 0.0540
 5 mu         0.1   0.5 0.526 0.0672
 6 mu         0.2   0.1 0.346 0.0443
 7 mu         0.2   0.2 0.428 0.0391
 8 mu         0.2   0.3 0.426 0.0324
 9 mu         0.2   0.4 0.443 0.0395
10 mu         0.2   0.5 0.520 0.0413
# ℹ 350 more rows
…
