…
`.groups` argument.
`summarise()` has grouped output by 'theta'. You can override using the
`.groups` argument.
`summarise()` has grouped output by 'theta', 'tau'. You can override using the
`.groups` argument.
`summarise()` has grouped output by 'theta'. You can override using the
`.groups` argument.
`summarise()` has grouped output by 'theta', 'tau'. You can override using the
`.groups` argument.
`summarise()` has grouped output by 'theta'. You can override using the
`.groups` argument.
[1] ""
[1] "Total run time was 167.908 seconds"
[1] "Estimation result: "
# A tibble: 360 × 5
   estimand theta   tau   est     se
   <chr>    <dbl> <dbl> <dbl>  <dbl>
 1 mu         0.1   0.1 0.376 0.113 
 2 mu         0.1   0.2 0.430 0.107 
 3 mu         0.1   0.3 0.492 0.0890
 4 mu         0.1   0.4 0.528 0.0943
 5 mu         0.1   0.5 0.544 0.0905
 6 mu         0.2   0.1 0.320 0.0659
 7 mu         0.2   0.2 0.396 0.0749
 8 mu         0.2   0.3 0.505 0.0651
 9 mu         0.2   0.4 0.545 0.0675
10 mu         0.2   0.5 0.568 0.0602
# ℹ 350 more rows
…
