…
`.groups` argument.
`summarise()` has grouped output by 'theta'. You can override using the
`.groups` argument.
`summarise()` has grouped output by 'theta', 'tau'. You can override using the
`.groups` argument.
`summarise()` has grouped output by 'theta'. You can override using the
`.groups` argument.
`summarise()` has grouped output by 'theta', 'tau'. You can override using the
`.groups` argument.
`summarise()` has grouped output by 'theta'. You can override using the
`.groups` argument.
[1] ""
[1] "Total run time was 190.868 seconds"
[1] "Estimation result: "
# A tibble: 360 × 5
   estimand theta   tau   est     se
   <chr>    <dbl> <dbl> <dbl>  <dbl>
 1 mu         0.1   0.1 0.457 0.0765
 2 mu         0.1   0.2 0.508 0.0906
 3 mu         0.1   0.3 0.647 0.0900
 4 mu         0.1   0.4 0.687 0.0888
 5 mu         0.1   0.5 0.696 0.0922
 6 mu         0.2   0.1 0.349 0.0523
 7 mu         0.2   0.2 0.410 0.0680
 8 mu         0.2   0.3 0.518 0.0486
 9 mu         0.2   0.4 0.557 0.0425
10 mu         0.2   0.5 0.574 0.0455
# ℹ 350 more rows
…
