…
`.groups` argument.
`summarise()` has grouped output by 'theta'. You can override using the
`.groups` argument.
`summarise()` has grouped output by 'theta', 'tau'. You can override using the
`.groups` argument.
`summarise()` has grouped output by 'theta'. You can override using the
`.groups` argument.
`summarise()` has grouped output by 'theta', 'tau'. You can override using the
`.groups` argument.
`summarise()` has grouped output by 'theta'. You can override using the
`.groups` argument.
[1] ""
[1] "Total run time was 234.006 seconds"
[1] "Estimation result: "
# A tibble: 360 × 5
   estimand theta   tau   est     se
   <chr>    <dbl> <dbl> <dbl>  <dbl>
 1 mu         0.1   0.1 0.391 0.0519
 2 mu         0.1   0.2 0.424 0.0559
 3 mu         0.1   0.3 0.506 0.0708
 4 mu         0.1   0.4 0.530 0.0737
 5 mu         0.1   0.5 0.586 0.0830
 6 mu         0.2   0.1 0.361 0.0426
 7 mu         0.2   0.2 0.418 0.0441
 8 mu         0.2   0.3 0.499 0.0523
 9 mu         0.2   0.4 0.540 0.0515
10 mu         0.2   0.5 0.596 0.0592
# ℹ 350 more rows
…
