…
`.groups` argument.
`summarise()` has grouped output by 'theta'. You can override using the
`.groups` argument.
`summarise()` has grouped output by 'theta', 'tau'. You can override using the
`.groups` argument.
`summarise()` has grouped output by 'theta'. You can override using the
`.groups` argument.
`summarise()` has grouped output by 'theta', 'tau'. You can override using the
`.groups` argument.
`summarise()` has grouped output by 'theta'. You can override using the
`.groups` argument.
[1] ""
[1] "Total run time was 182.407 seconds"
[1] "Estimation result: "
# A tibble: 360 × 5
   estimand theta   tau   est     se
   <chr>    <dbl> <dbl> <dbl>  <dbl>
 1 mu         0.1   0.1 0.502 0.144 
 2 mu         0.1   0.2 0.548 0.162 
 3 mu         0.1   0.3 0.670 0.147 
 4 mu         0.1   0.4 0.680 0.142 
 5 mu         0.1   0.5 0.727 0.136 
 6 mu         0.2   0.1 0.434 0.0796
 7 mu         0.2   0.2 0.480 0.0940
 8 mu         0.2   0.3 0.586 0.0919
 9 mu         0.2   0.4 0.602 0.0811
10 mu         0.2   0.5 0.642 0.0648
# ℹ 350 more rows
…
