…
`.groups` argument.
`summarise()` has grouped output by 'theta'. You can override using the
`.groups` argument.
`summarise()` has grouped output by 'theta', 'tau'. You can override using the
`.groups` argument.
`summarise()` has grouped output by 'theta'. You can override using the
`.groups` argument.
`summarise()` has grouped output by 'theta', 'tau'. You can override using the
`.groups` argument.
`summarise()` has grouped output by 'theta'. You can override using the
`.groups` argument.
[1] ""
[1] "Total run time was 291.784 seconds"
[1] "Estimation result: "
# A tibble: 360 × 5
   estimand theta   tau   est     se
   <chr>    <dbl> <dbl> <dbl>  <dbl>
 1 mu         0.1   0.1 0.334 0.0759
 2 mu         0.1   0.2 0.398 0.0961
 3 mu         0.1   0.3 0.407 0.0786
 4 mu         0.1   0.4 0.485 0.103 
 5 mu         0.1   0.5 0.498 0.0942
 6 mu         0.2   0.1 0.304 0.0513
 7 mu         0.2   0.2 0.373 0.0682
 8 mu         0.2   0.3 0.401 0.0508
 9 mu         0.2   0.4 0.474 0.0716
10 mu         0.2   0.5 0.492 0.0607
# ℹ 350 more rows
…
