…
`.groups` argument.
`summarise()` has grouped output by 'theta'. You can override using the
`.groups` argument.
`summarise()` has grouped output by 'theta', 'tau'. You can override using the
`.groups` argument.
`summarise()` has grouped output by 'theta'. You can override using the
`.groups` argument.
`summarise()` has grouped output by 'theta', 'tau'. You can override using the
`.groups` argument.
`summarise()` has grouped output by 'theta'. You can override using the
`.groups` argument.
[1] ""
[1] "Total run time was 338.886 seconds"
[1] "Estimation result: "
# A tibble: 360 × 5
   estimand theta   tau   est     se
   <chr>    <dbl> <dbl> <dbl>  <dbl>
 1 mu         0.1   0.1 0.427 0.0380
 2 mu         0.1   0.2 0.531 0.0369
 3 mu         0.1   0.3 0.643 0.0828
 4 mu         0.1   0.4 0.678 0.0786
 5 mu         0.1   0.5 0.732 0.0654
 6 mu         0.2   0.1 0.366 0.0287
 7 mu         0.2   0.2 0.449 0.0277
 8 mu         0.2   0.3 0.520 0.0419
 9 mu         0.2   0.4 0.563 0.0430
10 mu         0.2   0.5 0.620 0.0388
# ℹ 350 more rows
…
