…
`.groups` argument.
`summarise()` has grouped output by 'theta'. You can override using the
`.groups` argument.
`summarise()` has grouped output by 'theta', 'tau'. You can override using the
`.groups` argument.
`summarise()` has grouped output by 'theta'. You can override using the
`.groups` argument.
`summarise()` has grouped output by 'theta', 'tau'. You can override using the
`.groups` argument.
`summarise()` has grouped output by 'theta'. You can override using the
`.groups` argument.
[1] ""
[1] "Total run time was 310.948 seconds"
[1] "Estimation result: "
# A tibble: 360 × 5
   estimand theta   tau   est     se
   <chr>    <dbl> <dbl> <dbl>  <dbl>
 1 mu         0.1   0.1 0.381 0.0743
 2 mu         0.1   0.2 0.462 0.0475
 3 mu         0.1   0.3 0.570 0.0457
 4 mu         0.1   0.4 0.613 0.0590
 5 mu         0.1   0.5 0.658 0.0633
 6 mu         0.2   0.1 0.327 0.0350
 7 mu         0.2   0.2 0.418 0.0343
 8 mu         0.2   0.3 0.520 0.0446
 9 mu         0.2   0.4 0.549 0.0434
10 mu         0.2   0.5 0.608 0.0427
# ℹ 350 more rows
…
