…
`.groups` argument.
`summarise()` has grouped output by 'theta'. You can override using the
`.groups` argument.
`summarise()` has grouped output by 'theta', 'tau'. You can override using the
`.groups` argument.
`summarise()` has grouped output by 'theta'. You can override using the
`.groups` argument.
`summarise()` has grouped output by 'theta', 'tau'. You can override using the
`.groups` argument.
`summarise()` has grouped output by 'theta'. You can override using the
`.groups` argument.
[1] ""
[1] "Total run time was 231.39 seconds"
[1] "Estimation result: "
# A tibble: 360 × 5
   estimand theta   tau   est     se
   <chr>    <dbl> <dbl> <dbl>  <dbl>
 1 mu         0.1   0.1 0.399 0.0608
 2 mu         0.1   0.2 0.540 0.0841
 3 mu         0.1   0.3 0.631 0.117 
 4 mu         0.1   0.4 0.646 0.111 
 5 mu         0.1   0.5 0.667 0.102 
 6 mu         0.2   0.1 0.382 0.0494
 7 mu         0.2   0.2 0.507 0.0687
 8 mu         0.2   0.3 0.591 0.0953
 9 mu         0.2   0.4 0.618 0.0900
10 mu         0.2   0.5 0.647 0.0819
# ℹ 350 more rows
…
