…
`.groups` argument.
`summarise()` has grouped output by 'theta'. You can override using the
`.groups` argument.
`summarise()` has grouped output by 'theta', 'tau'. You can override using the
`.groups` argument.
`summarise()` has grouped output by 'theta'. You can override using the
`.groups` argument.
`summarise()` has grouped output by 'theta', 'tau'. You can override using the
`.groups` argument.
`summarise()` has grouped output by 'theta'. You can override using the
`.groups` argument.
[1] ""
[1] "Total run time was 312.864 seconds"
[1] "Estimation result: "
# A tibble: 360 × 5
   estimand theta   tau   est     se
   <chr>    <dbl> <dbl> <dbl>  <dbl>
 1 mu         0.1   0.1 0.392 0.0837
 2 mu         0.1   0.2 0.401 0.0793
 3 mu         0.1   0.3 0.484 0.116 
 4 mu         0.1   0.4 0.511 0.120 
 5 mu         0.1   0.5 0.632 0.0742
 6 mu         0.2   0.1 0.332 0.0347
 7 mu         0.2   0.2 0.386 0.0352
 8 mu         0.2   0.3 0.464 0.0524
 9 mu         0.2   0.4 0.509 0.0549
10 mu         0.2   0.5 0.587 0.0348
# ℹ 350 more rows
…
