…
`.groups` argument.
`summarise()` has grouped output by 'theta'. You can override using the
`.groups` argument.
`summarise()` has grouped output by 'theta', 'tau'. You can override using the
`.groups` argument.
`summarise()` has grouped output by 'theta'. You can override using the
`.groups` argument.
`summarise()` has grouped output by 'theta', 'tau'. You can override using the
`.groups` argument.
`summarise()` has grouped output by 'theta'. You can override using the
`.groups` argument.
[1] ""
[1] "Total run time was 274.385 seconds"
[1] "Estimation result: "
# A tibble: 360 × 5
   estimand theta   tau   est     se
   <chr>    <dbl> <dbl> <dbl>  <dbl>
 1 mu         0.1   0.1 0.389 0.0642
 2 mu         0.1   0.2 0.383 0.0590
 3 mu         0.1   0.3 0.554 0.0909
 4 mu         0.1   0.4 0.546 0.0779
 5 mu         0.1   0.5 0.596 0.0950
 6 mu         0.2   0.1 0.383 0.0613
 7 mu         0.2   0.2 0.403 0.0479
 8 mu         0.2   0.3 0.520 0.0710
 9 mu         0.2   0.4 0.520 0.0617
10 mu         0.2   0.5 0.557 0.0664
# ℹ 350 more rows
…
