…
`.groups` argument.
`summarise()` has grouped output by 'theta'. You can override using the
`.groups` argument.
`summarise()` has grouped output by 'theta', 'tau'. You can override using the
`.groups` argument.
`summarise()` has grouped output by 'theta'. You can override using the
`.groups` argument.
`summarise()` has grouped output by 'theta', 'tau'. You can override using the
`.groups` argument.
`summarise()` has grouped output by 'theta'. You can override using the
`.groups` argument.
[1] ""
[1] "Total run time was 289.525 seconds"
[1] "Estimation result: "
# A tibble: 360 × 5
   estimand theta   tau   est     se
   <chr>    <dbl> <dbl> <dbl>  <dbl>
 1 mu         0.1   0.1 0.536 0.132 
 2 mu         0.1   0.2 0.622 0.137 
 3 mu         0.1   0.3 0.641 0.109 
 4 mu         0.1   0.4 0.652 0.0970
 5 mu         0.1   0.5 0.676 0.0913
 6 mu         0.2   0.1 0.446 0.0817
 7 mu         0.2   0.2 0.553 0.108 
 8 mu         0.2   0.3 0.616 0.0774
 9 mu         0.2   0.4 0.637 0.0653
10 mu         0.2   0.5 0.691 0.0700
# ℹ 350 more rows
…
