…
`.groups` argument.
`summarise()` has grouped output by 'theta'. You can override using the
`.groups` argument.
`summarise()` has grouped output by 'theta', 'tau'. You can override using the
`.groups` argument.
`summarise()` has grouped output by 'theta'. You can override using the
`.groups` argument.
`summarise()` has grouped output by 'theta', 'tau'. You can override using the
`.groups` argument.
`summarise()` has grouped output by 'theta'. You can override using the
`.groups` argument.
[1] ""
[1] "Total run time was 271.769 seconds"
[1] "Estimation result: "
# A tibble: 360 × 5
   estimand theta   tau   est     se
   <chr>    <dbl> <dbl> <dbl>  <dbl>
 1 mu         0.1   0.1 0.317 0.0544
 2 mu         0.1   0.2 0.425 0.0860
 3 mu         0.1   0.3 0.477 0.104 
 4 mu         0.1   0.4 0.626 0.168 
 5 mu         0.1   0.5 0.641 0.161 
 6 mu         0.2   0.1 0.300 0.0246
 7 mu         0.2   0.2 0.412 0.0509
 8 mu         0.2   0.3 0.465 0.0604
 9 mu         0.2   0.4 0.601 0.122 
10 mu         0.2   0.5 0.617 0.114 
# ℹ 350 more rows
…
