…
`.groups` argument.
`summarise()` has grouped output by 'theta'. You can override using the
`.groups` argument.
`summarise()` has grouped output by 'theta', 'tau'. You can override using the
`.groups` argument.
`summarise()` has grouped output by 'theta'. You can override using the
`.groups` argument.
`summarise()` has grouped output by 'theta', 'tau'. You can override using the
`.groups` argument.
`summarise()` has grouped output by 'theta'. You can override using the
`.groups` argument.
[1] ""
[1] "Total run time was 264.124 seconds"
[1] "Estimation result: "
# A tibble: 360 × 5
   estimand theta   tau   est     se
   <chr>    <dbl> <dbl> <dbl>  <dbl>
 1 mu         0.1   0.1 0.138 0.151 
 2 mu         0.1   0.2 0.380 0.161 
 3 mu         0.1   0.3 0.467 0.107 
 4 mu         0.1   0.4 0.542 0.0838
 5 mu         0.1   0.5 0.554 0.0822
 6 mu         0.2   0.1 0.238 0.0749
 7 mu         0.2   0.2 0.429 0.119 
 8 mu         0.2   0.3 0.500 0.0877
 9 mu         0.2   0.4 0.546 0.0554
10 mu         0.2   0.5 0.564 0.0560
# ℹ 350 more rows
…
