…
`.groups` argument.
`summarise()` has grouped output by 'theta'. You can override using the
`.groups` argument.
`summarise()` has grouped output by 'theta', 'tau'. You can override using the
`.groups` argument.
`summarise()` has grouped output by 'theta'. You can override using the
`.groups` argument.
`summarise()` has grouped output by 'theta', 'tau'. You can override using the
`.groups` argument.
`summarise()` has grouped output by 'theta'. You can override using the
`.groups` argument.
[1] ""
[1] "Total run time was 221.551 seconds"
[1] "Estimation result: "
# A tibble: 360 × 5
   estimand theta   tau   est     se
   <chr>    <dbl> <dbl> <dbl>  <dbl>
 1 mu         0.1   0.1 0.497 0.0792
 2 mu         0.1   0.2 0.600 0.0844
 3 mu         0.1   0.3 0.635 0.0892
 4 mu         0.1   0.4 0.713 0.0965
 5 mu         0.1   0.5 0.747 0.0944
 6 mu         0.2   0.1 0.412 0.0476
 7 mu         0.2   0.2 0.490 0.0500
 8 mu         0.2   0.3 0.530 0.0515
 9 mu         0.2   0.4 0.612 0.0559
10 mu         0.2   0.5 0.655 0.0562
# ℹ 350 more rows
…
