…
`.groups` argument.
`summarise()` has grouped output by 'theta'. You can override using the
`.groups` argument.
`summarise()` has grouped output by 'theta', 'tau'. You can override using the
`.groups` argument.
`summarise()` has grouped output by 'theta'. You can override using the
`.groups` argument.
`summarise()` has grouped output by 'theta', 'tau'. You can override using the
`.groups` argument.
`summarise()` has grouped output by 'theta'. You can override using the
`.groups` argument.
[1] ""
[1] "Total run time was 247.555 seconds"
[1] "Estimation result: "
# A tibble: 360 × 5
   estimand theta   tau   est     se
   <chr>    <dbl> <dbl> <dbl>  <dbl>
 1 mu         0.1   0.1 0.537 0.136 
 2 mu         0.1   0.2 0.565 0.117 
 3 mu         0.1   0.3 0.583 0.0992
 4 mu         0.1   0.4 0.692 0.161 
 5 mu         0.1   0.5 0.844 0.143 
 6 mu         0.2   0.1 0.397 0.0671
 7 mu         0.2   0.2 0.459 0.0588
 8 mu         0.2   0.3 0.479 0.0504
 9 mu         0.2   0.4 0.571 0.0796
10 mu         0.2   0.5 0.679 0.0683
# ℹ 350 more rows
…
