…
`.groups` argument.
`summarise()` has grouped output by 'theta'. You can override using the
`.groups` argument.
`summarise()` has grouped output by 'theta', 'tau'. You can override using the
`.groups` argument.
`summarise()` has grouped output by 'theta'. You can override using the
`.groups` argument.
`summarise()` has grouped output by 'theta', 'tau'. You can override using the
`.groups` argument.
`summarise()` has grouped output by 'theta'. You can override using the
`.groups` argument.
[1] ""
[1] "Total run time was 522.53 seconds"
[1] "Estimation result: "
# A tibble: 360 × 5
   estimand theta   tau   est     se
   <chr>    <dbl> <dbl> <dbl>  <dbl>
 1 mu         0.1   0.1 0.316 0.0833
 2 mu         0.1   0.2 0.469 0.111 
 3 mu         0.1   0.3 0.537 0.144 
 4 mu         0.1   0.4 0.573 0.121 
 5 mu         0.1   0.5 0.600 0.113 
 6 mu         0.2   0.1 0.306 0.0746
 7 mu         0.2   0.2 0.444 0.0994
 8 mu         0.2   0.3 0.517 0.131 
 9 mu         0.2   0.4 0.566 0.104 
10 mu         0.2   0.5 0.586 0.0955
# ℹ 350 more rows
…
