…
`.groups` argument.
`summarise()` has grouped output by 'theta'. You can override using the
`.groups` argument.
`summarise()` has grouped output by 'theta', 'tau'. You can override using the
`.groups` argument.
`summarise()` has grouped output by 'theta'. You can override using the
`.groups` argument.
`summarise()` has grouped output by 'theta', 'tau'. You can override using the
`.groups` argument.
`summarise()` has grouped output by 'theta'. You can override using the
`.groups` argument.
[1] ""
[1] "Total run time was 167.528 seconds"
[1] "Estimation result: "
# A tibble: 360 × 5
   estimand theta   tau   est     se
   <chr>    <dbl> <dbl> <dbl>  <dbl>
 1 mu         0.1   0.1 0.418 0.105 
 2 mu         0.1   0.2 0.634 0.145 
 3 mu         0.1   0.3 0.644 0.136 
 4 mu         0.1   0.4 0.662 0.127 
 5 mu         0.1   0.5 0.662 0.120 
 6 mu         0.2   0.1 0.385 0.0676
 7 mu         0.2   0.2 0.539 0.0945
 8 mu         0.2   0.3 0.580 0.0892
 9 mu         0.2   0.4 0.601 0.0830
10 mu         0.2   0.5 0.611 0.0781
# ℹ 350 more rows
…
