…
`.groups` argument.
`summarise()` has grouped output by 'theta'. You can override using the
`.groups` argument.
`summarise()` has grouped output by 'theta', 'tau'. You can override using the
`.groups` argument.
`summarise()` has grouped output by 'theta'. You can override using the
`.groups` argument.
`summarise()` has grouped output by 'theta', 'tau'. You can override using the
`.groups` argument.
`summarise()` has grouped output by 'theta'. You can override using the
`.groups` argument.
[1] ""
[1] "Total run time was 189.926 seconds"
[1] "Estimation result: "
# A tibble: 360 × 5
   estimand theta   tau   est     se
   <chr>    <dbl> <dbl> <dbl>  <dbl>
 1 mu         0.1   0.1 0.263 0.0495
 2 mu         0.1   0.2 0.424 0.0736
 3 mu         0.1   0.3 0.472 0.113 
 4 mu         0.1   0.4 0.554 0.103 
 5 mu         0.1   0.5 0.563 0.109 
 6 mu         0.2   0.1 0.255 0.0370
 7 mu         0.2   0.2 0.381 0.0433
 8 mu         0.2   0.3 0.414 0.0591
 9 mu         0.2   0.4 0.483 0.0586
10 mu         0.2   0.5 0.506 0.0674
# ℹ 350 more rows
…
