…
`.groups` argument.
`summarise()` has grouped output by 'theta'. You can override using the
`.groups` argument.
`summarise()` has grouped output by 'theta', 'tau'. You can override using the
`.groups` argument.
`summarise()` has grouped output by 'theta'. You can override using the
`.groups` argument.
`summarise()` has grouped output by 'theta', 'tau'. You can override using the
`.groups` argument.
`summarise()` has grouped output by 'theta'. You can override using the
`.groups` argument.
[1] ""
[1] "Total run time was 207.932 seconds"
[1] "Estimation result: "
# A tibble: 360 × 5
   estimand theta   tau   est     se
   <chr>    <dbl> <dbl> <dbl>  <dbl>
 1 mu         0.1   0.1 0.485 0.0807
 2 mu         0.1   0.2 0.595 0.0872
 3 mu         0.1   0.3 0.650 0.0881
 4 mu         0.1   0.4 0.695 0.0902
 5 mu         0.1   0.5 0.719 0.0932
 6 mu         0.2   0.1 0.362 0.0435
 7 mu         0.2   0.2 0.465 0.0485
 8 mu         0.2   0.3 0.535 0.0458
 9 mu         0.2   0.4 0.583 0.0487
10 mu         0.2   0.5 0.609 0.0517
# ℹ 350 more rows
…
