…
`.groups` argument.
`summarise()` has grouped output by 'theta'. You can override using the
`.groups` argument.
`summarise()` has grouped output by 'theta', 'tau'. You can override using the
`.groups` argument.
`summarise()` has grouped output by 'theta'. You can override using the
`.groups` argument.
`summarise()` has grouped output by 'theta', 'tau'. You can override using the
`.groups` argument.
`summarise()` has grouped output by 'theta'. You can override using the
`.groups` argument.
[1] ""
[1] "Total run time was 166.352 seconds"
[1] "Estimation result: "
# A tibble: 360 × 5
   estimand theta   tau   est     se
   <chr>    <dbl> <dbl> <dbl>  <dbl>
 1 mu         0.1   0.1 0.329 0.0633
 2 mu         0.1   0.2 0.465 0.0761
 3 mu         0.1   0.3 0.510 0.0793
 4 mu         0.1   0.4 0.525 0.0748
 5 mu         0.1   0.5 0.549 0.0808
 6 mu         0.2   0.1 0.320 0.0503
 7 mu         0.2   0.2 0.414 0.0593
 8 mu         0.2   0.3 0.463 0.0626
 9 mu         0.2   0.4 0.477 0.0544
10 mu         0.2   0.5 0.506 0.0542
# ℹ 350 more rows
…
