…
`.groups` argument.
`summarise()` has grouped output by 'theta'. You can override using the
`.groups` argument.
`summarise()` has grouped output by 'theta', 'tau'. You can override using the
`.groups` argument.
`summarise()` has grouped output by 'theta'. You can override using the
`.groups` argument.
`summarise()` has grouped output by 'theta', 'tau'. You can override using the
`.groups` argument.
`summarise()` has grouped output by 'theta'. You can override using the
`.groups` argument.
[1] ""
[1] "Total run time was 201.629 seconds"
[1] "Estimation result: "
# A tibble: 360 × 5
   estimand theta   tau   est     se
   <chr>    <dbl> <dbl> <dbl>  <dbl>
 1 mu         0.1   0.1 0.571 0.182 
 2 mu         0.1   0.2 0.688 0.155 
 3 mu         0.1   0.3 0.754 0.146 
 4 mu         0.1   0.4 0.773 0.138 
 5 mu         0.1   0.5 0.804 0.130 
 6 mu         0.2   0.1 0.473 0.154 
 7 mu         0.2   0.2 0.592 0.128 
 8 mu         0.2   0.3 0.648 0.119 
 9 mu         0.2   0.4 0.667 0.106 
10 mu         0.2   0.5 0.704 0.0974
# ℹ 350 more rows
…
