…
`.groups` argument.
`summarise()` has grouped output by 'theta'. You can override using the
`.groups` argument.
`summarise()` has grouped output by 'theta', 'tau'. You can override using the
`.groups` argument.
`summarise()` has grouped output by 'theta'. You can override using the
`.groups` argument.
`summarise()` has grouped output by 'theta', 'tau'. You can override using the
`.groups` argument.
`summarise()` has grouped output by 'theta'. You can override using the
`.groups` argument.
[1] ""
[1] "Total run time was 205.433 seconds"
[1] "Estimation result: "
# A tibble: 360 × 5
   estimand theta   tau   est     se
   <chr>    <dbl> <dbl> <dbl>  <dbl>
 1 mu         0.1   0.1 0.565 0.0975
 2 mu         0.1   0.2 0.639 0.130 
 3 mu         0.1   0.3 0.786 0.116 
 4 mu         0.1   0.4 0.797 0.115 
 5 mu         0.1   0.5 0.818 0.122 
 6 mu         0.2   0.1 0.458 0.0592
 7 mu         0.2   0.2 0.533 0.0756
 8 mu         0.2   0.3 0.638 0.0669
 9 mu         0.2   0.4 0.658 0.0647
10 mu         0.2   0.5 0.676 0.0688
# ℹ 350 more rows
…
