…
`.groups` argument.
`summarise()` has grouped output by 'theta'. You can override using the
`.groups` argument.
`summarise()` has grouped output by 'theta', 'tau'. You can override using the
`.groups` argument.
`summarise()` has grouped output by 'theta'. You can override using the
`.groups` argument.
`summarise()` has grouped output by 'theta', 'tau'. You can override using the
`.groups` argument.
`summarise()` has grouped output by 'theta'. You can override using the
`.groups` argument.
[1] ""
[1] "Total run time was 199.804 seconds"
[1] "Estimation result: "
# A tibble: 360 × 5
   estimand theta   tau   est     se
   <chr>    <dbl> <dbl> <dbl>  <dbl>
 1 mu         0.1   0.1 0.468 0.117 
 2 mu         0.1   0.2 0.525 0.104 
 3 mu         0.1   0.3 0.574 0.100 
 4 mu         0.1   0.4 0.647 0.113 
 5 mu         0.1   0.5 0.648 0.0936
 6 mu         0.2   0.1 0.367 0.0660
 7 mu         0.2   0.2 0.435 0.0626
 8 mu         0.2   0.3 0.501 0.0548
 9 mu         0.2   0.4 0.569 0.0577
10 mu         0.2   0.5 0.596 0.0515
# ℹ 350 more rows
…
