…
`.groups` argument.
`summarise()` has grouped output by 'theta'. You can override using the
`.groups` argument.
`summarise()` has grouped output by 'theta', 'tau'. You can override using the
`.groups` argument.
`summarise()` has grouped output by 'theta'. You can override using the
`.groups` argument.
`summarise()` has grouped output by 'theta', 'tau'. You can override using the
`.groups` argument.
`summarise()` has grouped output by 'theta'. You can override using the
`.groups` argument.
[1] ""
[1] "Total run time was 176.223 seconds"
[1] "Estimation result: "
# A tibble: 360 × 5
   estimand theta   tau   est     se
   <chr>    <dbl> <dbl> <dbl>  <dbl>
 1 mu         0.1   0.1 0.408 0.0889
 2 mu         0.1   0.2 0.430 0.103 
 3 mu         0.1   0.3 0.428 0.119 
 4 mu         0.1   0.4 0.713 0.178 
 5 mu         0.1   0.5 0.742 0.175 
 6 mu         0.2   0.1 0.300 0.0486
 7 mu         0.2   0.2 0.331 0.0494
 8 mu         0.2   0.3 0.342 0.0631
 9 mu         0.2   0.4 0.568 0.105 
10 mu         0.2   0.5 0.612 0.0957
# ℹ 350 more rows
…
