…
`.groups` argument.
`summarise()` has grouped output by 'theta'. You can override using the
`.groups` argument.
`summarise()` has grouped output by 'theta', 'tau'. You can override using the
`.groups` argument.
`summarise()` has grouped output by 'theta'. You can override using the
`.groups` argument.
`summarise()` has grouped output by 'theta', 'tau'. You can override using the
`.groups` argument.
`summarise()` has grouped output by 'theta'. You can override using the
`.groups` argument.
[1] ""
[1] "Total run time was 332.234 seconds"
[1] "Estimation result: "
# A tibble: 360 × 5
   estimand theta   tau   est     se
   <chr>    <dbl> <dbl> <dbl>  <dbl>
 1 mu         0.1   0.1 0.365 0.112 
 2 mu         0.1   0.2 0.469 0.130 
 3 mu         0.1   0.3 0.529 0.163 
 4 mu         0.1   0.4 0.524 0.162 
 5 mu         0.1   0.5 0.611 0.153 
 6 mu         0.2   0.1 0.325 0.0752
 7 mu         0.2   0.2 0.405 0.0795
 8 mu         0.2   0.3 0.459 0.104 
 9 mu         0.2   0.4 0.466 0.103 
10 mu         0.2   0.5 0.565 0.0956
# ℹ 350 more rows
…
