…
`.groups` argument.
`summarise()` has grouped output by 'theta'. You can override using the
`.groups` argument.
`summarise()` has grouped output by 'theta', 'tau'. You can override using the
`.groups` argument.
`summarise()` has grouped output by 'theta'. You can override using the
`.groups` argument.
`summarise()` has grouped output by 'theta', 'tau'. You can override using the
`.groups` argument.
`summarise()` has grouped output by 'theta'. You can override using the
`.groups` argument.
[1] ""
[1] "Total run time was 207.077 seconds"
[1] "Estimation result: "
# A tibble: 360 × 5
   estimand theta   tau   est     se
   <chr>    <dbl> <dbl> <dbl>  <dbl>
 1 mu         0.1   0.1 0.338 0.0567
 2 mu         0.1   0.2 0.396 0.0740
 3 mu         0.1   0.3 0.469 0.0720
 4 mu         0.1   0.4 0.514 0.0794
 5 mu         0.1   0.5 0.538 0.0647
 6 mu         0.2   0.1 0.327 0.0486
 7 mu         0.2   0.2 0.410 0.0773
 8 mu         0.2   0.3 0.491 0.0717
 9 mu         0.2   0.4 0.535 0.0821
10 mu         0.2   0.5 0.578 0.0644
# ℹ 350 more rows
…
