…
`.groups` argument.
`summarise()` has grouped output by 'theta'. You can override using the
`.groups` argument.
`summarise()` has grouped output by 'theta', 'tau'. You can override using the
`.groups` argument.
`summarise()` has grouped output by 'theta'. You can override using the
`.groups` argument.
`summarise()` has grouped output by 'theta', 'tau'. You can override using the
`.groups` argument.
`summarise()` has grouped output by 'theta'. You can override using the
`.groups` argument.
[1] ""
[1] "Total run time was 180.043 seconds"
[1] "Estimation result: "
# A tibble: 360 × 5
   estimand theta   tau   est     se
   <chr>    <dbl> <dbl> <dbl>  <dbl>
 1 mu         0.1   0.1 0.455 0.0696
 2 mu         0.1   0.2 0.523 0.0840
 3 mu         0.1   0.3 0.557 0.0826
 4 mu         0.1   0.4 0.575 0.0891
 5 mu         0.1   0.5 0.579 0.0913
 6 mu         0.2   0.1 0.376 0.0404
 7 mu         0.2   0.2 0.464 0.0567
 8 mu         0.2   0.3 0.511 0.0527
 9 mu         0.2   0.4 0.526 0.0526
10 mu         0.2   0.5 0.534 0.0527
# ℹ 350 more rows
…
