…
`.groups` argument.
`summarise()` has grouped output by 'theta'. You can override using the
`.groups` argument.
`summarise()` has grouped output by 'theta', 'tau'. You can override using the
`.groups` argument.
`summarise()` has grouped output by 'theta'. You can override using the
`.groups` argument.
`summarise()` has grouped output by 'theta', 'tau'. You can override using the
`.groups` argument.
`summarise()` has grouped output by 'theta'. You can override using the
`.groups` argument.
[1] ""
[1] "Total run time was 254.975 seconds"
[1] "Estimation result: "
# A tibble: 360 × 5
   estimand theta   tau   est    se
   <chr>    <dbl> <dbl> <dbl> <dbl>
 1 mu         0.1   0.1 0.388 0.134
 2 mu         0.1   0.2 0.537 0.163
 3 mu         0.1   0.3 0.537 0.136
 4 mu         0.1   0.4 0.616 0.165
 5 mu         0.1   0.5 0.707 0.162
 6 mu         0.2   0.1 0.394 0.110
 7 mu         0.2   0.2 0.526 0.132
 8 mu         0.2   0.3 0.546 0.106
 9 mu         0.2   0.4 0.622 0.130
10 mu         0.2   0.5 0.697 0.124
# ℹ 350 more rows
…
