…
`.groups` argument.
`summarise()` has grouped output by 'theta'. You can override using the
`.groups` argument.
`summarise()` has grouped output by 'theta', 'tau'. You can override using the
`.groups` argument.
`summarise()` has grouped output by 'theta'. You can override using the
`.groups` argument.
`summarise()` has grouped output by 'theta', 'tau'. You can override using the
`.groups` argument.
`summarise()` has grouped output by 'theta'. You can override using the
`.groups` argument.
[1] ""
[1] "Total run time was 184.219 seconds"
[1] "Estimation result: "
# A tibble: 360 × 5
   estimand theta   tau   est     se
   <chr>    <dbl> <dbl> <dbl>  <dbl>
 1 mu         0.1   0.1 0.273 0.0914
 2 mu         0.1   0.2 0.388 0.0673
 3 mu         0.1   0.3 0.448 0.126 
 4 mu         0.1   0.4 0.512 0.115 
 5 mu         0.1   0.5 0.530 0.125 
 6 mu         0.2   0.1 0.299 0.0702
 7 mu         0.2   0.2 0.401 0.0536
 8 mu         0.2   0.3 0.452 0.0868
 9 mu         0.2   0.4 0.532 0.0744
10 mu         0.2   0.5 0.556 0.0867
# ℹ 350 more rows
…
