…
`.groups` argument.
`summarise()` has grouped output by 'theta'. You can override using the
`.groups` argument.
`summarise()` has grouped output by 'theta', 'tau'. You can override using the
`.groups` argument.
`summarise()` has grouped output by 'theta'. You can override using the
`.groups` argument.
`summarise()` has grouped output by 'theta', 'tau'. You can override using the
`.groups` argument.
`summarise()` has grouped output by 'theta'. You can override using the
`.groups` argument.
[1] ""
[1] "Total run time was 264.158 seconds"
[1] "Estimation result: "
# A tibble: 360 × 5
   estimand theta   tau   est     se
   <chr>    <dbl> <dbl> <dbl>  <dbl>
 1 mu         0.1   0.1 0.142 0.0895
 2 mu         0.1   0.2 0.227 0.114 
 3 mu         0.1   0.3 0.233 0.121 
 4 mu         0.1   0.4 0.246 0.129 
 5 mu         0.1   0.5 0.241 0.143 
 6 mu         0.2   0.1 0.178 0.0639
 7 mu         0.2   0.2 0.270 0.0787
 8 mu         0.2   0.3 0.291 0.0829
 9 mu         0.2   0.4 0.321 0.0897
10 mu         0.2   0.5 0.320 0.100 
# ℹ 350 more rows
…
