…
`.groups` argument.
`summarise()` has grouped output by 'theta'. You can override using the
`.groups` argument.
`summarise()` has grouped output by 'theta', 'tau'. You can override using the
`.groups` argument.
`summarise()` has grouped output by 'theta'. You can override using the
`.groups` argument.
`summarise()` has grouped output by 'theta', 'tau'. You can override using the
`.groups` argument.
`summarise()` has grouped output by 'theta'. You can override using the
`.groups` argument.
[1] ""
[1] "Total run time was 177.769 seconds"
[1] "Estimation result: "
# A tibble: 360 × 5
   estimand theta   tau   est     se
   <chr>    <dbl> <dbl> <dbl>  <dbl>
 1 mu         0.1   0.1 0.323 0.0552
 2 mu         0.1   0.2 0.387 0.0640
 3 mu         0.1   0.3 0.401 0.0879
 4 mu         0.1   0.4 0.548 0.167 
 5 mu         0.1   0.5 0.550 0.159 
 6 mu         0.2   0.1 0.302 0.0423
 7 mu         0.2   0.2 0.391 0.0540
 8 mu         0.2   0.3 0.418 0.0737
 9 mu         0.2   0.4 0.492 0.106 
10 mu         0.2   0.5 0.501 0.106 
# ℹ 350 more rows
…
