…
`.groups` argument.
`summarise()` has grouped output by 'theta'. You can override using the
`.groups` argument.
`summarise()` has grouped output by 'theta', 'tau'. You can override using the
`.groups` argument.
`summarise()` has grouped output by 'theta'. You can override using the
`.groups` argument.
`summarise()` has grouped output by 'theta', 'tau'. You can override using the
`.groups` argument.
`summarise()` has grouped output by 'theta'. You can override using the
`.groups` argument.
[1] ""
[1] "Total run time was 237.478 seconds"
[1] "Estimation result: "
# A tibble: 360 × 5
   estimand theta   tau   est     se
   <chr>    <dbl> <dbl> <dbl>  <dbl>
 1 mu         0.1   0.1 0.285 0.0403
 2 mu         0.1   0.2 0.394 0.0628
 3 mu         0.1   0.3 0.443 0.0605
 4 mu         0.1   0.4 0.496 0.0454
 5 mu         0.1   0.5 0.512 0.0513
 6 mu         0.2   0.1 0.319 0.0332
 7 mu         0.2   0.2 0.438 0.0398
 8 mu         0.2   0.3 0.491 0.0376
 9 mu         0.2   0.4 0.527 0.0294
10 mu         0.2   0.5 0.555 0.0372
# ℹ 350 more rows
…
