…
`.groups` argument.
`summarise()` has grouped output by 'theta'. You can override using the
`.groups` argument.
`summarise()` has grouped output by 'theta', 'tau'. You can override using the
`.groups` argument.
`summarise()` has grouped output by 'theta'. You can override using the
`.groups` argument.
`summarise()` has grouped output by 'theta', 'tau'. You can override using the
`.groups` argument.
`summarise()` has grouped output by 'theta'. You can override using the
`.groups` argument.
[1] ""
[1] "Total run time was 182.732 seconds"
[1] "Estimation result: "
# A tibble: 360 × 5
   estimand theta   tau   est     se
   <chr>    <dbl> <dbl> <dbl>  <dbl>
 1 mu         0.1   0.1 0.264 0.0487
 2 mu         0.1   0.2 0.280 0.0883
 3 mu         0.1   0.3 0.379 0.0566
 4 mu         0.1   0.4 0.522 0.0920
 5 mu         0.1   0.5 0.578 0.0961
 6 mu         0.2   0.1 0.276 0.0345
 7 mu         0.2   0.2 0.309 0.0731
 8 mu         0.2   0.3 0.417 0.0288
 9 mu         0.2   0.4 0.551 0.0745
10 mu         0.2   0.5 0.602 0.0762
# ℹ 350 more rows
…
