…
`.groups` argument.
`summarise()` has grouped output by 'theta'. You can override using the
`.groups` argument.
`summarise()` has grouped output by 'theta', 'tau'. You can override using the
`.groups` argument.
`summarise()` has grouped output by 'theta'. You can override using the
`.groups` argument.
`summarise()` has grouped output by 'theta', 'tau'. You can override using the
`.groups` argument.
`summarise()` has grouped output by 'theta'. You can override using the
`.groups` argument.
[1] ""
[1] "Total run time was 250.061 seconds"
[1] "Estimation result: "
# A tibble: 360 × 5
   estimand theta   tau   est     se
   <chr>    <dbl> <dbl> <dbl>  <dbl>
 1 mu         0.1   0.1 0.207 0.0856
 2 mu         0.1   0.2 0.258 0.0851
 3 mu         0.1   0.3 0.274 0.106 
 4 mu         0.1   0.4 0.251 0.150 
 5 mu         0.1   0.5 0.335 0.0878
 6 mu         0.2   0.1 0.162 0.0838
 7 mu         0.2   0.2 0.219 0.101 
 8 mu         0.2   0.3 0.278 0.0837
 9 mu         0.2   0.4 0.302 0.0889
10 mu         0.2   0.5 0.347 0.0781
# ℹ 350 more rows
…
