…
`.groups` argument.
`summarise()` has grouped output by 'theta'. You can override using the
`.groups` argument.
`summarise()` has grouped output by 'theta', 'tau'. You can override using the
`.groups` argument.
`summarise()` has grouped output by 'theta'. You can override using the
`.groups` argument.
`summarise()` has grouped output by 'theta', 'tau'. You can override using the
`.groups` argument.
`summarise()` has grouped output by 'theta'. You can override using the
`.groups` argument.
[1] ""
[1] "Total run time was 208.898 seconds"
[1] "Estimation result: "
# A tibble: 360 × 5
   estimand theta   tau   est     se
   <chr>    <dbl> <dbl> <dbl>  <dbl>
 1 mu         0.1   0.1 0.421 0.0832
 2 mu         0.1   0.2 0.603 0.145 
 3 mu         0.1   0.3 0.656 0.136 
 4 mu         0.1   0.4 0.684 0.121 
 5 mu         0.1   0.5 0.711 0.101 
 6 mu         0.2   0.1 0.363 0.0523
 7 mu         0.2   0.2 0.514 0.0922
 8 mu         0.2   0.3 0.566 0.0862
 9 mu         0.2   0.4 0.606 0.0744
10 mu         0.2   0.5 0.644 0.0598
# ℹ 350 more rows
…
