…
`.groups` argument.
`summarise()` has grouped output by 'theta'. You can override using the
`.groups` argument.
`summarise()` has grouped output by 'theta', 'tau'. You can override using the
`.groups` argument.
`summarise()` has grouped output by 'theta'. You can override using the
`.groups` argument.
`summarise()` has grouped output by 'theta', 'tau'. You can override using the
`.groups` argument.
`summarise()` has grouped output by 'theta'. You can override using the
`.groups` argument.
[1] ""
[1] "Total run time was 278.494 seconds"
[1] "Estimation result: "
# A tibble: 360 × 5
   estimand theta   tau   est     se
   <chr>    <dbl> <dbl> <dbl>  <dbl>
 1 mu         0.1   0.1 0.366 0.110 
 2 mu         0.1   0.2 0.435 0.132 
 3 mu         0.1   0.3 0.505 0.138 
 4 mu         0.1   0.4 0.544 0.164 
 5 mu         0.1   0.5 0.553 0.171 
 6 mu         0.2   0.1 0.330 0.0544
 7 mu         0.2   0.2 0.411 0.0637
 8 mu         0.2   0.3 0.478 0.0631
 9 mu         0.2   0.4 0.533 0.0772
10 mu         0.2   0.5 0.550 0.0809
# ℹ 350 more rows
…
