…
`.groups` argument.
`summarise()` has grouped output by 'theta'. You can override using the
`.groups` argument.
`summarise()` has grouped output by 'theta', 'tau'. You can override using the
`.groups` argument.
`summarise()` has grouped output by 'theta'. You can override using the
`.groups` argument.
`summarise()` has grouped output by 'theta', 'tau'. You can override using the
`.groups` argument.
`summarise()` has grouped output by 'theta'. You can override using the
`.groups` argument.
[1] ""
[1] "Total run time was 256.775 seconds"
[1] "Estimation result: "
# A tibble: 360 × 5
   estimand theta   tau   est     se
   <chr>    <dbl> <dbl> <dbl>  <dbl>
 1 mu         0.1   0.1 0.340 0.0419
 2 mu         0.1   0.2 0.359 0.0671
 3 mu         0.1   0.3 0.384 0.0998
 4 mu         0.1   0.4 0.519 0.0658
 5 mu         0.1   0.5 0.523 0.0746
 6 mu         0.2   0.1 0.303 0.0270
 7 mu         0.2   0.2 0.323 0.0571
 8 mu         0.2   0.3 0.348 0.0910
 9 mu         0.2   0.4 0.489 0.0418
10 mu         0.2   0.5 0.498 0.0499
# ℹ 350 more rows
…
