…
`.groups` argument.
`summarise()` has grouped output by 'theta'. You can override using the
`.groups` argument.
`summarise()` has grouped output by 'theta', 'tau'. You can override using the
`.groups` argument.
`summarise()` has grouped output by 'theta'. You can override using the
`.groups` argument.
`summarise()` has grouped output by 'theta', 'tau'. You can override using the
`.groups` argument.
`summarise()` has grouped output by 'theta'. You can override using the
`.groups` argument.
[1] ""
[1] "Total run time was 157.944 seconds"
[1] "Estimation result: "
# A tibble: 360 × 5
   estimand theta   tau   est     se
   <chr>    <dbl> <dbl> <dbl>  <dbl>
 1 mu         0.1   0.1 0.304 0.0566
 2 mu         0.1   0.2 0.430 0.0724
 3 mu         0.1   0.3 0.448 0.0753
 4 mu         0.1   0.4 0.518 0.0906
 5 mu         0.1   0.5 0.522 0.0958
 6 mu         0.2   0.1 0.281 0.0326
 7 mu         0.2   0.2 0.391 0.0427
 8 mu         0.2   0.3 0.419 0.0431
 9 mu         0.2   0.4 0.490 0.0533
10 mu         0.2   0.5 0.508 0.0540
# ℹ 350 more rows
…
