…
`.groups` argument.
`summarise()` has grouped output by 'theta'. You can override using the
`.groups` argument.
`summarise()` has grouped output by 'theta', 'tau'. You can override using the
`.groups` argument.
`summarise()` has grouped output by 'theta'. You can override using the
`.groups` argument.
`summarise()` has grouped output by 'theta', 'tau'. You can override using the
`.groups` argument.
`summarise()` has grouped output by 'theta'. You can override using the
`.groups` argument.
[1] ""
[1] "Total run time was 247.141 seconds"
[1] "Estimation result: "
# A tibble: 360 × 5
   estimand theta   tau   est     se
   <chr>    <dbl> <dbl> <dbl>  <dbl>
 1 mu         0.1   0.1 0.343 0.0909
 2 mu         0.1   0.2 0.505 0.0779
 3 mu         0.1   0.3 0.738 0.141 
 4 mu         0.1   0.4 0.732 0.120 
 5 mu         0.1   0.5 0.761 0.126 
 6 mu         0.2   0.1 0.287 0.0679
 7 mu         0.2   0.2 0.432 0.0552
 8 mu         0.2   0.3 0.580 0.0890
 9 mu         0.2   0.4 0.585 0.0690
10 mu         0.2   0.5 0.621 0.0769
# ℹ 350 more rows
…
