…
`.groups` argument.
`summarise()` has grouped output by 'theta'. You can override using the
`.groups` argument.
`summarise()` has grouped output by 'theta', 'tau'. You can override using the
`.groups` argument.
`summarise()` has grouped output by 'theta'. You can override using the
`.groups` argument.
`summarise()` has grouped output by 'theta', 'tau'. You can override using the
`.groups` argument.
`summarise()` has grouped output by 'theta'. You can override using the
`.groups` argument.
[1] ""
[1] "Total run time was 250.836 seconds"
[1] "Estimation result: "
# A tibble: 360 × 5
   estimand theta   tau   est     se
   <chr>    <dbl> <dbl> <dbl>  <dbl>
 1 mu         0.1   0.1 0.363 0.0597
 2 mu         0.1   0.2 0.500 0.0840
 3 mu         0.1   0.3 0.610 0.126 
 4 mu         0.1   0.4 0.665 0.125 
 5 mu         0.1   0.5 0.719 0.121 
 6 mu         0.2   0.1 0.341 0.0405
 7 mu         0.2   0.2 0.440 0.0432
 8 mu         0.2   0.3 0.517 0.0515
 9 mu         0.2   0.4 0.568 0.0550
10 mu         0.2   0.5 0.631 0.0569
# ℹ 350 more rows
…
