…
`.groups` argument.
`summarise()` has grouped output by 'theta'. You can override using the
`.groups` argument.
`summarise()` has grouped output by 'theta', 'tau'. You can override using the
`.groups` argument.
`summarise()` has grouped output by 'theta'. You can override using the
`.groups` argument.
`summarise()` has grouped output by 'theta', 'tau'. You can override using the
`.groups` argument.
`summarise()` has grouped output by 'theta'. You can override using the
`.groups` argument.
[1] ""
[1] "Total run time was 246.761 seconds"
[1] "Estimation result: "
# A tibble: 360 × 5
   estimand theta   tau   est     se
   <chr>    <dbl> <dbl> <dbl>  <dbl>
 1 mu         0.1   0.1 0.588 0.181 
 2 mu         0.1   0.2 0.730 0.230 
 3 mu         0.1   0.3 0.734 0.209 
 4 mu         0.1   0.4 0.750 0.197 
 5 mu         0.1   0.5 0.758 0.177 
 6 mu         0.2   0.1 0.485 0.0985
 7 mu         0.2   0.2 0.584 0.124 
 8 mu         0.2   0.3 0.610 0.112 
 9 mu         0.2   0.4 0.643 0.106 
10 mu         0.2   0.5 0.662 0.0954
# ℹ 350 more rows
…
