…
`.groups` argument.
`summarise()` has grouped output by 'theta'. You can override using the
`.groups` argument.
`summarise()` has grouped output by 'theta', 'tau'. You can override using the
`.groups` argument.
`summarise()` has grouped output by 'theta'. You can override using the
`.groups` argument.
`summarise()` has grouped output by 'theta', 'tau'. You can override using the
`.groups` argument.
`summarise()` has grouped output by 'theta'. You can override using the
`.groups` argument.
[1] ""
[1] "Total run time was 269.419 seconds"
[1] "Estimation result: "
# A tibble: 360 × 5
   estimand theta   tau   est     se
   <chr>    <dbl> <dbl> <dbl>  <dbl>
 1 mu         0.1   0.1 0.413 0.0624
 2 mu         0.1   0.2 0.493 0.0795
 3 mu         0.1   0.3 0.489 0.0885
 4 mu         0.1   0.4 0.552 0.101 
 5 mu         0.1   0.5 0.566 0.128 
 6 mu         0.2   0.1 0.381 0.0375
 7 mu         0.2   0.2 0.468 0.0405
 8 mu         0.2   0.3 0.489 0.0404
 9 mu         0.2   0.4 0.553 0.0434
10 mu         0.2   0.5 0.581 0.0530
# ℹ 350 more rows
…
