…
`.groups` argument.
`summarise()` has grouped output by 'theta'. You can override using the
`.groups` argument.
`summarise()` has grouped output by 'theta', 'tau'. You can override using the
`.groups` argument.
`summarise()` has grouped output by 'theta'. You can override using the
`.groups` argument.
`summarise()` has grouped output by 'theta', 'tau'. You can override using the
`.groups` argument.
`summarise()` has grouped output by 'theta'. You can override using the
`.groups` argument.
[1] ""
[1] "Total run time was 228.624 seconds"
[1] "Estimation result: "
# A tibble: 360 × 5
   estimand theta   tau   est     se
   <chr>    <dbl> <dbl> <dbl>  <dbl>
 1 mu         0.1   0.1 0.458 0.114 
 2 mu         0.1   0.2 0.531 0.0863
 3 mu         0.1   0.3 0.587 0.0882
 4 mu         0.1   0.4 0.623 0.0835
 5 mu         0.1   0.5 0.645 0.0848
 6 mu         0.2   0.1 0.377 0.0642
 7 mu         0.2   0.2 0.459 0.0468
 8 mu         0.2   0.3 0.514 0.0520
 9 mu         0.2   0.4 0.560 0.0506
10 mu         0.2   0.5 0.591 0.0524
# ℹ 350 more rows
…
