…
`.groups` argument.
`summarise()` has grouped output by 'theta'. You can override using the
`.groups` argument.
`summarise()` has grouped output by 'theta', 'tau'. You can override using the
`.groups` argument.
`summarise()` has grouped output by 'theta'. You can override using the
`.groups` argument.
`summarise()` has grouped output by 'theta', 'tau'. You can override using the
`.groups` argument.
`summarise()` has grouped output by 'theta'. You can override using the
`.groups` argument.
[1] ""
[1] "Total run time was 219.314 seconds"
[1] "Estimation result: "
# A tibble: 360 × 5
   estimand theta   tau   est     se
   <chr>    <dbl> <dbl> <dbl>  <dbl>
 1 mu         0.1   0.1 0.416 0.0509
 2 mu         0.1   0.2 0.499 0.0664
 3 mu         0.1   0.3 0.568 0.0754
 4 mu         0.1   0.4 0.596 0.0707
 5 mu         0.1   0.5 0.637 0.0649
 6 mu         0.2   0.1 0.361 0.0327
 7 mu         0.2   0.2 0.433 0.0410
 8 mu         0.2   0.3 0.488 0.0463
 9 mu         0.2   0.4 0.529 0.0440
10 mu         0.2   0.5 0.571 0.0412
# ℹ 350 more rows
…
