…
✔ ggplot2   3.3.6     ✔ stringr   1.5.1
✔ lubridate 1.9.3     ✔ tibble    3.2.1
✔ purrr     0.3.5     ✔ tidyr     1.2.1
── Conflicts ────────────────────────────────────────── tidyverse_conflicts() ──
✖ dplyr::filter() masks stats::filter()
✖ dplyr::lag()    masks stats::lag()
ℹ Use the [conflicted package](http://conflicted.r-lib.org/) to force all conflicts to become errors
[1] "[Simulation setting]"
[1] "M: 1000"
[1] "taus: 0.1, 0.2, 0.3, 0.4, 0.5"
[1] "thetas: 0.1, 0.2, 0.3, 0.4, 0.5, 0.6, 0.7, 0.8, 0.9"
[1] "r: 100"
`summarise()` has grouped output by 'theta'. You can override using the
`.groups` argument.
# A tibble: 360 × 4
# Groups:   theta [9]
   theta   tau estimand   truth
   <dbl> <dbl> <chr>      <dbl>
 1   0.1   0.1 mu        0.414 
 2   0.1   0.1 mu_1      0.0948
 3   0.1   0.1 mu_0      0.449 
 4   0.1   0.1 de       -0.355 
 5   0.1   0.1 se_1      0.0351
 6   0.1   0.1 se_0      0.0783
 7   0.1   0.1 oe        0.199 
 8   0.1   0.1 te       -0.276 
 9   0.1   0.2 mu        0.498 
10   0.1   0.2 mu_1      0.159 
# ℹ 350 more rows
…
