…
`.groups` argument.
`summarise()` has grouped output by 'theta'. You can override using the
`.groups` argument.
`summarise()` has grouped output by 'theta', 'tau'. You can override using the
`.groups` argument.
`summarise()` has grouped output by 'theta'. You can override using the
`.groups` argument.
`summarise()` has grouped output by 'theta', 'tau'. You can override using the
`.groups` argument.
`summarise()` has grouped output by 'theta'. You can override using the
`.groups` argument.
[1] ""
[1] "Total run time was 380.431 seconds"
[1] "Estimation result: "
# A tibble: 360 × 5
   estimand theta   tau   est     se
   <chr>    <dbl> <dbl> <dbl>  <dbl>
 1 mu         0.1   0.1 0.172 0.0935
 2 mu         0.1   0.2 0.145 0.137 
 3 mu         0.1   0.3 0.156 0.161 
 4 mu         0.1   0.4 0.157 0.183 
 5 mu         0.1   0.5 0.143 0.201 
 6 mu         0.2   0.1 0.294 0.0732
 7 mu         0.2   0.2 0.288 0.0946
 8 mu         0.2   0.3 0.316 0.119 
 9 mu         0.2   0.4 0.335 0.139 
10 mu         0.2   0.5 0.322 0.152 
# ℹ 350 more rows
…
