…
`.groups` argument.
`summarise()` has grouped output by 'theta'. You can override using the
`.groups` argument.
`summarise()` has grouped output by 'theta', 'tau'. You can override using the
`.groups` argument.
`summarise()` has grouped output by 'theta'. You can override using the
`.groups` argument.
`summarise()` has grouped output by 'theta', 'tau'. You can override using the
`.groups` argument.
`summarise()` has grouped output by 'theta'. You can override using the
`.groups` argument.
[1] ""
[1] "Total run time was 400.932 seconds"
[1] "Estimation result: "
# A tibble: 360 × 5
   estimand theta   tau   est     se
   <chr>    <dbl> <dbl> <dbl>  <dbl>
 1 mu         0.1   0.1 0.243 0.0859
 2 mu         0.1   0.2 0.415 0.0558
 3 mu         0.1   0.3 0.507 0.0849
 4 mu         0.1   0.4 0.504 0.0934
 5 mu         0.1   0.5 0.667 0.111 
 6 mu         0.2   0.1 0.258 0.0594
 7 mu         0.2   0.2 0.418 0.0489
 8 mu         0.2   0.3 0.508 0.0630
 9 mu         0.2   0.4 0.509 0.0661
10 mu         0.2   0.5 0.636 0.0916
# ℹ 350 more rows
…
