…
`.groups` argument.
`summarise()` has grouped output by 'theta'. You can override using the
`.groups` argument.
`summarise()` has grouped output by 'theta', 'tau'. You can override using the
`.groups` argument.
`summarise()` has grouped output by 'theta'. You can override using the
`.groups` argument.
`summarise()` has grouped output by 'theta', 'tau'. You can override using the
`.groups` argument.
`summarise()` has grouped output by 'theta'. You can override using the
`.groups` argument.
[1] ""
[1] "Total run time was 469.222 seconds"
[1] "Estimation result: "
# A tibble: 360 × 5
   estimand theta   tau   est     se
   <chr>    <dbl> <dbl> <dbl>  <dbl>
 1 mu         0.1   0.1 0.416 0.0838
 2 mu         0.1   0.2 0.417 0.0755
 3 mu         0.1   0.3 0.462 0.0900
 4 mu         0.1   0.4 0.471 0.0999
 5 mu         0.1   0.5 0.478 0.106 
 6 mu         0.2   0.1 0.357 0.0552
 7 mu         0.2   0.2 0.369 0.0504
 8 mu         0.2   0.3 0.425 0.0692
 9 mu         0.2   0.4 0.454 0.0743
10 mu         0.2   0.5 0.474 0.0792
# ℹ 350 more rows
…
