…
`.groups` argument.
`summarise()` has grouped output by 'theta'. You can override using the
`.groups` argument.
`summarise()` has grouped output by 'theta', 'tau'. You can override using the
`.groups` argument.
`summarise()` has grouped output by 'theta'. You can override using the
`.groups` argument.
`summarise()` has grouped output by 'theta', 'tau'. You can override using the
`.groups` argument.
`summarise()` has grouped output by 'theta'. You can override using the
`.groups` argument.
[1] ""
[1] "Total run time was 306.494 seconds"
[1] "Estimation result: "
# A tibble: 360 × 5
   estimand theta   tau   est     se
   <chr>    <dbl> <dbl> <dbl>  <dbl>
 1 mu         0.1   0.1 0.636 0.175 
 2 mu         0.1   0.2 0.646 0.147 
 3 mu         0.1   0.3 0.653 0.125 
 4 mu         0.1   0.4 0.650 0.110 
 5 mu         0.1   0.5 0.656 0.103 
 6 mu         0.2   0.1 0.480 0.0931
 7 mu         0.2   0.2 0.511 0.0821
 8 mu         0.2   0.3 0.541 0.0694
 9 mu         0.2   0.4 0.549 0.0638
10 mu         0.2   0.5 0.556 0.0617
# ℹ 350 more rows
…
