…
`.groups` argument.
`summarise()` has grouped output by 'theta'. You can override using the
`.groups` argument.
`summarise()` has grouped output by 'theta', 'tau'. You can override using the
`.groups` argument.
`summarise()` has grouped output by 'theta'. You can override using the
`.groups` argument.
`summarise()` has grouped output by 'theta', 'tau'. You can override using the
`.groups` argument.
`summarise()` has grouped output by 'theta'. You can override using the
`.groups` argument.
[1] ""
[1] "Total run time was 653.614 seconds"
[1] "Estimation result: "
# A tibble: 360 × 5
   estimand theta   tau   est     se
   <chr>    <dbl> <dbl> <dbl>  <dbl>
 1 mu         0.1   0.1 0.339 0.105 
 2 mu         0.1   0.2 0.327 0.106 
 3 mu         0.1   0.3 0.440 0.183 
 4 mu         0.1   0.4 0.568 0.124 
 5 mu         0.1   0.5 0.562 0.133 
 6 mu         0.2   0.1 0.280 0.0710
 7 mu         0.2   0.2 0.284 0.0832
 8 mu         0.2   0.3 0.366 0.134 
 9 mu         0.2   0.4 0.499 0.0751
10 mu         0.2   0.5 0.505 0.0899
# ℹ 350 more rows
…
