…
`.groups` argument.
`summarise()` has grouped output by 'theta'. You can override using the
`.groups` argument.
`summarise()` has grouped output by 'theta', 'tau'. You can override using the
`.groups` argument.
`summarise()` has grouped output by 'theta'. You can override using the
`.groups` argument.
`summarise()` has grouped output by 'theta', 'tau'. You can override using the
`.groups` argument.
`summarise()` has grouped output by 'theta'. You can override using the
`.groups` argument.
[1] ""
[1] "Total run time was 381.193 seconds"
[1] "Estimation result: "
# A tibble: 360 × 5
   estimand theta   tau   est     se
   <chr>    <dbl> <dbl> <dbl>  <dbl>
 1 mu         0.1   0.1 0.571 0.144 
 2 mu         0.1   0.2 0.668 0.146 
 3 mu         0.1   0.3 0.718 0.123 
 4 mu         0.1   0.4 0.728 0.112 
 5 mu         0.1   0.5 0.790 0.143 
 6 mu         0.2   0.1 0.446 0.0817
 7 mu         0.2   0.2 0.542 0.0870
 8 mu         0.2   0.3 0.605 0.0776
 9 mu         0.2   0.4 0.624 0.0724
10 mu         0.2   0.5 0.663 0.0875
# ℹ 350 more rows
…
