…
`.groups` argument.
`summarise()` has grouped output by 'theta'. You can override using the
`.groups` argument.
`summarise()` has grouped output by 'theta', 'tau'. You can override using the
`.groups` argument.
`summarise()` has grouped output by 'theta'. You can override using the
`.groups` argument.
`summarise()` has grouped output by 'theta', 'tau'. You can override using the
`.groups` argument.
`summarise()` has grouped output by 'theta'. You can override using the
`.groups` argument.
[1] ""
[1] "Total run time was 312.58 seconds"
[1] "Estimation result: "
# A tibble: 360 × 5
   estimand theta   tau   est     se
   <chr>    <dbl> <dbl> <dbl>  <dbl>
 1 mu         0.1   0.1 0.427 0.108 
 2 mu         0.1   0.2 0.485 0.160 
 3 mu         0.1   0.3 0.562 0.132 
 4 mu         0.1   0.4 0.626 0.135 
 5 mu         0.1   0.5 0.761 0.109 
 6 mu         0.2   0.1 0.393 0.0904
 7 mu         0.2   0.2 0.442 0.139 
 8 mu         0.2   0.3 0.533 0.110 
 9 mu         0.2   0.4 0.601 0.109 
10 mu         0.2   0.5 0.743 0.0800
# ℹ 350 more rows
…
