…
`.groups` argument.
`summarise()` has grouped output by 'theta'. You can override using the
`.groups` argument.
`summarise()` has grouped output by 'theta', 'tau'. You can override using the
`.groups` argument.
`summarise()` has grouped output by 'theta'. You can override using the
`.groups` argument.
`summarise()` has grouped output by 'theta', 'tau'. You can override using the
`.groups` argument.
`summarise()` has grouped output by 'theta'. You can override using the
`.groups` argument.
[1] ""
[1] "Total run time was 554.146 seconds"
[1] "Estimation result: "
# A tibble: 360 × 5
   estimand theta   tau   est     se
   <chr>    <dbl> <dbl> <dbl>  <dbl>
 1 mu         0.1   0.1 0.254 0.0997
 2 mu         0.1   0.2 0.394 0.105 
 3 mu         0.1   0.3 0.462 0.0725
 4 mu         0.1   0.4 0.524 0.0399
 5 mu         0.1   0.5 0.574 0.0317
 6 mu         0.2   0.1 0.322 0.0515
 7 mu         0.2   0.2 0.438 0.0546
 8 mu         0.2   0.3 0.498 0.0402
 9 mu         0.2   0.4 0.545 0.0303
10 mu         0.2   0.5 0.587 0.0320
# ℹ 350 more rows
…
