…
`.groups` argument.
`summarise()` has grouped output by 'theta'. You can override using the
`.groups` argument.
`summarise()` has grouped output by 'theta', 'tau'. You can override using the
`.groups` argument.
`summarise()` has grouped output by 'theta'. You can override using the
`.groups` argument.
`summarise()` has grouped output by 'theta', 'tau'. You can override using the
`.groups` argument.
`summarise()` has grouped output by 'theta'. You can override using the
`.groups` argument.
[1] ""
[1] "Total run time was 319.074 seconds"
[1] "Estimation result: "
# A tibble: 360 × 5
   estimand theta   tau   est     se
   <chr>    <dbl> <dbl> <dbl>  <dbl>
 1 mu         0.1   0.1 0.343 0.0674
 2 mu         0.1   0.2 0.504 0.0689
 3 mu         0.1   0.3 0.536 0.0638
 4 mu         0.1   0.4 0.538 0.0629
 5 mu         0.1   0.5 0.571 0.0615
 6 mu         0.2   0.1 0.319 0.0396
 7 mu         0.2   0.2 0.432 0.0406
 8 mu         0.2   0.3 0.479 0.0434
 9 mu         0.2   0.4 0.489 0.0410
10 mu         0.2   0.5 0.537 0.0363
# ℹ 350 more rows
…
