…
`.groups` argument.
`summarise()` has grouped output by 'theta'. You can override using the
`.groups` argument.
`summarise()` has grouped output by 'theta', 'tau'. You can override using the
`.groups` argument.
`summarise()` has grouped output by 'theta'. You can override using the
`.groups` argument.
`summarise()` has grouped output by 'theta', 'tau'. You can override using the
`.groups` argument.
`summarise()` has grouped output by 'theta'. You can override using the
`.groups` argument.
[1] ""
[1] "Total run time was 389.509 seconds"
[1] "Estimation result: "
# A tibble: 360 × 5
   estimand theta   tau   est     se
   <chr>    <dbl> <dbl> <dbl>  <dbl>
 1 mu         0.1   0.1 0.479 0.0727
 2 mu         0.1   0.2 0.506 0.0576
 3 mu         0.1   0.3 0.502 0.0553
 4 mu         0.1   0.4 0.535 0.0706
 5 mu         0.1   0.5 0.609 0.0531
 6 mu         0.2   0.1 0.458 0.0529
 7 mu         0.2   0.2 0.505 0.0428
 8 mu         0.2   0.3 0.522 0.0397
 9 mu         0.2   0.4 0.567 0.0495
10 mu         0.2   0.5 0.625 0.0404
# ℹ 350 more rows
…
