…
`.groups` argument.
`summarise()` has grouped output by 'theta'. You can override using the
`.groups` argument.
`summarise()` has grouped output by 'theta', 'tau'. You can override using the
`.groups` argument.
`summarise()` has grouped output by 'theta'. You can override using the
`.groups` argument.
`summarise()` has grouped output by 'theta', 'tau'. You can override using the
`.groups` argument.
`summarise()` has grouped output by 'theta'. You can override using the
`.groups` argument.
[1] ""
[1] "Total run time was 356.543 seconds"
[1] "Estimation result: "
# A tibble: 360 × 5
   estimand theta   tau   est     se
   <chr>    <dbl> <dbl> <dbl>  <dbl>
 1 mu         0.1   0.1 0.422 0.0966
 2 mu         0.1   0.2 0.441 0.0676
 3 mu         0.1   0.3 0.481 0.0968
 4 mu         0.1   0.4 0.484 0.0795
 5 mu         0.1   0.5 0.544 0.117 
 6 mu         0.2   0.1 0.388 0.0713
 7 mu         0.2   0.2 0.415 0.0519
 8 mu         0.2   0.3 0.448 0.0769
 9 mu         0.2   0.4 0.463 0.0709
10 mu         0.2   0.5 0.515 0.0984
# ℹ 350 more rows
…
