…
`.groups` argument.
`summarise()` has grouped output by 'theta'. You can override using the
`.groups` argument.
`summarise()` has grouped output by 'theta', 'tau'. You can override using the
`.groups` argument.
`summarise()` has grouped output by 'theta'. You can override using the
`.groups` argument.
`summarise()` has grouped output by 'theta', 'tau'. You can override using the
`.groups` argument.
`summarise()` has grouped output by 'theta'. You can override using the
`.groups` argument.
[1] ""
[1] "Total run time was 398.81 seconds"
[1] "Estimation result: "
# A tibble: 360 × 5
   estimand theta   tau   est     se
   <chr>    <dbl> <dbl> <dbl>  <dbl>
 1 mu         0.1   0.1 0.321 0.0883
 2 mu         0.1   0.2 0.454 0.0534
 3 mu         0.1   0.3 0.484 0.0637
 4 mu         0.1   0.4 0.480 0.0663
 5 mu         0.1   0.5 0.488 0.0788
 6 mu         0.2   0.1 0.316 0.0764
 7 mu         0.2   0.2 0.459 0.0433
 8 mu         0.2   0.3 0.491 0.0460
 9 mu         0.2   0.4 0.497 0.0488
10 mu         0.2   0.5 0.510 0.0637
# ℹ 350 more rows
…
