…
`.groups` argument.
`summarise()` has grouped output by 'theta'. You can override using the
`.groups` argument.
`summarise()` has grouped output by 'theta', 'tau'. You can override using the
`.groups` argument.
`summarise()` has grouped output by 'theta'. You can override using the
`.groups` argument.
`summarise()` has grouped output by 'theta', 'tau'. You can override using the
`.groups` argument.
`summarise()` has grouped output by 'theta'. You can override using the
`.groups` argument.
[1] ""
[1] "Total run time was 380.465 seconds"
[1] "Estimation result: "
# A tibble: 360 × 5
   estimand theta   tau   est     se
   <chr>    <dbl> <dbl> <dbl>  <dbl>
 1 mu         0.1   0.1 0.403 0.0427
 2 mu         0.1   0.2 0.540 0.0573
 3 mu         0.1   0.3 0.712 0.135 
 4 mu         0.1   0.4 0.698 0.0978
 5 mu         0.1   0.5 0.751 0.123 
 6 mu         0.2   0.1 0.389 0.0381
 7 mu         0.2   0.2 0.499 0.0389
 8 mu         0.2   0.3 0.613 0.0728
 9 mu         0.2   0.4 0.627 0.0536
10 mu         0.2   0.5 0.683 0.0685
# ℹ 350 more rows
…
