…
`.groups` argument.
`summarise()` has grouped output by 'theta'. You can override using the
`.groups` argument.
`summarise()` has grouped output by 'theta', 'tau'. You can override using the
`.groups` argument.
`summarise()` has grouped output by 'theta'. You can override using the
`.groups` argument.
`summarise()` has grouped output by 'theta', 'tau'. You can override using the
`.groups` argument.
`summarise()` has grouped output by 'theta'. You can override using the
`.groups` argument.
[1] ""
[1] "Total run time was 343.91 seconds"
[1] "Estimation result: "
# A tibble: 360 × 5
   estimand theta   tau   est     se
   <chr>    <dbl> <dbl> <dbl>  <dbl>
 1 mu         0.1   0.1 0.267 0.121 
 2 mu         0.1   0.2 0.252 0.167 
 3 mu         0.1   0.3 0.323 0.171 
 4 mu         0.1   0.4 0.284 0.210 
 5 mu         0.1   0.5 0.329 0.198 
 6 mu         0.2   0.1 0.220 0.0663
 7 mu         0.2   0.2 0.204 0.112 
 8 mu         0.2   0.3 0.277 0.107 
 9 mu         0.2   0.4 0.245 0.153 
10 mu         0.2   0.5 0.291 0.136 
# ℹ 350 more rows
…
