…
`.groups` argument.
`summarise()` has grouped output by 'theta'. You can override using the
`.groups` argument.
`summarise()` has grouped output by 'theta', 'tau'. You can override using the
`.groups` argument.
`summarise()` has grouped output by 'theta'. You can override using the
`.groups` argument.
`summarise()` has grouped output by 'theta', 'tau'. You can override using the
`.groups` argument.
`summarise()` has grouped output by 'theta'. You can override using the
`.groups` argument.
[1] ""
[1] "Total run time was 586.471 seconds"
[1] "Estimation result: "
# A tibble: 360 × 5
   estimand theta   tau   est    se
   <chr>    <dbl> <dbl> <dbl> <dbl>
 1 mu         0.1   0.1 0.470 0.180
 2 mu         0.1   0.2 0.465 0.156
 3 mu         0.1   0.3 0.476 0.141
 4 mu         0.1   0.4 0.655 0.179
 5 mu         0.1   0.5 0.650 0.165
 6 mu         0.2   0.1 0.409 0.133
 7 mu         0.2   0.2 0.427 0.118
 8 mu         0.2   0.3 0.453 0.107
 9 mu         0.2   0.4 0.605 0.129
10 mu         0.2   0.5 0.615 0.120
# ℹ 350 more rows
…
