…
`.groups` argument.
`summarise()` has grouped output by 'theta'. You can override using the
`.groups` argument.
`summarise()` has grouped output by 'theta', 'tau'. You can override using the
`.groups` argument.
`summarise()` has grouped output by 'theta'. You can override using the
`.groups` argument.
`summarise()` has grouped output by 'theta', 'tau'. You can override using the
`.groups` argument.
`summarise()` has grouped output by 'theta'. You can override using the
`.groups` argument.
[1] ""
[1] "Total run time was 583.373 seconds"
[1] "Estimation result: "
# A tibble: 360 × 5
   estimand theta   tau   est     se
   <chr>    <dbl> <dbl> <dbl>  <dbl>
 1 mu         0.1   0.1 0.326 0.137 
 2 mu         0.1   0.2 0.404 0.174 
 3 mu         0.1   0.3 0.384 0.169 
 4 mu         0.1   0.4 0.385 0.161 
 5 mu         0.1   0.5 0.427 0.154 
 6 mu         0.2   0.1 0.302 0.0875
 7 mu         0.2   0.2 0.374 0.112 
 8 mu         0.2   0.3 0.366 0.117 
 9 mu         0.2   0.4 0.384 0.120 
10 mu         0.2   0.5 0.430 0.116 
# ℹ 350 more rows
…
