…
`.groups` argument.
`summarise()` has grouped output by 'theta'. You can override using the
`.groups` argument.
`summarise()` has grouped output by 'theta', 'tau'. You can override using the
`.groups` argument.
`summarise()` has grouped output by 'theta'. You can override using the
`.groups` argument.
`summarise()` has grouped output by 'theta', 'tau'. You can override using the
`.groups` argument.
`summarise()` has grouped output by 'theta'. You can override using the
`.groups` argument.
[1] ""
[1] "Total run time was 382.261 seconds"
[1] "Estimation result: "
# A tibble: 360 × 5
   estimand theta   tau   est     se
   <chr>    <dbl> <dbl> <dbl>  <dbl>
 1 mu         0.1   0.1 0.295 0.0800
 2 mu         0.1   0.2 0.357 0.0843
 3 mu         0.1   0.3 0.532 0.176 
 4 mu         0.1   0.4 0.615 0.116 
 5 mu         0.1   0.5 0.725 0.0942
 6 mu         0.2   0.1 0.283 0.0551
 7 mu         0.2   0.2 0.354 0.0576
 8 mu         0.2   0.3 0.498 0.124 
 9 mu         0.2   0.4 0.565 0.0837
10 mu         0.2   0.5 0.650 0.0679
# ℹ 350 more rows
…
