…
`.groups` argument.
`summarise()` has grouped output by 'theta'. You can override using the
`.groups` argument.
`summarise()` has grouped output by 'theta', 'tau'. You can override using the
`.groups` argument.
`summarise()` has grouped output by 'theta'. You can override using the
`.groups` argument.
`summarise()` has grouped output by 'theta', 'tau'. You can override using the
`.groups` argument.
`summarise()` has grouped output by 'theta'. You can override using the
`.groups` argument.
[1] ""
[1] "Total run time was 324.882 seconds"
[1] "Estimation result: "
# A tibble: 360 × 5
   estimand theta   tau   est     se
   <chr>    <dbl> <dbl> <dbl>  <dbl>
 1 mu         0.1   0.1 0.233 0.0741
 2 mu         0.1   0.2 0.502 0.115 
 3 mu         0.1   0.3 0.524 0.117 
 4 mu         0.1   0.4 0.622 0.142 
 5 mu         0.1   0.5 0.683 0.149 
 6 mu         0.2   0.1 0.267 0.0493
 7 mu         0.2   0.2 0.498 0.0716
 8 mu         0.2   0.3 0.516 0.0686
 9 mu         0.2   0.4 0.622 0.0868
10 mu         0.2   0.5 0.666 0.0888
# ℹ 350 more rows
…
