…
`.groups` argument.
`summarise()` has grouped output by 'theta'. You can override using the
`.groups` argument.
`summarise()` has grouped output by 'theta', 'tau'. You can override using the
`.groups` argument.
`summarise()` has grouped output by 'theta'. You can override using the
`.groups` argument.
`summarise()` has grouped output by 'theta', 'tau'. You can override using the
`.groups` argument.
`summarise()` has grouped output by 'theta'. You can override using the
`.groups` argument.
[1] ""
[1] "Total run time was 386.709 seconds"
[1] "Estimation result: "
# A tibble: 360 × 5
   estimand theta   tau   est     se
   <chr>    <dbl> <dbl> <dbl>  <dbl>
 1 mu         0.1   0.1 0.343 0.0803
 2 mu         0.1   0.2 0.549 0.107 
 3 mu         0.1   0.3 0.580 0.105 
 4 mu         0.1   0.4 0.606 0.105 
 5 mu         0.1   0.5 0.617 0.108 
 6 mu         0.2   0.1 0.360 0.0555
 7 mu         0.2   0.2 0.538 0.0954
 8 mu         0.2   0.3 0.568 0.0859
 9 mu         0.2   0.4 0.587 0.0827
10 mu         0.2   0.5 0.599 0.0824
# ℹ 350 more rows
…
