…
`.groups` argument.
`summarise()` has grouped output by 'theta'. You can override using the
`.groups` argument.
`summarise()` has grouped output by 'theta', 'tau'. You can override using the
`.groups` argument.
`summarise()` has grouped output by 'theta'. You can override using the
`.groups` argument.
`summarise()` has grouped output by 'theta', 'tau'. You can override using the
`.groups` argument.
`summarise()` has grouped output by 'theta'. You can override using the
`.groups` argument.
[1] ""
[1] "Total run time was 366.592 seconds"
[1] "Estimation result: "
# A tibble: 360 × 5
   estimand theta   tau   est     se
   <chr>    <dbl> <dbl> <dbl>  <dbl>
 1 mu         0.1   0.1 0.379 0.0831
 2 mu         0.1   0.2 0.456 0.0984
 3 mu         0.1   0.3 0.480 0.0822
 4 mu         0.1   0.4 0.539 0.0771
 5 mu         0.1   0.5 0.591 0.0710
 6 mu         0.2   0.1 0.331 0.0554
 7 mu         0.2   0.2 0.420 0.0604
 8 mu         0.2   0.3 0.450 0.0512
 9 mu         0.2   0.4 0.519 0.0588
10 mu         0.2   0.5 0.595 0.0584
# ℹ 350 more rows
…
