…
`.groups` argument.
`summarise()` has grouped output by 'theta'. You can override using the
`.groups` argument.
`summarise()` has grouped output by 'theta', 'tau'. You can override using the
`.groups` argument.
`summarise()` has grouped output by 'theta'. You can override using the
`.groups` argument.
`summarise()` has grouped output by 'theta', 'tau'. You can override using the
`.groups` argument.
`summarise()` has grouped output by 'theta'. You can override using the
`.groups` argument.
[1] ""
[1] "Total run time was 408.887 seconds"
[1] "Estimation result: "
# A tibble: 360 × 5
   estimand theta   tau   est     se
   <chr>    <dbl> <dbl> <dbl>  <dbl>
 1 mu         0.1   0.1 0.487 0.0816
 2 mu         0.1   0.2 0.551 0.0846
 3 mu         0.1   0.3 0.583 0.0726
 4 mu         0.1   0.4 0.603 0.0720
 5 mu         0.1   0.5 0.642 0.0844
 6 mu         0.2   0.1 0.410 0.0497
 7 mu         0.2   0.2 0.488 0.0474
 8 mu         0.2   0.3 0.534 0.0504
 9 mu         0.2   0.4 0.555 0.0529
10 mu         0.2   0.5 0.586 0.0531
# ℹ 350 more rows
…
