…
`.groups` argument.
`summarise()` has grouped output by 'theta'. You can override using the
`.groups` argument.
`summarise()` has grouped output by 'theta', 'tau'. You can override using the
`.groups` argument.
`summarise()` has grouped output by 'theta'. You can override using the
`.groups` argument.
`summarise()` has grouped output by 'theta', 'tau'. You can override using the
`.groups` argument.
`summarise()` has grouped output by 'theta'. You can override using the
`.groups` argument.
[1] ""
[1] "Total run time was 377.187 seconds"
[1] "Estimation result: "
# A tibble: 360 × 5
   estimand theta   tau   est     se
   <chr>    <dbl> <dbl> <dbl>  <dbl>
 1 mu         0.1   0.1 0.547 0.202 
 2 mu         0.1   0.2 0.546 0.176 
 3 mu         0.1   0.3 0.548 0.162 
 4 mu         0.1   0.4 0.538 0.141 
 5 mu         0.1   0.5 0.530 0.145 
 6 mu         0.2   0.1 0.443 0.110 
 7 mu         0.2   0.2 0.464 0.0940
 8 mu         0.2   0.3 0.484 0.0900
 9 mu         0.2   0.4 0.495 0.0936
10 mu         0.2   0.5 0.498 0.109 
# ℹ 350 more rows
…
