…
`.groups` argument.
`summarise()` has grouped output by 'theta'. You can override using the
`.groups` argument.
`summarise()` has grouped output by 'theta', 'tau'. You can override using the
`.groups` argument.
`summarise()` has grouped output by 'theta'. You can override using the
`.groups` argument.
`summarise()` has grouped output by 'theta', 'tau'. You can override using the
`.groups` argument.
`summarise()` has grouped output by 'theta'. You can override using the
`.groups` argument.
[1] ""
[1] "Total run time was 344.034 seconds"
[1] "Estimation result: "
# A tibble: 360 × 5
   estimand theta   tau   est     se
   <chr>    <dbl> <dbl> <dbl>  <dbl>
 1 mu         0.1   0.1 0.300 0.0370
 2 mu         0.1   0.2 0.424 0.0677
 3 mu         0.1   0.3 0.444 0.0621
 4 mu         0.1   0.4 0.452 0.0555
 5 mu         0.1   0.5 0.542 0.0487
 6 mu         0.2   0.1 0.308 0.0278
 7 mu         0.2   0.2 0.434 0.0419
 8 mu         0.2   0.3 0.459 0.0363
 9 mu         0.2   0.4 0.481 0.0295
10 mu         0.2   0.5 0.527 0.0275
# ℹ 350 more rows
…
