…
`.groups` argument.
`summarise()` has grouped output by 'theta'. You can override using the
`.groups` argument.
`summarise()` has grouped output by 'theta', 'tau'. You can override using the
`.groups` argument.
`summarise()` has grouped output by 'theta'. You can override using the
`.groups` argument.
`summarise()` has grouped output by 'theta', 'tau'. You can override using the
`.groups` argument.
`summarise()` has grouped output by 'theta'. You can override using the
`.groups` argument.
[1] ""
[1] "Total run time was 373.566 seconds"
[1] "Estimation result: "
# A tibble: 360 × 5
   estimand theta   tau   est     se
   <chr>    <dbl> <dbl> <dbl>  <dbl>
 1 mu         0.1   0.1 0.406 0.0663
 2 mu         0.1   0.2 0.459 0.0547
 3 mu         0.1   0.3 0.530 0.0609
 4 mu         0.1   0.4 0.551 0.0649
 5 mu         0.1   0.5 0.563 0.0763
 6 mu         0.2   0.1 0.360 0.0448
 7 mu         0.2   0.2 0.409 0.0332
 8 mu         0.2   0.3 0.474 0.0370
 9 mu         0.2   0.4 0.499 0.0401
10 mu         0.2   0.5 0.524 0.0529
# ℹ 350 more rows
…
