…
`.groups` argument.
`summarise()` has grouped output by 'theta'. You can override using the
`.groups` argument.
`summarise()` has grouped output by 'theta', 'tau'. You can override using the
`.groups` argument.
`summarise()` has grouped output by 'theta'. You can override using the
`.groups` argument.
`summarise()` has grouped output by 'theta', 'tau'. You can override using the
`.groups` argument.
`summarise()` has grouped output by 'theta'. You can override using the
`.groups` argument.
[1] ""
[1] "Total run time was 358.179 seconds"
[1] "Estimation result: "
# A tibble: 360 × 5
   estimand theta   tau   est     se
   <chr>    <dbl> <dbl> <dbl>  <dbl>
 1 mu         0.1   0.1 0.427 0.110 
 2 mu         0.1   0.2 0.574 0.214 
 3 mu         0.1   0.3 0.578 0.192 
 4 mu         0.1   0.4 0.628 0.155 
 5 mu         0.1   0.5 0.642 0.160 
 6 mu         0.2   0.1 0.370 0.0801
 7 mu         0.2   0.2 0.471 0.147 
 8 mu         0.2   0.3 0.494 0.135 
 9 mu         0.2   0.4 0.552 0.102 
10 mu         0.2   0.5 0.568 0.106 
# ℹ 350 more rows
…
