…
`.groups` argument.
`summarise()` has grouped output by 'theta'. You can override using the
`.groups` argument.
`summarise()` has grouped output by 'theta', 'tau'. You can override using the
`.groups` argument.
`summarise()` has grouped output by 'theta'. You can override using the
`.groups` argument.
`summarise()` has grouped output by 'theta', 'tau'. You can override using the
`.groups` argument.
`summarise()` has grouped output by 'theta'. You can override using the
`.groups` argument.
[1] ""
[1] "Total run time was 650.783 seconds"
[1] "Estimation result: "
# A tibble: 360 × 5
   estimand theta   tau   est    se
   <chr>    <dbl> <dbl> <dbl> <dbl>
 1 mu         0.1   0.1 0.416 0.154
 2 mu         0.1   0.2 0.432 0.178
 3 mu         0.1   0.3 0.439 0.201
 4 mu         0.1   0.4 0.552 0.152
 5 mu         0.1   0.5 0.617 0.124
 6 mu         0.2   0.1 0.298 0.102
 7 mu         0.2   0.2 0.317 0.148
 8 mu         0.2   0.3 0.338 0.179
 9 mu         0.2   0.4 0.450 0.127
10 mu         0.2   0.5 0.522 0.101
# ℹ 350 more rows
…
