…
`.groups` argument.
`summarise()` has grouped output by 'theta'. You can override using the
`.groups` argument.
`summarise()` has grouped output by 'theta', 'tau'. You can override using the
`.groups` argument.
`summarise()` has grouped output by 'theta'. You can override using the
`.groups` argument.
`summarise()` has grouped output by 'theta', 'tau'. You can override using the
`.groups` argument.
`summarise()` has grouped output by 'theta'. You can override using the
`.groups` argument.
[1] ""
[1] "Total run time was 288.65 seconds"
[1] "Estimation result: "
# A tibble: 360 × 5
   estimand theta   tau   est     se
   <chr>    <dbl> <dbl> <dbl>  <dbl>
 1 mu         0.1   0.1 0.676 0.224 
 2 mu         0.1   0.2 0.755 0.191 
 3 mu         0.1   0.3 0.798 0.182 
 4 mu         0.1   0.4 0.811 0.162 
 5 mu         0.1   0.5 0.831 0.146 
 6 mu         0.2   0.1 0.444 0.101 
 7 mu         0.2   0.2 0.547 0.105 
 8 mu         0.2   0.3 0.586 0.113 
 9 mu         0.2   0.4 0.606 0.101 
10 mu         0.2   0.5 0.630 0.0910
# ℹ 350 more rows
…
