…
`.groups` argument.
`summarise()` has grouped output by 'theta'. You can override using the
`.groups` argument.
`summarise()` has grouped output by 'theta', 'tau'. You can override using the
`.groups` argument.
`summarise()` has grouped output by 'theta'. You can override using the
`.groups` argument.
`summarise()` has grouped output by 'theta', 'tau'. You can override using the
`.groups` argument.
`summarise()` has grouped output by 'theta'. You can override using the
`.groups` argument.
[1] ""
[1] "Total run time was 289.449 seconds"
[1] "Estimation result: "
# A tibble: 360 × 5
   estimand theta   tau   est     se
   <chr>    <dbl> <dbl> <dbl>  <dbl>
 1 mu         0.1   0.1 0.413 0.153 
 2 mu         0.1   0.2 0.492 0.207 
 3 mu         0.1   0.3 0.475 0.168 
 4 mu         0.1   0.4 0.462 0.162 
 5 mu         0.1   0.5 0.440 0.157 
 6 mu         0.2   0.1 0.367 0.0931
 7 mu         0.2   0.2 0.440 0.125 
 8 mu         0.2   0.3 0.452 0.103 
 9 mu         0.2   0.4 0.491 0.101 
10 mu         0.2   0.5 0.494 0.0978
# ℹ 350 more rows
…
