…
`.groups` argument.
`summarise()` has grouped output by 'theta'. You can override using the
`.groups` argument.
`summarise()` has grouped output by 'theta', 'tau'. You can override using the
`.groups` argument.
`summarise()` has grouped output by 'theta'. You can override using the
`.groups` argument.
`summarise()` has grouped output by 'theta', 'tau'. You can override using the
`.groups` argument.
`summarise()` has grouped output by 'theta'. You can override using the
`.groups` argument.
[1] ""
[1] "Total run time was 624.289 seconds"
[1] "Estimation result: "
# A tibble: 360 × 5
   estimand theta   tau   est     se
   <chr>    <dbl> <dbl> <dbl>  <dbl>
 1 mu         0.1   0.1 0.420 0.0482
 2 mu         0.1   0.2 0.456 0.0522
 3 mu         0.1   0.3 0.519 0.0650
 4 mu         0.1   0.4 0.537 0.0624
 5 mu         0.1   0.5 0.565 0.0593
 6 mu         0.2   0.1 0.371 0.0393
 7 mu         0.2   0.2 0.409 0.0428
 8 mu         0.2   0.3 0.473 0.0520
 9 mu         0.2   0.4 0.495 0.0506
10 mu         0.2   0.5 0.530 0.0464
# ℹ 350 more rows
…
