…
`.groups` argument.
`summarise()` has grouped output by 'theta'. You can override using the
`.groups` argument.
`summarise()` has grouped output by 'theta', 'tau'. You can override using the
`.groups` argument.
`summarise()` has grouped output by 'theta'. You can override using the
`.groups` argument.
`summarise()` has grouped output by 'theta', 'tau'. You can override using the
`.groups` argument.
`summarise()` has grouped output by 'theta'. You can override using the
`.groups` argument.
[1] ""
[1] "Total run time was 564.58 seconds"
[1] "Estimation result: "
# A tibble: 360 × 5
   estimand theta   tau   est     se
   <chr>    <dbl> <dbl> <dbl>  <dbl>
 1 mu         0.1   0.1 0.401 0.0312
 2 mu         0.1   0.2 0.456 0.0308
 3 mu         0.1   0.3 0.465 0.0444
 4 mu         0.1   0.4 0.502 0.0333
 5 mu         0.1   0.5 0.516 0.0445
 6 mu         0.2   0.1 0.384 0.0322
 7 mu         0.2   0.2 0.452 0.0288
 8 mu         0.2   0.3 0.478 0.0337
 9 mu         0.2   0.4 0.513 0.0260
10 mu         0.2   0.5 0.540 0.0332
# ℹ 350 more rows
…
