…
`.groups` argument.
`summarise()` has grouped output by 'theta'. You can override using the
`.groups` argument.
`summarise()` has grouped output by 'theta', 'tau'. You can override using the
`.groups` argument.
`summarise()` has grouped output by 'theta'. You can override using the
`.groups` argument.
`summarise()` has grouped output by 'theta', 'tau'. You can override using the
`.groups` argument.
`summarise()` has grouped output by 'theta'. You can override using the
`.groups` argument.
[1] ""
[1] "Total run time was 648.352 seconds"
[1] "Estimation result: "
# A tibble: 360 × 5
   estimand theta   tau   est    se
   <chr>    <dbl> <dbl> <dbl> <dbl>
 1 mu         0.1   0.1 0.163 0.113
 2 mu         0.1   0.2 0.197 0.137
 3 mu         0.1   0.3 0.191 0.170
 4 mu         0.1   0.4 0.174 0.208
 5 mu         0.1   0.5 0.198 0.206
 6 mu         0.2   0.1 0.172 0.109
 7 mu         0.2   0.2 0.240 0.128
 8 mu         0.2   0.3 0.255 0.152
 9 mu         0.2   0.4 0.252 0.178
10 mu         0.2   0.5 0.295 0.165
# ℹ 350 more rows
…
