…
`.groups` argument.
`summarise()` has grouped output by 'theta'. You can override using the
`.groups` argument.
`summarise()` has grouped output by 'theta', 'tau'. You can override using the
`.groups` argument.
`summarise()` has grouped output by 'theta'. You can override using the
`.groups` argument.
`summarise()` has grouped output by 'theta', 'tau'. You can override using the
`.groups` argument.
`summarise()` has grouped output by 'theta'. You can override using the
`.groups` argument.
[1] ""
[1] "Total run time was 301.443 seconds"
[1] "Estimation result: "
# A tibble: 360 × 5
   estimand theta   tau   est     se
   <chr>    <dbl> <dbl> <dbl>  <dbl>
 1 mu         0.1   0.1 0.366 0.0930
 2 mu         0.1   0.2 0.442 0.0745
 3 mu         0.1   0.3 0.488 0.0612
 4 mu         0.1   0.4 0.577 0.0665
 5 mu         0.1   0.5 0.616 0.0605
 6 mu         0.2   0.1 0.320 0.0497
 7 mu         0.2   0.2 0.399 0.0478
 8 mu         0.2   0.3 0.457 0.0399
 9 mu         0.2   0.4 0.552 0.0458
10 mu         0.2   0.5 0.606 0.0485
# ℹ 350 more rows
…
