…
`.groups` argument.
`summarise()` has grouped output by 'theta'. You can override using the
`.groups` argument.
`summarise()` has grouped output by 'theta', 'tau'. You can override using the
`.groups` argument.
`summarise()` has grouped output by 'theta'. You can override using the
`.groups` argument.
`summarise()` has grouped output by 'theta', 'tau'. You can override using the
`.groups` argument.
`summarise()` has grouped output by 'theta'. You can override using the
`.groups` argument.
[1] ""
[1] "Total run time was 2408.035 seconds"
[1] "Estimation result: "
# A tibble: 360 × 5
   estimand theta   tau   est     se
   <chr>    <dbl> <dbl> <dbl>  <dbl>
 1 mu         0.1   0.1 0.161 0.0768
 2 mu         0.1   0.2 0.233 0.0635
 3 mu         0.1   0.3 0.292 0.0561
 4 mu         0.1   0.4 0.374 0.0931
 5 mu         0.1   0.5 0.404 0.0779
 6 mu         0.2   0.1 0.249 0.0875
 7 mu         0.2   0.2 0.317 0.0721
 8 mu         0.2   0.3 0.384 0.0618
 9 mu         0.2   0.4 0.470 0.0895
10 mu         0.2   0.5 0.506 0.0767
# ℹ 350 more rows
…
