…
`.groups` argument.
`summarise()` has grouped output by 'theta'. You can override using the
`.groups` argument.
`summarise()` has grouped output by 'theta', 'tau'. You can override using the
`.groups` argument.
`summarise()` has grouped output by 'theta'. You can override using the
`.groups` argument.
`summarise()` has grouped output by 'theta', 'tau'. You can override using the
`.groups` argument.
`summarise()` has grouped output by 'theta'. You can override using the
`.groups` argument.
[1] ""
[1] "Total run time was 418.177 seconds"
[1] "Estimation result: "
# A tibble: 360 × 5
   estimand theta   tau   est     se
   <chr>    <dbl> <dbl> <dbl>  <dbl>
 1 mu         0.1   0.1 0.368 0.0782
 2 mu         0.1   0.2 0.511 0.0554
 3 mu         0.1   0.3 0.628 0.0584
 4 mu         0.1   0.4 0.673 0.0534
 5 mu         0.1   0.5 0.771 0.0860
 6 mu         0.2   0.1 0.338 0.0481
 7 mu         0.2   0.2 0.436 0.0511
 8 mu         0.2   0.3 0.525 0.0587
 9 mu         0.2   0.4 0.586 0.0629
10 mu         0.2   0.5 0.672 0.0589
# ℹ 350 more rows
…
