…
`.groups` argument.
`summarise()` has grouped output by 'theta'. You can override using the
`.groups` argument.
`summarise()` has grouped output by 'theta', 'tau'. You can override using the
`.groups` argument.
`summarise()` has grouped output by 'theta'. You can override using the
`.groups` argument.
`summarise()` has grouped output by 'theta', 'tau'. You can override using the
`.groups` argument.
`summarise()` has grouped output by 'theta'. You can override using the
`.groups` argument.
[1] ""
[1] "Total run time was 289.689 seconds"
[1] "Estimation result: "
# A tibble: 360 × 5
   estimand theta   tau   est     se
   <chr>    <dbl> <dbl> <dbl>  <dbl>
 1 mu         0.1   0.1 0.487 0.0848
 2 mu         0.1   0.2 0.569 0.106 
 3 mu         0.1   0.3 0.570 0.0955
 4 mu         0.1   0.4 0.611 0.0874
 5 mu         0.1   0.5 0.616 0.0808
 6 mu         0.2   0.1 0.417 0.0748
 7 mu         0.2   0.2 0.468 0.0665
 8 mu         0.2   0.3 0.487 0.0561
 9 mu         0.2   0.4 0.526 0.0480
10 mu         0.2   0.5 0.539 0.0403
# ℹ 350 more rows
…
