…
`.groups` argument.
`summarise()` has grouped output by 'theta'. You can override using the
`.groups` argument.
`summarise()` has grouped output by 'theta', 'tau'. You can override using the
`.groups` argument.
`summarise()` has grouped output by 'theta'. You can override using the
`.groups` argument.
`summarise()` has grouped output by 'theta', 'tau'. You can override using the
`.groups` argument.
`summarise()` has grouped output by 'theta'. You can override using the
`.groups` argument.
[1] ""
[1] "Total run time was 328.971 seconds"
[1] "Estimation result: "
# A tibble: 360 × 5
   estimand theta   tau   est    se
   <chr>    <dbl> <dbl> <dbl> <dbl>
 1 mu         0.1   0.1 0.592 0.225
 2 mu         0.1   0.2 0.764 0.296
 3 mu         0.1   0.3 0.772 0.319
 4 mu         0.1   0.4 0.836 0.348
 5 mu         0.1   0.5 0.912 0.365
 6 mu         0.2   0.1 0.588 0.259
 7 mu         0.2   0.2 0.747 0.337
 8 mu         0.2   0.3 0.770 0.369
 9 mu         0.2   0.4 0.845 0.406
10 mu         0.2   0.5 0.949 0.428
# ℹ 350 more rows
…
