…
`.groups` argument.
`summarise()` has grouped output by 'theta'. You can override using the
`.groups` argument.
`summarise()` has grouped output by 'theta', 'tau'. You can override using the
`.groups` argument.
`summarise()` has grouped output by 'theta'. You can override using the
`.groups` argument.
`summarise()` has grouped output by 'theta', 'tau'. You can override using the
`.groups` argument.
`summarise()` has grouped output by 'theta'. You can override using the
`.groups` argument.
[1] ""
[1] "Total run time was 424.061 seconds"
[1] "Estimation result: "
# A tibble: 360 × 5
   estimand theta   tau   est     se
   <chr>    <dbl> <dbl> <dbl>  <dbl>
 1 mu         0.1   0.1 0.423 0.100 
 2 mu         0.1   0.2 0.440 0.0510
 3 mu         0.1   0.3 0.449 0.0593
 4 mu         0.1   0.4 0.513 0.0619
 5 mu         0.1   0.5 0.638 0.0923
 6 mu         0.2   0.1 0.346 0.0693
 7 mu         0.2   0.2 0.382 0.0345
 8 mu         0.2   0.3 0.397 0.0412
 9 mu         0.2   0.4 0.462 0.0378
10 mu         0.2   0.5 0.552 0.0582
# ℹ 350 more rows
…
