…
`.groups` argument.
`summarise()` has grouped output by 'theta'. You can override using the
`.groups` argument.
`summarise()` has grouped output by 'theta', 'tau'. You can override using the
`.groups` argument.
`summarise()` has grouped output by 'theta'. You can override using the
`.groups` argument.
`summarise()` has grouped output by 'theta', 'tau'. You can override using the
`.groups` argument.
`summarise()` has grouped output by 'theta'. You can override using the
`.groups` argument.
[1] ""
[1] "Total run time was 301.94 seconds"
[1] "Estimation result: "
# A tibble: 360 × 5
   estimand theta   tau   est     se
   <chr>    <dbl> <dbl> <dbl>  <dbl>
 1 mu         0.1   0.1 0.372 0.118 
 2 mu         0.1   0.2 0.446 0.0875
 3 mu         0.1   0.3 0.518 0.103 
 4 mu         0.1   0.4 0.547 0.0894
 5 mu         0.1   0.5 0.559 0.0865
 6 mu         0.2   0.1 0.310 0.0694
 7 mu         0.2   0.2 0.361 0.0560
 8 mu         0.2   0.3 0.427 0.0662
 9 mu         0.2   0.4 0.465 0.0608
10 mu         0.2   0.5 0.483 0.0602
# ℹ 350 more rows
…
