…
`.groups` argument.
`summarise()` has grouped output by 'theta'. You can override using the
`.groups` argument.
`summarise()` has grouped output by 'theta', 'tau'. You can override using the
`.groups` argument.
`summarise()` has grouped output by 'theta'. You can override using the
`.groups` argument.
`summarise()` has grouped output by 'theta', 'tau'. You can override using the
`.groups` argument.
`summarise()` has grouped output by 'theta'. You can override using the
`.groups` argument.
[1] ""
[1] "Total run time was 943.753 seconds"
[1] "Estimation result: "
# A tibble: 360 × 5
   estimand theta   tau   est    se
   <chr>    <dbl> <dbl> <dbl> <dbl>
 1 mu         0.1   0.1 0.638 0.300
 2 mu         0.1   0.2 0.821 0.366
 3 mu         0.1   0.3 0.948 0.438
 4 mu         0.1   0.4 1.01  0.457
 5 mu         0.1   0.5 1.16  0.488
 6 mu         0.2   0.1 0.568 0.192
 7 mu         0.2   0.2 0.779 0.278
 8 mu         0.2   0.3 0.899 0.330
 9 mu         0.2   0.4 0.968 0.354
10 mu         0.2   0.5 1.11  0.388
# ℹ 350 more rows
…
