…
`.groups` argument.
`summarise()` has grouped output by 'theta'. You can override using the
`.groups` argument.
`summarise()` has grouped output by 'theta', 'tau'. You can override using the
`.groups` argument.
`summarise()` has grouped output by 'theta'. You can override using the
`.groups` argument.
`summarise()` has grouped output by 'theta', 'tau'. You can override using the
`.groups` argument.
`summarise()` has grouped output by 'theta'. You can override using the
`.groups` argument.
[1] ""
[1] "Total run time was 383.586 seconds"
[1] "Estimation result: "
# A tibble: 360 × 5
   estimand theta   tau   est     se
   <chr>    <dbl> <dbl> <dbl>  <dbl>
 1 mu         0.1   0.1 0.320 0.0661
 2 mu         0.1   0.2 0.384 0.0869
 3 mu         0.1   0.3 0.442 0.118 
 4 mu         0.1   0.4 0.474 0.149 
 5 mu         0.1   0.5 0.483 0.151 
 6 mu         0.2   0.1 0.329 0.0413
 7 mu         0.2   0.2 0.398 0.0601
 8 mu         0.2   0.3 0.455 0.0793
 9 mu         0.2   0.4 0.494 0.0900
10 mu         0.2   0.5 0.512 0.0903
# ℹ 350 more rows
…
