…
`.groups` argument.
`summarise()` has grouped output by 'theta'. You can override using the
`.groups` argument.
`summarise()` has grouped output by 'theta', 'tau'. You can override using the
`.groups` argument.
`summarise()` has grouped output by 'theta'. You can override using the
`.groups` argument.
`summarise()` has grouped output by 'theta', 'tau'. You can override using the
`.groups` argument.
`summarise()` has grouped output by 'theta'. You can override using the
`.groups` argument.
[1] ""
[1] "Total run time was 378.961 seconds"
[1] "Estimation result: "
# A tibble: 360 × 5
   estimand theta   tau   est     se
   <chr>    <dbl> <dbl> <dbl>  <dbl>
 1 mu         0.1   0.1 0.304 0.0946
 2 mu         0.1   0.2 0.362 0.101 
 3 mu         0.1   0.3 0.528 0.162 
 4 mu         0.1   0.4 0.565 0.148 
 5 mu         0.1   0.5 0.651 0.177 
 6 mu         0.2   0.1 0.312 0.115 
 7 mu         0.2   0.2 0.415 0.135 
 8 mu         0.2   0.3 0.665 0.223 
 9 mu         0.2   0.4 0.719 0.220 
10 mu         0.2   0.5 0.771 0.233 
# ℹ 350 more rows
…
