…
`.groups` argument.
`summarise()` has grouped output by 'theta'. You can override using the
`.groups` argument.
`summarise()` has grouped output by 'theta', 'tau'. You can override using the
`.groups` argument.
`summarise()` has grouped output by 'theta'. You can override using the
`.groups` argument.
`summarise()` has grouped output by 'theta', 'tau'. You can override using the
`.groups` argument.
`summarise()` has grouped output by 'theta'. You can override using the
`.groups` argument.
[1] ""
[1] "Total run time was 491.37 seconds"
[1] "Estimation result: "
# A tibble: 360 × 5
   estimand theta   tau   est     se
   <chr>    <dbl> <dbl> <dbl>  <dbl>
 1 mu         0.1   0.1 0.484 0.0747
 2 mu         0.1   0.2 0.572 0.0893
 3 mu         0.1   0.3 0.604 0.105 
 4 mu         0.1   0.4 0.661 0.103 
 5 mu         0.1   0.5 0.691 0.113 
 6 mu         0.2   0.1 0.404 0.0454
 7 mu         0.2   0.2 0.502 0.0561
 8 mu         0.2   0.3 0.534 0.0612
 9 mu         0.2   0.4 0.608 0.0611
10 mu         0.2   0.5 0.651 0.0770
# ℹ 350 more rows
…
