…
`.groups` argument.
`summarise()` has grouped output by 'theta'. You can override using the
`.groups` argument.
`summarise()` has grouped output by 'theta', 'tau'. You can override using the
`.groups` argument.
`summarise()` has grouped output by 'theta'. You can override using the
`.groups` argument.
`summarise()` has grouped output by 'theta', 'tau'. You can override using the
`.groups` argument.
`summarise()` has grouped output by 'theta'. You can override using the
`.groups` argument.
[1] ""
[1] "Total run time was 332.411 seconds"
[1] "Estimation result: "
# A tibble: 360 × 5
   estimand theta   tau   est     se
   <chr>    <dbl> <dbl> <dbl>  <dbl>
 1 mu         0.1   0.1 0.370 0.0494
 2 mu         0.1   0.2 0.515 0.0766
 3 mu         0.1   0.3 0.527 0.0649
 4 mu         0.1   0.4 0.535 0.0592
 5 mu         0.1   0.5 0.571 0.0577
 6 mu         0.2   0.1 0.347 0.0369
 7 mu         0.2   0.2 0.447 0.0385
 8 mu         0.2   0.3 0.478 0.0353
 9 mu         0.2   0.4 0.497 0.0339
10 mu         0.2   0.5 0.548 0.0324
# ℹ 350 more rows
…
