…
`.groups` argument.
`summarise()` has grouped output by 'theta'. You can override using the
`.groups` argument.
`summarise()` has grouped output by 'theta', 'tau'. You can override using the
`.groups` argument.
`summarise()` has grouped output by 'theta'. You can override using the
`.groups` argument.
`summarise()` has grouped output by 'theta', 'tau'. You can override using the
`.groups` argument.
`summarise()` has grouped output by 'theta'. You can override using the
`.groups` argument.
[1] ""
[1] "Total run time was 365.805 seconds"
[1] "Estimation result: "
# A tibble: 360 × 5
   estimand theta   tau   est    se
   <chr>    <dbl> <dbl> <dbl> <dbl>
 1 mu         0.1   0.1 0.552 0.194
 2 mu         0.1   0.2 0.640 0.164
 3 mu         0.1   0.3 0.641 0.142
 4 mu         0.1   0.4 0.628 0.127
 5 mu         0.1   0.5 0.721 0.132
 6 mu         0.2   0.1 0.537 0.187
 7 mu         0.2   0.2 0.624 0.154
 8 mu         0.2   0.3 0.642 0.135
 9 mu         0.2   0.4 0.647 0.121
10 mu         0.2   0.5 0.732 0.120
# ℹ 350 more rows
…
