…
`.groups` argument.
`summarise()` has grouped output by 'theta'. You can override using the
`.groups` argument.
`summarise()` has grouped output by 'theta', 'tau'. You can override using the
`.groups` argument.
`summarise()` has grouped output by 'theta'. You can override using the
`.groups` argument.
`summarise()` has grouped output by 'theta', 'tau'. You can override using the
`.groups` argument.
`summarise()` has grouped output by 'theta'. You can override using the
`.groups` argument.
[1] ""
[1] "Total run time was 340.013 seconds"
[1] "Estimation result: "
# A tibble: 360 × 5
   estimand theta   tau   est     se
   <chr>    <dbl> <dbl> <dbl>  <dbl>
 1 mu         0.1   0.1 0.284 0.0714
 2 mu         0.1   0.2 0.415 0.0619
 3 mu         0.1   0.3 0.456 0.0684
 4 mu         0.1   0.4 0.509 0.0756
 5 mu         0.1   0.5 0.548 0.0806
 6 mu         0.2   0.1 0.292 0.0814
 7 mu         0.2   0.2 0.439 0.0834
 8 mu         0.2   0.3 0.493 0.0987
 9 mu         0.2   0.4 0.546 0.107 
10 mu         0.2   0.5 0.592 0.119 
# ℹ 350 more rows
…
