…
`.groups` argument.
`summarise()` has grouped output by 'theta'. You can override using the
`.groups` argument.
`summarise()` has grouped output by 'theta', 'tau'. You can override using the
`.groups` argument.
`summarise()` has grouped output by 'theta'. You can override using the
`.groups` argument.
`summarise()` has grouped output by 'theta', 'tau'. You can override using the
`.groups` argument.
`summarise()` has grouped output by 'theta'. You can override using the
`.groups` argument.
[1] ""
[1] "Total run time was 302.045 seconds"
[1] "Estimation result: "
# A tibble: 360 × 5
   estimand theta   tau   est     se
   <chr>    <dbl> <dbl> <dbl>  <dbl>
 1 mu         0.1   0.1 0.558 0.189 
 2 mu         0.1   0.2 0.626 0.192 
 3 mu         0.1   0.3 0.671 0.194 
 4 mu         0.1   0.4 0.685 0.210 
 5 mu         0.1   0.5 0.796 0.235 
 6 mu         0.2   0.1 0.336 0.0998
 7 mu         0.2   0.2 0.400 0.0918
 8 mu         0.2   0.3 0.461 0.0885
 9 mu         0.2   0.4 0.477 0.110 
10 mu         0.2   0.5 0.546 0.136 
# ℹ 350 more rows
…
