…
    extract


[Simulation setting] 

- M: 100 

- taus: 0.2 

- thetas: 0, 0.5, 1 

- r: 100 

# A tibble: 21 × 4
   theta   tau estimand   truth
   <dbl> <dbl> <chr>      <dbl>
 1   0     0.2 mu         0.540
 2   0     0.2 mu_1     NaN    
 3   0     0.2 mu_0     NaN    
 4   0     0.2 de       NaN    
 5   0     0.2 se_1     NaN    
 6   0     0.2 se_0     NaN    
 7   0     0.2 oe         0    
 8   0.5   0.2 mu         0.331
 9   0.5   0.2 mu_1       0.203
10   0.5   0.2 mu_0       0.459
# ℹ 11 more rows
…
