…
[Simulation setting] 

- M: 1000 

- taus: 0.1, 0.2, 0.3, 0.4, 0.5 

- thetas: 0.3, 0.31, 0.32, 0.33, 0.34, 0.35, 0.36, 0.37, 0.38, 0.39, 0.4, 0.41, 0.42, 0.43, 0.44, 0.45, 0.46, 0.47, 0.48, 0.49, 0.5, 0.51, 0.52, 0.53, 0.54, 0.55, 0.56, 0.57, 0.58, 0.59, 0.6 

- r: 100 

# A tibble: 1,085 × 4
   theta   tau estimand   truth
   <dbl> <dbl> <chr>      <dbl>
 1   0.3   0.1 mu        0.365 
 2   0.3   0.1 mu_1      0.169 
 3   0.3   0.1 mu_0      0.449 
 4   0.3   0.1 de       -0.280 
 5   0.3   0.1 se_1      0.0218
 6   0.3   0.1 se_0      0.0375
 7   0.3   0.1 oe        0.0724
 8   0.3   0.2 mu        0.448 
 9   0.3   0.2 mu_1      0.249 
10   0.3   0.2 mu_0      0.533 
# ℹ 1,075 more rows
…
