…
`.groups` argument.
`summarise()` has grouped output by 'theta'. You can override using the
`.groups` argument.
`summarise()` has grouped output by 'theta', 'tau'. You can override using the
`.groups` argument.
`summarise()` has grouped output by 'theta'. You can override using the
`.groups` argument.
`summarise()` has grouped output by 'theta', 'tau'. You can override using the
`.groups` argument.
`summarise()` has grouped output by 'theta'. You can override using the
`.groups` argument.
[1] ""
[1] "Total run time was 487.506 seconds"
[1] "Estimation result: "
# A tibble: 360 × 5
   estimand theta   tau   est     se
   <chr>    <dbl> <dbl> <dbl>  <dbl>
 1 mu         0.1   0.1 0.537 0.150 
 2 mu         0.1   0.2 0.682 0.177 
 3 mu         0.1   0.3 0.776 0.201 
 4 mu         0.1   0.4 0.914 0.236 
 5 mu         0.1   0.5 1.02  0.265 
 6 mu         0.2   0.1 0.312 0.0297
 7 mu         0.2   0.2 0.405 0.0340
 8 mu         0.2   0.3 0.461 0.0463
 9 mu         0.2   0.4 0.555 0.0671
10 mu         0.2   0.5 0.622 0.0873
# ℹ 350 more rows
…
