…
`.groups` argument.
`summarise()` has grouped output by 'theta'. You can override using the
`.groups` argument.
`summarise()` has grouped output by 'theta', 'tau'. You can override using the
`.groups` argument.
`summarise()` has grouped output by 'theta'. You can override using the
`.groups` argument.
`summarise()` has grouped output by 'theta', 'tau'. You can override using the
`.groups` argument.
`summarise()` has grouped output by 'theta'. You can override using the
`.groups` argument.
[1] ""
[1] "Total run time was 455.59 seconds"
[1] "Estimation result: "
# A tibble: 360 × 5
   estimand theta   tau   est     se
   <chr>    <dbl> <dbl> <dbl>  <dbl>
 1 mu         0.1   0.1 0.494 0.0993
 2 mu         0.1   0.2 0.628 0.130 
 3 mu         0.1   0.3 0.675 0.136 
 4 mu         0.1   0.4 0.712 0.141 
 5 mu         0.1   0.5 0.735 0.143 
 6 mu         0.2   0.1 0.367 0.0490
 7 mu         0.2   0.2 0.454 0.0665
 8 mu         0.2   0.3 0.488 0.0686
 9 mu         0.2   0.4 0.523 0.0614
10 mu         0.2   0.5 0.544 0.0515
# ℹ 350 more rows
…
