…
`.groups` argument.
`summarise()` has grouped output by 'theta'. You can override using the
`.groups` argument.
`summarise()` has grouped output by 'theta', 'tau'. You can override using the
`.groups` argument.
`summarise()` has grouped output by 'theta'. You can override using the
`.groups` argument.
`summarise()` has grouped output by 'theta', 'tau'. You can override using the
`.groups` argument.
`summarise()` has grouped output by 'theta'. You can override using the
`.groups` argument.
[1] ""
[1] "Total run time was 499.239 seconds"
[1] "Estimation result: "
# A tibble: 360 × 5
   estimand theta   tau   est     se
   <chr>    <dbl> <dbl> <dbl>  <dbl>
 1 mu         0.1   0.1 0.346 0.0770
 2 mu         0.1   0.2 0.403 0.0899
 3 mu         0.1   0.3 0.448 0.0966
 4 mu         0.1   0.4 0.490 0.114 
 5 mu         0.1   0.5 0.506 0.120 
 6 mu         0.2   0.1 0.384 0.0447
 7 mu         0.2   0.2 0.461 0.0498
 8 mu         0.2   0.3 0.535 0.0547
 9 mu         0.2   0.4 0.588 0.0643
10 mu         0.2   0.5 0.630 0.0717
# ℹ 350 more rows
…
