…
`.groups` argument.
`summarise()` has grouped output by 'theta'. You can override using the
`.groups` argument.
`summarise()` has grouped output by 'theta', 'tau'. You can override using the
`.groups` argument.
`summarise()` has grouped output by 'theta'. You can override using the
`.groups` argument.
`summarise()` has grouped output by 'theta', 'tau'. You can override using the
`.groups` argument.
`summarise()` has grouped output by 'theta'. You can override using the
`.groups` argument.
[1] ""
[1] "Total run time was 429.869 seconds"
[1] "Estimation result: "
# A tibble: 360 × 5
   estimand theta   tau   est     se
   <chr>    <dbl> <dbl> <dbl>  <dbl>
 1 mu         0.1   0.1 0.369 0.0781
 2 mu         0.1   0.2 0.477 0.112 
 3 mu         0.1   0.3 0.582 0.135 
 4 mu         0.1   0.4 0.611 0.150 
 5 mu         0.1   0.5 0.673 0.158 
 6 mu         0.2   0.1 0.309 0.0355
 7 mu         0.2   0.2 0.385 0.0387
 8 mu         0.2   0.3 0.475 0.0656
 9 mu         0.2   0.4 0.500 0.0750
10 mu         0.2   0.5 0.552 0.0734
# ℹ 350 more rows
…
