…
`.groups` argument.
`summarise()` has grouped output by 'theta'. You can override using the
`.groups` argument.
`summarise()` has grouped output by 'theta', 'tau'. You can override using the
`.groups` argument.
`summarise()` has grouped output by 'theta'. You can override using the
`.groups` argument.
`summarise()` has grouped output by 'theta', 'tau'. You can override using the
`.groups` argument.
`summarise()` has grouped output by 'theta'. You can override using the
`.groups` argument.
[1] ""
[1] "Total run time was 420.341 seconds"
[1] "Estimation result: "
# A tibble: 360 × 5
   estimand theta   tau   est     se
   <chr>    <dbl> <dbl> <dbl>  <dbl>
 1 mu         0.1   0.1 0.395 0.102 
 2 mu         0.1   0.2 0.461 0.127 
 3 mu         0.1   0.3 0.538 0.144 
 4 mu         0.1   0.4 0.545 0.140 
 5 mu         0.1   0.5 0.545 0.141 
 6 mu         0.2   0.1 0.458 0.0643
 7 mu         0.2   0.2 0.528 0.0722
 8 mu         0.2   0.3 0.601 0.0697
 9 mu         0.2   0.4 0.619 0.0675
10 mu         0.2   0.5 0.654 0.0750
# ℹ 350 more rows
…
