…
`.groups` argument.
`summarise()` has grouped output by 'theta'. You can override using the
`.groups` argument.
`summarise()` has grouped output by 'theta', 'tau'. You can override using the
`.groups` argument.
`summarise()` has grouped output by 'theta'. You can override using the
`.groups` argument.
`summarise()` has grouped output by 'theta', 'tau'. You can override using the
`.groups` argument.
`summarise()` has grouped output by 'theta'. You can override using the
`.groups` argument.
[1] ""
[1] "Total run time was 374.929 seconds"
[1] "Estimation result: "
# A tibble: 360 × 5
   estimand theta   tau   est     se
   <chr>    <dbl> <dbl> <dbl>  <dbl>
 1 mu         0.1   0.1 0.357 0.0768
 2 mu         0.1   0.2 0.446 0.0901
 3 mu         0.1   0.3 0.554 0.0874
 4 mu         0.1   0.4 0.587 0.0875
 5 mu         0.1   0.5 0.636 0.0821
 6 mu         0.2   0.1 0.387 0.0461
 7 mu         0.2   0.2 0.485 0.0513
 8 mu         0.2   0.3 0.567 0.0557
 9 mu         0.2   0.4 0.601 0.0525
10 mu         0.2   0.5 0.653 0.0484
# ℹ 350 more rows
…
