…
`.groups` argument.
`summarise()` has grouped output by 'theta'. You can override using the
`.groups` argument.
`summarise()` has grouped output by 'theta', 'tau'. You can override using the
`.groups` argument.
`summarise()` has grouped output by 'theta'. You can override using the
`.groups` argument.
`summarise()` has grouped output by 'theta', 'tau'. You can override using the
`.groups` argument.
`summarise()` has grouped output by 'theta'. You can override using the
`.groups` argument.
[1] ""
[1] "Total run time was 418.313 seconds"
[1] "Estimation result: "
# A tibble: 360 × 5
   estimand theta   tau   est     se
   <chr>    <dbl> <dbl> <dbl>  <dbl>
 1 mu         0.1   0.1 0.238 0.0759
 2 mu         0.1   0.2 0.305 0.0935
 3 mu         0.1   0.3 0.339 0.131 
 4 mu         0.1   0.4 0.430 0.123 
 5 mu         0.1   0.5 0.473 0.139 
 6 mu         0.2   0.1 0.232 0.0681
 7 mu         0.2   0.2 0.298 0.0832
 8 mu         0.2   0.3 0.348 0.130 
 9 mu         0.2   0.4 0.420 0.117 
10 mu         0.2   0.5 0.464 0.134 
# ℹ 350 more rows
…
