…
`.groups` argument.
`summarise()` has grouped output by 'theta'. You can override using the
`.groups` argument.
`summarise()` has grouped output by 'theta', 'tau'. You can override using the
`.groups` argument.
`summarise()` has grouped output by 'theta'. You can override using the
`.groups` argument.
`summarise()` has grouped output by 'theta', 'tau'. You can override using the
`.groups` argument.
`summarise()` has grouped output by 'theta'. You can override using the
`.groups` argument.
[1] ""
[1] "Total run time was 599.146 seconds"
[1] "Estimation result: "
# A tibble: 360 × 5
   estimand theta   tau   est     se
   <chr>    <dbl> <dbl> <dbl>  <dbl>
 1 mu         0.1   0.1 0.260 0.0440
 2 mu         0.1   0.2 0.327 0.0755
 3 mu         0.1   0.3 0.384 0.0890
 4 mu         0.1   0.4 0.432 0.0940
 5 mu         0.1   0.5 0.434 0.0923
 6 mu         0.2   0.1 0.296 0.0352
 7 mu         0.2   0.2 0.381 0.0640
 8 mu         0.2   0.3 0.447 0.0699
 9 mu         0.2   0.4 0.494 0.0715
10 mu         0.2   0.5 0.510 0.0773
# ℹ 350 more rows
…
