…
`.groups` argument.
`summarise()` has grouped output by 'theta'. You can override using the
`.groups` argument.
`summarise()` has grouped output by 'theta', 'tau'. You can override using the
`.groups` argument.
`summarise()` has grouped output by 'theta'. You can override using the
`.groups` argument.
`summarise()` has grouped output by 'theta', 'tau'. You can override using the
`.groups` argument.
`summarise()` has grouped output by 'theta'. You can override using the
`.groups` argument.
[1] ""
[1] "Total run time was 372.863 seconds"
[1] "Estimation result: "
# A tibble: 360 × 5
   estimand theta   tau   est     se
   <chr>    <dbl> <dbl> <dbl>  <dbl>
 1 mu         0.1   0.1 0.264 0.0534
 2 mu         0.1   0.2 0.301 0.0655
 3 mu         0.1   0.3 0.334 0.0704
 4 mu         0.1   0.4 0.362 0.0882
 5 mu         0.1   0.5 0.406 0.0852
 6 mu         0.2   0.1 0.287 0.0310
 7 mu         0.2   0.2 0.340 0.0391
 8 mu         0.2   0.3 0.380 0.0464
 9 mu         0.2   0.4 0.420 0.0615
10 mu         0.2   0.5 0.476 0.0518
# ℹ 350 more rows
…
