…
`.groups` argument.
`summarise()` has grouped output by 'theta'. You can override using the
`.groups` argument.
`summarise()` has grouped output by 'theta', 'tau'. You can override using the
`.groups` argument.
`summarise()` has grouped output by 'theta'. You can override using the
`.groups` argument.
`summarise()` has grouped output by 'theta', 'tau'. You can override using the
`.groups` argument.
`summarise()` has grouped output by 'theta'. You can override using the
`.groups` argument.
[1] ""
[1] "Total run time was 396.76 seconds"
[1] "Estimation result: "
# A tibble: 360 × 5
   estimand theta   tau   est     se
   <chr>    <dbl> <dbl> <dbl>  <dbl>
 1 mu         0.1   0.1 0.258 0.0477
 2 mu         0.1   0.2 0.315 0.0495
 3 mu         0.1   0.3 0.340 0.0578
 4 mu         0.1   0.4 0.347 0.0721
 5 mu         0.1   0.5 0.357 0.0842
 6 mu         0.2   0.1 0.299 0.0348
 7 mu         0.2   0.2 0.376 0.0229
 8 mu         0.2   0.3 0.414 0.0277
 9 mu         0.2   0.4 0.434 0.0427
10 mu         0.2   0.5 0.454 0.0544
# ℹ 350 more rows
…
