…
`.groups` argument.
`summarise()` has grouped output by 'theta'. You can override using the
`.groups` argument.
`summarise()` has grouped output by 'theta', 'tau'. You can override using the
`.groups` argument.
`summarise()` has grouped output by 'theta'. You can override using the
`.groups` argument.
`summarise()` has grouped output by 'theta', 'tau'. You can override using the
`.groups` argument.
`summarise()` has grouped output by 'theta'. You can override using the
`.groups` argument.
[1] ""
[1] "Total run time was 388.855 seconds"
[1] "Estimation result: "
# A tibble: 360 × 5
   estimand theta   tau   est     se
   <chr>    <dbl> <dbl> <dbl>  <dbl>
 1 mu         0.1   0.1 0.276 0.0796
 2 mu         0.1   0.2 0.348 0.104 
 3 mu         0.1   0.3 0.410 0.0908
 4 mu         0.1   0.4 0.417 0.0837
 5 mu         0.1   0.5 0.429 0.0884
 6 mu         0.2   0.1 0.342 0.0639
 7 mu         0.2   0.2 0.444 0.0855
 8 mu         0.2   0.3 0.516 0.0658
 9 mu         0.2   0.4 0.546 0.0508
10 mu         0.2   0.5 0.574 0.0542
# ℹ 350 more rows
…
