…
`.groups` argument.
`summarise()` has grouped output by 'theta'. You can override using the
`.groups` argument.
`summarise()` has grouped output by 'theta', 'tau'. You can override using the
`.groups` argument.
`summarise()` has grouped output by 'theta'. You can override using the
`.groups` argument.
`summarise()` has grouped output by 'theta', 'tau'. You can override using the
`.groups` argument.
`summarise()` has grouped output by 'theta'. You can override using the
`.groups` argument.
[1] ""
[1] "Total run time was 405.884 seconds"
[1] "Estimation result: "
# A tibble: 360 × 5
   estimand theta   tau   est     se
   <chr>    <dbl> <dbl> <dbl>  <dbl>
 1 mu         0.1   0.1 0.467 0.0733
 2 mu         0.1   0.2 0.543 0.0820
 3 mu         0.1   0.3 0.611 0.0977
 4 mu         0.1   0.4 0.655 0.0974
 5 mu         0.1   0.5 0.686 0.108 
 6 mu         0.2   0.1 0.379 0.0336
 7 mu         0.2   0.2 0.446 0.0298
 8 mu         0.2   0.3 0.506 0.0374
 9 mu         0.2   0.4 0.557 0.0394
10 mu         0.2   0.5 0.577 0.0434
# ℹ 350 more rows
…
