…
`.groups` argument.
`summarise()` has grouped output by 'theta'. You can override using the
`.groups` argument.
`summarise()` has grouped output by 'theta', 'tau'. You can override using the
`.groups` argument.
`summarise()` has grouped output by 'theta'. You can override using the
`.groups` argument.
`summarise()` has grouped output by 'theta', 'tau'. You can override using the
`.groups` argument.
`summarise()` has grouped output by 'theta'. You can override using the
`.groups` argument.
[1] ""
[1] "Total run time was 414.724 seconds"
[1] "Estimation result: "
# A tibble: 360 × 5
   estimand theta   tau   est     se
   <chr>    <dbl> <dbl> <dbl>  <dbl>
 1 mu         0.1   0.1 0.325 0.0641
 2 mu         0.1   0.2 0.436 0.0790
 3 mu         0.1   0.3 0.549 0.0943
 4 mu         0.1   0.4 0.545 0.0887
 5 mu         0.1   0.5 0.584 0.0943
 6 mu         0.2   0.1 0.337 0.0470
 7 mu         0.2   0.2 0.462 0.0576
 8 mu         0.2   0.3 0.583 0.0748
 9 mu         0.2   0.4 0.591 0.0639
10 mu         0.2   0.5 0.634 0.0678
# ℹ 350 more rows
…
