…
`.groups` argument.
`summarise()` has grouped output by 'theta'. You can override using the
`.groups` argument.
`summarise()` has grouped output by 'theta', 'tau'. You can override using the
`.groups` argument.
`summarise()` has grouped output by 'theta'. You can override using the
`.groups` argument.
`summarise()` has grouped output by 'theta', 'tau'. You can override using the
`.groups` argument.
`summarise()` has grouped output by 'theta'. You can override using the
`.groups` argument.
[1] ""
[1] "Total run time was 462.623 seconds"
[1] "Estimation result: "
# A tibble: 360 × 5
   estimand theta   tau   est     se
   <chr>    <dbl> <dbl> <dbl>  <dbl>
 1 mu         0.1   0.1 0.487 0.0827
 2 mu         0.1   0.2 0.602 0.0854
 3 mu         0.1   0.3 0.675 0.0836
 4 mu         0.1   0.4 0.704 0.0781
 5 mu         0.1   0.5 0.724 0.0712
 6 mu         0.2   0.1 0.359 0.0282
 7 mu         0.2   0.2 0.468 0.0371
 8 mu         0.2   0.3 0.548 0.0507
 9 mu         0.2   0.4 0.582 0.0475
10 mu         0.2   0.5 0.607 0.0465
# ℹ 350 more rows
…
