…
`.groups` argument.
`summarise()` has grouped output by 'theta'. You can override using the
`.groups` argument.
`summarise()` has grouped output by 'theta', 'tau'. You can override using the
`.groups` argument.
`summarise()` has grouped output by 'theta'. You can override using the
`.groups` argument.
`summarise()` has grouped output by 'theta', 'tau'. You can override using the
`.groups` argument.
`summarise()` has grouped output by 'theta'. You can override using the
`.groups` argument.
[1] ""
[1] "Total run time was 550.218 seconds"
[1] "Estimation result: "
# A tibble: 360 × 5
   estimand theta   tau   est     se
   <chr>    <dbl> <dbl> <dbl>  <dbl>
 1 mu         0.1   0.1 0.323 0.0629
 2 mu         0.1   0.2 0.404 0.0601
 3 mu         0.1   0.3 0.474 0.0691
 4 mu         0.1   0.4 0.502 0.0956
 5 mu         0.1   0.5 0.568 0.101 
 6 mu         0.2   0.1 0.281 0.0431
 7 mu         0.2   0.2 0.359 0.0285
 8 mu         0.2   0.3 0.420 0.0337
 9 mu         0.2   0.4 0.439 0.0620
10 mu         0.2   0.5 0.492 0.0638
# ℹ 350 more rows
…
