…
`.groups` argument.
`summarise()` has grouped output by 'theta'. You can override using the
`.groups` argument.
`summarise()` has grouped output by 'theta', 'tau'. You can override using the
`.groups` argument.
`summarise()` has grouped output by 'theta'. You can override using the
`.groups` argument.
`summarise()` has grouped output by 'theta', 'tau'. You can override using the
`.groups` argument.
`summarise()` has grouped output by 'theta'. You can override using the
`.groups` argument.
[1] ""
[1] "Total run time was 426.141 seconds"
[1] "Estimation result: "
# A tibble: 360 × 5
   estimand theta   tau   est     se
   <chr>    <dbl> <dbl> <dbl>  <dbl>
 1 mu         0.1   0.1 0.433 0.114 
 2 mu         0.1   0.2 0.542 0.113 
 3 mu         0.1   0.3 0.591 0.110 
 4 mu         0.1   0.4 0.666 0.122 
 5 mu         0.1   0.5 0.695 0.123 
 6 mu         0.2   0.1 0.351 0.0413
 7 mu         0.2   0.2 0.465 0.0547
 8 mu         0.2   0.3 0.515 0.0527
 9 mu         0.2   0.4 0.590 0.0624
10 mu         0.2   0.5 0.615 0.0517
# ℹ 350 more rows
…
