…
`.groups` argument.
`summarise()` has grouped output by 'theta'. You can override using the
`.groups` argument.
`summarise()` has grouped output by 'theta', 'tau'. You can override using the
`.groups` argument.
`summarise()` has grouped output by 'theta'. You can override using the
`.groups` argument.
`summarise()` has grouped output by 'theta', 'tau'. You can override using the
`.groups` argument.
`summarise()` has grouped output by 'theta'. You can override using the
`.groups` argument.
[1] ""
[1] "Total run time was 365.012 seconds"
[1] "Estimation result: "
# A tibble: 360 × 5
   estimand theta   tau   est     se
   <chr>    <dbl> <dbl> <dbl>  <dbl>
 1 mu         0.1   0.1 0.376 0.0717
 2 mu         0.1   0.2 0.461 0.0771
 3 mu         0.1   0.3 0.465 0.0736
 4 mu         0.1   0.4 0.516 0.0763
 5 mu         0.1   0.5 0.540 0.0726
 6 mu         0.2   0.1 0.392 0.0529
 7 mu         0.2   0.2 0.491 0.0564
 8 mu         0.2   0.3 0.509 0.0486
 9 mu         0.2   0.4 0.569 0.0478
10 mu         0.2   0.5 0.605 0.0428
# ℹ 350 more rows
…
