…
`.groups` argument.
`summarise()` has grouped output by 'theta'. You can override using the
`.groups` argument.
`summarise()` has grouped output by 'theta', 'tau'. You can override using the
`.groups` argument.
`summarise()` has grouped output by 'theta'. You can override using the
`.groups` argument.
`summarise()` has grouped output by 'theta', 'tau'. You can override using the
`.groups` argument.
`summarise()` has grouped output by 'theta'. You can override using the
`.groups` argument.
[1] ""
[1] "Total run time was 348.341 seconds"
[1] "Estimation result: "
# A tibble: 360 × 5
   estimand theta   tau   est     se
   <chr>    <dbl> <dbl> <dbl>  <dbl>
 1 mu         0.1   0.1 0.453 0.0848
 2 mu         0.1   0.2 0.520 0.0786
 3 mu         0.1   0.3 0.527 0.0731
 4 mu         0.1   0.4 0.611 0.0871
 5 mu         0.1   0.5 0.660 0.0984
 6 mu         0.2   0.1 0.386 0.0435
 7 mu         0.2   0.2 0.466 0.0480
 8 mu         0.2   0.3 0.500 0.0439
 9 mu         0.2   0.4 0.563 0.0489
10 mu         0.2   0.5 0.652 0.0729
# ℹ 350 more rows
…
