…
`.groups` argument.
`summarise()` has grouped output by 'theta'. You can override using the
`.groups` argument.
`summarise()` has grouped output by 'theta', 'tau'. You can override using the
`.groups` argument.
`summarise()` has grouped output by 'theta'. You can override using the
`.groups` argument.
`summarise()` has grouped output by 'theta', 'tau'. You can override using the
`.groups` argument.
`summarise()` has grouped output by 'theta'. You can override using the
`.groups` argument.
[1] ""
[1] "Total run time was 352.52 seconds"
[1] "Estimation result: "
# A tibble: 360 × 5
   estimand theta   tau   est     se
   <chr>    <dbl> <dbl> <dbl>  <dbl>
 1 mu         0.1   0.1 0.355 0.115 
 2 mu         0.1   0.2 0.444 0.136 
 3 mu         0.1   0.3 0.515 0.154 
 4 mu         0.1   0.4 0.538 0.166 
 5 mu         0.1   0.5 0.552 0.181 
 6 mu         0.2   0.1 0.358 0.0508
 7 mu         0.2   0.2 0.432 0.0546
 8 mu         0.2   0.3 0.499 0.0595
 9 mu         0.2   0.4 0.524 0.0603
10 mu         0.2   0.5 0.559 0.0710
# ℹ 350 more rows
…
