…
`.groups` argument.
`summarise()` has grouped output by 'theta'. You can override using the
`.groups` argument.
`summarise()` has grouped output by 'theta', 'tau'. You can override using the
`.groups` argument.
`summarise()` has grouped output by 'theta'. You can override using the
`.groups` argument.
`summarise()` has grouped output by 'theta', 'tau'. You can override using the
`.groups` argument.
`summarise()` has grouped output by 'theta'. You can override using the
`.groups` argument.
[1] ""
[1] "Total run time was 399.952 seconds"
[1] "Estimation result: "
# A tibble: 360 × 5
   estimand theta   tau   est     se
   <chr>    <dbl> <dbl> <dbl>  <dbl>
 1 mu         0.1   0.1 0.331 0.0490
 2 mu         0.1   0.2 0.393 0.0640
 3 mu         0.1   0.3 0.477 0.0742
 4 mu         0.1   0.4 0.512 0.0820
 5 mu         0.1   0.5 0.529 0.0927
 6 mu         0.2   0.1 0.323 0.0290
 7 mu         0.2   0.2 0.382 0.0345
 8 mu         0.2   0.3 0.457 0.0465
 9 mu         0.2   0.4 0.493 0.0485
10 mu         0.2   0.5 0.523 0.0517
# ℹ 350 more rows
…
