…
`.groups` argument.
`summarise()` has grouped output by 'theta'. You can override using the
`.groups` argument.
`summarise()` has grouped output by 'theta', 'tau'. You can override using the
`.groups` argument.
`summarise()` has grouped output by 'theta'. You can override using the
`.groups` argument.
`summarise()` has grouped output by 'theta', 'tau'. You can override using the
`.groups` argument.
`summarise()` has grouped output by 'theta'. You can override using the
`.groups` argument.
[1] ""
[1] "Total run time was 482.748 seconds"
[1] "Estimation result: "
# A tibble: 360 × 5
   estimand theta   tau   est     se
   <chr>    <dbl> <dbl> <dbl>  <dbl>
 1 mu         0.1   0.1 0.402 0.0774
 2 mu         0.1   0.2 0.439 0.0600
 3 mu         0.1   0.3 0.461 0.0576
 4 mu         0.1   0.4 0.492 0.0614
 5 mu         0.1   0.5 0.517 0.0688
 6 mu         0.2   0.1 0.348 0.0596
 7 mu         0.2   0.2 0.414 0.0405
 8 mu         0.2   0.3 0.458 0.0430
 9 mu         0.2   0.4 0.495 0.0474
10 mu         0.2   0.5 0.519 0.0510
# ℹ 350 more rows
…
