…
`.groups` argument.
`summarise()` has grouped output by 'theta'. You can override using the
`.groups` argument.
`summarise()` has grouped output by 'theta', 'tau'. You can override using the
`.groups` argument.
`summarise()` has grouped output by 'theta'. You can override using the
`.groups` argument.
`summarise()` has grouped output by 'theta', 'tau'. You can override using the
`.groups` argument.
`summarise()` has grouped output by 'theta'. You can override using the
`.groups` argument.
[1] ""
[1] "Total run time was 411.064 seconds"
[1] "Estimation result: "
# A tibble: 360 × 5
   estimand theta   tau   est     se
   <chr>    <dbl> <dbl> <dbl>  <dbl>
 1 mu         0.1   0.1 0.570 0.123 
 2 mu         0.1   0.2 0.690 0.152 
 3 mu         0.1   0.3 0.759 0.174 
 4 mu         0.1   0.4 0.850 0.192 
 5 mu         0.1   0.5 0.903 0.210 
 6 mu         0.2   0.1 0.432 0.0793
 7 mu         0.2   0.2 0.515 0.0901
 8 mu         0.2   0.3 0.562 0.0985
 9 mu         0.2   0.4 0.637 0.107 
10 mu         0.2   0.5 0.672 0.116 
# ℹ 350 more rows
…
