…
`.groups` argument.
`summarise()` has grouped output by 'theta'. You can override using the
`.groups` argument.
`summarise()` has grouped output by 'theta', 'tau'. You can override using the
`.groups` argument.
`summarise()` has grouped output by 'theta'. You can override using the
`.groups` argument.
`summarise()` has grouped output by 'theta', 'tau'. You can override using the
`.groups` argument.
`summarise()` has grouped output by 'theta'. You can override using the
`.groups` argument.
[1] ""
[1] "Total run time was 419.339 seconds"
[1] "Estimation result: "
# A tibble: 360 × 5
   estimand theta   tau   est     se
   <chr>    <dbl> <dbl> <dbl>  <dbl>
 1 mu         0.1   0.1 0.341 0.0713
 2 mu         0.1   0.2 0.456 0.110 
 3 mu         0.1   0.3 0.499 0.123 
 4 mu         0.1   0.4 0.523 0.132 
 5 mu         0.1   0.5 0.590 0.138 
 6 mu         0.2   0.1 0.315 0.0271
 7 mu         0.2   0.2 0.419 0.0512
 8 mu         0.2   0.3 0.461 0.0532
 9 mu         0.2   0.4 0.498 0.0490
10 mu         0.2   0.5 0.562 0.0508
# ℹ 350 more rows
…
