…
`.groups` argument.
`summarise()` has grouped output by 'theta'. You can override using the
`.groups` argument.
`summarise()` has grouped output by 'theta', 'tau'. You can override using the
`.groups` argument.
`summarise()` has grouped output by 'theta'. You can override using the
`.groups` argument.
`summarise()` has grouped output by 'theta', 'tau'. You can override using the
`.groups` argument.
`summarise()` has grouped output by 'theta'. You can override using the
`.groups` argument.
[1] ""
[1] "Total run time was 350.412 seconds"
[1] "Estimation result: "
# A tibble: 360 × 5
   estimand theta   tau   est     se
   <chr>    <dbl> <dbl> <dbl>  <dbl>
 1 mu         0.1   0.1 0.325 0.0472
 2 mu         0.1   0.2 0.374 0.0611
 3 mu         0.1   0.3 0.467 0.0837
 4 mu         0.1   0.4 0.498 0.0687
 5 mu         0.1   0.5 0.509 0.0665
 6 mu         0.2   0.1 0.335 0.0218
 7 mu         0.2   0.2 0.387 0.0331
 8 mu         0.2   0.3 0.476 0.0543
 9 mu         0.2   0.4 0.510 0.0322
10 mu         0.2   0.5 0.527 0.0302
# ℹ 350 more rows
…
