…
`.groups` argument.
`summarise()` has grouped output by 'theta'. You can override using the
`.groups` argument.
`summarise()` has grouped output by 'theta', 'tau'. You can override using the
`.groups` argument.
`summarise()` has grouped output by 'theta'. You can override using the
`.groups` argument.
`summarise()` has grouped output by 'theta', 'tau'. You can override using the
`.groups` argument.
`summarise()` has grouped output by 'theta'. You can override using the
`.groups` argument.
[1] ""
[1] "Total run time was 447.162 seconds"
[1] "Estimation result: "
# A tibble: 360 × 5
   estimand theta   tau   est     se
   <chr>    <dbl> <dbl> <dbl>  <dbl>
 1 mu         0.1   0.1 0.425 0.0789
 2 mu         0.1   0.2 0.481 0.0850
 3 mu         0.1   0.3 0.563 0.0790
 4 mu         0.1   0.4 0.624 0.0870
 5 mu         0.1   0.5 0.652 0.0958
 6 mu         0.2   0.1 0.436 0.0460
 7 mu         0.2   0.2 0.512 0.0501
 8 mu         0.2   0.3 0.593 0.0419
 9 mu         0.2   0.4 0.649 0.0445
10 mu         0.2   0.5 0.687 0.0512
# ℹ 350 more rows
…
