…
`.groups` argument.
`summarise()` has grouped output by 'theta'. You can override using the
`.groups` argument.
`summarise()` has grouped output by 'theta', 'tau'. You can override using the
`.groups` argument.
`summarise()` has grouped output by 'theta'. You can override using the
`.groups` argument.
`summarise()` has grouped output by 'theta', 'tau'. You can override using the
`.groups` argument.
`summarise()` has grouped output by 'theta'. You can override using the
`.groups` argument.
[1] ""
[1] "Total run time was 466.569 seconds"
[1] "Estimation result: "
# A tibble: 360 × 5
   estimand theta   tau   est     se
   <chr>    <dbl> <dbl> <dbl>  <dbl>
 1 mu         0.1   0.1 0.315 0.0387
 2 mu         0.1   0.2 0.444 0.0555
 3 mu         0.1   0.3 0.454 0.0501
 4 mu         0.1   0.4 0.465 0.0584
 5 mu         0.1   0.5 0.538 0.0652
 6 mu         0.2   0.1 0.336 0.0211
 7 mu         0.2   0.2 0.457 0.0316
 8 mu         0.2   0.3 0.486 0.0274
 9 mu         0.2   0.4 0.527 0.0331
10 mu         0.2   0.5 0.582 0.0369
# ℹ 350 more rows
…
