…
`.groups` argument.
`summarise()` has grouped output by 'theta'. You can override using the
`.groups` argument.
`summarise()` has grouped output by 'theta', 'tau'. You can override using the
`.groups` argument.
`summarise()` has grouped output by 'theta'. You can override using the
`.groups` argument.
`summarise()` has grouped output by 'theta', 'tau'. You can override using the
`.groups` argument.
`summarise()` has grouped output by 'theta'. You can override using the
`.groups` argument.
[1] ""
[1] "Total run time was 421.174 seconds"
[1] "Estimation result: "
# A tibble: 360 × 5
   estimand theta   tau   est     se
   <chr>    <dbl> <dbl> <dbl>  <dbl>
 1 mu         0.1   0.1 0.523 0.0533
 2 mu         0.1   0.2 0.652 0.0571
 3 mu         0.1   0.3 0.735 0.0586
 4 mu         0.1   0.4 0.758 0.0575
 5 mu         0.1   0.5 0.797 0.0589
 6 mu         0.2   0.1 0.426 0.0492
 7 mu         0.2   0.2 0.505 0.0442
 8 mu         0.2   0.3 0.591 0.0492
 9 mu         0.2   0.4 0.617 0.0442
10 mu         0.2   0.5 0.646 0.0431
# ℹ 350 more rows
…
