…
`.groups` argument.
`summarise()` has grouped output by 'theta'. You can override using the
`.groups` argument.
`summarise()` has grouped output by 'theta', 'tau'. You can override using the
`.groups` argument.
`summarise()` has grouped output by 'theta'. You can override using the
`.groups` argument.
`summarise()` has grouped output by 'theta', 'tau'. You can override using the
`.groups` argument.
`summarise()` has grouped output by 'theta'. You can override using the
`.groups` argument.
[1] ""
[1] "Total run time was 410.222 seconds"
[1] "Estimation result: "
# A tibble: 360 × 5
   estimand theta   tau   est     se
   <chr>    <dbl> <dbl> <dbl>  <dbl>
 1 mu         0.1   0.1 0.488 0.198 
 2 mu         0.1   0.2 0.625 0.239 
 3 mu         0.1   0.3 0.723 0.266 
 4 mu         0.1   0.4 0.764 0.293 
 5 mu         0.1   0.5 0.806 0.313 
 6 mu         0.2   0.1 0.352 0.0687
 7 mu         0.2   0.2 0.464 0.0770
 8 mu         0.2   0.3 0.548 0.0851
 9 mu         0.2   0.4 0.576 0.0851
10 mu         0.2   0.5 0.612 0.0802
# ℹ 350 more rows
…
