…
`.groups` argument.
`summarise()` has grouped output by 'theta'. You can override using the
`.groups` argument.
`summarise()` has grouped output by 'theta', 'tau'. You can override using the
`.groups` argument.
`summarise()` has grouped output by 'theta'. You can override using the
`.groups` argument.
`summarise()` has grouped output by 'theta', 'tau'. You can override using the
`.groups` argument.
`summarise()` has grouped output by 'theta'. You can override using the
`.groups` argument.
[1] ""
[1] "Total run time was 500.592 seconds"
[1] "Estimation result: "
# A tibble: 360 × 5
   estimand theta   tau   est     se
   <chr>    <dbl> <dbl> <dbl>  <dbl>
 1 mu         0.1   0.1 0.298 0.0707
 2 mu         0.1   0.2 0.394 0.0948
 3 mu         0.1   0.3 0.501 0.108 
 4 mu         0.1   0.4 0.589 0.135 
 5 mu         0.1   0.5 0.647 0.146 
 6 mu         0.2   0.1 0.321 0.0571
 7 mu         0.2   0.2 0.439 0.0802
 8 mu         0.2   0.3 0.554 0.0964
 9 mu         0.2   0.4 0.636 0.113 
10 mu         0.2   0.5 0.702 0.127 
# ℹ 350 more rows
…
