…
`.groups` argument.
`summarise()` has grouped output by 'theta'. You can override using the
`.groups` argument.
`summarise()` has grouped output by 'theta', 'tau'. You can override using the
`.groups` argument.
`summarise()` has grouped output by 'theta'. You can override using the
`.groups` argument.
`summarise()` has grouped output by 'theta', 'tau'. You can override using the
`.groups` argument.
`summarise()` has grouped output by 'theta'. You can override using the
`.groups` argument.
[1] ""
[1] "Total run time was 396.79 seconds"
[1] "Estimation result: "
# A tibble: 360 × 5
   estimand theta   tau   est     se
   <chr>    <dbl> <dbl> <dbl>  <dbl>
 1 mu         0.1   0.1 0.120 0.0496
 2 mu         0.1   0.2 0.154 0.0653
 3 mu         0.1   0.3 0.172 0.0781
 4 mu         0.1   0.4 0.197 0.0843
 5 mu         0.1   0.5 0.186 0.0818
 6 mu         0.2   0.1 0.321 0.0767
 7 mu         0.2   0.2 0.418 0.102 
 8 mu         0.2   0.3 0.481 0.123 
 9 mu         0.2   0.4 0.543 0.136 
10 mu         0.2   0.5 0.569 0.147 
# ℹ 350 more rows
…
