…
`.groups` argument.
`summarise()` has grouped output by 'theta'. You can override using the
`.groups` argument.
`summarise()` has grouped output by 'theta', 'tau'. You can override using the
`.groups` argument.
`summarise()` has grouped output by 'theta'. You can override using the
`.groups` argument.
`summarise()` has grouped output by 'theta', 'tau'. You can override using the
`.groups` argument.
`summarise()` has grouped output by 'theta'. You can override using the
`.groups` argument.
[1] ""
[1] "Total run time was 382.272 seconds"
[1] "Estimation result: "
# A tibble: 360 × 5
   estimand theta   tau   est     se
   <chr>    <dbl> <dbl> <dbl>  <dbl>
 1 mu         0.1   0.1 0.326 0.0999
 2 mu         0.1   0.2 0.369 0.0899
 3 mu         0.1   0.3 0.412 0.0850
 4 mu         0.1   0.4 0.425 0.0884
 5 mu         0.1   0.5 0.526 0.129 
 6 mu         0.2   0.1 0.333 0.0414
 7 mu         0.2   0.2 0.395 0.0404
 8 mu         0.2   0.3 0.426 0.0389
 9 mu         0.2   0.4 0.475 0.0333
10 mu         0.2   0.5 0.526 0.0410
# ℹ 350 more rows
…
