…
`.groups` argument.
`summarise()` has grouped output by 'theta'. You can override using the
`.groups` argument.
`summarise()` has grouped output by 'theta', 'tau'. You can override using the
`.groups` argument.
`summarise()` has grouped output by 'theta'. You can override using the
`.groups` argument.
`summarise()` has grouped output by 'theta', 'tau'. You can override using the
`.groups` argument.
`summarise()` has grouped output by 'theta'. You can override using the
`.groups` argument.
[1] ""
[1] "Total run time was 432.202 seconds"
[1] "Estimation result: "
# A tibble: 360 × 5
   estimand theta   tau   est     se
   <chr>    <dbl> <dbl> <dbl>  <dbl>
 1 mu         0.1   0.1 0.559 0.118 
 2 mu         0.1   0.2 0.679 0.137 
 3 mu         0.1   0.3 0.757 0.151 
 4 mu         0.1   0.4 0.846 0.170 
 5 mu         0.1   0.5 0.875 0.175 
 6 mu         0.2   0.1 0.350 0.0659
 7 mu         0.2   0.2 0.447 0.0600
 8 mu         0.2   0.3 0.496 0.0538
 9 mu         0.2   0.4 0.560 0.0618
10 mu         0.2   0.5 0.597 0.0557
# ℹ 350 more rows
…
