…
`.groups` argument.
`summarise()` has grouped output by 'theta'. You can override using the
`.groups` argument.
`summarise()` has grouped output by 'theta', 'tau'. You can override using the
`.groups` argument.
`summarise()` has grouped output by 'theta'. You can override using the
`.groups` argument.
`summarise()` has grouped output by 'theta', 'tau'. You can override using the
`.groups` argument.
`summarise()` has grouped output by 'theta'. You can override using the
`.groups` argument.
[1] ""
[1] "Total run time was 358.471 seconds"
[1] "Estimation result: "
# A tibble: 360 × 5
   estimand theta   tau   est     se
   <chr>    <dbl> <dbl> <dbl>  <dbl>
 1 mu         0.1   0.1 0.497 0.0954
 2 mu         0.1   0.2 0.573 0.0898
 3 mu         0.1   0.3 0.615 0.0922
 4 mu         0.1   0.4 0.661 0.0942
 5 mu         0.1   0.5 0.748 0.0933
 6 mu         0.2   0.1 0.372 0.0474
 7 mu         0.2   0.2 0.440 0.0449
 8 mu         0.2   0.3 0.475 0.0445
 9 mu         0.2   0.4 0.519 0.0423
10 mu         0.2   0.5 0.572 0.0425
# ℹ 350 more rows
…
