…
`.groups` argument.
`summarise()` has grouped output by 'theta'. You can override using the
`.groups` argument.
`summarise()` has grouped output by 'theta', 'tau'. You can override using the
`.groups` argument.
`summarise()` has grouped output by 'theta'. You can override using the
`.groups` argument.
`summarise()` has grouped output by 'theta', 'tau'. You can override using the
`.groups` argument.
`summarise()` has grouped output by 'theta'. You can override using the
`.groups` argument.
[1] ""
[1] "Total run time was 463.945 seconds"
[1] "Estimation result: "
# A tibble: 360 × 5
   estimand theta   tau   est     se
   <chr>    <dbl> <dbl> <dbl>  <dbl>
 1 mu         0.1   0.1 0.490 0.0966
 2 mu         0.1   0.2 0.529 0.0696
 3 mu         0.1   0.3 0.599 0.0831
 4 mu         0.1   0.4 0.626 0.0774
 5 mu         0.1   0.5 0.652 0.0744
 6 mu         0.2   0.1 0.396 0.0589
 7 mu         0.2   0.2 0.467 0.0430
 8 mu         0.2   0.3 0.530 0.0464
 9 mu         0.2   0.4 0.572 0.0492
10 mu         0.2   0.5 0.617 0.0574
# ℹ 350 more rows
…
