…
`.groups` argument.
`summarise()` has grouped output by 'theta'. You can override using the
`.groups` argument.
`summarise()` has grouped output by 'theta', 'tau'. You can override using the
`.groups` argument.
`summarise()` has grouped output by 'theta'. You can override using the
`.groups` argument.
`summarise()` has grouped output by 'theta', 'tau'. You can override using the
`.groups` argument.
`summarise()` has grouped output by 'theta'. You can override using the
`.groups` argument.
[1] ""
[1] "Total run time was 499.464 seconds"
[1] "Estimation result: "
# A tibble: 360 × 5
   estimand theta   tau   est     se
   <chr>    <dbl> <dbl> <dbl>  <dbl>
 1 mu         0.1   0.1 0.488 0.0661
 2 mu         0.1   0.2 0.561 0.0727
 3 mu         0.1   0.3 0.596 0.0762
 4 mu         0.1   0.4 0.669 0.0838
 5 mu         0.1   0.5 0.722 0.0893
 6 mu         0.2   0.1 0.382 0.0305
 7 mu         0.2   0.2 0.464 0.0340
 8 mu         0.2   0.3 0.492 0.0321
 9 mu         0.2   0.4 0.548 0.0340
10 mu         0.2   0.5 0.599 0.0357
# ℹ 350 more rows
…
