…
`.groups` argument.
`summarise()` has grouped output by 'theta'. You can override using the
`.groups` argument.
`summarise()` has grouped output by 'theta', 'tau'. You can override using the
`.groups` argument.
`summarise()` has grouped output by 'theta'. You can override using the
`.groups` argument.
`summarise()` has grouped output by 'theta', 'tau'. You can override using the
`.groups` argument.
`summarise()` has grouped output by 'theta'. You can override using the
`.groups` argument.
[1] ""
[1] "Total run time was 437.904 seconds"
[1] "Estimation result: "
# A tibble: 360 × 5
   estimand theta   tau   est     se
   <chr>    <dbl> <dbl> <dbl>  <dbl>
 1 mu         0.1   0.1 0.397 0.0913
 2 mu         0.1   0.2 0.492 0.0985
 3 mu         0.1   0.3 0.587 0.123 
 4 mu         0.1   0.4 0.604 0.121 
 5 mu         0.1   0.5 0.653 0.134 
 6 mu         0.2   0.1 0.350 0.0620
 7 mu         0.2   0.2 0.442 0.0559
 8 mu         0.2   0.3 0.541 0.0750
 9 mu         0.2   0.4 0.566 0.0737
10 mu         0.2   0.5 0.632 0.0851
# ℹ 350 more rows
…
