…
`.groups` argument.
`summarise()` has grouped output by 'theta'. You can override using the
`.groups` argument.
`summarise()` has grouped output by 'theta', 'tau'. You can override using the
`.groups` argument.
`summarise()` has grouped output by 'theta'. You can override using the
`.groups` argument.
`summarise()` has grouped output by 'theta', 'tau'. You can override using the
`.groups` argument.
`summarise()` has grouped output by 'theta'. You can override using the
`.groups` argument.
[1] ""
[1] "Total run time was 383.818 seconds"
[1] "Estimation result: "
# A tibble: 360 × 5
   estimand theta   tau   est     se
   <chr>    <dbl> <dbl> <dbl>  <dbl>
 1 mu         0.1   0.1 0.397 0.0922
 2 mu         0.1   0.2 0.436 0.0809
 3 mu         0.1   0.3 0.439 0.0805
 4 mu         0.1   0.4 0.482 0.0980
 5 mu         0.1   0.5 0.551 0.111 
 6 mu         0.2   0.1 0.398 0.0584
 7 mu         0.2   0.2 0.450 0.0405
 8 mu         0.2   0.3 0.469 0.0352
 9 mu         0.2   0.4 0.513 0.0545
10 mu         0.2   0.5 0.574 0.0602
# ℹ 350 more rows
…
