…
`.groups` argument.
`summarise()` has grouped output by 'theta'. You can override using the
`.groups` argument.
`summarise()` has grouped output by 'theta', 'tau'. You can override using the
`.groups` argument.
`summarise()` has grouped output by 'theta'. You can override using the
`.groups` argument.
`summarise()` has grouped output by 'theta', 'tau'. You can override using the
`.groups` argument.
`summarise()` has grouped output by 'theta'. You can override using the
`.groups` argument.
[1] ""
[1] "Total run time was 415.002 seconds"
[1] "Estimation result: "
# A tibble: 360 × 5
   estimand theta   tau   est     se
   <chr>    <dbl> <dbl> <dbl>  <dbl>
 1 mu         0.1   0.1 0.438 0.139 
 2 mu         0.1   0.2 0.539 0.176 
 3 mu         0.1   0.3 0.555 0.180 
 4 mu         0.1   0.4 0.604 0.192 
 5 mu         0.1   0.5 0.627 0.200 
 6 mu         0.2   0.1 0.371 0.0728
 7 mu         0.2   0.2 0.462 0.0997
 8 mu         0.2   0.3 0.504 0.0788
 9 mu         0.2   0.4 0.560 0.0787
10 mu         0.2   0.5 0.600 0.0685
# ℹ 350 more rows
…
