…
`.groups` argument.
`summarise()` has grouped output by 'theta'. You can override using the
`.groups` argument.
`summarise()` has grouped output by 'theta', 'tau'. You can override using the
`.groups` argument.
`summarise()` has grouped output by 'theta'. You can override using the
`.groups` argument.
`summarise()` has grouped output by 'theta', 'tau'. You can override using the
`.groups` argument.
`summarise()` has grouped output by 'theta'. You can override using the
`.groups` argument.
[1] ""
[1] "Total run time was 369.726 seconds"
[1] "Estimation result: "
# A tibble: 360 × 5
   estimand theta   tau   est     se
   <chr>    <dbl> <dbl> <dbl>  <dbl>
 1 mu         0.1   0.1 0.543 0.278 
 2 mu         0.1   0.2 0.710 0.343 
 3 mu         0.1   0.3 0.833 0.386 
 4 mu         0.1   0.4 0.874 0.417 
 5 mu         0.1   0.5 0.921 0.433 
 6 mu         0.2   0.1 0.345 0.0454
 7 mu         0.2   0.2 0.467 0.0592
 8 mu         0.2   0.3 0.557 0.0669
 9 mu         0.2   0.4 0.583 0.0645
10 mu         0.2   0.5 0.622 0.0670
# ℹ 350 more rows
…
