…
`.groups` argument.
`summarise()` has grouped output by 'theta'. You can override using the
`.groups` argument.
`summarise()` has grouped output by 'theta', 'tau'. You can override using the
`.groups` argument.
`summarise()` has grouped output by 'theta'. You can override using the
`.groups` argument.
`summarise()` has grouped output by 'theta', 'tau'. You can override using the
`.groups` argument.
`summarise()` has grouped output by 'theta'. You can override using the
`.groups` argument.
[1] ""
[1] "Total run time was 376.377 seconds"
[1] "Estimation result: "
# A tibble: 360 × 5
   estimand theta   tau   est     se
   <chr>    <dbl> <dbl> <dbl>  <dbl>
 1 mu         0.1   0.1 0.200 0.0412
 2 mu         0.1   0.2 0.309 0.0934
 3 mu         0.1   0.3 0.329 0.0779
 4 mu         0.1   0.4 0.363 0.0985
 5 mu         0.1   0.5 0.403 0.0987
 6 mu         0.2   0.1 0.298 0.0627
 7 mu         0.2   0.2 0.433 0.107 
 8 mu         0.2   0.3 0.472 0.0996
 9 mu         0.2   0.4 0.529 0.120 
10 mu         0.2   0.5 0.578 0.123 
# ℹ 350 more rows
…
