…
`.groups` argument.
`summarise()` has grouped output by 'theta'. You can override using the
`.groups` argument.
`summarise()` has grouped output by 'theta', 'tau'. You can override using the
`.groups` argument.
`summarise()` has grouped output by 'theta'. You can override using the
`.groups` argument.
`summarise()` has grouped output by 'theta', 'tau'. You can override using the
`.groups` argument.
`summarise()` has grouped output by 'theta'. You can override using the
`.groups` argument.
[1] ""
[1] "Total run time was 397.558 seconds"
[1] "Estimation result: "
# A tibble: 360 × 5
   estimand theta   tau   est     se
   <chr>    <dbl> <dbl> <dbl>  <dbl>
 1 mu         0.1   0.1 0.471 0.0932
 2 mu         0.1   0.2 0.589 0.115 
 3 mu         0.1   0.3 0.623 0.107 
 4 mu         0.1   0.4 0.694 0.111 
 5 mu         0.1   0.5 0.716 0.109 
 6 mu         0.2   0.1 0.362 0.0511
 7 mu         0.2   0.2 0.463 0.0650
 8 mu         0.2   0.3 0.492 0.0506
 9 mu         0.2   0.4 0.560 0.0604
10 mu         0.2   0.5 0.579 0.0497
# ℹ 350 more rows
…
