…
`.groups` argument.
`summarise()` has grouped output by 'theta'. You can override using the
`.groups` argument.
`summarise()` has grouped output by 'theta', 'tau'. You can override using the
`.groups` argument.
`summarise()` has grouped output by 'theta'. You can override using the
`.groups` argument.
`summarise()` has grouped output by 'theta', 'tau'. You can override using the
`.groups` argument.
`summarise()` has grouped output by 'theta'. You can override using the
`.groups` argument.
[1] ""
[1] "Total run time was 443.635 seconds"
[1] "Estimation result: "
# A tibble: 360 × 5
   estimand theta   tau   est     se
   <chr>    <dbl> <dbl> <dbl>  <dbl>
 1 mu         0.1   0.1 0.229 0.0470
 2 mu         0.1   0.2 0.330 0.0732
 3 mu         0.1   0.3 0.333 0.0695
 4 mu         0.1   0.4 0.333 0.0699
 5 mu         0.1   0.5 0.356 0.0749
 6 mu         0.2   0.1 0.347 0.0482
 7 mu         0.2   0.2 0.453 0.0589
 8 mu         0.2   0.3 0.478 0.0525
 9 mu         0.2   0.4 0.500 0.0535
10 mu         0.2   0.5 0.533 0.0582
# ℹ 350 more rows
…
