…
`.groups` argument.
`summarise()` has grouped output by 'theta'. You can override using the
`.groups` argument.
`summarise()` has grouped output by 'theta', 'tau'. You can override using the
`.groups` argument.
`summarise()` has grouped output by 'theta'. You can override using the
`.groups` argument.
`summarise()` has grouped output by 'theta', 'tau'. You can override using the
`.groups` argument.
`summarise()` has grouped output by 'theta'. You can override using the
`.groups` argument.
[1] ""
[1] "Total run time was 510.753 seconds"
[1] "Estimation result: "
# A tibble: 360 × 5
   estimand theta   tau   est     se
   <chr>    <dbl> <dbl> <dbl>  <dbl>
 1 mu         0.1   0.1 0.349 0.0522
 2 mu         0.1   0.2 0.412 0.0500
 3 mu         0.1   0.3 0.464 0.0573
 4 mu         0.1   0.4 0.507 0.0580
 5 mu         0.1   0.5 0.603 0.0694
 6 mu         0.2   0.1 0.334 0.0314
 7 mu         0.2   0.2 0.397 0.0327
 8 mu         0.2   0.3 0.445 0.0376
 9 mu         0.2   0.4 0.501 0.0358
10 mu         0.2   0.5 0.593 0.0527
# ℹ 350 more rows
…
