…
`.groups` argument.
`summarise()` has grouped output by 'theta'. You can override using the
`.groups` argument.
`summarise()` has grouped output by 'theta', 'tau'. You can override using the
`.groups` argument.
`summarise()` has grouped output by 'theta'. You can override using the
`.groups` argument.
`summarise()` has grouped output by 'theta', 'tau'. You can override using the
`.groups` argument.
`summarise()` has grouped output by 'theta'. You can override using the
`.groups` argument.
[1] ""
[1] "Total run time was 392.639 seconds"
[1] "Estimation result: "
# A tibble: 360 × 5
   estimand theta   tau   est     se
   <chr>    <dbl> <dbl> <dbl>  <dbl>
 1 mu         0.1   0.1 0.336 0.0567
 2 mu         0.1   0.2 0.419 0.0581
 3 mu         0.1   0.3 0.461 0.0623
 4 mu         0.1   0.4 0.502 0.0668
 5 mu         0.1   0.5 0.587 0.0774
 6 mu         0.2   0.1 0.379 0.0398
 7 mu         0.2   0.2 0.499 0.0418
 8 mu         0.2   0.3 0.554 0.0433
 9 mu         0.2   0.4 0.605 0.0431
10 mu         0.2   0.5 0.682 0.0481
# ℹ 350 more rows
…
