…
`.groups` argument.
`summarise()` has grouped output by 'theta'. You can override using the
`.groups` argument.
`summarise()` has grouped output by 'theta', 'tau'. You can override using the
`.groups` argument.
`summarise()` has grouped output by 'theta'. You can override using the
`.groups` argument.
`summarise()` has grouped output by 'theta', 'tau'. You can override using the
`.groups` argument.
`summarise()` has grouped output by 'theta'. You can override using the
`.groups` argument.
[1] ""
[1] "Total run time was 441.899 seconds"
[1] "Estimation result: "
# A tibble: 360 × 5
   estimand theta   tau   est     se
   <chr>    <dbl> <dbl> <dbl>  <dbl>
 1 mu         0.1   0.1 0.326 0.0488
 2 mu         0.1   0.2 0.406 0.0592
 3 mu         0.1   0.3 0.467 0.0758
 4 mu         0.1   0.4 0.504 0.0799
 5 mu         0.1   0.5 0.575 0.0886
 6 mu         0.2   0.1 0.372 0.0300
 7 mu         0.2   0.2 0.492 0.0394
 8 mu         0.2   0.3 0.539 0.0378
 9 mu         0.2   0.4 0.593 0.0376
10 mu         0.2   0.5 0.653 0.0362
# ℹ 350 more rows
…
