…
`.groups` argument.
`summarise()` has grouped output by 'theta'. You can override using the
`.groups` argument.
`summarise()` has grouped output by 'theta', 'tau'. You can override using the
`.groups` argument.
`summarise()` has grouped output by 'theta'. You can override using the
`.groups` argument.
`summarise()` has grouped output by 'theta', 'tau'. You can override using the
`.groups` argument.
`summarise()` has grouped output by 'theta'. You can override using the
`.groups` argument.
[1] ""
[1] "Total run time was 511.521 seconds"
[1] "Estimation result: "
# A tibble: 360 × 5
   estimand theta   tau   est     se
   <chr>    <dbl> <dbl> <dbl>  <dbl>
 1 mu         0.1   0.1 0.449 0.184 
 2 mu         0.1   0.2 0.556 0.172 
 3 mu         0.1   0.3 0.630 0.196 
 4 mu         0.1   0.4 0.692 0.201 
 5 mu         0.1   0.5 0.723 0.218 
 6 mu         0.2   0.1 0.371 0.123 
 7 mu         0.2   0.2 0.464 0.0871
 8 mu         0.2   0.3 0.528 0.0944
 9 mu         0.2   0.4 0.585 0.0871
10 mu         0.2   0.5 0.617 0.0950
# ℹ 350 more rows
…
