…
`.groups` argument.
`summarise()` has grouped output by 'theta'. You can override using the
`.groups` argument.
`summarise()` has grouped output by 'theta', 'tau'. You can override using the
`.groups` argument.
`summarise()` has grouped output by 'theta'. You can override using the
`.groups` argument.
`summarise()` has grouped output by 'theta', 'tau'. You can override using the
`.groups` argument.
`summarise()` has grouped output by 'theta'. You can override using the
`.groups` argument.
[1] ""
[1] "Total run time was 448.628 seconds"
[1] "Estimation result: "
# A tibble: 360 × 5
   estimand theta   tau   est     se
   <chr>    <dbl> <dbl> <dbl>  <dbl>
 1 mu         0.1   0.1 0.454 0.127 
 2 mu         0.1   0.2 0.598 0.160 
 3 mu         0.1   0.3 0.685 0.187 
 4 mu         0.1   0.4 0.736 0.202 
 5 mu         0.1   0.5 0.777 0.221 
 6 mu         0.2   0.1 0.309 0.0759
 7 mu         0.2   0.2 0.435 0.0770
 8 mu         0.2   0.3 0.495 0.0898
 9 mu         0.2   0.4 0.524 0.0980
10 mu         0.2   0.5 0.550 0.111 
# ℹ 350 more rows
…
