…
`.groups` argument.
`summarise()` has grouped output by 'theta'. You can override using the
`.groups` argument.
`summarise()` has grouped output by 'theta', 'tau'. You can override using the
`.groups` argument.
`summarise()` has grouped output by 'theta'. You can override using the
`.groups` argument.
`summarise()` has grouped output by 'theta', 'tau'. You can override using the
`.groups` argument.
`summarise()` has grouped output by 'theta'. You can override using the
`.groups` argument.
[1] ""
[1] "Total run time was 417.223 seconds"
[1] "Estimation result: "
# A tibble: 360 × 5
   estimand theta   tau   est     se
   <chr>    <dbl> <dbl> <dbl>  <dbl>
 1 mu         0.1   0.1 0.420 0.102 
 2 mu         0.1   0.2 0.542 0.107 
 3 mu         0.1   0.3 0.616 0.112 
 4 mu         0.1   0.4 0.637 0.108 
 5 mu         0.1   0.5 0.679 0.112 
 6 mu         0.2   0.1 0.372 0.0720
 7 mu         0.2   0.2 0.481 0.0704
 8 mu         0.2   0.3 0.547 0.0708
 9 mu         0.2   0.4 0.567 0.0644
10 mu         0.2   0.5 0.606 0.0644
# ℹ 350 more rows
…
