…
`.groups` argument.
`summarise()` has grouped output by 'theta'. You can override using the
`.groups` argument.
`summarise()` has grouped output by 'theta', 'tau'. You can override using the
`.groups` argument.
`summarise()` has grouped output by 'theta'. You can override using the
`.groups` argument.
`summarise()` has grouped output by 'theta', 'tau'. You can override using the
`.groups` argument.
`summarise()` has grouped output by 'theta'. You can override using the
`.groups` argument.
[1] ""
[1] "Total run time was 446.87 seconds"
[1] "Estimation result: "
# A tibble: 360 × 5
   estimand theta   tau   est     se
   <chr>    <dbl> <dbl> <dbl>  <dbl>
 1 mu         0.1   0.1 0.232 0.0831
 2 mu         0.1   0.2 0.339 0.111 
 3 mu         0.1   0.3 0.344 0.125 
 4 mu         0.1   0.4 0.374 0.141 
 5 mu         0.1   0.5 0.405 0.153 
 6 mu         0.2   0.1 0.297 0.0420
 7 mu         0.2   0.2 0.400 0.0426
 8 mu         0.2   0.3 0.423 0.0430
 9 mu         0.2   0.4 0.453 0.0436
10 mu         0.2   0.5 0.483 0.0450
# ℹ 350 more rows
…
