…
`.groups` argument.
`summarise()` has grouped output by 'theta'. You can override using the
`.groups` argument.
`summarise()` has grouped output by 'theta', 'tau'. You can override using the
`.groups` argument.
`summarise()` has grouped output by 'theta'. You can override using the
`.groups` argument.
`summarise()` has grouped output by 'theta', 'tau'. You can override using the
`.groups` argument.
`summarise()` has grouped output by 'theta'. You can override using the
`.groups` argument.
[1] ""
[1] "Total run time was 390.763 seconds"
[1] "Estimation result: "
# A tibble: 360 × 5
   estimand theta   tau   est     se
   <chr>    <dbl> <dbl> <dbl>  <dbl>
 1 mu         0.1   0.1 0.378 0.0745
 2 mu         0.1   0.2 0.431 0.0763
 3 mu         0.1   0.3 0.498 0.0848
 4 mu         0.1   0.4 0.523 0.0826
 5 mu         0.1   0.5 0.577 0.100 
 6 mu         0.2   0.1 0.354 0.0508
 7 mu         0.2   0.2 0.409 0.0434
 8 mu         0.2   0.3 0.473 0.0439
 9 mu         0.2   0.4 0.498 0.0349
10 mu         0.2   0.5 0.555 0.0508
# ℹ 350 more rows
…
