…
`.groups` argument.
`summarise()` has grouped output by 'theta'. You can override using the
`.groups` argument.
`summarise()` has grouped output by 'theta', 'tau'. You can override using the
`.groups` argument.
`summarise()` has grouped output by 'theta'. You can override using the
`.groups` argument.
`summarise()` has grouped output by 'theta', 'tau'. You can override using the
`.groups` argument.
`summarise()` has grouped output by 'theta'. You can override using the
`.groups` argument.
[1] ""
[1] "Total run time was 1761.138 seconds"
[1] "Estimation result: "
# A tibble: 360 × 5
   estimand theta   tau   est     se
   <chr>    <dbl> <dbl> <dbl>  <dbl>
 1 mu         0.1   0.1 0.492 0.126 
 2 mu         0.1   0.2 0.544 0.118 
 3 mu         0.1   0.3 0.549 0.103 
 4 mu         0.1   0.4 0.598 0.114 
 5 mu         0.1   0.5 0.612 0.107 
 6 mu         0.2   0.1 0.476 0.102 
 7 mu         0.2   0.2 0.540 0.0848
 8 mu         0.2   0.3 0.589 0.0766
 9 mu         0.2   0.4 0.649 0.0851
10 mu         0.2   0.5 0.672 0.0732
# ℹ 350 more rows
…
