…
`.groups` argument.
`summarise()` has grouped output by 'theta'. You can override using the
`.groups` argument.
`summarise()` has grouped output by 'theta', 'tau'. You can override using the
`.groups` argument.
`summarise()` has grouped output by 'theta'. You can override using the
`.groups` argument.
`summarise()` has grouped output by 'theta', 'tau'. You can override using the
`.groups` argument.
`summarise()` has grouped output by 'theta'. You can override using the
`.groups` argument.
[1] ""
[1] "Total run time was 420.76 seconds"
[1] "Estimation result: "
# A tibble: 360 × 5
   estimand theta   tau   est     se
   <chr>    <dbl> <dbl> <dbl>  <dbl>
 1 mu         0.1   0.1 0.373 0.0568
 2 mu         0.1   0.2 0.431 0.0570
 3 mu         0.1   0.3 0.503 0.0700
 4 mu         0.1   0.4 0.535 0.0713
 5 mu         0.1   0.5 0.581 0.0784
 6 mu         0.2   0.1 0.339 0.0272
 7 mu         0.2   0.2 0.413 0.0281
 8 mu         0.2   0.3 0.478 0.0351
 9 mu         0.2   0.4 0.517 0.0350
10 mu         0.2   0.5 0.561 0.0413
# ℹ 350 more rows
…
