…
`.groups` argument.
`summarise()` has grouped output by 'theta'. You can override using the
`.groups` argument.
`summarise()` has grouped output by 'theta', 'tau'. You can override using the
`.groups` argument.
`summarise()` has grouped output by 'theta'. You can override using the
`.groups` argument.
`summarise()` has grouped output by 'theta', 'tau'. You can override using the
`.groups` argument.
`summarise()` has grouped output by 'theta'. You can override using the
`.groups` argument.
[1] ""
[1] "Total run time was 496.765 seconds"
[1] "Estimation result: "
# A tibble: 360 × 5
   estimand theta   tau   est     se
   <chr>    <dbl> <dbl> <dbl>  <dbl>
 1 mu         0.1   0.1 0.244 0.0427
 2 mu         0.1   0.2 0.317 0.0569
 3 mu         0.1   0.3 0.359 0.0620
 4 mu         0.1   0.4 0.443 0.0767
 5 mu         0.1   0.5 0.461 0.0772
 6 mu         0.2   0.1 0.301 0.0262
 7 mu         0.2   0.2 0.371 0.0343
 8 mu         0.2   0.3 0.424 0.0361
 9 mu         0.2   0.4 0.496 0.0456
10 mu         0.2   0.5 0.530 0.0431
# ℹ 350 more rows
…
