…
`.groups` argument.
`summarise()` has grouped output by 'theta'. You can override using the
`.groups` argument.
`summarise()` has grouped output by 'theta', 'tau'. You can override using the
`.groups` argument.
`summarise()` has grouped output by 'theta'. You can override using the
`.groups` argument.
`summarise()` has grouped output by 'theta', 'tau'. You can override using the
`.groups` argument.
`summarise()` has grouped output by 'theta'. You can override using the
`.groups` argument.
[1] ""
[1] "Total run time was 460.118 seconds"
[1] "Estimation result: "
# A tibble: 360 × 5
   estimand theta   tau   est     se
   <chr>    <dbl> <dbl> <dbl>  <dbl>
 1 mu         0.1   0.1 0.245 0.0585
 2 mu         0.1   0.2 0.291 0.0683
 3 mu         0.1   0.3 0.382 0.124 
 4 mu         0.1   0.4 0.405 0.121 
 5 mu         0.1   0.5 0.454 0.121 
 6 mu         0.2   0.1 0.319 0.0400
 7 mu         0.2   0.2 0.382 0.0407
 8 mu         0.2   0.3 0.492 0.0928
 9 mu         0.2   0.4 0.527 0.0876
10 mu         0.2   0.5 0.578 0.0885
# ℹ 350 more rows
…
