…
`.groups` argument.
`summarise()` has grouped output by 'theta'. You can override using the
`.groups` argument.
`summarise()` has grouped output by 'theta', 'tau'. You can override using the
`.groups` argument.
`summarise()` has grouped output by 'theta'. You can override using the
`.groups` argument.
`summarise()` has grouped output by 'theta', 'tau'. You can override using the
`.groups` argument.
`summarise()` has grouped output by 'theta'. You can override using the
`.groups` argument.
[1] ""
[1] "Total run time was 431.741 seconds"
[1] "Estimation result: "
# A tibble: 360 × 5
   estimand theta   tau   est     se
   <chr>    <dbl> <dbl> <dbl>  <dbl>
 1 mu         0.1   0.1 0.337 0.0674
 2 mu         0.1   0.2 0.420 0.0906
 3 mu         0.1   0.3 0.504 0.0956
 4 mu         0.1   0.4 0.601 0.0860
 5 mu         0.1   0.5 0.646 0.100 
 6 mu         0.2   0.1 0.350 0.0345
 7 mu         0.2   0.2 0.434 0.0441
 8 mu         0.2   0.3 0.495 0.0454
 9 mu         0.2   0.4 0.569 0.0382
10 mu         0.2   0.5 0.614 0.0474
# ℹ 350 more rows
…
