…
`.groups` argument.
`summarise()` has grouped output by 'theta'. You can override using the
`.groups` argument.
`summarise()` has grouped output by 'theta', 'tau'. You can override using the
`.groups` argument.
`summarise()` has grouped output by 'theta'. You can override using the
`.groups` argument.
`summarise()` has grouped output by 'theta', 'tau'. You can override using the
`.groups` argument.
`summarise()` has grouped output by 'theta'. You can override using the
`.groups` argument.
[1] ""
[1] "Total run time was 395.55 seconds"
[1] "Estimation result: "
# A tibble: 360 × 5
   estimand theta   tau   est     se
   <chr>    <dbl> <dbl> <dbl>  <dbl>
 1 mu         0.1   0.1 0.418 0.0961
 2 mu         0.1   0.2 0.505 0.0847
 3 mu         0.1   0.3 0.555 0.0910
 4 mu         0.1   0.4 0.607 0.111 
 5 mu         0.1   0.5 0.641 0.0909
 6 mu         0.2   0.1 0.368 0.0513
 7 mu         0.2   0.2 0.472 0.0536
 8 mu         0.2   0.3 0.512 0.0438
 9 mu         0.2   0.4 0.553 0.0497
10 mu         0.2   0.5 0.602 0.0370
# ℹ 350 more rows
…
