…
`.groups` argument.
`summarise()` has grouped output by 'theta'. You can override using the
`.groups` argument.
`summarise()` has grouped output by 'theta', 'tau'. You can override using the
`.groups` argument.
`summarise()` has grouped output by 'theta'. You can override using the
`.groups` argument.
`summarise()` has grouped output by 'theta', 'tau'. You can override using the
`.groups` argument.
`summarise()` has grouped output by 'theta'. You can override using the
`.groups` argument.
[1] ""
[1] "Total run time was 569.715 seconds"
[1] "Estimation result: "
# A tibble: 360 × 5
   estimand theta   tau   est     se
   <chr>    <dbl> <dbl> <dbl>  <dbl>
 1 mu         0.1   0.1 0.465 0.0621
 2 mu         0.1   0.2 0.547 0.0653
 3 mu         0.1   0.3 0.613 0.0726
 4 mu         0.1   0.4 0.652 0.0735
 5 mu         0.1   0.5 0.695 0.0772
 6 mu         0.2   0.1 0.422 0.0484
 7 mu         0.2   0.2 0.506 0.0440
 8 mu         0.2   0.3 0.559 0.0403
 9 mu         0.2   0.4 0.605 0.0405
10 mu         0.2   0.5 0.652 0.0447
# ℹ 350 more rows
…
