…
`.groups` argument.
`summarise()` has grouped output by 'theta'. You can override using the
`.groups` argument.
`summarise()` has grouped output by 'theta', 'tau'. You can override using the
`.groups` argument.
`summarise()` has grouped output by 'theta'. You can override using the
`.groups` argument.
`summarise()` has grouped output by 'theta', 'tau'. You can override using the
`.groups` argument.
`summarise()` has grouped output by 'theta'. You can override using the
`.groups` argument.
[1] ""
[1] "Total run time was 531.044 seconds"
[1] "Estimation result: "
# A tibble: 360 × 5
   estimand theta   tau   est     se
   <chr>    <dbl> <dbl> <dbl>  <dbl>
 1 mu         0.1   0.1 0.366 0.0770
 2 mu         0.1   0.2 0.422 0.0776
 3 mu         0.1   0.3 0.447 0.0875
 4 mu         0.1   0.4 0.477 0.111 
 5 mu         0.1   0.5 0.516 0.124 
 6 mu         0.2   0.1 0.417 0.0570
 7 mu         0.2   0.2 0.497 0.0546
 8 mu         0.2   0.3 0.544 0.0594
 9 mu         0.2   0.4 0.589 0.0708
10 mu         0.2   0.5 0.632 0.0794
# ℹ 350 more rows
…
