…
`.groups` argument.
`summarise()` has grouped output by 'theta'. You can override using the
`.groups` argument.
`summarise()` has grouped output by 'theta', 'tau'. You can override using the
`.groups` argument.
`summarise()` has grouped output by 'theta'. You can override using the
`.groups` argument.
`summarise()` has grouped output by 'theta', 'tau'. You can override using the
`.groups` argument.
`summarise()` has grouped output by 'theta'. You can override using the
`.groups` argument.
[1] ""
[1] "Total run time was 582.954 seconds"
[1] "Estimation result: "
# A tibble: 360 × 5
   estimand theta   tau   est     se
   <chr>    <dbl> <dbl> <dbl>  <dbl>
 1 mu         0.1   0.1 0.341 0.0810
 2 mu         0.1   0.2 0.391 0.0915
 3 mu         0.1   0.3 0.473 0.115 
 4 mu         0.1   0.4 0.510 0.122 
 5 mu         0.1   0.5 0.554 0.134 
 6 mu         0.2   0.1 0.387 0.0515
 7 mu         0.2   0.2 0.464 0.0560
 8 mu         0.2   0.3 0.555 0.0788
 9 mu         0.2   0.4 0.610 0.0823
10 mu         0.2   0.5 0.661 0.0909
# ℹ 350 more rows
…
