…
`.groups` argument.
`summarise()` has grouped output by 'theta'. You can override using the
`.groups` argument.
`summarise()` has grouped output by 'theta', 'tau'. You can override using the
`.groups` argument.
`summarise()` has grouped output by 'theta'. You can override using the
`.groups` argument.
`summarise()` has grouped output by 'theta', 'tau'. You can override using the
`.groups` argument.
`summarise()` has grouped output by 'theta'. You can override using the
`.groups` argument.
[1] ""
[1] "Total run time was 417.307 seconds"
[1] "Estimation result: "
# A tibble: 360 × 5
   estimand theta   tau   est     se
   <chr>    <dbl> <dbl> <dbl>  <dbl>
 1 mu         0.1   0.1 0.236 0.0578
 2 mu         0.1   0.2 0.240 0.0695
 3 mu         0.1   0.3 0.284 0.0663
 4 mu         0.1   0.4 0.304 0.0763
 5 mu         0.1   0.5 0.286 0.0714
 6 mu         0.2   0.1 0.332 0.0467
 7 mu         0.2   0.2 0.369 0.0520
 8 mu         0.2   0.3 0.428 0.0514
 9 mu         0.2   0.4 0.459 0.0576
10 mu         0.2   0.5 0.463 0.0552
# ℹ 350 more rows
…
