…
`.groups` argument.
`summarise()` has grouped output by 'theta'. You can override using the
`.groups` argument.
`summarise()` has grouped output by 'theta', 'tau'. You can override using the
`.groups` argument.
`summarise()` has grouped output by 'theta'. You can override using the
`.groups` argument.
`summarise()` has grouped output by 'theta', 'tau'. You can override using the
`.groups` argument.
`summarise()` has grouped output by 'theta'. You can override using the
`.groups` argument.
[1] ""
[1] "Total run time was 434.65 seconds"
[1] "Estimation result: "
# A tibble: 360 × 5
   estimand theta   tau   est     se
   <chr>    <dbl> <dbl> <dbl>  <dbl>
 1 mu         0.1   0.1 0.337 0.142 
 2 mu         0.1   0.2 0.402 0.163 
 3 mu         0.1   0.3 0.466 0.187 
 4 mu         0.1   0.4 0.498 0.203 
 5 mu         0.1   0.5 0.547 0.221 
 6 mu         0.2   0.1 0.304 0.0633
 7 mu         0.2   0.2 0.366 0.0461
 8 mu         0.2   0.3 0.431 0.0613
 9 mu         0.2   0.4 0.455 0.0515
10 mu         0.2   0.5 0.509 0.0722
# ℹ 350 more rows
…
