…
`.groups` argument.
`summarise()` has grouped output by 'theta'. You can override using the
`.groups` argument.
`summarise()` has grouped output by 'theta', 'tau'. You can override using the
`.groups` argument.
`summarise()` has grouped output by 'theta'. You can override using the
`.groups` argument.
`summarise()` has grouped output by 'theta', 'tau'. You can override using the
`.groups` argument.
`summarise()` has grouped output by 'theta'. You can override using the
`.groups` argument.
[1] ""
[1] "Total run time was 440.074 seconds"
[1] "Estimation result: "
# A tibble: 360 × 5
   estimand theta   tau   est     se
   <chr>    <dbl> <dbl> <dbl>  <dbl>
 1 mu         0.1   0.1 0.470 0.0745
 2 mu         0.1   0.2 0.563 0.0848
 3 mu         0.1   0.3 0.630 0.0915
 4 mu         0.1   0.4 0.695 0.104 
 5 mu         0.1   0.5 0.727 0.109 
 6 mu         0.2   0.1 0.391 0.0427
 7 mu         0.2   0.2 0.466 0.0492
 8 mu         0.2   0.3 0.534 0.0448
 9 mu         0.2   0.4 0.588 0.0498
10 mu         0.2   0.5 0.612 0.0490
# ℹ 350 more rows
…
