…
`.groups` argument.
`summarise()` has grouped output by 'theta'. You can override using the
`.groups` argument.
`summarise()` has grouped output by 'theta', 'tau'. You can override using the
`.groups` argument.
`summarise()` has grouped output by 'theta'. You can override using the
`.groups` argument.
`summarise()` has grouped output by 'theta', 'tau'. You can override using the
`.groups` argument.
`summarise()` has grouped output by 'theta'. You can override using the
`.groups` argument.
[1] ""
[1] "Total run time was 778.188 seconds"
[1] "Estimation result: "
# A tibble: 360 × 5
   estimand theta   tau   est     se
   <chr>    <dbl> <dbl> <dbl>  <dbl>
 1 mu         0.1   0.1 0.257 0.0783
 2 mu         0.1   0.2 0.340 0.0950
 3 mu         0.1   0.3 0.446 0.111 
 4 mu         0.1   0.4 0.459 0.119 
 5 mu         0.1   0.5 0.460 0.127 
 6 mu         0.2   0.1 0.286 0.0480
 7 mu         0.2   0.2 0.375 0.0523
 8 mu         0.2   0.3 0.485 0.0676
 9 mu         0.2   0.4 0.508 0.0688
10 mu         0.2   0.5 0.517 0.0700
# ℹ 350 more rows
…
