…
`.groups` argument.
`summarise()` has grouped output by 'theta'. You can override using the
`.groups` argument.
`summarise()` has grouped output by 'theta', 'tau'. You can override using the
`.groups` argument.
`summarise()` has grouped output by 'theta'. You can override using the
`.groups` argument.
`summarise()` has grouped output by 'theta', 'tau'. You can override using the
`.groups` argument.
`summarise()` has grouped output by 'theta'. You can override using the
`.groups` argument.
[1] ""
[1] "Total run time was 416.192 seconds"
[1] "Estimation result: "
# A tibble: 360 × 5
   estimand theta   tau   est     se
   <chr>    <dbl> <dbl> <dbl>  <dbl>
 1 mu         0.1   0.1 0.342 0.0672
 2 mu         0.1   0.2 0.467 0.0863
 3 mu         0.1   0.3 0.542 0.0975
 4 mu         0.1   0.4 0.587 0.109 
 5 mu         0.1   0.5 0.619 0.111 
 6 mu         0.2   0.1 0.393 0.0393
 7 mu         0.2   0.2 0.522 0.0555
 8 mu         0.2   0.3 0.607 0.0624
 9 mu         0.2   0.4 0.660 0.0731
10 mu         0.2   0.5 0.702 0.0719
# ℹ 350 more rows
…
