…
`.groups` argument.
`summarise()` has grouped output by 'theta'. You can override using the
`.groups` argument.
`summarise()` has grouped output by 'theta', 'tau'. You can override using the
`.groups` argument.
`summarise()` has grouped output by 'theta'. You can override using the
`.groups` argument.
`summarise()` has grouped output by 'theta', 'tau'. You can override using the
`.groups` argument.
`summarise()` has grouped output by 'theta'. You can override using the
`.groups` argument.
[1] ""
[1] "Total run time was 364.096 seconds"
[1] "Estimation result: "
# A tibble: 360 × 5
   estimand theta   tau   est     se
   <chr>    <dbl> <dbl> <dbl>  <dbl>
 1 mu         0.1   0.1 0.356 0.0559
 2 mu         0.1   0.2 0.436 0.0565
 3 mu         0.1   0.3 0.497 0.0554
 4 mu         0.1   0.4 0.567 0.0634
 5 mu         0.1   0.5 0.612 0.0652
 6 mu         0.2   0.1 0.362 0.0408
 7 mu         0.2   0.2 0.440 0.0370
 8 mu         0.2   0.3 0.506 0.0360
 9 mu         0.2   0.4 0.572 0.0420
10 mu         0.2   0.5 0.614 0.0416
# ℹ 350 more rows
…
