…
`.groups` argument.
`summarise()` has grouped output by 'theta'. You can override using the
`.groups` argument.
`summarise()` has grouped output by 'theta', 'tau'. You can override using the
`.groups` argument.
`summarise()` has grouped output by 'theta'. You can override using the
`.groups` argument.
`summarise()` has grouped output by 'theta', 'tau'. You can override using the
`.groups` argument.
`summarise()` has grouped output by 'theta'. You can override using the
`.groups` argument.
[1] ""
[1] "Total run time was 382.546 seconds"
[1] "Estimation result: "
# A tibble: 360 × 5
   estimand theta   tau   est     se
   <chr>    <dbl> <dbl> <dbl>  <dbl>
 1 mu         0.1   0.1 0.489 0.179 
 2 mu         0.1   0.2 0.601 0.219 
 3 mu         0.1   0.3 0.660 0.244 
 4 mu         0.1   0.4 0.722 0.270 
 5 mu         0.1   0.5 0.749 0.287 
 6 mu         0.2   0.1 0.453 0.0671
 7 mu         0.2   0.2 0.570 0.0846
 8 mu         0.2   0.3 0.623 0.0888
 9 mu         0.2   0.4 0.689 0.0942
10 mu         0.2   0.5 0.720 0.0924
# ℹ 350 more rows
…
