…
`.groups` argument.
`summarise()` has grouped output by 'theta'. You can override using the
`.groups` argument.
`summarise()` has grouped output by 'theta', 'tau'. You can override using the
`.groups` argument.
`summarise()` has grouped output by 'theta'. You can override using the
`.groups` argument.
`summarise()` has grouped output by 'theta', 'tau'. You can override using the
`.groups` argument.
`summarise()` has grouped output by 'theta'. You can override using the
`.groups` argument.
[1] ""
[1] "Total run time was 413.602 seconds"
[1] "Estimation result: "
# A tibble: 360 × 5
   estimand theta   tau   est     se
   <chr>    <dbl> <dbl> <dbl>  <dbl>
 1 mu         0.1   0.1 0.236 0.0366
 2 mu         0.1   0.2 0.341 0.0616
 3 mu         0.1   0.3 0.333 0.0592
 4 mu         0.1   0.4 0.358 0.0515
 5 mu         0.1   0.5 0.367 0.0582
 6 mu         0.2   0.1 0.345 0.0272
 7 mu         0.2   0.2 0.463 0.0409
 8 mu         0.2   0.3 0.493 0.0415
 9 mu         0.2   0.4 0.536 0.0363
10 mu         0.2   0.5 0.575 0.0432
# ℹ 350 more rows
…
