…
`.groups` argument.
`summarise()` has grouped output by 'theta'. You can override using the
`.groups` argument.
`summarise()` has grouped output by 'theta', 'tau'. You can override using the
`.groups` argument.
`summarise()` has grouped output by 'theta'. You can override using the
`.groups` argument.
`summarise()` has grouped output by 'theta', 'tau'. You can override using the
`.groups` argument.
`summarise()` has grouped output by 'theta'. You can override using the
`.groups` argument.
[1] ""
[1] "Total run time was 487.739 seconds"
[1] "Estimation result: "
# A tibble: 360 × 5
   estimand theta   tau   est     se
   <chr>    <dbl> <dbl> <dbl>  <dbl>
 1 mu         0.1   0.1 0.437 0.135 
 2 mu         0.1   0.2 0.554 0.158 
 3 mu         0.1   0.3 0.620 0.179 
 4 mu         0.1   0.4 0.669 0.188 
 5 mu         0.1   0.5 0.698 0.197 
 6 mu         0.2   0.1 0.376 0.0827
 7 mu         0.2   0.2 0.478 0.0880
 8 mu         0.2   0.3 0.542 0.103 
 9 mu         0.2   0.4 0.585 0.0930
10 mu         0.2   0.5 0.611 0.0910
# ℹ 350 more rows
…
