…
`.groups` argument.
`summarise()` has grouped output by 'theta'. You can override using the
`.groups` argument.
`summarise()` has grouped output by 'theta', 'tau'. You can override using the
`.groups` argument.
`summarise()` has grouped output by 'theta'. You can override using the
`.groups` argument.
`summarise()` has grouped output by 'theta', 'tau'. You can override using the
`.groups` argument.
`summarise()` has grouped output by 'theta'. You can override using the
`.groups` argument.
[1] ""
[1] "Total run time was 491.249 seconds"
[1] "Estimation result: "
# A tibble: 360 × 5
   estimand theta   tau   est     se
   <chr>    <dbl> <dbl> <dbl>  <dbl>
 1 mu         0.1   0.1 0.308 0.0602
 2 mu         0.1   0.2 0.356 0.0687
 3 mu         0.1   0.3 0.390 0.0656
 4 mu         0.1   0.4 0.451 0.0793
 5 mu         0.1   0.5 0.475 0.0804
 6 mu         0.2   0.1 0.326 0.0431
 7 mu         0.2   0.2 0.395 0.0481
 8 mu         0.2   0.3 0.443 0.0395
 9 mu         0.2   0.4 0.520 0.0518
10 mu         0.2   0.5 0.551 0.0516
# ℹ 350 more rows
…
