…
`.groups` argument.
`summarise()` has grouped output by 'theta'. You can override using the
`.groups` argument.
`summarise()` has grouped output by 'theta', 'tau'. You can override using the
`.groups` argument.
`summarise()` has grouped output by 'theta'. You can override using the
`.groups` argument.
`summarise()` has grouped output by 'theta', 'tau'. You can override using the
`.groups` argument.
`summarise()` has grouped output by 'theta'. You can override using the
`.groups` argument.
[1] ""
[1] "Total run time was 437.907 seconds"
[1] "Estimation result: "
# A tibble: 360 × 5
   estimand theta   tau   est     se
   <chr>    <dbl> <dbl> <dbl>  <dbl>
 1 mu         0.1   0.1 0.564 0.162 
 2 mu         0.1   0.2 0.662 0.172 
 3 mu         0.1   0.3 0.732 0.177 
 4 mu         0.1   0.4 0.757 0.181 
 5 mu         0.1   0.5 0.788 0.187 
 6 mu         0.2   0.1 0.448 0.105 
 7 mu         0.2   0.2 0.537 0.101 
 8 mu         0.2   0.3 0.591 0.0911
 9 mu         0.2   0.4 0.612 0.0826
10 mu         0.2   0.5 0.640 0.0787
# ℹ 350 more rows
…
