…
`.groups` argument.
`summarise()` has grouped output by 'theta'. You can override using the
`.groups` argument.
`summarise()` has grouped output by 'theta', 'tau'. You can override using the
`.groups` argument.
`summarise()` has grouped output by 'theta'. You can override using the
`.groups` argument.
`summarise()` has grouped output by 'theta', 'tau'. You can override using the
`.groups` argument.
`summarise()` has grouped output by 'theta'. You can override using the
`.groups` argument.
[1] ""
[1] "Total run time was 362.366 seconds"
[1] "Estimation result: "
# A tibble: 360 × 5
   estimand theta   tau   est     se
   <chr>    <dbl> <dbl> <dbl>  <dbl>
 1 mu         0.1   0.1 0.572 0.0615
 2 mu         0.1   0.2 0.624 0.0605
 3 mu         0.1   0.3 0.686 0.0543
 4 mu         0.1   0.4 0.734 0.0573
 5 mu         0.1   0.5 0.794 0.0662
 6 mu         0.2   0.1 0.481 0.0370
 7 mu         0.2   0.2 0.522 0.0311
 8 mu         0.2   0.3 0.565 0.0433
 9 mu         0.2   0.4 0.594 0.0577
10 mu         0.2   0.5 0.641 0.0678
# ℹ 350 more rows
…
