…
`.groups` argument.
`summarise()` has grouped output by 'theta'. You can override using the
`.groups` argument.
`summarise()` has grouped output by 'theta', 'tau'. You can override using the
`.groups` argument.
`summarise()` has grouped output by 'theta'. You can override using the
`.groups` argument.
`summarise()` has grouped output by 'theta', 'tau'. You can override using the
`.groups` argument.
`summarise()` has grouped output by 'theta'. You can override using the
`.groups` argument.
[1] ""
[1] "Total run time was 374.833 seconds"
[1] "Estimation result: "
# A tibble: 360 × 5
   estimand theta   tau   est     se
   <chr>    <dbl> <dbl> <dbl>  <dbl>
 1 mu         0.1   0.1 0.371 0.0486
 2 mu         0.1   0.2 0.481 0.0603
 3 mu         0.1   0.3 0.593 0.0688
 4 mu         0.1   0.4 0.601 0.0998
 5 mu         0.1   0.5 0.632 0.114 
 6 mu         0.2   0.1 0.284 0.0410
 7 mu         0.2   0.2 0.395 0.0608
 8 mu         0.2   0.3 0.488 0.0720
 9 mu         0.2   0.4 0.479 0.0960
10 mu         0.2   0.5 0.497 0.106 
# ℹ 350 more rows
…
