…
`.groups` argument.
`summarise()` has grouped output by 'theta'. You can override using the
`.groups` argument.
`summarise()` has grouped output by 'theta', 'tau'. You can override using the
`.groups` argument.
`summarise()` has grouped output by 'theta'. You can override using the
`.groups` argument.
`summarise()` has grouped output by 'theta', 'tau'. You can override using the
`.groups` argument.
`summarise()` has grouped output by 'theta'. You can override using the
`.groups` argument.
[1] ""
[1] "Total run time was 412.391 seconds"
[1] "Estimation result: "
# A tibble: 360 × 5
   estimand theta   tau   est     se
   <chr>    <dbl> <dbl> <dbl>  <dbl>
 1 mu         0.1   0.1 0.387 0.120 
 2 mu         0.1   0.2 0.462 0.146 
 3 mu         0.1   0.3 0.561 0.173 
 4 mu         0.1   0.4 0.591 0.187 
 5 mu         0.1   0.5 0.651 0.200 
 6 mu         0.2   0.1 0.341 0.0289
 7 mu         0.2   0.2 0.413 0.0376
 8 mu         0.2   0.3 0.512 0.0450
 9 mu         0.2   0.4 0.535 0.0446
10 mu         0.2   0.5 0.603 0.0564
# ℹ 350 more rows
…
