…
`.groups` argument.
`summarise()` has grouped output by 'theta'. You can override using the
`.groups` argument.
`summarise()` has grouped output by 'theta', 'tau'. You can override using the
`.groups` argument.
`summarise()` has grouped output by 'theta'. You can override using the
`.groups` argument.
`summarise()` has grouped output by 'theta', 'tau'. You can override using the
`.groups` argument.
`summarise()` has grouped output by 'theta'. You can override using the
`.groups` argument.
[1] ""
[1] "Total run time was 375.757 seconds"
[1] "Estimation result: "
# A tibble: 360 × 5
   estimand theta   tau   est     se
   <chr>    <dbl> <dbl> <dbl>  <dbl>
 1 mu         0.1   0.1 0.362 0.0439
 2 mu         0.1   0.2 0.467 0.0752
 3 mu         0.1   0.3 0.541 0.0738
 4 mu         0.1   0.4 0.621 0.0935
 5 mu         0.1   0.5 0.645 0.0859
 6 mu         0.2   0.1 0.322 0.0299
 7 mu         0.2   0.2 0.417 0.0497
 8 mu         0.2   0.3 0.486 0.0490
 9 mu         0.2   0.4 0.543 0.0626
10 mu         0.2   0.5 0.581 0.0576
# ℹ 350 more rows
…
