…
`.groups` argument.
`summarise()` has grouped output by 'theta'. You can override using the
`.groups` argument.
`summarise()` has grouped output by 'theta', 'tau'. You can override using the
`.groups` argument.
`summarise()` has grouped output by 'theta'. You can override using the
`.groups` argument.
`summarise()` has grouped output by 'theta', 'tau'. You can override using the
`.groups` argument.
`summarise()` has grouped output by 'theta'. You can override using the
`.groups` argument.
[1] ""
[1] "Total run time was 385.589 seconds"
[1] "Estimation result: "
# A tibble: 360 × 5
   estimand theta   tau   est     se
   <chr>    <dbl> <dbl> <dbl>  <dbl>
 1 mu         0.1   0.1 0.419 0.0912
 2 mu         0.1   0.2 0.475 0.0880
 3 mu         0.1   0.3 0.508 0.0881
 4 mu         0.1   0.4 0.537 0.0903
 5 mu         0.1   0.5 0.563 0.0874
 6 mu         0.2   0.1 0.371 0.0622
 7 mu         0.2   0.2 0.434 0.0561
 8 mu         0.2   0.3 0.474 0.0552
 9 mu         0.2   0.4 0.504 0.0546
10 mu         0.2   0.5 0.530 0.0459
# ℹ 350 more rows
…
