…
`.groups` argument.
`summarise()` has grouped output by 'theta'. You can override using the
`.groups` argument.
`summarise()` has grouped output by 'theta', 'tau'. You can override using the
`.groups` argument.
`summarise()` has grouped output by 'theta'. You can override using the
`.groups` argument.
`summarise()` has grouped output by 'theta', 'tau'. You can override using the
`.groups` argument.
`summarise()` has grouped output by 'theta'. You can override using the
`.groups` argument.
[1] ""
[1] "Total run time was 378.787 seconds"
[1] "Estimation result: "
# A tibble: 360 × 5
   estimand theta   tau   est     se
   <chr>    <dbl> <dbl> <dbl>  <dbl>
 1 mu         0.1   0.1 0.364 0.0689
 2 mu         0.1   0.2 0.434 0.0722
 3 mu         0.1   0.3 0.520 0.0700
 4 mu         0.1   0.4 0.594 0.0783
 5 mu         0.1   0.5 0.642 0.0832
 6 mu         0.2   0.1 0.301 0.0341
 7 mu         0.2   0.2 0.380 0.0430
 8 mu         0.2   0.3 0.458 0.0428
 9 mu         0.2   0.4 0.529 0.0494
10 mu         0.2   0.5 0.574 0.0528
# ℹ 350 more rows
…
