…
`.groups` argument.
`summarise()` has grouped output by 'theta'. You can override using the
`.groups` argument.
`summarise()` has grouped output by 'theta', 'tau'. You can override using the
`.groups` argument.
`summarise()` has grouped output by 'theta'. You can override using the
`.groups` argument.
`summarise()` has grouped output by 'theta', 'tau'. You can override using the
`.groups` argument.
`summarise()` has grouped output by 'theta'. You can override using the
`.groups` argument.
[1] ""
[1] "Total run time was 440.031 seconds"
[1] "Estimation result: "
# A tibble: 360 × 5
   estimand theta   tau   est     se
   <chr>    <dbl> <dbl> <dbl>  <dbl>
 1 mu         0.1   0.1 0.558 0.116 
 2 mu         0.1   0.2 0.636 0.126 
 3 mu         0.1   0.3 0.684 0.131 
 4 mu         0.1   0.4 0.753 0.135 
 5 mu         0.1   0.5 0.772 0.132 
 6 mu         0.2   0.1 0.439 0.0815
 7 mu         0.2   0.2 0.506 0.0775
 8 mu         0.2   0.3 0.548 0.0686
 9 mu         0.2   0.4 0.610 0.0670
10 mu         0.2   0.5 0.628 0.0483
# ℹ 350 more rows
…
