…
`.groups` argument.
`summarise()` has grouped output by 'theta'. You can override using the
`.groups` argument.
`summarise()` has grouped output by 'theta', 'tau'. You can override using the
`.groups` argument.
`summarise()` has grouped output by 'theta'. You can override using the
`.groups` argument.
`summarise()` has grouped output by 'theta', 'tau'. You can override using the
`.groups` argument.
`summarise()` has grouped output by 'theta'. You can override using the
`.groups` argument.
[1] ""
[1] "Total run time was 412.383 seconds"
[1] "Estimation result: "
# A tibble: 360 × 5
   estimand theta   tau   est     se
   <chr>    <dbl> <dbl> <dbl>  <dbl>
 1 mu         0.1   0.1 0.460 0.119 
 2 mu         0.1   0.2 0.541 0.141 
 3 mu         0.1   0.3 0.623 0.163 
 4 mu         0.1   0.4 0.649 0.170 
 5 mu         0.1   0.5 0.667 0.178 
 6 mu         0.2   0.1 0.446 0.0447
 7 mu         0.2   0.2 0.537 0.0493
 8 mu         0.2   0.3 0.619 0.0583
 9 mu         0.2   0.4 0.651 0.0611
10 mu         0.2   0.5 0.673 0.0628
# ℹ 350 more rows
…
