…
`.groups` argument.
`summarise()` has grouped output by 'theta'. You can override using the
`.groups` argument.
`summarise()` has grouped output by 'theta', 'tau'. You can override using the
`.groups` argument.
`summarise()` has grouped output by 'theta'. You can override using the
`.groups` argument.
`summarise()` has grouped output by 'theta', 'tau'. You can override using the
`.groups` argument.
`summarise()` has grouped output by 'theta'. You can override using the
`.groups` argument.
[1] ""
[1] "Total run time was 469.811 seconds"
[1] "Estimation result: "
# A tibble: 360 × 5
   estimand theta   tau   est     se
   <chr>    <dbl> <dbl> <dbl>  <dbl>
 1 mu         0.1   0.1 0.317 0.0783
 2 mu         0.1   0.2 0.401 0.0887
 3 mu         0.1   0.3 0.412 0.0998
 4 mu         0.1   0.4 0.449 0.114 
 5 mu         0.1   0.5 0.499 0.131 
 6 mu         0.2   0.1 0.330 0.0475
 7 mu         0.2   0.2 0.423 0.0421
 8 mu         0.2   0.3 0.446 0.0383
 9 mu         0.2   0.4 0.487 0.0506
10 mu         0.2   0.5 0.542 0.0658
# ℹ 350 more rows
…
