…
`.groups` argument.
`summarise()` has grouped output by 'theta'. You can override using the
`.groups` argument.
`summarise()` has grouped output by 'theta', 'tau'. You can override using the
`.groups` argument.
`summarise()` has grouped output by 'theta'. You can override using the
`.groups` argument.
`summarise()` has grouped output by 'theta', 'tau'. You can override using the
`.groups` argument.
`summarise()` has grouped output by 'theta'. You can override using the
`.groups` argument.
[1] ""
[1] "Total run time was 454.884 seconds"
[1] "Estimation result: "
# A tibble: 360 × 5
   estimand theta   tau   est     se
   <chr>    <dbl> <dbl> <dbl>  <dbl>
 1 mu         0.1   0.1 0.609 0.159 
 2 mu         0.1   0.2 0.685 0.147 
 3 mu         0.1   0.3 0.793 0.167 
 4 mu         0.1   0.4 0.834 0.170 
 5 mu         0.1   0.5 0.910 0.188 
 6 mu         0.2   0.1 0.425 0.0708
 7 mu         0.2   0.2 0.501 0.0552
 8 mu         0.2   0.3 0.588 0.0693
 9 mu         0.2   0.4 0.628 0.0686
10 mu         0.2   0.5 0.683 0.0787
# ℹ 350 more rows
…
