…
`.groups` argument.
`summarise()` has grouped output by 'theta'. You can override using the
`.groups` argument.
`summarise()` has grouped output by 'theta', 'tau'. You can override using the
`.groups` argument.
`summarise()` has grouped output by 'theta'. You can override using the
`.groups` argument.
`summarise()` has grouped output by 'theta', 'tau'. You can override using the
`.groups` argument.
`summarise()` has grouped output by 'theta'. You can override using the
`.groups` argument.
[1] ""
[1] "Total run time was 979.234 seconds"
[1] "Estimation result: "
# A tibble: 360 × 5
   estimand theta   tau   est     se
   <chr>    <dbl> <dbl> <dbl>  <dbl>
 1 mu         0.1   0.1 0.408 0.0505
 2 mu         0.1   0.2 0.489 0.0577
 3 mu         0.1   0.3 0.556 0.0655
 4 mu         0.1   0.4 0.615 0.0748
 5 mu         0.1   0.5 0.667 0.0824
 6 mu         0.2   0.1 0.386 0.0326
 7 mu         0.2   0.2 0.478 0.0376
 8 mu         0.2   0.3 0.537 0.0369
 9 mu         0.2   0.4 0.569 0.0351
10 mu         0.2   0.5 0.601 0.0353
# ℹ 350 more rows
…
