…
`.groups` argument.
`summarise()` has grouped output by 'theta'. You can override using the
`.groups` argument.
`summarise()` has grouped output by 'theta', 'tau'. You can override using the
`.groups` argument.
`summarise()` has grouped output by 'theta'. You can override using the
`.groups` argument.
`summarise()` has grouped output by 'theta', 'tau'. You can override using the
`.groups` argument.
`summarise()` has grouped output by 'theta'. You can override using the
`.groups` argument.
[1] ""
[1] "Total run time was 497.369 seconds"
[1] "Estimation result: "
# A tibble: 360 × 5
   estimand theta   tau   est     se
   <chr>    <dbl> <dbl> <dbl>  <dbl>
 1 mu         0.1   0.1 0.444 0.133 
 2 mu         0.1   0.2 0.550 0.160 
 3 mu         0.1   0.3 0.655 0.175 
 4 mu         0.1   0.4 0.759 0.201 
 5 mu         0.1   0.5 0.822 0.226 
 6 mu         0.2   0.1 0.289 0.0417
 7 mu         0.2   0.2 0.364 0.0370
 8 mu         0.2   0.3 0.450 0.0331
 9 mu         0.2   0.4 0.531 0.0571
10 mu         0.2   0.5 0.582 0.0921
# ℹ 350 more rows
…
