…
`.groups` argument.
`summarise()` has grouped output by 'theta'. You can override using the
`.groups` argument.
`summarise()` has grouped output by 'theta', 'tau'. You can override using the
`.groups` argument.
`summarise()` has grouped output by 'theta'. You can override using the
`.groups` argument.
`summarise()` has grouped output by 'theta', 'tau'. You can override using the
`.groups` argument.
`summarise()` has grouped output by 'theta'. You can override using the
`.groups` argument.
[1] ""
[1] "Total run time was 392.404 seconds"
[1] "Estimation result: "
# A tibble: 360 × 5
   estimand theta   tau   est     se
   <chr>    <dbl> <dbl> <dbl>  <dbl>
 1 mu         0.1   0.1 0.275 0.129 
 2 mu         0.1   0.2 0.281 0.152 
 3 mu         0.1   0.3 0.372 0.147 
 4 mu         0.1   0.4 0.394 0.158 
 5 mu         0.1   0.5 0.395 0.166 
 6 mu         0.2   0.1 0.306 0.0919
 7 mu         0.2   0.2 0.349 0.109 
 8 mu         0.2   0.3 0.443 0.103 
 9 mu         0.2   0.4 0.474 0.111 
10 mu         0.2   0.5 0.487 0.117 
# ℹ 350 more rows
…
