…
`.groups` argument.
`summarise()` has grouped output by 'theta'. You can override using the
`.groups` argument.
`summarise()` has grouped output by 'theta', 'tau'. You can override using the
`.groups` argument.
`summarise()` has grouped output by 'theta'. You can override using the
`.groups` argument.
`summarise()` has grouped output by 'theta', 'tau'. You can override using the
`.groups` argument.
`summarise()` has grouped output by 'theta'. You can override using the
`.groups` argument.
[1] ""
[1] "Total run time was 369.068 seconds"
[1] "Estimation result: "
# A tibble: 360 × 5
   estimand theta   tau   est     se
   <chr>    <dbl> <dbl> <dbl>  <dbl>
 1 mu         0.1   0.1 0.317 0.0359
 2 mu         0.1   0.2 0.383 0.0485
 3 mu         0.1   0.3 0.405 0.0676
 4 mu         0.1   0.4 0.448 0.0862
 5 mu         0.1   0.5 0.453 0.118 
 6 mu         0.2   0.1 0.322 0.0238
 7 mu         0.2   0.2 0.395 0.0311
 8 mu         0.2   0.3 0.419 0.0444
 9 mu         0.2   0.4 0.487 0.0602
10 mu         0.2   0.5 0.526 0.0827
# ℹ 350 more rows
…
