…
`.groups` argument.
`summarise()` has grouped output by 'theta'. You can override using the
`.groups` argument.
`summarise()` has grouped output by 'theta', 'tau'. You can override using the
`.groups` argument.
`summarise()` has grouped output by 'theta'. You can override using the
`.groups` argument.
`summarise()` has grouped output by 'theta', 'tau'. You can override using the
`.groups` argument.
`summarise()` has grouped output by 'theta'. You can override using the
`.groups` argument.
[1] ""
[1] "Total run time was 415.017 seconds"
[1] "Estimation result: "
# A tibble: 360 × 5
   estimand theta   tau   est     se
   <chr>    <dbl> <dbl> <dbl>  <dbl>
 1 mu         0.1   0.1 0.396 0.122 
 2 mu         0.1   0.2 0.531 0.154 
 3 mu         0.1   0.3 0.571 0.172 
 4 mu         0.1   0.4 0.589 0.175 
 5 mu         0.1   0.5 0.630 0.182 
 6 mu         0.2   0.1 0.425 0.0643
 7 mu         0.2   0.2 0.565 0.0904
 8 mu         0.2   0.3 0.622 0.100 
 9 mu         0.2   0.4 0.658 0.0923
10 mu         0.2   0.5 0.710 0.0961
# ℹ 350 more rows
…
