…
`.groups` argument.
`summarise()` has grouped output by 'theta'. You can override using the
`.groups` argument.
`summarise()` has grouped output by 'theta', 'tau'. You can override using the
`.groups` argument.
`summarise()` has grouped output by 'theta'. You can override using the
`.groups` argument.
`summarise()` has grouped output by 'theta', 'tau'. You can override using the
`.groups` argument.
`summarise()` has grouped output by 'theta'. You can override using the
`.groups` argument.
[1] ""
[1] "Total run time was 481.001 seconds"
[1] "Estimation result: "
# A tibble: 360 × 5
   estimand theta   tau   est     se
   <chr>    <dbl> <dbl> <dbl>  <dbl>
 1 mu         0.1   0.1 0.480 0.0794
 2 mu         0.1   0.2 0.512 0.0692
 3 mu         0.1   0.3 0.606 0.0746
 4 mu         0.1   0.4 0.665 0.0812
 5 mu         0.1   0.5 0.705 0.0814
 6 mu         0.2   0.1 0.408 0.0409
 7 mu         0.2   0.2 0.454 0.0401
 8 mu         0.2   0.3 0.532 0.0378
 9 mu         0.2   0.4 0.580 0.0383
10 mu         0.2   0.5 0.618 0.0373
# ℹ 350 more rows
…
