…
`.groups` argument.
`summarise()` has grouped output by 'theta'. You can override using the
`.groups` argument.
`summarise()` has grouped output by 'theta', 'tau'. You can override using the
`.groups` argument.
`summarise()` has grouped output by 'theta'. You can override using the
`.groups` argument.
`summarise()` has grouped output by 'theta', 'tau'. You can override using the
`.groups` argument.
`summarise()` has grouped output by 'theta'. You can override using the
`.groups` argument.
[1] ""
[1] "Total run time was 461.582 seconds"
[1] "Estimation result: "
# A tibble: 360 × 5
   estimand theta   tau   est     se
   <chr>    <dbl> <dbl> <dbl>  <dbl>
 1 mu         0.1   0.1 0.589 0.318 
 2 mu         0.1   0.2 0.726 0.410 
 3 mu         0.1   0.3 0.840 0.485 
 4 mu         0.1   0.4 0.888 0.520 
 5 mu         0.1   0.5 0.964 0.557 
 6 mu         0.2   0.1 0.428 0.0773
 7 mu         0.2   0.2 0.525 0.0842
 8 mu         0.2   0.3 0.590 0.0932
 9 mu         0.2   0.4 0.620 0.100 
10 mu         0.2   0.5 0.683 0.111 
# ℹ 350 more rows
…
