…
`.groups` argument.
`summarise()` has grouped output by 'theta'. You can override using the
`.groups` argument.
`summarise()` has grouped output by 'theta', 'tau'. You can override using the
`.groups` argument.
`summarise()` has grouped output by 'theta'. You can override using the
`.groups` argument.
`summarise()` has grouped output by 'theta', 'tau'. You can override using the
`.groups` argument.
`summarise()` has grouped output by 'theta'. You can override using the
`.groups` argument.
[1] ""
[1] "Total run time was 473.648 seconds"
[1] "Estimation result: "
# A tibble: 360 × 5
   estimand theta   tau   est     se
   <chr>    <dbl> <dbl> <dbl>  <dbl>
 1 mu         0.1   0.1 0.421 0.0678
 2 mu         0.1   0.2 0.487 0.0805
 3 mu         0.1   0.3 0.530 0.104 
 4 mu         0.1   0.4 0.574 0.115 
 5 mu         0.1   0.5 0.647 0.113 
 6 mu         0.2   0.1 0.338 0.0386
 7 mu         0.2   0.2 0.400 0.0460
 8 mu         0.2   0.3 0.434 0.0695
 9 mu         0.2   0.4 0.471 0.0764
10 mu         0.2   0.5 0.531 0.0636
# ℹ 350 more rows
…
