…
`.groups` argument.
`summarise()` has grouped output by 'theta'. You can override using the
`.groups` argument.
`summarise()` has grouped output by 'theta', 'tau'. You can override using the
`.groups` argument.
`summarise()` has grouped output by 'theta'. You can override using the
`.groups` argument.
`summarise()` has grouped output by 'theta', 'tau'. You can override using the
`.groups` argument.
`summarise()` has grouped output by 'theta'. You can override using the
`.groups` argument.
[1] ""
[1] "Total run time was 417.875 seconds"
[1] "Estimation result: "
# A tibble: 360 × 5
   estimand theta   tau   est     se
   <chr>    <dbl> <dbl> <dbl>  <dbl>
 1 mu         0.1   0.1 0.324 0.0409
 2 mu         0.1   0.2 0.452 0.0648
 3 mu         0.1   0.3 0.545 0.0805
 4 mu         0.1   0.4 0.607 0.0868
 5 mu         0.1   0.5 0.632 0.0809
 6 mu         0.2   0.1 0.287 0.0321
 7 mu         0.2   0.2 0.372 0.0343
 8 mu         0.2   0.3 0.449 0.0477
 9 mu         0.2   0.4 0.508 0.0539
10 mu         0.2   0.5 0.546 0.0521
# ℹ 350 more rows
…
