…
`.groups` argument.
`summarise()` has grouped output by 'theta'. You can override using the
`.groups` argument.
`summarise()` has grouped output by 'theta', 'tau'. You can override using the
`.groups` argument.
`summarise()` has grouped output by 'theta'. You can override using the
`.groups` argument.
`summarise()` has grouped output by 'theta', 'tau'. You can override using the
`.groups` argument.
`summarise()` has grouped output by 'theta'. You can override using the
`.groups` argument.
[1] ""
[1] "Total run time was 632.613 seconds"
[1] "Estimation result: "
# A tibble: 360 × 5
   estimand theta   tau   est     se
   <chr>    <dbl> <dbl> <dbl>  <dbl>
 1 mu         0.1   0.1 0.421 0.105 
 2 mu         0.1   0.2 0.485 0.100 
 3 mu         0.1   0.3 0.517 0.108 
 4 mu         0.1   0.4 0.559 0.107 
 5 mu         0.1   0.5 0.595 0.102 
 6 mu         0.2   0.1 0.365 0.0600
 7 mu         0.2   0.2 0.443 0.0625
 8 mu         0.2   0.3 0.483 0.0711
 9 mu         0.2   0.4 0.517 0.0656
10 mu         0.2   0.5 0.552 0.0583
# ℹ 350 more rows
…
