…
`.groups` argument.
`summarise()` has grouped output by 'theta'. You can override using the
`.groups` argument.
`summarise()` has grouped output by 'theta', 'tau'. You can override using the
`.groups` argument.
`summarise()` has grouped output by 'theta'. You can override using the
`.groups` argument.
`summarise()` has grouped output by 'theta', 'tau'. You can override using the
`.groups` argument.
`summarise()` has grouped output by 'theta'. You can override using the
`.groups` argument.
[1] ""
[1] "Total run time was 421.236 seconds"
[1] "Estimation result: "
# A tibble: 360 × 5
   estimand theta   tau   est     se
   <chr>    <dbl> <dbl> <dbl>  <dbl>
 1 mu         0.1   0.1 0.337 0.0682
 2 mu         0.1   0.2 0.402 0.0859
 3 mu         0.1   0.3 0.449 0.0918
 4 mu         0.1   0.4 0.504 0.0967
 5 mu         0.1   0.5 0.554 0.103 
 6 mu         0.2   0.1 0.293 0.0449
 7 mu         0.2   0.2 0.358 0.0525
 8 mu         0.2   0.3 0.413 0.0622
 9 mu         0.2   0.4 0.483 0.0579
10 mu         0.2   0.5 0.531 0.0602
# ℹ 350 more rows
…
