…
`.groups` argument.
`summarise()` has grouped output by 'theta'. You can override using the
`.groups` argument.
`summarise()` has grouped output by 'theta', 'tau'. You can override using the
`.groups` argument.
`summarise()` has grouped output by 'theta'. You can override using the
`.groups` argument.
`summarise()` has grouped output by 'theta', 'tau'. You can override using the
`.groups` argument.
`summarise()` has grouped output by 'theta'. You can override using the
`.groups` argument.
[1] ""
[1] "Total run time was 456.058 seconds"
[1] "Estimation result: "
# A tibble: 360 × 5
   estimand theta   tau   est     se
   <chr>    <dbl> <dbl> <dbl>  <dbl>
 1 mu         0.1   0.1 0.394 0.0710
 2 mu         0.1   0.2 0.477 0.102 
 3 mu         0.1   0.3 0.522 0.0822
 4 mu         0.1   0.4 0.527 0.0876
 5 mu         0.1   0.5 0.561 0.0784
 6 mu         0.2   0.1 0.410 0.0691
 7 mu         0.2   0.2 0.512 0.0989
 8 mu         0.2   0.3 0.560 0.0897
 9 mu         0.2   0.4 0.579 0.0855
10 mu         0.2   0.5 0.598 0.0766
# ℹ 350 more rows
…
