…
`.groups` argument.
`summarise()` has grouped output by 'theta'. You can override using the
`.groups` argument.
`summarise()` has grouped output by 'theta', 'tau'. You can override using the
`.groups` argument.
`summarise()` has grouped output by 'theta'. You can override using the
`.groups` argument.
`summarise()` has grouped output by 'theta', 'tau'. You can override using the
`.groups` argument.
`summarise()` has grouped output by 'theta'. You can override using the
`.groups` argument.
[1] ""
[1] "Total run time was 372.485 seconds"
[1] "Estimation result: "
# A tibble: 360 × 5
   estimand theta   tau   est     se
   <chr>    <dbl> <dbl> <dbl>  <dbl>
 1 mu         0.1   0.1 0.273 0.0513
 2 mu         0.1   0.2 0.320 0.0643
 3 mu         0.1   0.3 0.345 0.0655
 4 mu         0.1   0.4 0.410 0.0778
 5 mu         0.1   0.5 0.429 0.0745
 6 mu         0.2   0.1 0.346 0.0444
 7 mu         0.2   0.2 0.383 0.0520
 8 mu         0.2   0.3 0.417 0.0556
 9 mu         0.2   0.4 0.468 0.0562
10 mu         0.2   0.5 0.528 0.0528
# ℹ 350 more rows
…
