…
`.groups` argument.
`summarise()` has grouped output by 'theta'. You can override using the
`.groups` argument.
`summarise()` has grouped output by 'theta', 'tau'. You can override using the
`.groups` argument.
`summarise()` has grouped output by 'theta'. You can override using the
`.groups` argument.
`summarise()` has grouped output by 'theta', 'tau'. You can override using the
`.groups` argument.
`summarise()` has grouped output by 'theta'. You can override using the
`.groups` argument.
[1] ""
[1] "Total run time was 383.602 seconds"
[1] "Estimation result: "
# A tibble: 360 × 5
   estimand theta   tau   est     se
   <chr>    <dbl> <dbl> <dbl>  <dbl>
 1 mu         0.1   0.1 0.470 0.0870
 2 mu         0.1   0.2 0.585 0.107 
 3 mu         0.1   0.3 0.698 0.125 
 4 mu         0.1   0.4 0.764 0.136 
 5 mu         0.1   0.5 0.798 0.141 
 6 mu         0.2   0.1 0.366 0.0247
 7 mu         0.2   0.2 0.458 0.0330
 8 mu         0.2   0.3 0.557 0.0450
 9 mu         0.2   0.4 0.608 0.0481
10 mu         0.2   0.5 0.639 0.0483
# ℹ 350 more rows
…
