…
`.groups` argument.
`summarise()` has grouped output by 'theta'. You can override using the
`.groups` argument.
`summarise()` has grouped output by 'theta', 'tau'. You can override using the
`.groups` argument.
`summarise()` has grouped output by 'theta'. You can override using the
`.groups` argument.
`summarise()` has grouped output by 'theta', 'tau'. You can override using the
`.groups` argument.
`summarise()` has grouped output by 'theta'. You can override using the
`.groups` argument.
[1] ""
[1] "Total run time was 375.24 seconds"
[1] "Estimation result: "
# A tibble: 360 × 5
   estimand theta   tau   est     se
   <chr>    <dbl> <dbl> <dbl>  <dbl>
 1 mu         0.1   0.1 0.428 0.127 
 2 mu         0.1   0.2 0.519 0.174 
 3 mu         0.1   0.3 0.589 0.185 
 4 mu         0.1   0.4 0.652 0.190 
 5 mu         0.1   0.5 0.686 0.198 
 6 mu         0.2   0.1 0.394 0.0431
 7 mu         0.2   0.2 0.469 0.0636
 8 mu         0.2   0.3 0.535 0.0610
 9 mu         0.2   0.4 0.587 0.0468
10 mu         0.2   0.5 0.621 0.0477
# ℹ 350 more rows
…
