…
`.groups` argument.
`summarise()` has grouped output by 'theta'. You can override using the
`.groups` argument.
`summarise()` has grouped output by 'theta', 'tau'. You can override using the
`.groups` argument.
`summarise()` has grouped output by 'theta'. You can override using the
`.groups` argument.
`summarise()` has grouped output by 'theta', 'tau'. You can override using the
`.groups` argument.
`summarise()` has grouped output by 'theta'. You can override using the
`.groups` argument.
[1] ""
[1] "Total run time was 405.423 seconds"
[1] "Estimation result: "
# A tibble: 360 × 5
   estimand theta   tau   est     se
   <chr>    <dbl> <dbl> <dbl>  <dbl>
 1 mu         0.1   0.1 0.453 0.0885
 2 mu         0.1   0.2 0.521 0.0808
 3 mu         0.1   0.3 0.599 0.0844
 4 mu         0.1   0.4 0.675 0.0986
 5 mu         0.1   0.5 0.701 0.0998
 6 mu         0.2   0.1 0.351 0.0433
 7 mu         0.2   0.2 0.395 0.0284
 8 mu         0.2   0.3 0.456 0.0276
 9 mu         0.2   0.4 0.510 0.0355
10 mu         0.2   0.5 0.528 0.0349
# ℹ 350 more rows
…
