…
`.groups` argument.
`summarise()` has grouped output by 'theta'. You can override using the
`.groups` argument.
`summarise()` has grouped output by 'theta', 'tau'. You can override using the
`.groups` argument.
`summarise()` has grouped output by 'theta'. You can override using the
`.groups` argument.
`summarise()` has grouped output by 'theta', 'tau'. You can override using the
`.groups` argument.
`summarise()` has grouped output by 'theta'. You can override using the
`.groups` argument.
[1] ""
[1] "Total run time was 418.928 seconds"
[1] "Estimation result: "
# A tibble: 360 × 5
   estimand theta   tau   est     se
   <chr>    <dbl> <dbl> <dbl>  <dbl>
 1 mu         0.1   0.1 0.304 0.0750
 2 mu         0.1   0.2 0.358 0.0836
 3 mu         0.1   0.3 0.373 0.0736
 4 mu         0.1   0.4 0.400 0.0819
 5 mu         0.1   0.5 0.458 0.0823
 6 mu         0.2   0.1 0.370 0.0518
 7 mu         0.2   0.2 0.445 0.0556
 8 mu         0.2   0.3 0.477 0.0343
 9 mu         0.2   0.4 0.515 0.0430
10 mu         0.2   0.5 0.590 0.0361
# ℹ 350 more rows
…
