…
`.groups` argument.
`summarise()` has grouped output by 'theta'. You can override using the
`.groups` argument.
`summarise()` has grouped output by 'theta', 'tau'. You can override using the
`.groups` argument.
`summarise()` has grouped output by 'theta'. You can override using the
`.groups` argument.
`summarise()` has grouped output by 'theta', 'tau'. You can override using the
`.groups` argument.
`summarise()` has grouped output by 'theta'. You can override using the
`.groups` argument.
[1] ""
[1] "Total run time was 371.506 seconds"
[1] "Estimation result: "
# A tibble: 360 × 5
   estimand theta   tau   est     se
   <chr>    <dbl> <dbl> <dbl>  <dbl>
 1 mu         0.1   0.1 0.256 0.0880
 2 mu         0.1   0.2 0.332 0.104 
 3 mu         0.1   0.3 0.417 0.109 
 4 mu         0.1   0.4 0.467 0.119 
 5 mu         0.1   0.5 0.487 0.125 
 6 mu         0.2   0.1 0.266 0.0407
 7 mu         0.2   0.2 0.348 0.0461
 8 mu         0.2   0.3 0.439 0.0329
 9 mu         0.2   0.4 0.498 0.0392
10 mu         0.2   0.5 0.530 0.0371
# ℹ 350 more rows
…
