…
`.groups` argument.
`summarise()` has grouped output by 'theta'. You can override using the
`.groups` argument.
`summarise()` has grouped output by 'theta', 'tau'. You can override using the
`.groups` argument.
`summarise()` has grouped output by 'theta'. You can override using the
`.groups` argument.
`summarise()` has grouped output by 'theta', 'tau'. You can override using the
`.groups` argument.
`summarise()` has grouped output by 'theta'. You can override using the
`.groups` argument.
[1] ""
[1] "Total run time was 418.588 seconds"
[1] "Estimation result: "
# A tibble: 360 × 5
   estimand theta   tau   est     se
   <chr>    <dbl> <dbl> <dbl>  <dbl>
 1 mu         0.1   0.1 0.415 0.0991
 2 mu         0.1   0.2 0.527 0.118 
 3 mu         0.1   0.3 0.627 0.138 
 4 mu         0.1   0.4 0.703 0.155 
 5 mu         0.1   0.5 0.758 0.169 
 6 mu         0.2   0.1 0.304 0.0378
 7 mu         0.2   0.2 0.401 0.0300
 8 mu         0.2   0.3 0.481 0.0366
 9 mu         0.2   0.4 0.544 0.0495
10 mu         0.2   0.5 0.591 0.0537
# ℹ 350 more rows
…
