…
`.groups` argument.
`summarise()` has grouped output by 'theta'. You can override using the
`.groups` argument.
`summarise()` has grouped output by 'theta', 'tau'. You can override using the
`.groups` argument.
`summarise()` has grouped output by 'theta'. You can override using the
`.groups` argument.
`summarise()` has grouped output by 'theta', 'tau'. You can override using the
`.groups` argument.
`summarise()` has grouped output by 'theta'. You can override using the
`.groups` argument.
[1] ""
[1] "Total run time was 381.924 seconds"
[1] "Estimation result: "
# A tibble: 360 × 5
   estimand theta   tau   est     se
   <chr>    <dbl> <dbl> <dbl>  <dbl>
 1 mu         0.1   0.1 0.294 0.0500
 2 mu         0.1   0.2 0.352 0.0479
 3 mu         0.1   0.3 0.429 0.0771
 4 mu         0.1   0.4 0.509 0.0946
 5 mu         0.1   0.5 0.516 0.0777
 6 mu         0.2   0.1 0.363 0.0323
 7 mu         0.2   0.2 0.444 0.0380
 8 mu         0.2   0.3 0.517 0.0501
 9 mu         0.2   0.4 0.585 0.0592
10 mu         0.2   0.5 0.624 0.0634
# ℹ 350 more rows
…
