…
`.groups` argument.
`summarise()` has grouped output by 'theta'. You can override using the
`.groups` argument.
`summarise()` has grouped output by 'theta', 'tau'. You can override using the
`.groups` argument.
`summarise()` has grouped output by 'theta'. You can override using the
`.groups` argument.
`summarise()` has grouped output by 'theta', 'tau'. You can override using the
`.groups` argument.
`summarise()` has grouped output by 'theta'. You can override using the
`.groups` argument.
[1] ""
[1] "Total run time was 373.226 seconds"
[1] "Estimation result: "
# A tibble: 360 × 5
   estimand theta   tau   est     se
   <chr>    <dbl> <dbl> <dbl>  <dbl>
 1 mu         0.1   0.1 0.416 0.124 
 2 mu         0.1   0.2 0.473 0.146 
 3 mu         0.1   0.3 0.528 0.175 
 4 mu         0.1   0.4 0.565 0.193 
 5 mu         0.1   0.5 0.591 0.204 
 6 mu         0.2   0.1 0.348 0.0495
 7 mu         0.2   0.2 0.401 0.0437
 8 mu         0.2   0.3 0.446 0.0442
 9 mu         0.2   0.4 0.468 0.0391
10 mu         0.2   0.5 0.494 0.0415
# ℹ 350 more rows
…
