…
`.groups` argument.
`summarise()` has grouped output by 'theta'. You can override using the
`.groups` argument.
`summarise()` has grouped output by 'theta', 'tau'. You can override using the
`.groups` argument.
`summarise()` has grouped output by 'theta'. You can override using the
`.groups` argument.
`summarise()` has grouped output by 'theta', 'tau'. You can override using the
`.groups` argument.
`summarise()` has grouped output by 'theta'. You can override using the
`.groups` argument.
[1] ""
[1] "Total run time was 404.443 seconds"
[1] "Estimation result: "
# A tibble: 360 × 5
   estimand theta   tau   est     se
   <chr>    <dbl> <dbl> <dbl>  <dbl>
 1 mu         0.1   0.1 0.413 0.0628
 2 mu         0.1   0.2 0.472 0.0656
 3 mu         0.1   0.3 0.510 0.0520
 4 mu         0.1   0.4 0.565 0.0569
 5 mu         0.1   0.5 0.585 0.0536
 6 mu         0.2   0.1 0.367 0.0432
 7 mu         0.2   0.2 0.436 0.0441
 8 mu         0.2   0.3 0.479 0.0341
 9 mu         0.2   0.4 0.527 0.0358
10 mu         0.2   0.5 0.562 0.0334
# ℹ 350 more rows
…
