…
`.groups` argument.
`summarise()` has grouped output by 'theta'. You can override using the
`.groups` argument.
`summarise()` has grouped output by 'theta', 'tau'. You can override using the
`.groups` argument.
`summarise()` has grouped output by 'theta'. You can override using the
`.groups` argument.
`summarise()` has grouped output by 'theta', 'tau'. You can override using the
`.groups` argument.
`summarise()` has grouped output by 'theta'. You can override using the
`.groups` argument.
[1] ""
[1] "Total run time was 349.587 seconds"
[1] "Estimation result: "
# A tibble: 360 × 5
   estimand theta   tau   est     se
   <chr>    <dbl> <dbl> <dbl>  <dbl>
 1 mu         0.1   0.1 0.493 0.0928
 2 mu         0.1   0.2 0.538 0.0884
 3 mu         0.1   0.3 0.616 0.100 
 4 mu         0.1   0.4 0.647 0.109 
 5 mu         0.1   0.5 0.678 0.126 
 6 mu         0.2   0.1 0.393 0.0428
 7 mu         0.2   0.2 0.470 0.0395
 8 mu         0.2   0.3 0.538 0.0442
 9 mu         0.2   0.4 0.572 0.0388
10 mu         0.2   0.5 0.614 0.0467
# ℹ 350 more rows
…
