…
`.groups` argument.
`summarise()` has grouped output by 'theta'. You can override using the
`.groups` argument.
`summarise()` has grouped output by 'theta', 'tau'. You can override using the
`.groups` argument.
`summarise()` has grouped output by 'theta'. You can override using the
`.groups` argument.
`summarise()` has grouped output by 'theta', 'tau'. You can override using the
`.groups` argument.
`summarise()` has grouped output by 'theta'. You can override using the
`.groups` argument.
[1] ""
[1] "Total run time was 487.378 seconds"
[1] "Estimation result: "
# A tibble: 360 × 5
   estimand theta   tau   est     se
   <chr>    <dbl> <dbl> <dbl>  <dbl>
 1 mu         0.1   0.1 0.328 0.104 
 2 mu         0.1   0.2 0.423 0.138 
 3 mu         0.1   0.3 0.477 0.163 
 4 mu         0.1   0.4 0.526 0.171 
 5 mu         0.1   0.5 0.551 0.184 
 6 mu         0.2   0.1 0.348 0.0389
 7 mu         0.2   0.2 0.449 0.0547
 8 mu         0.2   0.3 0.515 0.0696
 9 mu         0.2   0.4 0.572 0.0675
10 mu         0.2   0.5 0.613 0.0744
# ℹ 350 more rows
…
