…
`.groups` argument.
`summarise()` has grouped output by 'theta'. You can override using the
`.groups` argument.
`summarise()` has grouped output by 'theta', 'tau'. You can override using the
`.groups` argument.
`summarise()` has grouped output by 'theta'. You can override using the
`.groups` argument.
`summarise()` has grouped output by 'theta', 'tau'. You can override using the
`.groups` argument.
`summarise()` has grouped output by 'theta'. You can override using the
`.groups` argument.
[1] ""
[1] "Total run time was 372.648 seconds"
[1] "Estimation result: "
# A tibble: 360 × 5
   estimand theta   tau   est     se
   <chr>    <dbl> <dbl> <dbl>  <dbl>
 1 mu         0.1   0.1 0.513 0.161 
 2 mu         0.1   0.2 0.631 0.196 
 3 mu         0.1   0.3 0.748 0.224 
 4 mu         0.1   0.4 0.758 0.244 
 5 mu         0.1   0.5 0.806 0.261 
 6 mu         0.2   0.1 0.380 0.0562
 7 mu         0.2   0.2 0.477 0.0660
 8 mu         0.2   0.3 0.574 0.0812
 9 mu         0.2   0.4 0.574 0.0817
10 mu         0.2   0.5 0.616 0.0923
# ℹ 350 more rows
…
