…
`.groups` argument.
`summarise()` has grouped output by 'theta'. You can override using the
`.groups` argument.
`summarise()` has grouped output by 'theta', 'tau'. You can override using the
`.groups` argument.
`summarise()` has grouped output by 'theta'. You can override using the
`.groups` argument.
`summarise()` has grouped output by 'theta', 'tau'. You can override using the
`.groups` argument.
`summarise()` has grouped output by 'theta'. You can override using the
`.groups` argument.
[1] ""
[1] "Total run time was 394.231 seconds"
[1] "Estimation result: "
# A tibble: 360 × 5
   estimand theta   tau   est     se
   <chr>    <dbl> <dbl> <dbl>  <dbl>
 1 mu         0.1   0.1 0.464 0.0925
 2 mu         0.1   0.2 0.574 0.109 
 3 mu         0.1   0.3 0.667 0.129 
 4 mu         0.1   0.4 0.696 0.134 
 5 mu         0.1   0.5 0.731 0.141 
 6 mu         0.2   0.1 0.373 0.0439
 7 mu         0.2   0.2 0.484 0.0479
 8 mu         0.2   0.3 0.565 0.0603
 9 mu         0.2   0.4 0.595 0.0578
10 mu         0.2   0.5 0.620 0.0542
# ℹ 350 more rows
…
