…
`.groups` argument.
`summarise()` has grouped output by 'theta'. You can override using the
`.groups` argument.
`summarise()` has grouped output by 'theta', 'tau'. You can override using the
`.groups` argument.
`summarise()` has grouped output by 'theta'. You can override using the
`.groups` argument.
`summarise()` has grouped output by 'theta', 'tau'. You can override using the
`.groups` argument.
`summarise()` has grouped output by 'theta'. You can override using the
`.groups` argument.
[1] ""
[1] "Total run time was 352.982 seconds"
[1] "Estimation result: "
# A tibble: 360 × 5
   estimand theta   tau   est     se
   <chr>    <dbl> <dbl> <dbl>  <dbl>
 1 mu         0.1   0.1 0.313 0.0830
 2 mu         0.1   0.2 0.406 0.112 
 3 mu         0.1   0.3 0.401 0.0949
 4 mu         0.1   0.4 0.383 0.0830
 5 mu         0.1   0.5 0.408 0.0864
 6 mu         0.2   0.1 0.376 0.0584
 7 mu         0.2   0.2 0.491 0.0844
 8 mu         0.2   0.3 0.519 0.0708
 9 mu         0.2   0.4 0.523 0.0597
10 mu         0.2   0.5 0.550 0.0606
# ℹ 350 more rows
…
