…
`.groups` argument.
`summarise()` has grouped output by 'theta'. You can override using the
`.groups` argument.
`summarise()` has grouped output by 'theta', 'tau'. You can override using the
`.groups` argument.
`summarise()` has grouped output by 'theta'. You can override using the
`.groups` argument.
`summarise()` has grouped output by 'theta', 'tau'. You can override using the
`.groups` argument.
`summarise()` has grouped output by 'theta'. You can override using the
`.groups` argument.
[1] ""
[1] "Total run time was 372.217 seconds"
[1] "Estimation result: "
# A tibble: 360 × 5
   estimand theta   tau   est     se
   <chr>    <dbl> <dbl> <dbl>  <dbl>
 1 mu         0.1   0.1 0.392 0.108 
 2 mu         0.1   0.2 0.453 0.141 
 3 mu         0.1   0.3 0.515 0.148 
 4 mu         0.1   0.4 0.544 0.160 
 5 mu         0.1   0.5 0.563 0.171 
 6 mu         0.2   0.1 0.382 0.0411
 7 mu         0.2   0.2 0.475 0.0555
 8 mu         0.2   0.3 0.522 0.0550
 9 mu         0.2   0.4 0.571 0.0564
10 mu         0.2   0.5 0.599 0.0572
# ℹ 350 more rows
…
