…
`.groups` argument.
`summarise()` has grouped output by 'theta'. You can override using the
`.groups` argument.
`summarise()` has grouped output by 'theta', 'tau'. You can override using the
`.groups` argument.
`summarise()` has grouped output by 'theta'. You can override using the
`.groups` argument.
`summarise()` has grouped output by 'theta', 'tau'. You can override using the
`.groups` argument.
`summarise()` has grouped output by 'theta'. You can override using the
`.groups` argument.
[1] ""
[1] "Total run time was 1389.834 seconds"
[1] "Estimation result: "
# A tibble: 360 × 5
   estimand theta   tau   est     se
   <chr>    <dbl> <dbl> <dbl>  <dbl>
 1 mu         0.1   0.1 0.387 0.0563
 2 mu         0.1   0.2 0.485 0.0692
 3 mu         0.1   0.3 0.588 0.0722
 4 mu         0.1   0.4 0.619 0.0752
 5 mu         0.1   0.5 0.632 0.0732
 6 mu         0.2   0.1 0.402 0.0406
 7 mu         0.2   0.2 0.460 0.0346
 8 mu         0.2   0.3 0.530 0.0396
 9 mu         0.2   0.4 0.589 0.0432
10 mu         0.2   0.5 0.608 0.0485
# ℹ 350 more rows
…
