…
`.groups` argument.
`summarise()` has grouped output by 'theta'. You can override using the
`.groups` argument.
`summarise()` has grouped output by 'theta', 'tau'. You can override using the
`.groups` argument.
`summarise()` has grouped output by 'theta'. You can override using the
`.groups` argument.
`summarise()` has grouped output by 'theta', 'tau'. You can override using the
`.groups` argument.
`summarise()` has grouped output by 'theta'. You can override using the
`.groups` argument.
[1] ""
[1] "Total run time was 365.669 seconds"
[1] "Estimation result: "
# A tibble: 360 × 5
   estimand theta   tau   est     se
   <chr>    <dbl> <dbl> <dbl>  <dbl>
 1 mu         0.1   0.1 0.361 0.0541
 2 mu         0.1   0.2 0.483 0.0677
 3 mu         0.1   0.3 0.533 0.0761
 4 mu         0.1   0.4 0.601 0.0884
 5 mu         0.1   0.5 0.638 0.0954
 6 mu         0.2   0.1 0.363 0.0216
 7 mu         0.2   0.2 0.475 0.0266
 8 mu         0.2   0.3 0.536 0.0309
 9 mu         0.2   0.4 0.601 0.0385
10 mu         0.2   0.5 0.643 0.0436
# ℹ 350 more rows
…
