…
`.groups` argument.
`summarise()` has grouped output by 'theta'. You can override using the
`.groups` argument.
`summarise()` has grouped output by 'theta', 'tau'. You can override using the
`.groups` argument.
`summarise()` has grouped output by 'theta'. You can override using the
`.groups` argument.
`summarise()` has grouped output by 'theta', 'tau'. You can override using the
`.groups` argument.
`summarise()` has grouped output by 'theta'. You can override using the
`.groups` argument.
[1] ""
[1] "Total run time was 398.995 seconds"
[1] "Estimation result: "
# A tibble: 360 × 5
   estimand theta   tau   est     se
   <chr>    <dbl> <dbl> <dbl>  <dbl>
 1 mu         0.1   0.1 0.417 0.0857
 2 mu         0.1   0.2 0.532 0.116 
 3 mu         0.1   0.3 0.565 0.100 
 4 mu         0.1   0.4 0.630 0.0774
 5 mu         0.1   0.5 0.694 0.0850
 6 mu         0.2   0.1 0.393 0.0642
 7 mu         0.2   0.2 0.459 0.0571
 8 mu         0.2   0.3 0.478 0.0360
 9 mu         0.2   0.4 0.500 0.0286
10 mu         0.2   0.5 0.533 0.0292
# ℹ 350 more rows
…
