…
`.groups` argument.
`summarise()` has grouped output by 'theta'. You can override using the
`.groups` argument.
`summarise()` has grouped output by 'theta', 'tau'. You can override using the
`.groups` argument.
`summarise()` has grouped output by 'theta'. You can override using the
`.groups` argument.
`summarise()` has grouped output by 'theta', 'tau'. You can override using the
`.groups` argument.
`summarise()` has grouped output by 'theta'. You can override using the
`.groups` argument.
[1] ""
[1] "Total run time was 451.919 seconds"
[1] "Estimation result: "
# A tibble: 360 × 5
   estimand theta   tau   est     se
   <chr>    <dbl> <dbl> <dbl>  <dbl>
 1 mu         0.1   0.1 0.348 0.0588
 2 mu         0.1   0.2 0.501 0.0882
 3 mu         0.1   0.3 0.557 0.0919
 4 mu         0.1   0.4 0.633 0.110 
 5 mu         0.1   0.5 0.646 0.105 
 6 mu         0.2   0.1 0.318 0.0225
 7 mu         0.2   0.2 0.462 0.0570
 8 mu         0.2   0.3 0.523 0.0535
 9 mu         0.2   0.4 0.594 0.0698
10 mu         0.2   0.5 0.610 0.0573
# ℹ 350 more rows
…
