…
[Simulation setting] 

- M: 1000 

- taus: 0.2 

- thetas: 0.3, 0.4, 0.5, 0.6, 0.7 

- r: 100 

# A tibble: 35 × 4
   theta   tau estimand   truth
   <dbl> <dbl> <chr>      <dbl>
 1   0.3   0.2 mu        0.462 
 2   0.3   0.2 mu_1      0.258 
 3   0.3   0.2 mu_0      0.549 
 4   0.3   0.2 de       -0.291 
 5   0.3   0.2 se_1      0.0380
 6   0.3   0.2 se_0      0.0535
 7   0.3   0.2 oe        0.104 
 8   0.4   0.2 mu        0.407 
 9   0.4   0.2 mu_1      0.237 
10   0.4   0.2 mu_0      0.520 
# ℹ 25 more rows
…
