…
`.groups` argument.
`summarise()` has grouped output by 'theta'. You can override using the
`.groups` argument.
`summarise()` has grouped output by 'theta', 'tau'. You can override using the
`.groups` argument.
`summarise()` has grouped output by 'theta'. You can override using the
`.groups` argument.
`summarise()` has grouped output by 'theta', 'tau'. You can override using the
`.groups` argument.
`summarise()` has grouped output by 'theta'. You can override using the
`.groups` argument.
[1] ""
[1] "Total run time was 96.38 seconds"
[1] "Estimation result: "
# A tibble: 360 × 5
   estimand theta   tau   est    se
   <chr>    <dbl> <dbl> <dbl> <dbl>
 1 mu         0.1   0.1 0.436 0.168
 2 mu         0.1   0.2 0.667 0.231
 3 mu         0.1   0.3 0.777 0.203
 4 mu         0.1   0.4 0.788 0.178
 5 mu         0.1   0.5 0.793 0.176
 6 mu         0.2   0.1 0.432 0.129
 7 mu         0.2   0.2 0.608 0.182
 8 mu         0.2   0.3 0.686 0.158
 9 mu         0.2   0.4 0.710 0.140
10 mu         0.2   0.5 0.716 0.139
# ℹ 350 more rows
…
