…
`.groups` argument.
`summarise()` has grouped output by 'theta'. You can override using the
`.groups` argument.
`summarise()` has grouped output by 'theta', 'tau'. You can override using the
`.groups` argument.
`summarise()` has grouped output by 'theta'. You can override using the
`.groups` argument.
`summarise()` has grouped output by 'theta', 'tau'. You can override using the
`.groups` argument.
`summarise()` has grouped output by 'theta'. You can override using the
`.groups` argument.
[1] ""
[1] "Total run time was 94.08 seconds"
[1] "Estimation result: "
# A tibble: 360 × 5
   estimand theta   tau   est     se
   <chr>    <dbl> <dbl> <dbl>  <dbl>
 1 mu         0.1   0.1 0.385 0.0706
 2 mu         0.1   0.2 0.543 0.0788
 3 mu         0.1   0.3 0.586 0.0653
 4 mu         0.1   0.4 0.595 0.0588
 5 mu         0.1   0.5 0.649 0.0531
 6 mu         0.2   0.1 0.335 0.0550
 7 mu         0.2   0.2 0.477 0.0586
 8 mu         0.2   0.3 0.522 0.0506
 9 mu         0.2   0.4 0.541 0.0470
10 mu         0.2   0.5 0.602 0.0451
# ℹ 350 more rows
…
