…
`.groups` argument.
`summarise()` has grouped output by 'theta'. You can override using the
`.groups` argument.
`summarise()` has grouped output by 'theta', 'tau'. You can override using the
`.groups` argument.
`summarise()` has grouped output by 'theta'. You can override using the
`.groups` argument.
`summarise()` has grouped output by 'theta', 'tau'. You can override using the
`.groups` argument.
`summarise()` has grouped output by 'theta'. You can override using the
`.groups` argument.
[1] ""
[1] "Total run time was 80.278 seconds"
[1] "Estimation result: "
# A tibble: 360 × 5
   estimand theta   tau   est     se
   <chr>    <dbl> <dbl> <dbl>  <dbl>
 1 mu         0.1   0.1 0.440 0.0724
 2 mu         0.1   0.2 0.499 0.0509
 3 mu         0.1   0.3 0.581 0.0469
 4 mu         0.1   0.4 0.602 0.0427
 5 mu         0.1   0.5 0.647 0.0500
 6 mu         0.2   0.1 0.363 0.0493
 7 mu         0.2   0.2 0.443 0.0395
 8 mu         0.2   0.3 0.529 0.0431
 9 mu         0.2   0.4 0.560 0.0390
10 mu         0.2   0.5 0.618 0.0466
# ℹ 350 more rows
…
