…
`.groups` argument.
`summarise()` has grouped output by 'theta'. You can override using the
`.groups` argument.
`summarise()` has grouped output by 'theta', 'tau'. You can override using the
`.groups` argument.
`summarise()` has grouped output by 'theta'. You can override using the
`.groups` argument.
`summarise()` has grouped output by 'theta', 'tau'. You can override using the
`.groups` argument.
`summarise()` has grouped output by 'theta'. You can override using the
`.groups` argument.
[1] ""
[1] "Total run time was 65.35 seconds"
[1] "Estimation result: "
# A tibble: 360 × 5
   estimand theta   tau   est     se
   <chr>    <dbl> <dbl> <dbl>  <dbl>
 1 mu         0.1   0.1 0.421 0.0625
 2 mu         0.1   0.2 0.523 0.0498
 3 mu         0.1   0.3 0.546 0.0352
 4 mu         0.1   0.4 0.633 0.0680
 5 mu         0.1   0.5 0.665 0.0686
 6 mu         0.2   0.1 0.377 0.0501
 7 mu         0.2   0.2 0.465 0.0421
 8 mu         0.2   0.3 0.505 0.0350
 9 mu         0.2   0.4 0.587 0.0543
10 mu         0.2   0.5 0.627 0.0582
# ℹ 350 more rows
…
