…
`.groups` argument.
`summarise()` has grouped output by 'theta'. You can override using the
`.groups` argument.
`summarise()` has grouped output by 'theta', 'tau'. You can override using the
`.groups` argument.
`summarise()` has grouped output by 'theta'. You can override using the
`.groups` argument.
`summarise()` has grouped output by 'theta', 'tau'. You can override using the
`.groups` argument.
`summarise()` has grouped output by 'theta'. You can override using the
`.groups` argument.
[1] ""
[1] "Total run time was 93.093 seconds"
[1] "Estimation result: "
# A tibble: 360 × 5
   estimand theta   tau   est     se
   <chr>    <dbl> <dbl> <dbl>  <dbl>
 1 mu         0.1   0.1 0.336 0.0701
 2 mu         0.1   0.2 0.505 0.124 
 3 mu         0.1   0.3 0.538 0.104 
 4 mu         0.1   0.4 0.578 0.0832
 5 mu         0.1   0.5 0.628 0.0634
 6 mu         0.2   0.1 0.295 0.0580
 7 mu         0.2   0.2 0.433 0.0987
 8 mu         0.2   0.3 0.467 0.0839
 9 mu         0.2   0.4 0.518 0.0693
10 mu         0.2   0.5 0.577 0.0543
# ℹ 350 more rows
…
