…
`.groups` argument.
`summarise()` has grouped output by 'theta'. You can override using the
`.groups` argument.
`summarise()` has grouped output by 'theta', 'tau'. You can override using the
`.groups` argument.
`summarise()` has grouped output by 'theta'. You can override using the
`.groups` argument.
`summarise()` has grouped output by 'theta', 'tau'. You can override using the
`.groups` argument.
`summarise()` has grouped output by 'theta'. You can override using the
`.groups` argument.
[1] ""
[1] "Total run time was 53.772 seconds"
[1] "Estimation result: "
# A tibble: 24,400 × 5
   estimand theta   tau     est      se
   <chr>    <dbl> <int>   <dbl>   <dbl>
 1 mu         0.3    10 0       0      
 2 mu         0.3    20 0.00141 0.00132
 3 mu         0.3    30 0.00141 0.00132
 4 mu         0.3    40 0.00141 0.00132
 5 mu         0.3    50 0.0179  0.0143 
 6 mu         0.3    60 0.0324  0.0176 
 7 mu         0.3    70 0.0352  0.0177 
 8 mu         0.3    80 0.0367  0.0176 
 9 mu         0.3    90 0.0367  0.0176 
10 mu         0.3   100 0.0367  0.0176 
# ℹ 24,390 more rows
…
