…
`.groups` argument.
`summarise()` has grouped output by 'theta'. You can override using the
`.groups` argument.
`summarise()` has grouped output by 'theta', 'tau'. You can override using the
`.groups` argument.
`summarise()` has grouped output by 'theta'. You can override using the
`.groups` argument.
`summarise()` has grouped output by 'theta', 'tau'. You can override using the
`.groups` argument.
`summarise()` has grouped output by 'theta'. You can override using the
`.groups` argument.
[1] ""
[1] "Total run time was 85.964 seconds"
[1] "Estimation result: "
# A tibble: 360 × 5
   estimand theta   tau   est     se
   <chr>    <dbl> <dbl> <dbl>  <dbl>
 1 mu         0.1   0.1 0.511 0.104 
 2 mu         0.1   0.2 0.623 0.168 
 3 mu         0.1   0.3 0.690 0.140 
 4 mu         0.1   0.4 0.711 0.136 
 5 mu         0.1   0.5 0.713 0.129 
 6 mu         0.2   0.1 0.443 0.0672
 7 mu         0.2   0.2 0.532 0.0974
 8 mu         0.2   0.3 0.609 0.0827
 9 mu         0.2   0.4 0.643 0.0786
10 mu         0.2   0.5 0.649 0.0744
# ℹ 350 more rows
…
