…
`.groups` argument.
`summarise()` has grouped output by 'theta'. You can override using the
`.groups` argument.
`summarise()` has grouped output by 'theta', 'tau'. You can override using the
`.groups` argument.
`summarise()` has grouped output by 'theta'. You can override using the
`.groups` argument.
`summarise()` has grouped output by 'theta', 'tau'. You can override using the
`.groups` argument.
`summarise()` has grouped output by 'theta'. You can override using the
`.groups` argument.
[1] ""
[1] "Total run time was 83.95 seconds"
[1] "Estimation result: "
# A tibble: 360 × 5
   estimand theta   tau   est     se
   <chr>    <dbl> <dbl> <dbl>  <dbl>
 1 mu         0.1   0.1 0.278 0.123 
 2 mu         0.1   0.2 0.397 0.151 
 3 mu         0.1   0.3 0.439 0.144 
 4 mu         0.1   0.4 0.447 0.154 
 5 mu         0.1   0.5 0.493 0.155 
 6 mu         0.2   0.1 0.332 0.0764
 7 mu         0.2   0.2 0.441 0.0935
 8 mu         0.2   0.3 0.476 0.0963
 9 mu         0.2   0.4 0.485 0.104 
10 mu         0.2   0.5 0.546 0.101 
# ℹ 350 more rows
…
