…
`.groups` argument.
`summarise()` has grouped output by 'theta'. You can override using the
`.groups` argument.
`summarise()` has grouped output by 'theta', 'tau'. You can override using the
`.groups` argument.
`summarise()` has grouped output by 'theta'. You can override using the
`.groups` argument.
`summarise()` has grouped output by 'theta', 'tau'. You can override using the
`.groups` argument.
`summarise()` has grouped output by 'theta'. You can override using the
`.groups` argument.
[1] ""
[1] "Total run time was 100.496 seconds"
[1] "Estimation result: "
# A tibble: 360 × 5
   estimand theta   tau   est    se
   <chr>    <dbl> <dbl> <dbl> <dbl>
 1 mu         0.1   0.1 0.605 0.267
 2 mu         0.1   0.2 0.639 0.292
 3 mu         0.1   0.3 0.697 0.332
 4 mu         0.1   0.4 0.839 0.354
 5 mu         0.1   0.5 0.894 0.368
 6 mu         0.2   0.1 0.530 0.171
 7 mu         0.2   0.2 0.583 0.183
 8 mu         0.2   0.3 0.648 0.209
 9 mu         0.2   0.4 0.762 0.220
10 mu         0.2   0.5 0.803 0.227
# ℹ 350 more rows
…
