…
`.groups` argument.
`summarise()` has grouped output by 'theta'. You can override using the
`.groups` argument.
`summarise()` has grouped output by 'theta', 'tau'. You can override using the
`.groups` argument.
`summarise()` has grouped output by 'theta'. You can override using the
`.groups` argument.
`summarise()` has grouped output by 'theta', 'tau'. You can override using the
`.groups` argument.
`summarise()` has grouped output by 'theta'. You can override using the
`.groups` argument.
[1] ""
[1] "Total run time was 88.384 seconds"
[1] "Estimation result: "
# A tibble: 360 × 5
   estimand theta   tau   est     se
   <chr>    <dbl> <dbl> <dbl>  <dbl>
 1 mu         0.1   0.1 0.623 0.140 
 2 mu         0.1   0.2 0.779 0.162 
 3 mu         0.1   0.3 0.802 0.158 
 4 mu         0.1   0.4 0.822 0.159 
 5 mu         0.1   0.5 0.846 0.163 
 6 mu         0.2   0.1 0.493 0.0923
 7 mu         0.2   0.2 0.616 0.0964
 8 mu         0.2   0.3 0.646 0.0859
 9 mu         0.2   0.4 0.664 0.0815
10 mu         0.2   0.5 0.690 0.0785
# ℹ 350 more rows
…
