…
`.groups` argument.
`summarise()` has grouped output by 'theta'. You can override using the
`.groups` argument.
`summarise()` has grouped output by 'theta', 'tau'. You can override using the
`.groups` argument.
`summarise()` has grouped output by 'theta'. You can override using the
`.groups` argument.
`summarise()` has grouped output by 'theta', 'tau'. You can override using the
`.groups` argument.
`summarise()` has grouped output by 'theta'. You can override using the
`.groups` argument.
[1] ""
[1] "Total run time was 153.047 seconds"
[1] "Estimation result: "
# A tibble: 360 × 5
   estimand theta   tau   est     se
   <chr>    <dbl> <dbl> <dbl>  <dbl>
 1 mu         0.1   0.1 0.477 0.0912
 2 mu         0.1   0.2 0.522 0.103 
 3 mu         0.1   0.3 0.591 0.113 
 4 mu         0.1   0.4 0.741 0.200 
 5 mu         0.1   0.5 0.759 0.199 
 6 mu         0.2   0.1 0.420 0.0522
 7 mu         0.2   0.2 0.498 0.0574
 8 mu         0.2   0.3 0.552 0.0604
 9 mu         0.2   0.4 0.668 0.126 
10 mu         0.2   0.5 0.694 0.124 
# ℹ 350 more rows
…
