…
`.groups` argument.
`summarise()` has grouped output by 'theta'. You can override using the
`.groups` argument.
`summarise()` has grouped output by 'theta', 'tau'. You can override using the
`.groups` argument.
`summarise()` has grouped output by 'theta'. You can override using the
`.groups` argument.
`summarise()` has grouped output by 'theta', 'tau'. You can override using the
`.groups` argument.
`summarise()` has grouped output by 'theta'. You can override using the
`.groups` argument.
[1] ""
[1] "Total run time was 246.943 seconds"
[1] "Estimation result: "
# A tibble: 360 × 5
   estimand theta   tau   est    se
   <chr>    <dbl> <dbl> <dbl> <dbl>
 1 mu         0.1   0.1 0.292 0.112
 2 mu         0.1   0.2 0.326 0.107
 3 mu         0.1   0.3 0.402 0.128
 4 mu         0.1   0.4 0.433 0.146
 5 mu         0.1   0.5 0.469 0.146
 6 mu         0.2   0.1 0.393 0.161
 7 mu         0.2   0.2 0.482 0.195
 8 mu         0.2   0.3 0.615 0.251
 9 mu         0.2   0.4 0.662 0.276
10 mu         0.2   0.5 0.757 0.300
# ℹ 350 more rows
…
