…
`.groups` argument.
`summarise()` has grouped output by 'theta'. You can override using the
`.groups` argument.
`summarise()` has grouped output by 'theta', 'tau'. You can override using the
`.groups` argument.
`summarise()` has grouped output by 'theta'. You can override using the
`.groups` argument.
`summarise()` has grouped output by 'theta', 'tau'. You can override using the
`.groups` argument.
`summarise()` has grouped output by 'theta'. You can override using the
`.groups` argument.
[1] ""
[1] "Total run time was 129.349 seconds"
[1] "Estimation result: "
# A tibble: 360 × 5
   estimand theta   tau   est     se
   <chr>    <dbl> <dbl> <dbl>  <dbl>
 1 mu         0.1   0.1 0.470 0.0933
 2 mu         0.1   0.2 0.544 0.121 
 3 mu         0.1   0.3 0.604 0.118 
 4 mu         0.1   0.4 0.678 0.131 
 5 mu         0.1   0.5 0.710 0.137 
 6 mu         0.2   0.1 0.424 0.0638
 7 mu         0.2   0.2 0.504 0.0914
 8 mu         0.2   0.3 0.566 0.0797
 9 mu         0.2   0.4 0.630 0.0831
10 mu         0.2   0.5 0.667 0.0901
# ℹ 350 more rows
…
