…
`.groups` argument.
`summarise()` has grouped output by 'theta'. You can override using the
`.groups` argument.
`summarise()` has grouped output by 'theta', 'tau'. You can override using the
`.groups` argument.
`summarise()` has grouped output by 'theta'. You can override using the
`.groups` argument.
`summarise()` has grouped output by 'theta', 'tau'. You can override using the
`.groups` argument.
`summarise()` has grouped output by 'theta'. You can override using the
`.groups` argument.
[1] ""
[1] "Total run time was 102.684 seconds"
[1] "Estimation result: "
# A tibble: 360 × 5
   estimand theta   tau   est     se
   <chr>    <dbl> <dbl> <dbl>  <dbl>
 1 mu         0.1   0.1 0.224 0.0498
 2 mu         0.1   0.2 0.304 0.126 
 3 mu         0.1   0.3 0.286 0.117 
 4 mu         0.1   0.4 0.373 0.0698
 5 mu         0.1   0.5 0.484 0.162 
 6 mu         0.2   0.1 0.313 0.0497
 7 mu         0.2   0.2 0.433 0.113 
 8 mu         0.2   0.3 0.437 0.0929
 9 mu         0.2   0.4 0.485 0.0586
10 mu         0.2   0.5 0.547 0.0953
# ℹ 350 more rows
…
