…
`.groups` argument.
`summarise()` has grouped output by 'theta'. You can override using the
`.groups` argument.
`summarise()` has grouped output by 'theta', 'tau'. You can override using the
`.groups` argument.
`summarise()` has grouped output by 'theta'. You can override using the
`.groups` argument.
`summarise()` has grouped output by 'theta', 'tau'. You can override using the
`.groups` argument.
`summarise()` has grouped output by 'theta'. You can override using the
`.groups` argument.
[1] ""
[1] "Total run time was 96.355 seconds"
[1] "Estimation result: "
# A tibble: 360 × 5
   estimand theta   tau   est     se
   <chr>    <dbl> <dbl> <dbl>  <dbl>
 1 mu         0.1   0.1 0.371 0.102 
 2 mu         0.1   0.2 0.414 0.101 
 3 mu         0.1   0.3 0.510 0.0836
 4 mu         0.1   0.4 0.526 0.0829
 5 mu         0.1   0.5 0.535 0.0822
 6 mu         0.2   0.1 0.327 0.0581
 7 mu         0.2   0.2 0.395 0.0585
 8 mu         0.2   0.3 0.468 0.0513
 9 mu         0.2   0.4 0.497 0.0503
10 mu         0.2   0.5 0.514 0.0481
# ℹ 350 more rows
…
