…
`.groups` argument.
`summarise()` has grouped output by 'theta'. You can override using the
`.groups` argument.
`summarise()` has grouped output by 'theta', 'tau'. You can override using the
`.groups` argument.
`summarise()` has grouped output by 'theta'. You can override using the
`.groups` argument.
`summarise()` has grouped output by 'theta', 'tau'. You can override using the
`.groups` argument.
`summarise()` has grouped output by 'theta'. You can override using the
`.groups` argument.
[1] ""
[1] "Total run time was 94.767 seconds"
[1] "Estimation result: "
# A tibble: 360 × 5
   estimand theta   tau   est     se
   <chr>    <dbl> <dbl> <dbl>  <dbl>
 1 mu         0.1   0.1 0.421 0.0836
 2 mu         0.1   0.2 0.631 0.142 
 3 mu         0.1   0.3 0.654 0.108 
 4 mu         0.1   0.4 0.660 0.0816
 5 mu         0.1   0.5 0.733 0.106 
 6 mu         0.2   0.1 0.341 0.0306
 7 mu         0.2   0.2 0.463 0.0489
 8 mu         0.2   0.3 0.520 0.0424
 9 mu         0.2   0.4 0.566 0.0403
10 mu         0.2   0.5 0.613 0.0439
# ℹ 350 more rows
…
