…
`.groups` argument.
`summarise()` has grouped output by 'theta'. You can override using the
`.groups` argument.
`summarise()` has grouped output by 'theta', 'tau'. You can override using the
`.groups` argument.
`summarise()` has grouped output by 'theta'. You can override using the
`.groups` argument.
`summarise()` has grouped output by 'theta', 'tau'. You can override using the
`.groups` argument.
`summarise()` has grouped output by 'theta'. You can override using the
`.groups` argument.
[1] ""
[1] "Total run time was 95.613 seconds"
[1] "Estimation result: "
# A tibble: 360 × 5
   estimand theta   tau   est     se
   <chr>    <dbl> <dbl> <dbl>  <dbl>
 1 mu         0.1   0.1 0.424 0.122 
 2 mu         0.1   0.2 0.436 0.0893
 3 mu         0.1   0.3 0.427 0.0649
 4 mu         0.1   0.4 0.465 0.0689
 5 mu         0.1   0.5 0.481 0.0755
 6 mu         0.2   0.1 0.364 0.0687
 7 mu         0.2   0.2 0.408 0.0532
 8 mu         0.2   0.3 0.437 0.0459
 9 mu         0.2   0.4 0.493 0.0463
10 mu         0.2   0.5 0.528 0.0502
# ℹ 350 more rows
…
