…
`.groups` argument.
`summarise()` has grouped output by 'theta'. You can override using the
`.groups` argument.
`summarise()` has grouped output by 'theta', 'tau'. You can override using the
`.groups` argument.
`summarise()` has grouped output by 'theta'. You can override using the
`.groups` argument.
`summarise()` has grouped output by 'theta', 'tau'. You can override using the
`.groups` argument.
`summarise()` has grouped output by 'theta'. You can override using the
`.groups` argument.
[1] ""
[1] "Total run time was 213.494 seconds"
[1] "Estimation result: "
# A tibble: 360 × 5
   estimand theta   tau   est     se
   <chr>    <dbl> <dbl> <dbl>  <dbl>
 1 mu         0.1   0.1 0.250 0.0889
 2 mu         0.1   0.2 0.366 0.181 
 3 mu         0.1   0.3 0.440 0.171 
 4 mu         0.1   0.4 0.419 0.172 
 5 mu         0.1   0.5 0.408 0.165 
 6 mu         0.2   0.1 0.252 0.0732
 7 mu         0.2   0.2 0.391 0.143 
 8 mu         0.2   0.3 0.487 0.128 
 9 mu         0.2   0.4 0.492 0.127 
10 mu         0.2   0.5 0.498 0.121 
# ℹ 350 more rows
…
