…
`.groups` argument.
`summarise()` has grouped output by 'theta'. You can override using the
`.groups` argument.
`summarise()` has grouped output by 'theta', 'tau'. You can override using the
`.groups` argument.
`summarise()` has grouped output by 'theta'. You can override using the
`.groups` argument.
`summarise()` has grouped output by 'theta', 'tau'. You can override using the
`.groups` argument.
`summarise()` has grouped output by 'theta'. You can override using the
`.groups` argument.
[1] ""
[1] "Total run time was 130.632 seconds"
[1] "Estimation result: "
# A tibble: 360 × 5
   estimand theta   tau   est    se
   <chr>    <dbl> <dbl> <dbl> <dbl>
 1 mu         0.1   0.1 0.403 0.138
 2 mu         0.1   0.2 0.402 0.126
 3 mu         0.1   0.3 0.408 0.111
 4 mu         0.1   0.4 0.430 0.106
 5 mu         0.1   0.5 0.450 0.101
 6 mu         0.2   0.1 0.444 0.132
 7 mu         0.2   0.2 0.463 0.120
 8 mu         0.2   0.3 0.488 0.109
 9 mu         0.2   0.4 0.517 0.108
10 mu         0.2   0.5 0.546 0.106
# ℹ 350 more rows
…
