…
`.groups` argument.
`summarise()` has grouped output by 'theta'. You can override using the
`.groups` argument.
`summarise()` has grouped output by 'theta', 'tau'. You can override using the
`.groups` argument.
`summarise()` has grouped output by 'theta'. You can override using the
`.groups` argument.
`summarise()` has grouped output by 'theta', 'tau'. You can override using the
`.groups` argument.
`summarise()` has grouped output by 'theta'. You can override using the
`.groups` argument.
[1] ""
[1] "Total run time was 156.34 seconds"
[1] "Estimation result: "
# A tibble: 360 × 5
   estimand theta   tau   est     se
   <chr>    <dbl> <dbl> <dbl>  <dbl>
 1 mu         0.1   0.1 0.291 0.0809
 2 mu         0.1   0.2 0.391 0.124 
 3 mu         0.1   0.3 0.504 0.0973
 4 mu         0.1   0.4 0.510 0.0930
 5 mu         0.1   0.5 0.645 0.183 
 6 mu         0.2   0.1 0.285 0.0462
 7 mu         0.2   0.2 0.348 0.0645
 8 mu         0.2   0.3 0.451 0.0514
 9 mu         0.2   0.4 0.484 0.0452
10 mu         0.2   0.5 0.553 0.0722
# ℹ 350 more rows
…
