…
`.groups` argument.
`summarise()` has grouped output by 'theta'. You can override using the
`.groups` argument.
`summarise()` has grouped output by 'theta', 'tau'. You can override using the
`.groups` argument.
`summarise()` has grouped output by 'theta'. You can override using the
`.groups` argument.
`summarise()` has grouped output by 'theta', 'tau'. You can override using the
`.groups` argument.
`summarise()` has grouped output by 'theta'. You can override using the
`.groups` argument.
[1] ""
[1] "Total run time was 183.534 seconds"
[1] "Estimation result: "
# A tibble: 360 × 5
   estimand theta   tau   est     se
   <chr>    <dbl> <dbl> <dbl>  <dbl>
 1 mu         0.1   0.1 0.438 0.0973
 2 mu         0.1   0.2 0.544 0.132 
 3 mu         0.1   0.3 0.557 0.119 
 4 mu         0.1   0.4 0.570 0.114 
 5 mu         0.1   0.5 0.575 0.106 
 6 mu         0.2   0.1 0.386 0.0599
 7 mu         0.2   0.2 0.512 0.109 
 8 mu         0.2   0.3 0.538 0.0961
 9 mu         0.2   0.4 0.562 0.0918
10 mu         0.2   0.5 0.575 0.0842
# ℹ 350 more rows
…
