…
`.groups` argument.
`summarise()` has grouped output by 'theta'. You can override using the
`.groups` argument.
`summarise()` has grouped output by 'theta', 'tau'. You can override using the
`.groups` argument.
`summarise()` has grouped output by 'theta'. You can override using the
`.groups` argument.
`summarise()` has grouped output by 'theta', 'tau'. You can override using the
`.groups` argument.
`summarise()` has grouped output by 'theta'. You can override using the
`.groups` argument.
[1] ""
[1] "Total run time was 157.688 seconds"
[1] "Estimation result: "
# A tibble: 360 × 5
   estimand theta   tau   est     se
   <chr>    <dbl> <dbl> <dbl>  <dbl>
 1 mu         0.1   0.1 0.486 0.144 
 2 mu         0.1   0.2 0.671 0.193 
 3 mu         0.1   0.3 0.732 0.221 
 4 mu         0.1   0.4 0.749 0.233 
 5 mu         0.1   0.5 0.786 0.243 
 6 mu         0.2   0.1 0.423 0.0621
 7 mu         0.2   0.2 0.575 0.0999
 8 mu         0.2   0.3 0.628 0.122 
 9 mu         0.2   0.4 0.642 0.120 
10 mu         0.2   0.5 0.704 0.128 
# ℹ 350 more rows
…
