…
`.groups` argument.
`summarise()` has grouped output by 'theta'. You can override using the
`.groups` argument.
`summarise()` has grouped output by 'theta', 'tau'. You can override using the
`.groups` argument.
`summarise()` has grouped output by 'theta'. You can override using the
`.groups` argument.
`summarise()` has grouped output by 'theta', 'tau'. You can override using the
`.groups` argument.
`summarise()` has grouped output by 'theta'. You can override using the
`.groups` argument.
[1] ""
[1] "Total run time was 129.575 seconds"
[1] "Estimation result: "
# A tibble: 360 × 5
   estimand theta   tau   est     se
   <chr>    <dbl> <dbl> <dbl>  <dbl>
 1 mu         0.1   0.1 0.393 0.0840
 2 mu         0.1   0.2 0.543 0.163 
 3 mu         0.1   0.3 0.621 0.140 
 4 mu         0.1   0.4 0.703 0.149 
 5 mu         0.1   0.5 0.707 0.134 
 6 mu         0.2   0.1 0.311 0.0474
 7 mu         0.2   0.2 0.411 0.0833
 8 mu         0.2   0.3 0.489 0.0732
 9 mu         0.2   0.4 0.566 0.0745
10 mu         0.2   0.5 0.584 0.0670
# ℹ 350 more rows
…
