…
`.groups` argument.
`summarise()` has grouped output by 'theta'. You can override using the
`.groups` argument.
`summarise()` has grouped output by 'theta', 'tau'. You can override using the
`.groups` argument.
`summarise()` has grouped output by 'theta'. You can override using the
`.groups` argument.
`summarise()` has grouped output by 'theta', 'tau'. You can override using the
`.groups` argument.
`summarise()` has grouped output by 'theta'. You can override using the
`.groups` argument.
[1] ""
[1] "Total run time was 97.221 seconds"
[1] "Estimation result: "
# A tibble: 360 × 5
   estimand theta   tau   est     se
   <chr>    <dbl> <dbl> <dbl>  <dbl>
 1 mu         0.1   0.1 0.320 0.0597
 2 mu         0.1   0.2 0.353 0.0484
 3 mu         0.1   0.3 0.377 0.0492
 4 mu         0.1   0.4 0.406 0.0567
 5 mu         0.1   0.5 0.463 0.0613
 6 mu         0.2   0.1 0.282 0.0385
 7 mu         0.2   0.2 0.328 0.0316
 8 mu         0.2   0.3 0.383 0.0311
 9 mu         0.2   0.4 0.421 0.0386
10 mu         0.2   0.5 0.479 0.0417
# ℹ 350 more rows
…
