…
`.groups` argument.
`summarise()` has grouped output by 'theta'. You can override using the
`.groups` argument.
`summarise()` has grouped output by 'theta', 'tau'. You can override using the
`.groups` argument.
`summarise()` has grouped output by 'theta'. You can override using the
`.groups` argument.
`summarise()` has grouped output by 'theta', 'tau'. You can override using the
`.groups` argument.
`summarise()` has grouped output by 'theta'. You can override using the
`.groups` argument.
[1] ""
[1] "Total run time was 84.999 seconds"
[1] "Estimation result: "
# A tibble: 360 × 5
   estimand theta   tau   est     se
   <chr>    <dbl> <dbl> <dbl>  <dbl>
 1 mu         0.1   0.1 0.307 0.0429
 2 mu         0.1   0.2 0.425 0.0651
 3 mu         0.1   0.3 0.458 0.0526
 4 mu         0.1   0.4 0.469 0.0495
 5 mu         0.1   0.5 0.549 0.0668
 6 mu         0.2   0.1 0.295 0.0441
 7 mu         0.2   0.2 0.384 0.0483
 8 mu         0.2   0.3 0.422 0.0514
 9 mu         0.2   0.4 0.446 0.0578
10 mu         0.2   0.5 0.505 0.0620
# ℹ 350 more rows
…
