…
`.groups` argument.
`summarise()` has grouped output by 'theta'. You can override using the
`.groups` argument.
`summarise()` has grouped output by 'theta', 'tau'. You can override using the
`.groups` argument.
`summarise()` has grouped output by 'theta'. You can override using the
`.groups` argument.
`summarise()` has grouped output by 'theta', 'tau'. You can override using the
`.groups` argument.
`summarise()` has grouped output by 'theta'. You can override using the
`.groups` argument.
[1] ""
[1] "Total run time was 92.345 seconds"
[1] "Estimation result: "
# A tibble: 360 × 5
   estimand theta   tau   est     se
   <chr>    <dbl> <dbl> <dbl>  <dbl>
 1 mu         0.1   0.1 0.244 0.0544
 2 mu         0.1   0.2 0.294 0.0855
 3 mu         0.1   0.3 0.327 0.0765
 4 mu         0.1   0.4 0.322 0.0734
 5 mu         0.1   0.5 0.368 0.0579
 6 mu         0.2   0.1 0.283 0.0352
 7 mu         0.2   0.2 0.337 0.0545
 8 mu         0.2   0.3 0.372 0.0475
 9 mu         0.2   0.4 0.378 0.0455
10 mu         0.2   0.5 0.419 0.0378
# ℹ 350 more rows
…
