…
`.groups` argument.
`summarise()` has grouped output by 'theta'. You can override using the
`.groups` argument.
`summarise()` has grouped output by 'theta', 'tau'. You can override using the
`.groups` argument.
`summarise()` has grouped output by 'theta'. You can override using the
`.groups` argument.
`summarise()` has grouped output by 'theta', 'tau'. You can override using the
`.groups` argument.
`summarise()` has grouped output by 'theta'. You can override using the
`.groups` argument.
[1] ""
[1] "Total run time was 103.544 seconds"
[1] "Estimation result: "
# A tibble: 360 × 5
   estimand theta   tau   est     se
   <chr>    <dbl> <dbl> <dbl>  <dbl>
 1 mu         0.1   0.1 0.565 0.0945
 2 mu         0.1   0.2 0.564 0.0880
 3 mu         0.1   0.3 0.594 0.0853
 4 mu         0.1   0.4 0.655 0.0764
 5 mu         0.1   0.5 0.705 0.0778
 6 mu         0.2   0.1 0.474 0.0667
 7 mu         0.2   0.2 0.481 0.0568
 8 mu         0.2   0.3 0.514 0.0513
 9 mu         0.2   0.4 0.561 0.0445
10 mu         0.2   0.5 0.621 0.0510
# ℹ 350 more rows
…
