…
`.groups` argument.
`summarise()` has grouped output by 'theta'. You can override using the
`.groups` argument.
`summarise()` has grouped output by 'theta', 'tau'. You can override using the
`.groups` argument.
`summarise()` has grouped output by 'theta'. You can override using the
`.groups` argument.
`summarise()` has grouped output by 'theta', 'tau'. You can override using the
`.groups` argument.
`summarise()` has grouped output by 'theta'. You can override using the
`.groups` argument.
[1] ""
[1] "Total run time was 273.02 seconds"
[1] "Estimation result: "
# A tibble: 360 × 5
   estimand theta   tau   est     se
   <chr>    <dbl> <dbl> <dbl>  <dbl>
 1 mu         0.1   0.1 0.370 0.0449
 2 mu         0.1   0.2 0.622 0.136 
 3 mu         0.1   0.3 0.663 0.118 
 4 mu         0.1   0.4 0.682 0.106 
 5 mu         0.1   0.5 0.718 0.0992
 6 mu         0.2   0.1 0.313 0.0261
 7 mu         0.2   0.2 0.475 0.0558
 8 mu         0.2   0.3 0.544 0.0534
 9 mu         0.2   0.4 0.572 0.0543
10 mu         0.2   0.5 0.612 0.0543
# ℹ 350 more rows
…
