…
`.groups` argument.
`summarise()` has grouped output by 'theta'. You can override using the
`.groups` argument.
`summarise()` has grouped output by 'theta', 'tau'. You can override using the
`.groups` argument.
`summarise()` has grouped output by 'theta'. You can override using the
`.groups` argument.
`summarise()` has grouped output by 'theta', 'tau'. You can override using the
`.groups` argument.
`summarise()` has grouped output by 'theta'. You can override using the
`.groups` argument.
[1] ""
[1] "Total run time was 99.015 seconds"
[1] "Estimation result: "
# A tibble: 360 × 5
   estimand theta   tau   est     se
   <chr>    <dbl> <dbl> <dbl>  <dbl>
 1 mu         0.1   0.1 0.618 0.144 
 2 mu         0.1   0.2 0.732 0.162 
 3 mu         0.1   0.3 0.974 0.243 
 4 mu         0.1   0.4 0.996 0.234 
 5 mu         0.1   0.5 1.02  0.228 
 6 mu         0.2   0.1 0.460 0.0684
 7 mu         0.2   0.2 0.566 0.0797
 8 mu         0.2   0.3 0.741 0.154 
 9 mu         0.2   0.4 0.768 0.138 
10 mu         0.2   0.5 0.809 0.125 
# ℹ 350 more rows
…
