…
`.groups` argument.
`summarise()` has grouped output by 'theta'. You can override using the
`.groups` argument.
`summarise()` has grouped output by 'theta', 'tau'. You can override using the
`.groups` argument.
`summarise()` has grouped output by 'theta'. You can override using the
`.groups` argument.
`summarise()` has grouped output by 'theta', 'tau'. You can override using the
`.groups` argument.
`summarise()` has grouped output by 'theta'. You can override using the
`.groups` argument.
[1] ""
[1] "Total run time was 172.39 seconds"
[1] "Estimation result: "
# A tibble: 360 × 5
   estimand theta   tau   est     se
   <chr>    <dbl> <dbl> <dbl>  <dbl>
 1 mu         0.1   0.1 0.441 0.0574
 2 mu         0.1   0.2 0.580 0.0629
 3 mu         0.1   0.3 0.636 0.0677
 4 mu         0.1   0.4 0.654 0.0665
 5 mu         0.1   0.5 0.703 0.0557
 6 mu         0.2   0.1 0.376 0.0420
 7 mu         0.2   0.2 0.525 0.0414
 8 mu         0.2   0.3 0.588 0.0486
 9 mu         0.2   0.4 0.634 0.0438
10 mu         0.2   0.5 0.671 0.0380
# ℹ 350 more rows
…
