…
`.groups` argument.
`summarise()` has grouped output by 'theta'. You can override using the
`.groups` argument.
`summarise()` has grouped output by 'theta', 'tau'. You can override using the
`.groups` argument.
`summarise()` has grouped output by 'theta'. You can override using the
`.groups` argument.
`summarise()` has grouped output by 'theta', 'tau'. You can override using the
`.groups` argument.
`summarise()` has grouped output by 'theta'. You can override using the
`.groups` argument.
[1] ""
[1] "Total run time was 78.981 seconds"
[1] "Estimation result: "
# A tibble: 360 × 5
   estimand theta   tau   est     se
   <chr>    <dbl> <dbl> <dbl>  <dbl>
 1 mu         0.1   0.1 0.287 0.0775
 2 mu         0.1   0.2 0.377 0.0926
 3 mu         0.1   0.3 0.428 0.0930
 4 mu         0.1   0.4 0.490 0.0989
 5 mu         0.1   0.5 0.554 0.116 
 6 mu         0.2   0.1 0.261 0.0386
 7 mu         0.2   0.2 0.336 0.0490
 8 mu         0.2   0.3 0.438 0.0411
 9 mu         0.2   0.4 0.487 0.0450
10 mu         0.2   0.5 0.545 0.0576
# ℹ 350 more rows
…
