…
`.groups` argument.
`summarise()` has grouped output by 'theta'. You can override using the
`.groups` argument.
`summarise()` has grouped output by 'theta', 'tau'. You can override using the
`.groups` argument.
`summarise()` has grouped output by 'theta'. You can override using the
`.groups` argument.
`summarise()` has grouped output by 'theta', 'tau'. You can override using the
`.groups` argument.
`summarise()` has grouped output by 'theta'. You can override using the
`.groups` argument.
[1] ""
[1] "Total run time was 124.632 seconds"
[1] "Estimation result: "
# A tibble: 360 × 5
   estimand theta   tau   est     se
   <chr>    <dbl> <dbl> <dbl>  <dbl>
 1 mu         0.1   0.1 0.474 0.0739
 2 mu         0.1   0.2 0.558 0.0957
 3 mu         0.1   0.3 0.614 0.0926
 4 mu         0.1   0.4 0.709 0.128 
 5 mu         0.1   0.5 0.708 0.117 
 6 mu         0.2   0.1 0.401 0.0450
 7 mu         0.2   0.2 0.476 0.0586
 8 mu         0.2   0.3 0.533 0.0577
 9 mu         0.2   0.4 0.609 0.0676
10 mu         0.2   0.5 0.626 0.0692
# ℹ 350 more rows
…
