…
`.groups` argument.
`summarise()` has grouped output by 'theta'. You can override using the
`.groups` argument.
`summarise()` has grouped output by 'theta', 'tau'. You can override using the
`.groups` argument.
`summarise()` has grouped output by 'theta'. You can override using the
`.groups` argument.
`summarise()` has grouped output by 'theta', 'tau'. You can override using the
`.groups` argument.
`summarise()` has grouped output by 'theta'. You can override using the
`.groups` argument.
[1] ""
[1] "Total run time was 102.194 seconds"
[1] "Estimation result: "
# A tibble: 360 × 5
   estimand theta   tau   est     se
   <chr>    <dbl> <dbl> <dbl>  <dbl>
 1 mu         0.1   0.1 0.527 0.112 
 2 mu         0.1   0.2 0.568 0.0939
 3 mu         0.1   0.3 0.602 0.0930
 4 mu         0.1   0.4 0.620 0.0918
 5 mu         0.1   0.5 0.679 0.0835
 6 mu         0.2   0.1 0.374 0.0538
 7 mu         0.2   0.2 0.428 0.0505
 8 mu         0.2   0.3 0.457 0.0549
 9 mu         0.2   0.4 0.483 0.0614
10 mu         0.2   0.5 0.550 0.0542
# ℹ 350 more rows
…
