…
`.groups` argument.
`summarise()` has grouped output by 'theta'. You can override using the
`.groups` argument.
`summarise()` has grouped output by 'theta', 'tau'. You can override using the
`.groups` argument.
`summarise()` has grouped output by 'theta'. You can override using the
`.groups` argument.
`summarise()` has grouped output by 'theta', 'tau'. You can override using the
`.groups` argument.
`summarise()` has grouped output by 'theta'. You can override using the
`.groups` argument.
[1] ""
[1] "Total run time was 93.579 seconds"
[1] "Estimation result: "
# A tibble: 360 × 5
   estimand theta   tau   est     se
   <chr>    <dbl> <dbl> <dbl>  <dbl>
 1 mu         0.1   0.1 0.340 0.0543
 2 mu         0.1   0.2 0.427 0.0653
 3 mu         0.1   0.3 0.583 0.0865
 4 mu         0.1   0.4 0.593 0.0825
 5 mu         0.1   0.5 0.633 0.0899
 6 mu         0.2   0.1 0.335 0.0547
 7 mu         0.2   0.2 0.424 0.0598
 8 mu         0.2   0.3 0.533 0.0671
 9 mu         0.2   0.4 0.549 0.0607
10 mu         0.2   0.5 0.609 0.0845
# ℹ 350 more rows
…
