…
`.groups` argument.
`summarise()` has grouped output by 'theta'. You can override using the
`.groups` argument.
`summarise()` has grouped output by 'theta', 'tau'. You can override using the
`.groups` argument.
`summarise()` has grouped output by 'theta'. You can override using the
`.groups` argument.
`summarise()` has grouped output by 'theta', 'tau'. You can override using the
`.groups` argument.
`summarise()` has grouped output by 'theta'. You can override using the
`.groups` argument.
[1] ""
[1] "Total run time was 97.553 seconds"
[1] "Estimation result: "
# A tibble: 360 × 5
   estimand theta   tau   est     se
   <chr>    <dbl> <dbl> <dbl>  <dbl>
 1 mu         0.1   0.1 0.304 0.0576
 2 mu         0.1   0.2 0.454 0.0800
 3 mu         0.1   0.3 0.469 0.0721
 4 mu         0.1   0.4 0.504 0.0643
 5 mu         0.1   0.5 0.508 0.0653
 6 mu         0.2   0.1 0.293 0.0466
 7 mu         0.2   0.2 0.405 0.0491
 8 mu         0.2   0.3 0.435 0.0443
 9 mu         0.2   0.4 0.475 0.0393
10 mu         0.2   0.5 0.487 0.0405
# ℹ 350 more rows
…
