…
`.groups` argument.
`summarise()` has grouped output by 'theta'. You can override using the
`.groups` argument.
`summarise()` has grouped output by 'theta', 'tau'. You can override using the
`.groups` argument.
`summarise()` has grouped output by 'theta'. You can override using the
`.groups` argument.
`summarise()` has grouped output by 'theta', 'tau'. You can override using the
`.groups` argument.
`summarise()` has grouped output by 'theta'. You can override using the
`.groups` argument.
[1] ""
[1] "Total run time was 79.825 seconds"
[1] "Estimation result: "
# A tibble: 360 × 5
   estimand theta   tau   est     se
   <chr>    <dbl> <dbl> <dbl>  <dbl>
 1 mu         0.1   0.1 0.369 0.0785
 2 mu         0.1   0.2 0.516 0.104 
 3 mu         0.1   0.3 0.529 0.0951
 4 mu         0.1   0.4 0.521 0.0890
 5 mu         0.1   0.5 0.533 0.0922
 6 mu         0.2   0.1 0.348 0.0426
 7 mu         0.2   0.2 0.470 0.0589
 8 mu         0.2   0.3 0.509 0.0523
 9 mu         0.2   0.4 0.510 0.0474
10 mu         0.2   0.5 0.542 0.0493
# ℹ 350 more rows
…
