…
`.groups` argument.
`summarise()` has grouped output by 'theta'. You can override using the
`.groups` argument.
`summarise()` has grouped output by 'theta', 'tau'. You can override using the
`.groups` argument.
`summarise()` has grouped output by 'theta'. You can override using the
`.groups` argument.
`summarise()` has grouped output by 'theta', 'tau'. You can override using the
`.groups` argument.
`summarise()` has grouped output by 'theta'. You can override using the
`.groups` argument.
[1] ""
[1] "Total run time was 90.69 seconds"
[1] "Estimation result: "
# A tibble: 360 × 5
   estimand theta   tau   est     se
   <chr>    <dbl> <dbl> <dbl>  <dbl>
 1 mu         0.1   0.1 0.292 0.0581
 2 mu         0.1   0.2 0.371 0.0864
 3 mu         0.1   0.3 0.402 0.0751
 4 mu         0.1   0.4 0.486 0.0890
 5 mu         0.1   0.5 0.534 0.0775
 6 mu         0.2   0.1 0.341 0.0446
 7 mu         0.2   0.2 0.447 0.0801
 8 mu         0.2   0.3 0.491 0.0647
 9 mu         0.2   0.4 0.586 0.0781
10 mu         0.2   0.5 0.635 0.0690
# ℹ 350 more rows
…
