…
`.groups` argument.
`summarise()` has grouped output by 'theta'. You can override using the
`.groups` argument.
`summarise()` has grouped output by 'theta', 'tau'. You can override using the
`.groups` argument.
`summarise()` has grouped output by 'theta'. You can override using the
`.groups` argument.
`summarise()` has grouped output by 'theta', 'tau'. You can override using the
`.groups` argument.
`summarise()` has grouped output by 'theta'. You can override using the
`.groups` argument.
[1] ""
[1] "Total run time was 79.876 seconds"
[1] "Estimation result: "
# A tibble: 360 × 5
   estimand theta   tau   est    se
   <chr>    <dbl> <dbl> <dbl> <dbl>
 1 mu         0.1   0.1 0.402 0.123
 2 mu         0.1   0.2 0.468 0.141
 3 mu         0.1   0.3 0.499 0.143
 4 mu         0.1   0.4 0.517 0.144
 5 mu         0.1   0.5 0.508 0.132
 6 mu         0.2   0.1 0.415 0.100
 7 mu         0.2   0.2 0.501 0.112
 8 mu         0.2   0.3 0.548 0.117
 9 mu         0.2   0.4 0.581 0.120
10 mu         0.2   0.5 0.587 0.106
# ℹ 350 more rows
…
