…
`.groups` argument.
`summarise()` has grouped output by 'theta'. You can override using the
`.groups` argument.
`summarise()` has grouped output by 'theta', 'tau'. You can override using the
`.groups` argument.
`summarise()` has grouped output by 'theta'. You can override using the
`.groups` argument.
`summarise()` has grouped output by 'theta', 'tau'. You can override using the
`.groups` argument.
`summarise()` has grouped output by 'theta'. You can override using the
`.groups` argument.
[1] ""
[1] "Total run time was 123.302 seconds"
[1] "Estimation result: "
# A tibble: 360 × 5
   estimand theta   tau   est     se
   <chr>    <dbl> <dbl> <dbl>  <dbl>
 1 mu         0.1   0.1 0.415 0.130 
 2 mu         0.1   0.2 0.532 0.135 
 3 mu         0.1   0.3 0.643 0.139 
 4 mu         0.1   0.4 0.798 0.195 
 5 mu         0.1   0.5 0.791 0.179 
 6 mu         0.2   0.1 0.318 0.0900
 7 mu         0.2   0.2 0.442 0.0964
 8 mu         0.2   0.3 0.533 0.0960
 9 mu         0.2   0.4 0.657 0.143 
10 mu         0.2   0.5 0.663 0.128 
# ℹ 350 more rows
…
