…
`.groups` argument.
`summarise()` has grouped output by 'theta'. You can override using the
`.groups` argument.
`summarise()` has grouped output by 'theta', 'tau'. You can override using the
`.groups` argument.
`summarise()` has grouped output by 'theta'. You can override using the
`.groups` argument.
`summarise()` has grouped output by 'theta', 'tau'. You can override using the
`.groups` argument.
`summarise()` has grouped output by 'theta'. You can override using the
`.groups` argument.
[1] ""
[1] "Total run time was 79.882 seconds"
[1] "Estimation result: "
# A tibble: 360 × 5
   estimand theta   tau   est     se
   <chr>    <dbl> <dbl> <dbl>  <dbl>
 1 mu         0.1   0.1 0.304 0.0980
 2 mu         0.1   0.2 0.271 0.0656
 3 mu         0.1   0.3 0.292 0.0605
 4 mu         0.1   0.4 0.282 0.0411
 5 mu         0.1   0.5 0.262 0.0403
 6 mu         0.2   0.1 0.267 0.0495
 7 mu         0.2   0.2 0.254 0.0379
 8 mu         0.2   0.3 0.290 0.0513
 9 mu         0.2   0.4 0.311 0.0339
10 mu         0.2   0.5 0.310 0.0362
# ℹ 350 more rows
…
