…
`.groups` argument.
`summarise()` has grouped output by 'theta'. You can override using the
`.groups` argument.
`summarise()` has grouped output by 'theta', 'tau'. You can override using the
`.groups` argument.
`summarise()` has grouped output by 'theta'. You can override using the
`.groups` argument.
`summarise()` has grouped output by 'theta', 'tau'. You can override using the
`.groups` argument.
`summarise()` has grouped output by 'theta'. You can override using the
`.groups` argument.
[1] ""
[1] "Total run time was 108.847 seconds"
[1] "Estimation result: "
# A tibble: 360 × 5
   estimand theta   tau   est     se
   <chr>    <dbl> <dbl> <dbl>  <dbl>
 1 mu         0.1   0.1 0.233 0.196 
 2 mu         0.1   0.2 0.268 0.176 
 3 mu         0.1   0.3 0.478 0.123 
 4 mu         0.1   0.4 0.482 0.119 
 5 mu         0.1   0.5 0.666 0.126 
 6 mu         0.2   0.1 0.232 0.122 
 7 mu         0.2   0.2 0.332 0.119 
 8 mu         0.2   0.3 0.481 0.0602
 9 mu         0.2   0.4 0.499 0.0605
10 mu         0.2   0.5 0.678 0.0847
# ℹ 350 more rows
…
