…
`.groups` argument.
`summarise()` has grouped output by 'theta'. You can override using the
`.groups` argument.
`summarise()` has grouped output by 'theta', 'tau'. You can override using the
`.groups` argument.
`summarise()` has grouped output by 'theta'. You can override using the
`.groups` argument.
`summarise()` has grouped output by 'theta', 'tau'. You can override using the
`.groups` argument.
`summarise()` has grouped output by 'theta'. You can override using the
`.groups` argument.
[1] ""
[1] "Total run time was 159.178 seconds"
[1] "Estimation result: "
# A tibble: 360 × 5
   estimand theta   tau   est     se
   <chr>    <dbl> <dbl> <dbl>  <dbl>
 1 mu         0.1   0.1 0.220 0.107 
 2 mu         0.1   0.2 0.349 0.0958
 3 mu         0.1   0.3 0.383 0.0908
 4 mu         0.1   0.4 0.403 0.0937
 5 mu         0.1   0.5 0.410 0.105 
 6 mu         0.2   0.1 0.249 0.0999
 7 mu         0.2   0.2 0.388 0.0664
 8 mu         0.2   0.3 0.425 0.0554
 9 mu         0.2   0.4 0.457 0.0571
10 mu         0.2   0.5 0.472 0.0728
# ℹ 350 more rows
…
