…
`.groups` argument.
`summarise()` has grouped output by 'theta'. You can override using the
`.groups` argument.
`summarise()` has grouped output by 'theta', 'tau'. You can override using the
`.groups` argument.
`summarise()` has grouped output by 'theta'. You can override using the
`.groups` argument.
`summarise()` has grouped output by 'theta', 'tau'. You can override using the
`.groups` argument.
`summarise()` has grouped output by 'theta'. You can override using the
`.groups` argument.
[1] ""
[1] "Total run time was 105.86 seconds"
[1] "Estimation result: "
# A tibble: 360 × 5
   estimand theta   tau   est     se
   <chr>    <dbl> <dbl> <dbl>  <dbl>
 1 mu         0.1   0.1 0.580 0.168 
 2 mu         0.1   0.2 0.610 0.180 
 3 mu         0.1   0.3 0.681 0.202 
 4 mu         0.1   0.4 0.769 0.225 
 5 mu         0.1   0.5 0.817 0.239 
 6 mu         0.2   0.1 0.462 0.0878
 7 mu         0.2   0.2 0.505 0.0858
 8 mu         0.2   0.3 0.559 0.0963
 9 mu         0.2   0.4 0.637 0.111 
10 mu         0.2   0.5 0.674 0.116 
# ℹ 350 more rows
…
