…
`.groups` argument.
`summarise()` has grouped output by 'theta'. You can override using the
`.groups` argument.
`summarise()` has grouped output by 'theta', 'tau'. You can override using the
`.groups` argument.
`summarise()` has grouped output by 'theta'. You can override using the
`.groups` argument.
`summarise()` has grouped output by 'theta', 'tau'. You can override using the
`.groups` argument.
`summarise()` has grouped output by 'theta'. You can override using the
`.groups` argument.
[1] ""
[1] "Total run time was 76.926 seconds"
[1] "Estimation result: "
# A tibble: 360 × 5
   estimand theta   tau   est     se
   <chr>    <dbl> <dbl> <dbl>  <dbl>
 1 mu         0.1   0.1 0.614 0.0999
 2 mu         0.1   0.2 0.644 0.0861
 3 mu         0.1   0.3 0.666 0.0765
 4 mu         0.1   0.4 0.727 0.0642
 5 mu         0.1   0.5 0.750 0.0596
 6 mu         0.2   0.1 0.526 0.0551
 7 mu         0.2   0.2 0.583 0.0531
 8 mu         0.2   0.3 0.619 0.0479
 9 mu         0.2   0.4 0.692 0.0493
10 mu         0.2   0.5 0.723 0.0493
# ℹ 350 more rows
…
