…
`.groups` argument.
`summarise()` has grouped output by 'theta'. You can override using the
`.groups` argument.
`summarise()` has grouped output by 'theta', 'tau'. You can override using the
`.groups` argument.
`summarise()` has grouped output by 'theta'. You can override using the
`.groups` argument.
`summarise()` has grouped output by 'theta', 'tau'. You can override using the
`.groups` argument.
`summarise()` has grouped output by 'theta'. You can override using the
`.groups` argument.
[1] ""
[1] "Total run time was 166.221 seconds"
[1] "Estimation result: "
# A tibble: 360 × 5
   estimand theta   tau   est     se
   <chr>    <dbl> <dbl> <dbl>  <dbl>
 1 mu         0.1   0.1 0.636 0.149 
 2 mu         0.1   0.2 0.701 0.169 
 3 mu         0.1   0.3 0.758 0.173 
 4 mu         0.1   0.4 0.762 0.156 
 5 mu         0.1   0.5 0.783 0.147 
 6 mu         0.2   0.1 0.507 0.0949
 7 mu         0.2   0.2 0.546 0.0983
 8 mu         0.2   0.3 0.601 0.107 
 9 mu         0.2   0.4 0.623 0.0964
10 mu         0.2   0.5 0.657 0.0894
# ℹ 350 more rows
…
