…
`.groups` argument.
`summarise()` has grouped output by 'theta'. You can override using the
`.groups` argument.
`summarise()` has grouped output by 'theta', 'tau'. You can override using the
`.groups` argument.
`summarise()` has grouped output by 'theta'. You can override using the
`.groups` argument.
`summarise()` has grouped output by 'theta', 'tau'. You can override using the
`.groups` argument.
`summarise()` has grouped output by 'theta'. You can override using the
`.groups` argument.
[1] ""
[1] "Total run time was 349.164 seconds"
[1] "Estimation result: "
# A tibble: 360 × 5
   estimand theta   tau   est     se
   <chr>    <dbl> <dbl> <dbl>  <dbl>
 1 mu         0.1   0.1 0.393 0.0616
 2 mu         0.1   0.2 0.486 0.0619
 3 mu         0.1   0.3 0.543 0.0786
 4 mu         0.1   0.4 0.601 0.0825
 5 mu         0.1   0.5 0.614 0.0835
 6 mu         0.2   0.1 0.355 0.0464
 7 mu         0.2   0.2 0.434 0.0436
 8 mu         0.2   0.3 0.503 0.0577
 9 mu         0.2   0.4 0.557 0.0593
10 mu         0.2   0.5 0.571 0.0587
# ℹ 350 more rows
…
