…
`.groups` argument.
`summarise()` has grouped output by 'theta'. You can override using the
`.groups` argument.
`summarise()` has grouped output by 'theta', 'tau'. You can override using the
`.groups` argument.
`summarise()` has grouped output by 'theta'. You can override using the
`.groups` argument.
`summarise()` has grouped output by 'theta', 'tau'. You can override using the
`.groups` argument.
`summarise()` has grouped output by 'theta'. You can override using the
`.groups` argument.
[1] ""
[1] "Total run time was 125.953 seconds"
[1] "Estimation result: "
# A tibble: 360 × 5
   estimand theta   tau   est     se
   <chr>    <dbl> <dbl> <dbl>  <dbl>
 1 mu         0.1   0.1 0.301 0.0941
 2 mu         0.1   0.2 0.356 0.106 
 3 mu         0.1   0.3 0.478 0.127 
 4 mu         0.1   0.4 0.498 0.134 
 5 mu         0.1   0.5 0.516 0.140 
 6 mu         0.2   0.1 0.283 0.0542
 7 mu         0.2   0.2 0.338 0.0579
 8 mu         0.2   0.3 0.480 0.0700
 9 mu         0.2   0.4 0.512 0.0709
10 mu         0.2   0.5 0.544 0.0775
# ℹ 350 more rows
…
