…
`.groups` argument.
`summarise()` has grouped output by 'theta'. You can override using the
`.groups` argument.
`summarise()` has grouped output by 'theta', 'tau'. You can override using the
`.groups` argument.
`summarise()` has grouped output by 'theta'. You can override using the
`.groups` argument.
`summarise()` has grouped output by 'theta', 'tau'. You can override using the
`.groups` argument.
`summarise()` has grouped output by 'theta'. You can override using the
`.groups` argument.
[1] ""
[1] "Total run time was 130.003 seconds"
[1] "Estimation result: "
# A tibble: 360 × 5
   estimand theta   tau   est     se
   <chr>    <dbl> <dbl> <dbl>  <dbl>
 1 mu         0.1   0.1 0.408 0.0642
 2 mu         0.1   0.2 0.547 0.0669
 3 mu         0.1   0.3 0.559 0.0686
 4 mu         0.1   0.4 0.575 0.0791
 5 mu         0.1   0.5 0.639 0.0782
 6 mu         0.2   0.1 0.375 0.0447
 7 mu         0.2   0.2 0.490 0.0468
 8 mu         0.2   0.3 0.534 0.0474
 9 mu         0.2   0.4 0.546 0.0487
10 mu         0.2   0.5 0.602 0.0452
# ℹ 350 more rows
…
