…
`.groups` argument.
`summarise()` has grouped output by 'theta'. You can override using the
`.groups` argument.
`summarise()` has grouped output by 'theta', 'tau'. You can override using the
`.groups` argument.
`summarise()` has grouped output by 'theta'. You can override using the
`.groups` argument.
`summarise()` has grouped output by 'theta', 'tau'. You can override using the
`.groups` argument.
`summarise()` has grouped output by 'theta'. You can override using the
`.groups` argument.
[1] ""
[1] "Total run time was 186.733 seconds"
[1] "Estimation result: "
# A tibble: 360 × 5
   estimand theta   tau   est     se
   <chr>    <dbl> <dbl> <dbl>  <dbl>
 1 mu         0.1   0.1 0.254 0.0890
 2 mu         0.1   0.2 0.502 0.117 
 3 mu         0.1   0.3 0.553 0.0819
 4 mu         0.1   0.4 0.619 0.115 
 5 mu         0.1   0.5 0.603 0.109 
 6 mu         0.2   0.1 0.204 0.0723
 7 mu         0.2   0.2 0.427 0.0967
 8 mu         0.2   0.3 0.483 0.0460
 9 mu         0.2   0.4 0.545 0.0864
10 mu         0.2   0.5 0.529 0.0797
# ℹ 350 more rows
…
