…
`.groups` argument.
`summarise()` has grouped output by 'theta'. You can override using the
`.groups` argument.
`summarise()` has grouped output by 'theta', 'tau'. You can override using the
`.groups` argument.
`summarise()` has grouped output by 'theta'. You can override using the
`.groups` argument.
`summarise()` has grouped output by 'theta', 'tau'. You can override using the
`.groups` argument.
`summarise()` has grouped output by 'theta'. You can override using the
`.groups` argument.
[1] ""
[1] "Total run time was 202.524 seconds"
[1] "Estimation result: "
# A tibble: 360 × 5
   estimand theta   tau   est     se
   <chr>    <dbl> <dbl> <dbl>  <dbl>
 1 mu         0.1   0.1 0.432 0.0776
 2 mu         0.1   0.2 0.494 0.0702
 3 mu         0.1   0.3 0.509 0.0705
 4 mu         0.1   0.4 0.529 0.0698
 5 mu         0.1   0.5 0.567 0.0799
 6 mu         0.2   0.1 0.372 0.0416
 7 mu         0.2   0.2 0.450 0.0427
 8 mu         0.2   0.3 0.481 0.0445
 9 mu         0.2   0.4 0.510 0.0399
10 mu         0.2   0.5 0.562 0.0486
# ℹ 350 more rows
…
