…
`.groups` argument.
`summarise()` has grouped output by 'theta'. You can override using the
`.groups` argument.
`summarise()` has grouped output by 'theta', 'tau'. You can override using the
`.groups` argument.
`summarise()` has grouped output by 'theta'. You can override using the
`.groups` argument.
`summarise()` has grouped output by 'theta', 'tau'. You can override using the
`.groups` argument.
`summarise()` has grouped output by 'theta'. You can override using the
`.groups` argument.
[1] ""
[1] "Total run time was 66.352 seconds"
[1] "Estimation result: "
# A tibble: 360 × 5
   estimand theta   tau   est     se
   <chr>    <dbl> <dbl> <dbl>  <dbl>
 1 mu         0.1   0.1 0.323 0.0951
 2 mu         0.1   0.2 0.469 0.110 
 3 mu         0.1   0.3 0.508 0.126 
 4 mu         0.1   0.4 0.537 0.108 
 5 mu         0.1   0.5 0.619 0.121 
 6 mu         0.2   0.1 0.282 0.0707
 7 mu         0.2   0.2 0.427 0.0789
 8 mu         0.2   0.3 0.460 0.0918
 9 mu         0.2   0.4 0.492 0.0772
10 mu         0.2   0.5 0.559 0.0846
# ℹ 350 more rows
…
