…
`.groups` argument.
`summarise()` has grouped output by 'theta'. You can override using the
`.groups` argument.
`summarise()` has grouped output by 'theta', 'tau'. You can override using the
`.groups` argument.
`summarise()` has grouped output by 'theta'. You can override using the
`.groups` argument.
`summarise()` has grouped output by 'theta', 'tau'. You can override using the
`.groups` argument.
`summarise()` has grouped output by 'theta'. You can override using the
`.groups` argument.
[1] ""
[1] "Total run time was 155.263 seconds"
[1] "Estimation result: "
# A tibble: 360 × 5
   estimand theta   tau   est     se
   <chr>    <dbl> <dbl> <dbl>  <dbl>
 1 mu         0.1   0.1 0.448 0.123 
 2 mu         0.1   0.2 0.520 0.141 
 3 mu         0.1   0.3 0.526 0.150 
 4 mu         0.1   0.4 0.528 0.162 
 5 mu         0.1   0.5 0.547 0.168 
 6 mu         0.2   0.1 0.381 0.0797
 7 mu         0.2   0.2 0.419 0.0767
 8 mu         0.2   0.3 0.432 0.0864
 9 mu         0.2   0.4 0.440 0.0987
10 mu         0.2   0.5 0.465 0.104 
# ℹ 350 more rows
…
