…
`.groups` argument.
`summarise()` has grouped output by 'theta'. You can override using the
`.groups` argument.
`summarise()` has grouped output by 'theta', 'tau'. You can override using the
`.groups` argument.
`summarise()` has grouped output by 'theta'. You can override using the
`.groups` argument.
`summarise()` has grouped output by 'theta', 'tau'. You can override using the
`.groups` argument.
`summarise()` has grouped output by 'theta'. You can override using the
`.groups` argument.
[1] ""
[1] "Total run time was 336.878 seconds"
[1] "Estimation result: "
# A tibble: 360 × 5
   estimand theta   tau   est     se
   <chr>    <dbl> <dbl> <dbl>  <dbl>
 1 mu         0.1   0.1 0.328 0.0509
 2 mu         0.1   0.2 0.493 0.137 
 3 mu         0.1   0.3 0.523 0.124 
 4 mu         0.1   0.4 0.560 0.0848
 5 mu         0.1   0.5 0.642 0.119 
 6 mu         0.2   0.1 0.314 0.0453
 7 mu         0.2   0.2 0.476 0.130 
 8 mu         0.2   0.3 0.508 0.112 
 9 mu         0.2   0.4 0.538 0.0832
10 mu         0.2   0.5 0.620 0.115 
# ℹ 350 more rows
…
