…
`.groups` argument.
`summarise()` has grouped output by 'theta'. You can override using the
`.groups` argument.
`summarise()` has grouped output by 'theta', 'tau'. You can override using the
`.groups` argument.
`summarise()` has grouped output by 'theta'. You can override using the
`.groups` argument.
`summarise()` has grouped output by 'theta', 'tau'. You can override using the
`.groups` argument.
`summarise()` has grouped output by 'theta'. You can override using the
`.groups` argument.
[1] ""
[1] "Total run time was 164.416 seconds"
[1] "Estimation result: "
# A tibble: 360 × 5
   estimand theta   tau   est     se
   <chr>    <dbl> <dbl> <dbl>  <dbl>
 1 mu         0.1   0.1 0.460 0.0853
 2 mu         0.1   0.2 0.506 0.0860
 3 mu         0.1   0.3 0.550 0.0879
 4 mu         0.1   0.4 0.612 0.0916
 5 mu         0.1   0.5 0.638 0.0952
 6 mu         0.2   0.1 0.373 0.0452
 7 mu         0.2   0.2 0.419 0.0458
 8 mu         0.2   0.3 0.468 0.0451
 9 mu         0.2   0.4 0.541 0.0476
10 mu         0.2   0.5 0.579 0.0524
# ℹ 350 more rows
…
