…
`.groups` argument.
`summarise()` has grouped output by 'theta'. You can override using the
`.groups` argument.
`summarise()` has grouped output by 'theta', 'tau'. You can override using the
`.groups` argument.
`summarise()` has grouped output by 'theta'. You can override using the
`.groups` argument.
`summarise()` has grouped output by 'theta', 'tau'. You can override using the
`.groups` argument.
`summarise()` has grouped output by 'theta'. You can override using the
`.groups` argument.
[1] ""
[1] "Total run time was 304.637 seconds"
[1] "Estimation result: "
# A tibble: 360 × 5
   estimand theta   tau   est     se
   <chr>    <dbl> <dbl> <dbl>  <dbl>
 1 mu         0.1   0.1 0.375 0.0635
 2 mu         0.1   0.2 0.462 0.0534
 3 mu         0.1   0.3 0.586 0.0889
 4 mu         0.1   0.4 0.629 0.0828
 5 mu         0.1   0.5 0.669 0.0906
 6 mu         0.2   0.1 0.341 0.0508
 7 mu         0.2   0.2 0.441 0.0424
 8 mu         0.2   0.3 0.545 0.0622
 9 mu         0.2   0.4 0.593 0.0619
10 mu         0.2   0.5 0.629 0.0687
# ℹ 350 more rows
…
