…
`.groups` argument.
`summarise()` has grouped output by 'theta'. You can override using the
`.groups` argument.
`summarise()` has grouped output by 'theta', 'tau'. You can override using the
`.groups` argument.
`summarise()` has grouped output by 'theta'. You can override using the
`.groups` argument.
`summarise()` has grouped output by 'theta', 'tau'. You can override using the
`.groups` argument.
`summarise()` has grouped output by 'theta'. You can override using the
`.groups` argument.
[1] ""
[1] "Total run time was 71.697 seconds"
[1] "Estimation result: "
# A tibble: 360 × 5
   estimand theta   tau   est     se
   <chr>    <dbl> <dbl> <dbl>  <dbl>
 1 mu         0.1   0.1 0.466 0.127 
 2 mu         0.1   0.2 0.547 0.124 
 3 mu         0.1   0.3 0.556 0.127 
 4 mu         0.1   0.4 0.555 0.128 
 5 mu         0.1   0.5 0.630 0.153 
 6 mu         0.2   0.1 0.415 0.0830
 7 mu         0.2   0.2 0.473 0.0615
 8 mu         0.2   0.3 0.488 0.0536
 9 mu         0.2   0.4 0.494 0.0534
10 mu         0.2   0.5 0.543 0.0699
# ℹ 350 more rows
…
