…
`.groups` argument.
`summarise()` has grouped output by 'theta'. You can override using the
`.groups` argument.
`summarise()` has grouped output by 'theta', 'tau'. You can override using the
`.groups` argument.
`summarise()` has grouped output by 'theta'. You can override using the
`.groups` argument.
`summarise()` has grouped output by 'theta', 'tau'. You can override using the
`.groups` argument.
`summarise()` has grouped output by 'theta'. You can override using the
`.groups` argument.
[1] ""
[1] "Total run time was 242.206 seconds"
[1] "Estimation result: "
# A tibble: 360 × 5
   estimand theta   tau   est     se
   <chr>    <dbl> <dbl> <dbl>  <dbl>
 1 mu         0.1   0.1 0.312 0.0593
 2 mu         0.1   0.2 0.350 0.0616
 3 mu         0.1   0.3 0.430 0.0723
 4 mu         0.1   0.4 0.441 0.0750
 5 mu         0.1   0.5 0.509 0.0802
 6 mu         0.2   0.1 0.286 0.0390
 7 mu         0.2   0.2 0.321 0.0362
 8 mu         0.2   0.3 0.396 0.0431
 9 mu         0.2   0.4 0.417 0.0456
10 mu         0.2   0.5 0.490 0.0561
# ℹ 350 more rows
…
