…
`.groups` argument.
`summarise()` has grouped output by 'theta'. You can override using the
`.groups` argument.
`summarise()` has grouped output by 'theta', 'tau'. You can override using the
`.groups` argument.
`summarise()` has grouped output by 'theta'. You can override using the
`.groups` argument.
`summarise()` has grouped output by 'theta', 'tau'. You can override using the
`.groups` argument.
`summarise()` has grouped output by 'theta'. You can override using the
`.groups` argument.
[1] ""
[1] "Total run time was 217.664 seconds"
[1] "Estimation result: "
# A tibble: 360 × 5
   estimand theta   tau   est     se
   <chr>    <dbl> <dbl> <dbl>  <dbl>
 1 mu         0.1   0.1 0.401 0.0702
 2 mu         0.1   0.2 0.444 0.0558
 3 mu         0.1   0.3 0.462 0.0624
 4 mu         0.1   0.4 0.513 0.0609
 5 mu         0.1   0.5 0.536 0.0680
 6 mu         0.2   0.1 0.376 0.0578
 7 mu         0.2   0.2 0.424 0.0466
 8 mu         0.2   0.3 0.450 0.0508
 9 mu         0.2   0.4 0.496 0.0489
10 mu         0.2   0.5 0.521 0.0536
# ℹ 350 more rows
…
