…
`.groups` argument.
`summarise()` has grouped output by 'theta'. You can override using the
`.groups` argument.
`summarise()` has grouped output by 'theta', 'tau'. You can override using the
`.groups` argument.
`summarise()` has grouped output by 'theta'. You can override using the
`.groups` argument.
`summarise()` has grouped output by 'theta', 'tau'. You can override using the
`.groups` argument.
`summarise()` has grouped output by 'theta'. You can override using the
`.groups` argument.
[1] ""
[1] "Total run time was 157.525 seconds"
[1] "Estimation result: "
# A tibble: 360 × 5
   estimand theta   tau   est     se
   <chr>    <dbl> <dbl> <dbl>  <dbl>
 1 mu         0.1   0.1 0.516 0.141 
 2 mu         0.1   0.2 0.651 0.175 
 3 mu         0.1   0.3 0.692 0.177 
 4 mu         0.1   0.4 0.734 0.185 
 5 mu         0.1   0.5 0.764 0.189 
 6 mu         0.2   0.1 0.433 0.0805
 7 mu         0.2   0.2 0.558 0.0941
 8 mu         0.2   0.3 0.614 0.0836
 9 mu         0.2   0.4 0.658 0.0826
10 mu         0.2   0.5 0.686 0.0773
# ℹ 350 more rows
…
