…
`.groups` argument.
`summarise()` has grouped output by 'theta'. You can override using the
`.groups` argument.
`summarise()` has grouped output by 'theta', 'tau'. You can override using the
`.groups` argument.
`summarise()` has grouped output by 'theta'. You can override using the
`.groups` argument.
`summarise()` has grouped output by 'theta', 'tau'. You can override using the
`.groups` argument.
`summarise()` has grouped output by 'theta'. You can override using the
`.groups` argument.
[1] ""
[1] "Total run time was 83.026 seconds"
[1] "Estimation result: "
# A tibble: 360 × 5
   estimand theta   tau   est     se
   <chr>    <dbl> <dbl> <dbl>  <dbl>
 1 mu         0.1   0.1 0.309 0.0762
 2 mu         0.1   0.2 0.475 0.0730
 3 mu         0.1   0.3 0.523 0.0675
 4 mu         0.1   0.4 0.539 0.0706
 5 mu         0.1   0.5 0.578 0.0843
 6 mu         0.2   0.1 0.293 0.0552
 7 mu         0.2   0.2 0.440 0.0423
 8 mu         0.2   0.3 0.501 0.0351
 9 mu         0.2   0.4 0.533 0.0337
10 mu         0.2   0.5 0.578 0.0461
# ℹ 350 more rows
…
