…
`.groups` argument.
`summarise()` has grouped output by 'theta'. You can override using the
`.groups` argument.
`summarise()` has grouped output by 'theta', 'tau'. You can override using the
`.groups` argument.
`summarise()` has grouped output by 'theta'. You can override using the
`.groups` argument.
`summarise()` has grouped output by 'theta', 'tau'. You can override using the
`.groups` argument.
`summarise()` has grouped output by 'theta'. You can override using the
`.groups` argument.
[1] ""
[1] "Total run time was 235.733 seconds"
[1] "Estimation result: "
# A tibble: 360 × 5
   estimand theta   tau   est     se
   <chr>    <dbl> <dbl> <dbl>  <dbl>
 1 mu         0.1   0.1 0.436 0.0631
 2 mu         0.1   0.2 0.466 0.0627
 3 mu         0.1   0.3 0.510 0.0558
 4 mu         0.1   0.4 0.570 0.0679
 5 mu         0.1   0.5 0.666 0.0577
 6 mu         0.2   0.1 0.390 0.0389
 7 mu         0.2   0.2 0.432 0.0421
 8 mu         0.2   0.3 0.475 0.0318
 9 mu         0.2   0.4 0.536 0.0414
10 mu         0.2   0.5 0.632 0.0361
# ℹ 350 more rows
…
