…
`.groups` argument.
`summarise()` has grouped output by 'theta'. You can override using the
`.groups` argument.
`summarise()` has grouped output by 'theta', 'tau'. You can override using the
`.groups` argument.
`summarise()` has grouped output by 'theta'. You can override using the
`.groups` argument.
`summarise()` has grouped output by 'theta', 'tau'. You can override using the
`.groups` argument.
`summarise()` has grouped output by 'theta'. You can override using the
`.groups` argument.
[1] ""
[1] "Total run time was 137.236 seconds"
[1] "Estimation result: "
# A tibble: 360 × 5
   estimand theta   tau   est     se
   <chr>    <dbl> <dbl> <dbl>  <dbl>
 1 mu         0.1   0.1 0.411 0.0374
 2 mu         0.1   0.2 0.463 0.0262
 3 mu         0.1   0.3 0.498 0.0327
 4 mu         0.1   0.4 0.562 0.0361
 5 mu         0.1   0.5 0.606 0.0524
 6 mu         0.2   0.1 0.373 0.0253
 7 mu         0.2   0.2 0.441 0.0273
 8 mu         0.2   0.3 0.479 0.0317
 9 mu         0.2   0.4 0.540 0.0299
10 mu         0.2   0.5 0.587 0.0357
# ℹ 350 more rows
…
