…
`.groups` argument.
`summarise()` has grouped output by 'theta'. You can override using the
`.groups` argument.
`summarise()` has grouped output by 'theta', 'tau'. You can override using the
`.groups` argument.
`summarise()` has grouped output by 'theta'. You can override using the
`.groups` argument.
`summarise()` has grouped output by 'theta', 'tau'. You can override using the
`.groups` argument.
`summarise()` has grouped output by 'theta'. You can override using the
`.groups` argument.
[1] ""
[1] "Total run time was 103.907 seconds"
[1] "Estimation result: "
# A tibble: 360 × 5
   estimand theta   tau   est     se
   <chr>    <dbl> <dbl> <dbl>  <dbl>
 1 mu         0.1   0.1 0.529 0.117 
 2 mu         0.1   0.2 0.532 0.0802
 3 mu         0.1   0.3 0.566 0.0894
 4 mu         0.1   0.4 0.582 0.118 
 5 mu         0.1   0.5 0.657 0.0991
 6 mu         0.2   0.1 0.449 0.0871
 7 mu         0.2   0.2 0.473 0.0560
 8 mu         0.2   0.3 0.512 0.0604
 9 mu         0.2   0.4 0.537 0.0818
10 mu         0.2   0.5 0.601 0.0635
# ℹ 350 more rows
…
