…
`.groups` argument.
`summarise()` has grouped output by 'theta'. You can override using the
`.groups` argument.
`summarise()` has grouped output by 'theta', 'tau'. You can override using the
`.groups` argument.
`summarise()` has grouped output by 'theta'. You can override using the
`.groups` argument.
`summarise()` has grouped output by 'theta', 'tau'. You can override using the
`.groups` argument.
`summarise()` has grouped output by 'theta'. You can override using the
`.groups` argument.
[1] ""
[1] "Total run time was 92.537 seconds"
[1] "Estimation result: "
# A tibble: 360 × 5
   estimand theta   tau   est     se
   <chr>    <dbl> <dbl> <dbl>  <dbl>
 1 mu         0.1   0.1 0.551 0.204 
 2 mu         0.1   0.2 0.577 0.188 
 3 mu         0.1   0.3 0.608 0.183 
 4 mu         0.1   0.4 0.643 0.190 
 5 mu         0.1   0.5 0.700 0.204 
 6 mu         0.2   0.1 0.425 0.0988
 7 mu         0.2   0.2 0.474 0.104 
 8 mu         0.2   0.3 0.506 0.115 
 9 mu         0.2   0.4 0.560 0.133 
10 mu         0.2   0.5 0.638 0.153 
# ℹ 350 more rows
…
