…
`.groups` argument.
`summarise()` has grouped output by 'theta'. You can override using the
`.groups` argument.
`summarise()` has grouped output by 'theta', 'tau'. You can override using the
`.groups` argument.
`summarise()` has grouped output by 'theta'. You can override using the
`.groups` argument.
`summarise()` has grouped output by 'theta', 'tau'. You can override using the
`.groups` argument.
`summarise()` has grouped output by 'theta'. You can override using the
`.groups` argument.
[1] ""
[1] "Total run time was 103.471 seconds"
[1] "Estimation result: "
# A tibble: 360 × 5
   estimand theta   tau   est     se
   <chr>    <dbl> <dbl> <dbl>  <dbl>
 1 mu         0.1   0.1 0.314 0.0540
 2 mu         0.1   0.2 0.389 0.0594
 3 mu         0.1   0.3 0.461 0.0618
 4 mu         0.1   0.4 0.465 0.0689
 5 mu         0.1   0.5 0.558 0.0979
 6 mu         0.2   0.1 0.282 0.0427
 7 mu         0.2   0.2 0.375 0.0535
 8 mu         0.2   0.3 0.447 0.0471
 9 mu         0.2   0.4 0.455 0.0486
10 mu         0.2   0.5 0.512 0.0707
# ℹ 350 more rows
…
