…
`.groups` argument.
`summarise()` has grouped output by 'theta'. You can override using the
`.groups` argument.
`summarise()` has grouped output by 'theta', 'tau'. You can override using the
`.groups` argument.
`summarise()` has grouped output by 'theta'. You can override using the
`.groups` argument.
`summarise()` has grouped output by 'theta', 'tau'. You can override using the
`.groups` argument.
`summarise()` has grouped output by 'theta'. You can override using the
`.groups` argument.
[1] ""
[1] "Total run time was 111.548 seconds"
[1] "Estimation result: "
# A tibble: 360 × 5
   estimand theta   tau   est     se
   <chr>    <dbl> <dbl> <dbl>  <dbl>
 1 mu         0.1   0.1 0.326 0.0444
 2 mu         0.1   0.2 0.326 0.0675
 3 mu         0.1   0.3 0.449 0.0601
 4 mu         0.1   0.4 0.460 0.0778
 5 mu         0.1   0.5 0.558 0.0926
 6 mu         0.2   0.1 0.262 0.0414
 7 mu         0.2   0.2 0.266 0.0768
 8 mu         0.2   0.3 0.405 0.0529
 9 mu         0.2   0.4 0.420 0.0740
10 mu         0.2   0.5 0.555 0.0827
# ℹ 350 more rows
…
