…
`.groups` argument.
`summarise()` has grouped output by 'theta'. You can override using the
`.groups` argument.
`summarise()` has grouped output by 'theta', 'tau'. You can override using the
`.groups` argument.
`summarise()` has grouped output by 'theta'. You can override using the
`.groups` argument.
`summarise()` has grouped output by 'theta', 'tau'. You can override using the
`.groups` argument.
`summarise()` has grouped output by 'theta'. You can override using the
`.groups` argument.
[1] ""
[1] "Total run time was 84.342 seconds"
[1] "Estimation result: "
# A tibble: 360 × 5
   estimand theta   tau   est     se
   <chr>    <dbl> <dbl> <dbl>  <dbl>
 1 mu         0.1   0.1 0.485 0.125 
 2 mu         0.1   0.2 0.509 0.157 
 3 mu         0.1   0.3 0.567 0.119 
 4 mu         0.1   0.4 0.583 0.156 
 5 mu         0.1   0.5 0.566 0.185 
 6 mu         0.2   0.1 0.406 0.0824
 7 mu         0.2   0.2 0.441 0.133 
 8 mu         0.2   0.3 0.504 0.0934
 9 mu         0.2   0.4 0.525 0.134 
10 mu         0.2   0.5 0.514 0.165 
# ℹ 350 more rows
…
