…
`.groups` argument.
`summarise()` has grouped output by 'theta'. You can override using the
`.groups` argument.
`summarise()` has grouped output by 'theta', 'tau'. You can override using the
`.groups` argument.
`summarise()` has grouped output by 'theta'. You can override using the
`.groups` argument.
`summarise()` has grouped output by 'theta', 'tau'. You can override using the
`.groups` argument.
`summarise()` has grouped output by 'theta'. You can override using the
`.groups` argument.
[1] ""
[1] "Total run time was 82.985 seconds"
[1] "Estimation result: "
# A tibble: 360 × 5
   estimand theta   tau   est     se
   <chr>    <dbl> <dbl> <dbl>  <dbl>
 1 mu         0.1   0.1 0.413 0.0503
 2 mu         0.1   0.2 0.465 0.0539
 3 mu         0.1   0.3 0.507 0.0544
 4 mu         0.1   0.4 0.518 0.0598
 5 mu         0.1   0.5 0.591 0.0662
 6 mu         0.2   0.1 0.355 0.0414
 7 mu         0.2   0.2 0.425 0.0468
 8 mu         0.2   0.3 0.486 0.0458
 9 mu         0.2   0.4 0.510 0.0461
10 mu         0.2   0.5 0.553 0.0468
# ℹ 350 more rows
…
