…
`.groups` argument.
`summarise()` has grouped output by 'theta'. You can override using the
`.groups` argument.
`summarise()` has grouped output by 'theta', 'tau'. You can override using the
`.groups` argument.
`summarise()` has grouped output by 'theta'. You can override using the
`.groups` argument.
`summarise()` has grouped output by 'theta', 'tau'. You can override using the
`.groups` argument.
`summarise()` has grouped output by 'theta'. You can override using the
`.groups` argument.
[1] ""
[1] "Total run time was 164.539 seconds"
[1] "Estimation result: "
# A tibble: 360 × 5
   estimand theta   tau   est     se
   <chr>    <dbl> <dbl> <dbl>  <dbl>
 1 mu         0.1   0.1 0.392 0.0983
 2 mu         0.1   0.2 0.404 0.113 
 3 mu         0.1   0.3 0.570 0.100 
 4 mu         0.1   0.4 0.583 0.0979
 5 mu         0.1   0.5 0.596 0.0908
 6 mu         0.2   0.1 0.332 0.0760
 7 mu         0.2   0.2 0.374 0.0779
 8 mu         0.2   0.3 0.476 0.0659
 9 mu         0.2   0.4 0.496 0.0651
10 mu         0.2   0.5 0.519 0.0630
# ℹ 350 more rows
…
