…
`.groups` argument.
`summarise()` has grouped output by 'theta'. You can override using the
`.groups` argument.
`summarise()` has grouped output by 'theta', 'tau'. You can override using the
`.groups` argument.
`summarise()` has grouped output by 'theta'. You can override using the
`.groups` argument.
`summarise()` has grouped output by 'theta', 'tau'. You can override using the
`.groups` argument.
`summarise()` has grouped output by 'theta'. You can override using the
`.groups` argument.
[1] ""
[1] "Total run time was 443.713 seconds"
[1] "Estimation result: "
# A tibble: 360 × 5
   estimand theta   tau   est     se
   <chr>    <dbl> <dbl> <dbl>  <dbl>
 1 mu         0.1   0.1 0.425 0.116 
 2 mu         0.1   0.2 0.514 0.161 
 3 mu         0.1   0.3 0.661 0.161 
 4 mu         0.1   0.4 0.721 0.163 
 5 mu         0.1   0.5 0.729 0.168 
 6 mu         0.2   0.1 0.377 0.0664
 7 mu         0.2   0.2 0.433 0.0886
 8 mu         0.2   0.3 0.581 0.0817
 9 mu         0.2   0.4 0.635 0.0724
10 mu         0.2   0.5 0.653 0.0708
# ℹ 350 more rows
…
