…
`.groups` argument.
`summarise()` has grouped output by 'theta'. You can override using the
`.groups` argument.
`summarise()` has grouped output by 'theta', 'tau'. You can override using the
`.groups` argument.
`summarise()` has grouped output by 'theta'. You can override using the
`.groups` argument.
`summarise()` has grouped output by 'theta', 'tau'. You can override using the
`.groups` argument.
`summarise()` has grouped output by 'theta'. You can override using the
`.groups` argument.
[1] ""
[1] "Total run time was 79.287 seconds"
[1] "Estimation result: "
# A tibble: 360 × 5
   estimand theta   tau   est     se
   <chr>    <dbl> <dbl> <dbl>  <dbl>
 1 mu         0.1   0.1 0.331 0.0798
 2 mu         0.1   0.2 0.418 0.121 
 3 mu         0.1   0.3 0.488 0.104 
 4 mu         0.1   0.4 0.504 0.105 
 5 mu         0.1   0.5 0.588 0.123 
 6 mu         0.2   0.1 0.305 0.0454
 7 mu         0.2   0.2 0.385 0.0846
 8 mu         0.2   0.3 0.456 0.0573
 9 mu         0.2   0.4 0.476 0.0494
10 mu         0.2   0.5 0.559 0.0640
# ℹ 350 more rows
…
