…
`.groups` argument.
`summarise()` has grouped output by 'theta'. You can override using the
`.groups` argument.
`summarise()` has grouped output by 'theta', 'tau'. You can override using the
`.groups` argument.
`summarise()` has grouped output by 'theta'. You can override using the
`.groups` argument.
`summarise()` has grouped output by 'theta', 'tau'. You can override using the
`.groups` argument.
`summarise()` has grouped output by 'theta'. You can override using the
`.groups` argument.
[1] ""
[1] "Total run time was 191.59 seconds"
[1] "Estimation result: "
# A tibble: 360 × 5
   estimand theta   tau    est     se
   <chr>    <dbl> <dbl>  <dbl>  <dbl>
 1 mu         0.1   0.1 0.0824 0.106 
 2 mu         0.1   0.2 0.185  0.0974
 3 mu         0.1   0.3 0.231  0.121 
 4 mu         0.1   0.4 0.464  0.121 
 5 mu         0.1   0.5 0.598  0.195 
 6 mu         0.2   0.1 0.135  0.0599
 7 mu         0.2   0.2 0.223  0.0592
 8 mu         0.2   0.3 0.289  0.0697
 9 mu         0.2   0.4 0.428  0.0706
10 mu         0.2   0.5 0.526  0.110 
# ℹ 350 more rows
…
