…
`.groups` argument.
`summarise()` has grouped output by 'theta'. You can override using the
`.groups` argument.
`summarise()` has grouped output by 'theta', 'tau'. You can override using the
`.groups` argument.
`summarise()` has grouped output by 'theta'. You can override using the
`.groups` argument.
`summarise()` has grouped output by 'theta', 'tau'. You can override using the
`.groups` argument.
`summarise()` has grouped output by 'theta'. You can override using the
`.groups` argument.
[1] ""
[1] "Total run time was 320.803 seconds"
[1] "Estimation result: "
# A tibble: 360 × 5
   estimand theta   tau   est     se
   <chr>    <dbl> <dbl> <dbl>  <dbl>
 1 mu         0.1   0.1 0.426 0.0725
 2 mu         0.1   0.2 0.478 0.0715
 3 mu         0.1   0.3 0.489 0.0988
 4 mu         0.1   0.4 0.556 0.0825
 5 mu         0.1   0.5 0.576 0.0882
 6 mu         0.2   0.1 0.425 0.0531
 7 mu         0.2   0.2 0.491 0.0531
 8 mu         0.2   0.3 0.533 0.0597
 9 mu         0.2   0.4 0.585 0.0548
10 mu         0.2   0.5 0.605 0.0550
# ℹ 350 more rows
…
