…
`.groups` argument.
`summarise()` has grouped output by 'theta'. You can override using the
`.groups` argument.
`summarise()` has grouped output by 'theta', 'tau'. You can override using the
`.groups` argument.
`summarise()` has grouped output by 'theta'. You can override using the
`.groups` argument.
`summarise()` has grouped output by 'theta', 'tau'. You can override using the
`.groups` argument.
`summarise()` has grouped output by 'theta'. You can override using the
`.groups` argument.
[1] ""
[1] "Total run time was 388.452 seconds"
[1] "Estimation result: "
# A tibble: 360 × 5
   estimand theta   tau   est     se
   <chr>    <dbl> <dbl> <dbl>  <dbl>
 1 mu         0.1   0.1 0.392 0.0586
 2 mu         0.1   0.2 0.466 0.0739
 3 mu         0.1   0.3 0.478 0.0809
 4 mu         0.1   0.4 0.519 0.0979
 5 mu         0.1   0.5 0.630 0.103 
 6 mu         0.2   0.1 0.357 0.0335
 7 mu         0.2   0.2 0.436 0.0455
 8 mu         0.2   0.3 0.464 0.0489
 9 mu         0.2   0.4 0.513 0.0598
10 mu         0.2   0.5 0.608 0.0617
# ℹ 350 more rows
…
