…
`.groups` argument.
`summarise()` has grouped output by 'theta'. You can override using the
`.groups` argument.
`summarise()` has grouped output by 'theta', 'tau'. You can override using the
`.groups` argument.
`summarise()` has grouped output by 'theta'. You can override using the
`.groups` argument.
`summarise()` has grouped output by 'theta', 'tau'. You can override using the
`.groups` argument.
`summarise()` has grouped output by 'theta'. You can override using the
`.groups` argument.
[1] ""
[1] "Total run time was 102.695 seconds"
[1] "Estimation result: "
# A tibble: 360 × 5
   estimand theta   tau   est     se
   <chr>    <dbl> <dbl> <dbl>  <dbl>
 1 mu         0.1   0.1 0.461 0.0643
 2 mu         0.1   0.2 0.560 0.0546
 3 mu         0.1   0.3 0.612 0.0457
 4 mu         0.1   0.4 0.616 0.0433
 5 mu         0.1   0.5 0.656 0.0423
 6 mu         0.2   0.1 0.431 0.0613
 7 mu         0.2   0.2 0.521 0.0489
 8 mu         0.2   0.3 0.575 0.0388
 9 mu         0.2   0.4 0.586 0.0364
10 mu         0.2   0.5 0.622 0.0337
# ℹ 350 more rows
…
