…
`.groups` argument.
`summarise()` has grouped output by 'theta'. You can override using the
`.groups` argument.
`summarise()` has grouped output by 'theta', 'tau'. You can override using the
`.groups` argument.
`summarise()` has grouped output by 'theta'. You can override using the
`.groups` argument.
`summarise()` has grouped output by 'theta', 'tau'. You can override using the
`.groups` argument.
`summarise()` has grouped output by 'theta'. You can override using the
`.groups` argument.
[1] ""
[1] "Total run time was 155.502 seconds"
[1] "Estimation result: "
# A tibble: 360 × 5
   estimand theta   tau   est     se
   <chr>    <dbl> <dbl> <dbl>  <dbl>
 1 mu         0.1   0.1 0.156 0.126 
 2 mu         0.1   0.2 0.294 0.0762
 3 mu         0.1   0.3 0.299 0.0937
 4 mu         0.1   0.4 0.311 0.105 
 5 mu         0.1   0.5 0.312 0.121 
 6 mu         0.2   0.1 0.170 0.113 
 7 mu         0.2   0.2 0.303 0.0400
 8 mu         0.2   0.3 0.317 0.0571
 9 mu         0.2   0.4 0.328 0.0674
10 mu         0.2   0.5 0.332 0.0850
# ℹ 350 more rows
…
