…
`.groups` argument.
`summarise()` has grouped output by 'theta'. You can override using the
`.groups` argument.
`summarise()` has grouped output by 'theta', 'tau'. You can override using the
`.groups` argument.
`summarise()` has grouped output by 'theta'. You can override using the
`.groups` argument.
`summarise()` has grouped output by 'theta', 'tau'. You can override using the
`.groups` argument.
`summarise()` has grouped output by 'theta'. You can override using the
`.groups` argument.
[1] ""
[1] "Total run time was 228.102 seconds"
[1] "Estimation result: "
# A tibble: 360 × 5
   estimand theta   tau   est     se
   <chr>    <dbl> <dbl> <dbl>  <dbl>
 1 mu         0.1   0.1 0.274 0.0838
 2 mu         0.1   0.2 0.314 0.0884
 3 mu         0.1   0.3 0.321 0.105 
 4 mu         0.1   0.4 0.348 0.112 
 5 mu         0.1   0.5 0.489 0.128 
 6 mu         0.2   0.1 0.269 0.0437
 7 mu         0.2   0.2 0.335 0.0406
 8 mu         0.2   0.3 0.362 0.0485
 9 mu         0.2   0.4 0.401 0.0489
10 mu         0.2   0.5 0.504 0.0587
# ℹ 350 more rows
…
