…
`.groups` argument.
`summarise()` has grouped output by 'theta'. You can override using the
`.groups` argument.
`summarise()` has grouped output by 'theta', 'tau'. You can override using the
`.groups` argument.
`summarise()` has grouped output by 'theta'. You can override using the
`.groups` argument.
`summarise()` has grouped output by 'theta', 'tau'. You can override using the
`.groups` argument.
`summarise()` has grouped output by 'theta'. You can override using the
`.groups` argument.
[1] ""
[1] "Total run time was 169.627 seconds"
[1] "Estimation result: "
# A tibble: 360 × 5
   estimand theta   tau   est     se
   <chr>    <dbl> <dbl> <dbl>  <dbl>
 1 mu         0.1   0.1 0.465 0.102 
 2 mu         0.1   0.2 0.581 0.0925
 3 mu         0.1   0.3 0.607 0.0869
 4 mu         0.1   0.4 0.717 0.102 
 5 mu         0.1   0.5 0.707 0.0917
 6 mu         0.2   0.1 0.385 0.0744
 7 mu         0.2   0.2 0.484 0.0593
 8 mu         0.2   0.3 0.526 0.0558
 9 mu         0.2   0.4 0.625 0.0716
10 mu         0.2   0.5 0.631 0.0634
# ℹ 350 more rows
…
