…
`.groups` argument.
`summarise()` has grouped output by 'theta'. You can override using the
`.groups` argument.
`summarise()` has grouped output by 'theta', 'tau'. You can override using the
`.groups` argument.
`summarise()` has grouped output by 'theta'. You can override using the
`.groups` argument.
`summarise()` has grouped output by 'theta', 'tau'. You can override using the
`.groups` argument.
`summarise()` has grouped output by 'theta'. You can override using the
`.groups` argument.
[1] ""
[1] "Total run time was 74.042 seconds"
[1] "Estimation result: "
# A tibble: 360 × 5
   estimand theta   tau   est     se
   <chr>    <dbl> <dbl> <dbl>  <dbl>
 1 mu         0.1   0.1 0.402 0.0766
 2 mu         0.1   0.2 0.428 0.0733
 3 mu         0.1   0.3 0.564 0.118 
 4 mu         0.1   0.4 0.706 0.172 
 5 mu         0.1   0.5 0.711 0.160 
 6 mu         0.2   0.1 0.353 0.0563
 7 mu         0.2   0.2 0.381 0.0448
 8 mu         0.2   0.3 0.496 0.0820
 9 mu         0.2   0.4 0.620 0.124 
10 mu         0.2   0.5 0.630 0.112 
# ℹ 350 more rows
…
