…
`.groups` argument.
`summarise()` has grouped output by 'theta'. You can override using the
`.groups` argument.
`summarise()` has grouped output by 'theta', 'tau'. You can override using the
`.groups` argument.
`summarise()` has grouped output by 'theta'. You can override using the
`.groups` argument.
`summarise()` has grouped output by 'theta', 'tau'. You can override using the
`.groups` argument.
`summarise()` has grouped output by 'theta'. You can override using the
`.groups` argument.
[1] ""
[1] "Total run time was 208.732 seconds"
[1] "Estimation result: "
# A tibble: 360 × 5
   estimand theta   tau   est     se
   <chr>    <dbl> <dbl> <dbl>  <dbl>
 1 mu         0.1   0.1 0.368 0.143 
 2 mu         0.1   0.2 0.541 0.113 
 3 mu         0.1   0.3 0.542 0.127 
 4 mu         0.1   0.4 0.562 0.166 
 5 mu         0.1   0.5 0.613 0.140 
 6 mu         0.2   0.1 0.287 0.120 
 7 mu         0.2   0.2 0.444 0.0664
 8 mu         0.2   0.3 0.459 0.0899
 9 mu         0.2   0.4 0.463 0.126 
10 mu         0.2   0.5 0.523 0.0978
# ℹ 350 more rows
…
