…
`.groups` argument.
`summarise()` has grouped output by 'theta'. You can override using the
`.groups` argument.
`summarise()` has grouped output by 'theta', 'tau'. You can override using the
`.groups` argument.
`summarise()` has grouped output by 'theta'. You can override using the
`.groups` argument.
`summarise()` has grouped output by 'theta', 'tau'. You can override using the
`.groups` argument.
`summarise()` has grouped output by 'theta'. You can override using the
`.groups` argument.
[1] ""
[1] "Total run time was 201.495 seconds"
[1] "Estimation result: "
# A tibble: 360 × 5
   estimand theta   tau   est    se
   <chr>    <dbl> <dbl> <dbl> <dbl>
 1 mu         0.1   0.1 0.703 0.278
 2 mu         0.1   0.2 0.725 0.267
 3 mu         0.1   0.3 0.733 0.263
 4 mu         0.1   0.4 0.756 0.264
 5 mu         0.1   0.5 0.788 0.270
 6 mu         0.2   0.1 0.614 0.238
 7 mu         0.2   0.2 0.629 0.219
 8 mu         0.2   0.3 0.651 0.207
 9 mu         0.2   0.4 0.686 0.204
10 mu         0.2   0.5 0.739 0.202
# ℹ 350 more rows
…
