…
`.groups` argument.
`summarise()` has grouped output by 'theta'. You can override using the
`.groups` argument.
`summarise()` has grouped output by 'theta', 'tau'. You can override using the
`.groups` argument.
`summarise()` has grouped output by 'theta'. You can override using the
`.groups` argument.
`summarise()` has grouped output by 'theta', 'tau'. You can override using the
`.groups` argument.
`summarise()` has grouped output by 'theta'. You can override using the
`.groups` argument.
[1] ""
[1] "Total run time was 617.221 seconds"
[1] "Estimation result: "
# A tibble: 360 × 5
   estimand theta   tau   est     se
   <chr>    <dbl> <dbl> <dbl>  <dbl>
 1 mu         0.1   0.1 0.447 0.118 
 2 mu         0.1   0.2 0.473 0.107 
 3 mu         0.1   0.3 0.510 0.104 
 4 mu         0.1   0.4 0.532 0.0979
 5 mu         0.1   0.5 0.572 0.105 
 6 mu         0.2   0.1 0.396 0.0901
 7 mu         0.2   0.2 0.444 0.0799
 8 mu         0.2   0.3 0.471 0.0745
 9 mu         0.2   0.4 0.514 0.0653
10 mu         0.2   0.5 0.552 0.0708
# ℹ 350 more rows
…
