…
`.groups` argument.
`summarise()` has grouped output by 'theta'. You can override using the
`.groups` argument.
`summarise()` has grouped output by 'theta', 'tau'. You can override using the
`.groups` argument.
`summarise()` has grouped output by 'theta'. You can override using the
`.groups` argument.
`summarise()` has grouped output by 'theta', 'tau'. You can override using the
`.groups` argument.
`summarise()` has grouped output by 'theta'. You can override using the
`.groups` argument.
[1] ""
[1] "Total run time was 120.531 seconds"
[1] "Estimation result: "
# A tibble: 360 × 5
   estimand theta   tau   est     se
   <chr>    <dbl> <dbl> <dbl>  <dbl>
 1 mu         0.1   0.1 0.566 0.141 
 2 mu         0.1   0.2 0.679 0.143 
 3 mu         0.1   0.3 0.723 0.127 
 4 mu         0.1   0.4 0.737 0.119 
 5 mu         0.1   0.5 0.736 0.110 
 6 mu         0.2   0.1 0.409 0.0800
 7 mu         0.2   0.2 0.525 0.0863
 8 mu         0.2   0.3 0.565 0.0794
 9 mu         0.2   0.4 0.581 0.0768
10 mu         0.2   0.5 0.609 0.0655
# ℹ 350 more rows
…
