…
`.groups` argument.
`summarise()` has grouped output by 'theta'. You can override using the
`.groups` argument.
`summarise()` has grouped output by 'theta', 'tau'. You can override using the
`.groups` argument.
`summarise()` has grouped output by 'theta'. You can override using the
`.groups` argument.
`summarise()` has grouped output by 'theta', 'tau'. You can override using the
`.groups` argument.
`summarise()` has grouped output by 'theta'. You can override using the
`.groups` argument.
[1] ""
[1] "Total run time was 183.527 seconds"
[1] "Estimation result: "
# A tibble: 360 × 5
   estimand theta   tau   est     se
   <chr>    <dbl> <dbl> <dbl>  <dbl>
 1 mu         0.1   0.1 0.416 0.159 
 2 mu         0.1   0.2 0.583 0.103 
 3 mu         0.1   0.3 0.600 0.109 
 4 mu         0.1   0.4 0.666 0.102 
 5 mu         0.1   0.5 0.789 0.136 
 6 mu         0.2   0.1 0.326 0.123 
 7 mu         0.2   0.2 0.508 0.0599
 8 mu         0.2   0.3 0.538 0.0693
 9 mu         0.2   0.4 0.604 0.0584
10 mu         0.2   0.5 0.729 0.107 
# ℹ 350 more rows
…
