…
`.groups` argument.
`summarise()` has grouped output by 'theta'. You can override using the
`.groups` argument.
`summarise()` has grouped output by 'theta', 'tau'. You can override using the
`.groups` argument.
`summarise()` has grouped output by 'theta'. You can override using the
`.groups` argument.
`summarise()` has grouped output by 'theta', 'tau'. You can override using the
`.groups` argument.
`summarise()` has grouped output by 'theta'. You can override using the
`.groups` argument.
[1] ""
[1] "Total run time was 116.324 seconds"
[1] "Estimation result: "
# A tibble: 360 × 5
   estimand theta   tau   est     se
   <chr>    <dbl> <dbl> <dbl>  <dbl>
 1 mu         0.1   0.1 0.424 0.104 
 2 mu         0.1   0.2 0.569 0.167 
 3 mu         0.1   0.3 0.620 0.160 
 4 mu         0.1   0.4 0.616 0.148 
 5 mu         0.1   0.5 0.626 0.136 
 6 mu         0.2   0.1 0.390 0.0653
 7 mu         0.2   0.2 0.494 0.102 
 8 mu         0.2   0.3 0.566 0.0985
 9 mu         0.2   0.4 0.570 0.0886
10 mu         0.2   0.5 0.589 0.0819
# ℹ 350 more rows
…
