…
`.groups` argument.
`summarise()` has grouped output by 'theta'. You can override using the
`.groups` argument.
`summarise()` has grouped output by 'theta', 'tau'. You can override using the
`.groups` argument.
`summarise()` has grouped output by 'theta'. You can override using the
`.groups` argument.
`summarise()` has grouped output by 'theta', 'tau'. You can override using the
`.groups` argument.
`summarise()` has grouped output by 'theta'. You can override using the
`.groups` argument.
[1] ""
[1] "Total run time was 65.521 seconds"
[1] "Estimation result: "
# A tibble: 360 × 5
   estimand theta   tau   est     se
   <chr>    <dbl> <dbl> <dbl>  <dbl>
 1 mu         0.1   0.1 0.440 0.112 
 2 mu         0.1   0.2 0.450 0.109 
 3 mu         0.1   0.3 0.545 0.112 
 4 mu         0.1   0.4 0.597 0.117 
 5 mu         0.1   0.5 0.736 0.158 
 6 mu         0.2   0.1 0.366 0.0562
 7 mu         0.2   0.2 0.388 0.0589
 8 mu         0.2   0.3 0.480 0.0703
 9 mu         0.2   0.4 0.517 0.0652
10 mu         0.2   0.5 0.621 0.0962
# ℹ 350 more rows
…
