…
`.groups` argument.
`summarise()` has grouped output by 'theta'. You can override using the
`.groups` argument.
`summarise()` has grouped output by 'theta', 'tau'. You can override using the
`.groups` argument.
`summarise()` has grouped output by 'theta'. You can override using the
`.groups` argument.
`summarise()` has grouped output by 'theta', 'tau'. You can override using the
`.groups` argument.
`summarise()` has grouped output by 'theta'. You can override using the
`.groups` argument.
[1] ""
[1] "Total run time was 63.304 seconds"
[1] "Estimation result: "
# A tibble: 360 × 5
   estimand theta   tau   est     se
   <chr>    <dbl> <dbl> <dbl>  <dbl>
 1 mu         0.1   0.1 0.360 0.0743
 2 mu         0.1   0.2 0.549 0.157 
 3 mu         0.1   0.3 0.555 0.137 
 4 mu         0.1   0.4 0.552 0.119 
 5 mu         0.1   0.5 0.575 0.103 
 6 mu         0.2   0.1 0.329 0.0516
 7 mu         0.2   0.2 0.448 0.0795
 8 mu         0.2   0.3 0.478 0.0695
 9 mu         0.2   0.4 0.490 0.0619
10 mu         0.2   0.5 0.529 0.0563
# ℹ 350 more rows
…
