…
`.groups` argument.
`summarise()` has grouped output by 'theta'. You can override using the
`.groups` argument.
`summarise()` has grouped output by 'theta', 'tau'. You can override using the
`.groups` argument.
`summarise()` has grouped output by 'theta'. You can override using the
`.groups` argument.
`summarise()` has grouped output by 'theta', 'tau'. You can override using the
`.groups` argument.
`summarise()` has grouped output by 'theta'. You can override using the
`.groups` argument.
[1] ""
[1] "Total run time was 338.433 seconds"
[1] "Estimation result: "
# A tibble: 360 × 5
   estimand theta   tau   est     se
   <chr>    <dbl> <dbl> <dbl>  <dbl>
 1 mu         0.1   0.1 0.527 0.0686
 2 mu         0.1   0.2 0.634 0.0985
 3 mu         0.1   0.3 0.692 0.0880
 4 mu         0.1   0.4 0.705 0.0826
 5 mu         0.1   0.5 0.715 0.0685
 6 mu         0.2   0.1 0.459 0.0539
 7 mu         0.2   0.2 0.553 0.0651
 8 mu         0.2   0.3 0.626 0.0692
 9 mu         0.2   0.4 0.642 0.0655
10 mu         0.2   0.5 0.663 0.0539
# ℹ 350 more rows
…
