…
`.groups` argument.
`summarise()` has grouped output by 'theta'. You can override using the
`.groups` argument.
`summarise()` has grouped output by 'theta', 'tau'. You can override using the
`.groups` argument.
`summarise()` has grouped output by 'theta'. You can override using the
`.groups` argument.
`summarise()` has grouped output by 'theta', 'tau'. You can override using the
`.groups` argument.
`summarise()` has grouped output by 'theta'. You can override using the
`.groups` argument.
[1] ""
[1] "Total run time was 185.128 seconds"
[1] "Estimation result: "
# A tibble: 360 × 5
   estimand theta   tau   est     se
   <chr>    <dbl> <dbl> <dbl>  <dbl>
 1 mu         0.1   0.1 0.429 0.0953
 2 mu         0.1   0.2 0.468 0.0889
 3 mu         0.1   0.3 0.565 0.0718
 4 mu         0.1   0.4 0.571 0.0725
 5 mu         0.1   0.5 0.628 0.0798
 6 mu         0.2   0.1 0.352 0.0648
 7 mu         0.2   0.2 0.402 0.0595
 8 mu         0.2   0.3 0.501 0.0367
 9 mu         0.2   0.4 0.516 0.0376
10 mu         0.2   0.5 0.562 0.0427
# ℹ 350 more rows
…
