…
`.groups` argument.
`summarise()` has grouped output by 'theta'. You can override using the
`.groups` argument.
`summarise()` has grouped output by 'theta', 'tau'. You can override using the
`.groups` argument.
`summarise()` has grouped output by 'theta'. You can override using the
`.groups` argument.
`summarise()` has grouped output by 'theta', 'tau'. You can override using the
`.groups` argument.
`summarise()` has grouped output by 'theta'. You can override using the
`.groups` argument.
[1] ""
[1] "Total run time was 92.514 seconds"
[1] "Estimation result: "
# A tibble: 360 × 5
   estimand theta   tau   est     se
   <chr>    <dbl> <dbl> <dbl>  <dbl>
 1 mu         0.1   0.1 0.455 0.0996
 2 mu         0.1   0.2 0.544 0.130 
 3 mu         0.1   0.3 0.548 0.120 
 4 mu         0.1   0.4 0.565 0.109 
 5 mu         0.1   0.5 0.596 0.105 
 6 mu         0.2   0.1 0.423 0.0993
 7 mu         0.2   0.2 0.517 0.134 
 8 mu         0.2   0.3 0.529 0.120 
 9 mu         0.2   0.4 0.546 0.0988
10 mu         0.2   0.5 0.580 0.0895
# ℹ 350 more rows
…
