…
`.groups` argument.
`summarise()` has grouped output by 'theta'. You can override using the
`.groups` argument.
`summarise()` has grouped output by 'theta', 'tau'. You can override using the
`.groups` argument.
`summarise()` has grouped output by 'theta'. You can override using the
`.groups` argument.
`summarise()` has grouped output by 'theta', 'tau'. You can override using the
`.groups` argument.
`summarise()` has grouped output by 'theta'. You can override using the
`.groups` argument.
[1] ""
[1] "Total run time was 236.996 seconds"
[1] "Estimation result: "
# A tibble: 360 × 5
   estimand theta   tau   est    se
   <chr>    <dbl> <dbl> <dbl> <dbl>
 1 mu         0.1   0.1 0.560 0.217
 2 mu         0.1   0.2 0.649 0.243
 3 mu         0.1   0.3 0.683 0.230
 4 mu         0.1   0.4 0.734 0.216
 5 mu         0.1   0.5 0.777 0.206
 6 mu         0.2   0.1 0.519 0.228
 7 mu         0.2   0.2 0.607 0.256
 8 mu         0.2   0.3 0.644 0.244
 9 mu         0.2   0.4 0.677 0.235
10 mu         0.2   0.5 0.727 0.225
# ℹ 350 more rows
…
