…
`.groups` argument.
`summarise()` has grouped output by 'theta'. You can override using the
`.groups` argument.
`summarise()` has grouped output by 'theta', 'tau'. You can override using the
`.groups` argument.
`summarise()` has grouped output by 'theta'. You can override using the
`.groups` argument.
`summarise()` has grouped output by 'theta', 'tau'. You can override using the
`.groups` argument.
`summarise()` has grouped output by 'theta'. You can override using the
`.groups` argument.
[1] ""
[1] "Total run time was 929.814 seconds"
[1] "Estimation result: "
# A tibble: 440 × 5
   estimand theta   tau   est     se
   <chr>    <dbl> <dbl> <dbl>  <dbl>
 1 mu         0     0.1 0.170 0.0114
 2 mu         0     0.2 0.225 0.0126
 3 mu         0     0.3 0.270 0.0133
 4 mu         0     0.4 0.305 0.0137
 5 mu         0     0.5 0.333 0.0138
 6 mu         0.1   0.1 0.167 0.0112
 7 mu         0.1   0.2 0.222 0.0125
 8 mu         0.1   0.3 0.268 0.0132
 9 mu         0.1   0.4 0.302 0.0136
10 mu         0.1   0.5 0.331 0.0138
# ℹ 430 more rows
…
