…
`.groups` argument.
`summarise()` has grouped output by 'theta'. You can override using the
`.groups` argument.
`summarise()` has grouped output by 'theta', 'tau'. You can override using the
`.groups` argument.
`summarise()` has grouped output by 'theta'. You can override using the
`.groups` argument.
`summarise()` has grouped output by 'theta', 'tau'. You can override using the
`.groups` argument.
`summarise()` has grouped output by 'theta'. You can override using the
`.groups` argument.
[1] ""
[1] "Total run time was 1972.517 seconds"
[1] "Estimation result: "
# A tibble: 440 × 5
   estimand theta   tau   est     se
   <chr>    <dbl> <dbl> <dbl>  <dbl>
 1 mu         0     0.1 0.159 0.0108
 2 mu         0     0.2 0.219 0.0128
 3 mu         0     0.3 0.271 0.0134
 4 mu         0     0.4 0.319 0.0140
 5 mu         0     0.5 0.362 0.0148
 6 mu         0.1   0.1 0.155 0.0107
 7 mu         0.1   0.2 0.214 0.0128
 8 mu         0.1   0.3 0.267 0.0134
 9 mu         0.1   0.4 0.315 0.0141
10 mu         0.1   0.5 0.356 0.0147
# ℹ 430 more rows
…
