…
`.groups` argument.
`summarise()` has grouped output by 'theta'. You can override using the
`.groups` argument.
`summarise()` has grouped output by 'theta', 'tau'. You can override using the
`.groups` argument.
`summarise()` has grouped output by 'theta'. You can override using the
`.groups` argument.
`summarise()` has grouped output by 'theta', 'tau'. You can override using the
`.groups` argument.
`summarise()` has grouped output by 'theta'. You can override using the
`.groups` argument.
[1] ""
[1] "Total run time was 3526.838 seconds"
[1] "Estimation result: "
# A tibble: 440 × 5
   estimand theta   tau   est     se
   <chr>    <dbl> <dbl> <dbl>  <dbl>
 1 mu         0     0.1 0.163 0.0116
 2 mu         0     0.2 0.221 0.0133
 3 mu         0     0.3 0.269 0.0142
 4 mu         0     0.4 0.319 0.0149
 5 mu         0     0.5 0.355 0.0156
 6 mu         0.1   0.1 0.158 0.0112
 7 mu         0.1   0.2 0.217 0.0131
 8 mu         0.1   0.3 0.265 0.0140
 9 mu         0.1   0.4 0.314 0.0146
10 mu         0.1   0.5 0.350 0.0154
# ℹ 430 more rows
…
