…
`.groups` argument.
`summarise()` has grouped output by 'theta'. You can override using the
`.groups` argument.
`summarise()` has grouped output by 'theta', 'tau'. You can override using the
`.groups` argument.
`summarise()` has grouped output by 'theta'. You can override using the
`.groups` argument.
`summarise()` has grouped output by 'theta', 'tau'. You can override using the
`.groups` argument.
`summarise()` has grouped output by 'theta'. You can override using the
`.groups` argument.
[1] ""
[1] "Total run time was 485.815 seconds"
[1] "Estimation result: "
# A tibble: 48,400 × 5
   estimand theta   tau      est        se
   <chr>    <dbl> <int>    <dbl>     <dbl>
 1 mu         0.3    10 0        0        
 2 mu         0.3    20 0        0        
 3 mu         0.3    30 0        0        
 4 mu         0.3    40 0        0        
 5 mu         0.3    50 0.000108 0.0000862
 6 mu         0.3    60 0.000395 0.000313 
 7 mu         0.3    70 0.00141  0.00101  
 8 mu         0.3    80 0.00141  0.00101  
 9 mu         0.3    90 0.00141  0.00101  
10 mu         0.3   100 0.00141  0.00101  
# ℹ 48,390 more rows
…
